{
  "type": "Feature",
  "geometry": {
    "type": "LineString",
    "coordinates": [
      [
        -122.43845215370283,
        37.73163528010766
      ],
      [
        -122.43930022958193,
        37.73163313622334
      ],
      [
        -122.4397784348317,
        37.731631505697244
      ],
      [
        -122.44166147329717,
        37.731616399873744
      ],
      [
        -122.4425048277956,
        37.73158696065242
      ],
      [
        -122.44461771488315,
        37.731588998370405
      ],
      [
        -122.44629707621519,
        37.731583873721945
      ],
      [
        -122.44777048404781,
        37.73160222330712
      ],
      [
        -122.44879779417295,
        37.73162000816104
      ],
      [
        -122.448779437805,
        37.73160337008324
      ],
      [
        -122.44885129888935,
        37.73160567725819
      ]
    ]
  },
  "properties": {}
}