{
  "type": "Feature",
  "geometry": {
    "type": "LineString",
    "coordinates": [
      [
        -122.51933117267971,
        37.96804939750556
      ],
      [
        -122.5201319655769,
        37.968633522558456
      ],
      [
        -122.52016372176233,
        37.96866021747142
      ],
      [
        -122.52086367990091,
        37.96933570066521
      ],
      [
        -122.521291114504,
        37.97010405458321
      ],
      [
        -122.5212852043541,
        37.9701121495847
      ],
      [
        -122.5210839398069,
        37.970978941263105
      ],
      [
        -122.5215159381412,
        37.971343434224856
      ],
      [
        -122.52271059277001,
        37.971503923612225
      ],
      [
        -122.52386650294514,
        37.971671046011664
      ],
      [
        -122.52547399817264,
        37.971891199745095
      ],
      [
        -122.52675459073568,
        37.97204958553308
      ],
      [
        -122.52824104399438,
        37.972194878590116
      ],
      [
        -122.52824163891657,
        37.972194935038445
      ],
      [
        -122.5283472257229,
        37.972200401258306
      ],
      [
        -122.51907235518411,
        37.96743277554743
      ],
      [
        -122.51590658115724,
        37.96562113522696
      ],
      [
        -122.51220035225865,
        37.96354724450547
      ],
      [
        -122.5097612625634,
        37.96055182623584
      ],
      [
        -122.5090954423022,
        37.95699365382067
      ],
      [
        -122.50893530633941,
        37.95303408330502
      ],
      [
        -122.51181871196682,
        37.95011662933511
      ],
      [
        -122.5140490756666,
        37.94662129370261
      ],
      [
        -122.5153922038741,
        37.94334909188115
      ],
      [
        -122.51614204852169,
        37.940468770606465
      ],
      [
        -122.51687881707443,
        37.93764342094412
      ],
      [
        -122.51678274247443,
        37.93479264927789
      ],
      [
        -122.51625905412672,
        37.93198331911482
      ],
      [
        -122.5157574684446,
        37.928973165489744
      ],
      [
        -122.51594231086884,
        37.92637876383036
      ],
      [
        -122.51616221596059,
        37.92548167055513
      ]
    ]
  },
  "properties": {}
}