{
  "type": "Feature",
  "geometry": {
    "type": "LineString",
    "coordinates": [
      [
        -122.22972703418148,
        38.098616948550315
      ],
      [
        -122.22969004468295,
        38.10238255672797
      ],
      [
        -122.22963547031479,
        38.10630447031363
      ],
      [
        -122.22961196246128,
        38.1103850770154
      ],
      [
        -122.22985487308817,
        38.1139595850069
      ],
      [
        -122.23015224207622,
        38.11806844616243
      ],
      [
        -122.2301016516257,
        38.12227608247646
      ],
      [
        -122.228223674078,
        38.12627914808017
      ],
      [
        -122.22571152559495,
        38.13013134302069
      ],
      [
        -122.22302713527915,
        38.13434754651339
      ],
      [
        -122.22044849333167,
        38.13839732362186
      ],
      [
        -122.21800214993044,
        38.14222229285898
      ],
      [
        -122.21666064059605,
        38.14596392360614
      ],
      [
        -122.21668759356784,
        38.1503078287654
      ],
      [
        -122.21511815947125,
        38.1544015674071
      ],
      [
        -122.2123596952787,
        38.15828335727472
      ],
      [
        -122.20945458764129,
        38.16237918348327
      ],
      [
        -122.20558209760343,
        38.16556307119349
      ],
      [
        -122.20169448349984,
        38.16814255731248
      ],
      [
        -122.19785025731284,
        38.170804349398225
      ],
      [
        -122.19387623697878,
        38.1736514169732
      ],
      [
        -122.1908014712087,
        38.17703880290986
      ],
      [
        -122.18724347417158,
        38.179885496918345
      ],
      [
        -122.18336178644599,
        38.18275948628189
      ],
      [
        -122.17929392056915,
        38.18556388357442
      ],
      [
        -122.17425816098294,
        38.187079886854065
      ],
      [
        -122.16976678479435,
        38.18962147921366
      ],
      [
        -122.16683329892712,
        38.192852399062936
      ],
      [
        -122.16376877229982,
        38.1960978083367
      ],
      [
        -122.16042350034382,
        38.19906532978878
      ],
      [
        -122.15699801519843,
        38.20203468429712
      ],
      [
        -122.1531693608796,
        38.20543596425847
      ],
      [
        -122.14891901044996,
        38.20900396051857
      ],
      [
        -122.14469909547951,
        38.21194904457838
      ],
      [
        -122.14042506171191,
        38.214892264478166
      ],
      [
        -122.13629293524477,
        38.217774895455804
      ],
      [
        -122.13224980040766,
        38.220545540916916
      ],
      [
        -122.12820817476783,
        38.223299158216285
      ],
      [
        -122.1235573615198,
        38.226033884306894
      ],
      [
        -122.11867927023967,
        38.22846581250485
      ],
      [
        -122.11350828681059,
        38.23072160595146
      ],
      [
        -122.10839526200705,
        38.23291840278316
      ],
      [
        -122.10307200824813,
        38.23520248448095
      ],
      [
        -122.09770184493209,
        38.237566589721155
      ],
      [
        -122.09210046094458,
        38.24001136566736
      ],
      [
        -122.08669258197094,
        38.242378470284535
      ],
      [
        -122.08152028255864,
        38.24465746440802
      ],
      [
        -122.07617116527389,
        38.246869862316764
      ],
      [
        -122.07070388769755,
        38.24895147065808
      ],
      [
        -122.06746216160445,
        38.25238213492456
      ],
      [
        -122.06436285977745,
        38.25601255214711
      ],
      [
        -122.06120378955853,
        38.259739388993296
      ],
      [
        -122.05789591723202,
        38.26366407767379
      ],
      [
        -122.05468208122176,
        38.267465388306064
      ],
      [
        -122.0514109359207,
        38.271304313143396
      ],
      [
        -122.04818367925226,
        38.2751209623813
      ],
      [
        -122.04499938070514,
        38.278888946381315
      ],
      [
        -122.04154543262915,
        38.2829145088198
      ],
      [
        -122.0380642071645,
        38.2869994340273
      ],
      [
        -122.03491948972146,
        38.29084804396839
      ],
      [
        -122.03393828286457,
        38.29534558951676
      ],
      [
        -122.03383400768499,
        38.299953376971686
      ],
      [
        -122.03378432330007,
        38.30452639861555
      ],
      [
        -122.03341726053294,
        38.30907628586328
      ],
      [
        -122.03260143536359,
        38.31355016517247
      ],
      [
        -122.03008140564053,
        38.317630614355544
      ],
      [
        -122.02687176681948,
        38.321223491446354
      ],
      [
        -122.02389031093867,
        38.325225422699006
      ],
      [
        -122.02130608667336,
        38.329277975980794
      ],
      [
        -122.01852187775451,
        38.333634728367315
      ],
      [
        -122.01540001458822,
        38.33825050476363
      ],
      [
        -122.01068651083646,
        38.3415742628029
      ],
      [
        -122.00529929135703,
        38.34325030876917
      ],
      [
        -122.00030665648319,
        38.34508757049852
      ],
      [
        -121.99505410568491,
        38.34714013080878
      ],
      [
        -121.98998676506646,
        38.34910786408479
      ],
      [
        -121.98480220287476,
        38.35113468475905
      ],
      [
        -121.97965488743051,
        38.35343868269633
      ],
      [
        -121.97567501709887,
        38.35698143236769
      ],
      [
        -121.97126237080047,
        38.36028488737787
      ],
      [
        -121.9666348472568,
        38.36316196087713
      ],
      [
        -121.96194373836147,
        38.36638163708257
      ],
      [
        -121.9572196487481,
        38.369990702828765
      ],
      [
        -121.95285103686065,
        38.373550767170656
      ],
      [
        -121.94835394458458,
        38.37698565777789
      ],
      [
        -121.94400797533602,
        38.380330598317435
      ],
      [
        -121.93987399910583,
        38.38345716230399
      ],
      [
        -121.9358316973521,
        38.386558578129325
      ],
      [
        -121.93184715098793,
        38.389676079586295
      ],
      [
        -121.92772431768165,
        38.39286467675506
      ],
      [
        -121.92366548316612,
        38.39605075154094
      ],
      [
        -121.91944869722693,
        38.399333394561026
      ],
      [
        -121.91545379339628,
        38.402456094242
      ],
      [
        -121.91125138800469,
        38.40565054177547
      ],
      [
        -121.90700294506765,
        38.40887669686151
      ],
      [
        -121.90286769290593,
        38.41201835253768
      ],
      [
        -121.898630160749,
        38.415258828234705
      ],
      [
        -121.89447084483045,
        38.41842100774331
      ],
      [
        -121.89025377471611,
        38.42162728919414
      ],
      [
        -121.88599870092631,
        38.42487094548379
      ],
      [
        -121.88183020787991,
        38.428043301061926
      ],
      [
        -121.87769778623816,
        38.43117284056226
      ],
      [
        -121.87355108687117,
        38.43434010696579
      ],
      [
        -121.86945380472031,
        38.43746064854994
      ],
      [
        -121.86535256539045,
        38.440621393392796
      ],
      [
        -121.86141822668118,
        38.44368615983917
      ],
      [
        -121.85735978700507,
        38.44682504392237
      ],
      [
        -121.85322806058018,
        38.45005835937894
      ],
      [
        -121.84914448487886,
        38.45321072154823
      ],
      [
        -121.84515621183625,
        38.45630265174687
      ],
      [
        -121.8410197209112,
        38.45954838565457
      ],
      [
        -121.836814225637,
        38.462819162997974
      ],
      [
        -121.83278136982939,
        38.46596525541136
      ],
      [
        -121.82869160329106,
        38.46911970234201
      ],
      [
        -121.82453110986239,
        38.47239912219082
      ],
      [
        -121.82067341029314,
        38.47539016694208
      ],
      [
        -121.81678256096426,
        38.47845918567798
      ],
      [
        -121.81251245863851,
        38.481842392434366
      ],
      [
        -121.8082333493396,
        38.485202972905306
      ],
      [
        -121.80384425606645,
        38.48865922291788
      ],
      [
        -121.7997568427847,
        38.49208326461339
      ],
      [
        -121.79597050868757,
        38.495576444222685
      ],
      [
        -121.7923653958416,
        38.498917999925744
      ],
      [
        -121.7886005517877,
        38.50238576941593
      ],
      [
        -121.7847306996164,
        38.50599694953951
      ],
      [
        -121.78108594659659,
        38.50939866285617
      ],
      [
        -121.77745032261606,
        38.5127755554106
      ],
      [
        -121.77359717289308,
        38.516140383793136
      ],
      [
        -121.76963429751801,
        38.51936468416245
      ],
      [
        -121.76876056932419,
        38.52355988647845
      ],
      [
        -121.76862308816192,
        38.528203436438986
      ],
      [
        -121.76844563877198,
        38.5327403129759
      ],
      [
        -121.76833314833742,
        38.53693801188809
      ],
      [
        -121.76813177118837,
        38.54156926673588
      ],
      [
        -122.45847714430157,
        37.732504430538874
      ],
      [
        -122.45720890062061,
        37.73223276318021
      ],
      [
        -122.45594065693965,
        37.73196109582154
      ],
      [
        -122.45467241325868,
        37.73168942846287
      ],
      [
        -122.45341027054347,
        37.731472744017616
      ],
      [
        -122.45153701681161,
        37.73148196281478
      ],
      [
        -122.44966376307977,
        37.73149118161195
      ],
      [
        -122.44779050934793,
        37.73150040040912
      ],
      [
        -122.44593161223342,
        37.731510258898936
      ],
      [
        -122.44411332238708,
        37.73152192674052
      ],
      [
        -122.44229503254074,
        37.7315335945821
      ],
      [
        -122.44047674269441,
        37.73154526242369
      ],
      [
        -122.43813086694361,
        37.73154213895243
      ],
      [
        -122.43470033686332,
        37.7315086062883
      ],
      [
        -122.431269806783,
        37.731475073624175
      ],
      [
        -122.4278392767027,
        37.73144154096005
      ],
      [
        -122.42398468002348,
        37.73181226066114
      ],
      [
        -122.41948022373231,
        37.732802475710024
      ],
      [
        -122.41497576744113,
        37.73379269075891
      ],
      [
        -122.41047131114996,
        37.7347829058078
      ],
      [
        -122.46298996600676,
        37.73060105142736
      ],
      [
        -122.46380708427216,
        37.73148922893732
      ],
      [
        -122.46462420253756,
        37.732377406447284
      ],
      [
        -122.46544132080298,
        37.73326558395724
      ],
      [
        -122.46613388201375,
        37.73415935133759
      ],
      [
        -122.40028113333334,
        37.778335166666665
      ],
      [
        -122.40028888333333,
        37.778357916666664
      ],
      [
        -122.40030318333334,
        37.778422533333334
      ],
      [
        -122.40032966666666,
        37.77852596666666
      ],
      [
        -122.40033486666667,
        37.77856191666667
      ],
      [
        -122.40034716031354,
        37.7787150860354
      ],
      [
        -122.40029939237284,
        37.77889276476089
      ],
      [
        -122.40019174562578,
        37.77904378150468
      ],
      [
        -122.40014686666666,
        37.77909316666667
      ],
      [
        -122.3999357749927,
        37.779269237460795
      ],
      [
        -122.3996575405577,
        37.77949032386504
      ],
      [
        -122.3993627,
        37.77972033333333
      ],
      [
        -122.39915816905413,
        37.77989902418087
      ],
      [
        -122.39896064588783,
        37.780069625140776
      ],
      [
        -122.39872971342047,
        37.78024696227246
      ],
      [
        -122.39822850976643,
        37.78064830480118
      ],
      [
        -122.39792167290307,
        37.78089317312713
      ],
      [
        -122.39771092157164,
        37.7810604635847
      ],
      [
        -122.39739498274368,
        37.78131666663644
      ],
      [
        -122.39686336515334,
        37.78174443152209
      ],
      [
        -122.39613992836722,
        37.782316357150606
      ],
      [
        -122.3955760991468,
        37.78279767826756
      ],
      [
        -122.39490115533236,
        37.78331381970238
      ],
      [
        -122.39464906751505,
        37.78347819879461
      ],
      [
        -122.39415720624699,
        37.783764651157576
      ],
      [
        -122.39326729590177,
        37.784409689568236
      ],
      [
        -122.39212057824852,
        37.78520928981224
      ],
      [
        -122.39147784714633,
        37.785671820941694
      ],
      [
        -122.39046161923818,
        37.78656029375422
      ],
      [
        -122.38876764157271,
        37.78803753160853
      ],
      [
        -122.3873692857663,
        37.78930136034738
      ],
      [
        -122.38590277128576,
        37.79063040406789
      ],
      [
        -122.38429033834423,
        37.79206477925911
      ],
      [
        -122.3828533073141,
        37.79352091306171
      ],
      [
        -122.38091590959606,
        37.795387924715385
      ],
      [
        -122.37914869943441,
        37.79709776190448
      ],
      [
        -122.37718093579375,
        37.798927922103985
      ],
      [
        -122.37500638968106,
        37.80091147757957
      ],
      [
        -122.37241376641786,
        37.803393952620894
      ],
      [
        -122.36994335181643,
        37.80563734426767
      ],
      [
        -122.36772963441986,
        37.80767178346955
      ],
      [
        -122.36532294188756,
        37.809831935611236
      ],
      [
        -122.36290223754425,
        37.81196996561639
      ],
      [
        -122.36014240116691,
        37.8140901846226
      ],
      [
        -122.35769247813342,
        37.81549591379019
      ],
      [
        -122.35524590111054,
        37.81690925308736
      ],
      [
        -122.35294482514294,
        37.81806639103848
      ],
      [
        -122.35177056038016,
        37.81843101648666
      ],
      [
        -122.3501724421077,
        37.81876868909684
      ],
      [
        -122.34811838484063,
        37.81907679309902
      ],
      [
        -122.3452792287702,
        37.8194877831807
      ],
      [
        -122.34172986819722,
        37.82000360841781
      ],
      [
        -122.33766191262144,
        37.82060675004637
      ],
      [
        -122.33342927339164,
        37.82122355656575
      ],
      [
        -122.32928782746737,
        37.82171032025862
      ],
      [
        -122.3248453039862,
        37.82206701540853
      ],
      [
        -122.32051387959827,
        37.8226744394734
      ],
      [
        -122.31592390155991,
        37.8234863362901
      ],
      [
        -122.31157868975735,
        37.82425375156756
      ],
      [
        -122.30740212177645,
        37.824774833442966
      ],
      [
        -122.30320574644134,
        37.8255703705389
      ],
      [
        -122.29841115419956,
        37.8266183689573
      ],
      [
        -122.29428820088859,
        37.82814506989142
      ],
      [
        -122.29360509358985,
        37.831344850991265
      ],
      [
        -122.29506893177656,
        37.83463290757035
      ],
      [
        -122.29653177968721,
        37.83791373589091
      ],
      [
        -122.29720285490504,
        37.84146174445339
      ],
      [
        -122.29796645607836,
        37.84490665718203
      ],
      [
        -122.29878433904801,
        37.848551971881044
      ],
      [
        -122.29953463611945,
        37.85167978139878
      ],
      [
        -122.30044431571986,
        37.85500544548243
      ],
      [
        -122.30142000630461,
        37.85850147086263
      ],
      [
        -122.30245087161116,
        37.86222561833843
      ],
      [
        -122.3034593999524,
        37.86580194881742
      ],
      [
        -122.30467604820012,
        37.86978654112607
      ],
      [
        -122.30579955566803,
        37.87344077953638
      ],
      [
        -122.30703035485945,
        37.87738728680276
      ],
      [
        -122.3079301681337,
        37.88112128796169
      ],
      [
        -122.3088042853361,
        37.88508376779707
      ],
      [
        -122.30869135214267,
        37.88886458318648
      ],
      [
        -122.30737582200895,
        37.892520665033246
      ],
      [
        -122.3086152699747,
        37.8963785020855
      ],
      [
        -122.3104793469663,
        37.90045977569779
      ],
      [
        -122.31288806432747,
        37.903989120467806
      ],
      [
        -122.31556084356912,
        37.90786679980529
      ],
      [
        -122.31740681298683,
        37.91195093524011
      ],
      [
        -122.31740580410201,
        37.915852093620515
      ],
      [
        -122.31747800788082,
        37.919654593701246
      ],
      [
        -122.31927131145575,
        37.923256149151534
      ],
      [
        -122.32160986518569,
        37.926682570711286
      ],
      [
        -122.32415948507261,
        37.9301259508976
      ],
      [
        -122.32669307472791,
        37.933858972612974
      ],
      [
        -122.32574808811474,
        37.937990195710086
      ],
      [
        -122.3239048419733,
        37.94172708525889
      ],
      [
        -122.32464457848731,
        37.94575179001355
      ],
      [
        -122.3265773302162,
        37.94978175106283
      ],
      [
        -122.32834096577906,
        37.953380778481105
      ],
      [
        -122.33040770999693,
        37.95703035997831
      ],
      [
        -122.33001171739816,
        37.961140170444196
      ],
      [
        -122.32604919125875,
        37.96417729357877
      ],
      [
        -122.32187400796388,
        37.96680666391137
      ],
      [
        -122.32033637240598,
        37.97041966394585
      ],
      [
        -122.31915152721041,
        37.97392472480155
      ],
      [
        -122.3178905606794,
        37.97770218818345
      ],
      [
        -122.31656822671586,
        37.98164535402863
      ],
      [
        -122.3150081428019,
        37.98579527083435
      ],
      [
        -122.3120819203099,
        37.9894420143381
      ],
      [
        -122.30779477719881,
        37.99199713202855
      ],
      [
        -122.30244207391887,
        37.993293474334756
      ],
      [
        -122.29659011068385,
        37.99409374142811
      ],
      [
        -122.29092560117725,
        37.99489656891496
      ],
      [
        -122.28613726819029,
        37.99708517045498
      ],
      [
        -122.28284953769374,
        38.00043753365469
      ],
      [
        -122.2796799182809,
        38.003870619608854
      ],
      [
        -122.27662643569298,
        38.00719421028239
      ],
      [
        -122.27309056356722,
        38.01097434183307
      ],
      [
        -122.26969810767002,
        38.01464707823582
      ],
      [
        -122.26636225788712,
        38.018187276304225
      ],
      [
        -122.26280270316957,
        38.022065448442675
      ],
      [
        -122.25928468672357,
        38.02581184489321
      ],
      [
        -122.256355533314,
        38.028966550730786
      ],
      [
        -122.25336762291695,
        38.03218668260081
      ],
      [
        -122.25004448198354,
        38.035778139468434
      ],
      [
        -122.24645158982788,
        38.039260563218775
      ],
      [
        -122.24249707614338,
        38.04204484188865
      ],
      [
        -122.23842833780593,
        38.04489400808969
      ],
      [
        -122.234665249943,
        38.04753830612556
      ],
      [
        -122.23105392904361,
        38.050016029315394
      ],
      [
        -122.22745730555573,
        38.05255639490355
      ],
      [
        -122.2247237917172,
        38.0556844730646
      ],
      [
        -122.22501620568876,
        38.05941588425125
      ],
      [
        -122.22532563974784,
        38.06311880099479
      ],
      [
        -122.22564604320443,
        38.06652754223422
      ],
      [
        -122.22638296049749,
        38.06879508514053
      ],
      [
        -122.22644745,
        38.068925166666666
      ],
      [
        -122.22646355,
        38.068979883333334
      ],
      [
        -122.22693741135798,
        38.06986594542755
      ],
      [
        -122.22892043897784,
        38.07238165551102
      ],
      [
        -122.23170795949345,
        38.076022496104784
      ],
      [
        -122.23325969628341,
        38.0806022423373
      ],
      [
        -122.2328673009799,
        38.08536265763262
      ],
      [
        -122.23110815313987,
        38.08970304415734
      ],
      [
        -122.2299234469877,
        38.093914103408444
      ],
      [
        -122.22973461081976,
        38.09768468935826
      ],
      [
        -122.22968357500976,
        38.10158468646961
      ],
      [
        -122.229635785047,
        38.105631744098574
      ],
      [
        -122.22959635961234,
        38.10989219603236
      ],
      [
        -122.22984752075776,
        38.11421814026234
      ],
      [
        -122.2301783657569,
        38.11849709446683
      ],
      [
        -122.22994010179644,
        38.122879961066914
      ],
      [
        -122.22774075305001,
        38.127023962384335
      ],
      [
        -122.22520232743456,
        38.130992011154035
      ],
      [
        -122.22269821788362,
        38.13490361622268
      ],
      [
        -122.21995701603498,
        38.13909826622097
      ],
      [
        -122.21747001471893,
        38.143013036788986
      ],
      [
        -122.21664523681855,
        38.147236928644475
      ],
      [
        -122.21656448951627,
        38.151361033815824
      ],
      [
        -122.21429560336658,
        38.15557131554431
      ],
      [
        -122.21146685147912,
        38.159558058215026
      ],
      [
        -122.2081835452656,
        38.16370255237705
      ],
      [
        -122.20401783305054,
        38.166552975768624
      ],
      [
        -122.19971455070089,
        38.16952593996734
      ],
      [
        -122.1952858665211,
        38.1725795323737
      ],
      [
        -122.19167208351395,
        38.17602019388387
      ],
      [
        -122.18796685206233,
        38.17946779813219
      ],
      [
        -122.18343464792999,
        38.18273555589789
      ],
      [
        -122.17878686868401,
        38.18578206497041
      ],
      [
        -122.17298277757499,
        38.18759213378972
      ],
      [
        -122.16844670963432,
        38.1909732785055
      ],
      [
        -122.16510109908694,
        38.19484893521111
      ],
      [
        -122.16121461420418,
        38.19839352826937
      ],
      [
        -122.15707424227011,
        38.20201197509515
      ],
      [
        -122.15289723058955,
        38.20565122807287
      ],
      [
        -122.14864326701802,
        38.209159923699836
      ],
      [
        -122.14424650606209,
        38.21213058923151
      ],
      [
        -122.14007861531812,
        38.21501321784561
      ],
      [
        -122.13644730668688,
        38.21747547313332
      ],
      [
        -122.13231025829953,
        38.22031662028059
      ],
      [
        -122.12851804510083,
        38.22296824535626
      ],
      [
        -122.1245000654697,
        38.225455475437954
      ],
      [
        -122.12029680687864,
        38.2276512332758
      ],
      [
        -122.11571077596288,
        38.22968790390181
      ],
      [
        -122.1111177953194,
        38.23164864868182
      ],
      [
        -122.10620681212012,
        38.23370417056144
      ],
      [
        -122.10120455398184,
        38.235866961579376
      ],
      [
        -122.09620435716938,
        38.23804966167397
      ],
      [
        -122.09138550925711,
        38.24016998949556
      ],
      [
        -122.0867931512032,
        38.242175498638055
      ],
      [
        -122.08218102822177,
        38.24419082621829
      ],
      [
        -122.07785481430636,
        38.24607691704502
      ],
      [
        -122.07315283164421,
        38.247536047508156
      ],
      [
        -122.06918415601451,
        38.25004103006987
      ],
      [
        -122.06642503185324,
        38.253326171473624
      ],
      [
        -122.0636752602123,
        38.25644185751376
      ],
      [
        -122.06167427214963,
        38.25879837756176
      ]
    ]
  },
  "properties": {}
}