{
  "type": "Feature",
  "geometry": {
    "type": "LineString",
    "coordinates": [
      [
        -122.49616500545761,
        37.95115965041724
      ],
      [
        -122.49307156958876,
        37.94820942471541
      ],
      [
        -122.49006320213248,
        37.9455615992438
      ],
      [
        -122.48625569348921,
        37.944792611054595
      ],
      [
        -122.4819502789921,
        37.94430301443931
      ],
      [
        -122.47811736128541,
        37.942582337549155
      ],
      [
        -122.47347166567586,
        37.94176650831718
      ],
      [
        -122.46864242741275,
        37.940644300385486
      ],
      [
        -122.46453514315661,
        37.93963379324437
      ],
      [
        -122.46104025417972,
        37.93855698955783
      ],
      [
        -122.45770523493987,
        37.937524821610985
      ],
      [
        -122.45366600270214,
        37.936298278808344
      ],
      [
        -122.44943616193613,
        37.935487132888845
      ],
      [
        -122.44500698765263,
        37.93526191470274
      ],
      [
        -122.44060489280942,
        37.93489995706376
      ],
      [
        -122.43591660094728,
        37.93457519088012
      ],
      [
        -122.43144864574745,
        37.934393077050544
      ],
      [
        -122.42703683754016,
        37.93403692968436
      ],
      [
        -122.42272199981646,
        37.93370480684401
      ],
      [
        -122.41817356084279,
        37.93337754362977
      ],
      [
        -122.41377528178984,
        37.933104687320615
      ],
      [
        -122.40907575215456,
        37.932757421799245
      ],
      [
        -122.40476520266101,
        37.93224697073734
      ],
      [
        -122.40095872733234,
        37.93188264305828
      ],
      [
        -122.39746199984455,
        37.93245901147217
      ],
      [
        -122.39390775252805,
        37.93217398127337
      ],
      [
        -122.38970184373794,
        37.93028892395587
      ],
      [
        -122.38488348251528,
        37.92858816725097
      ],
      [
        -122.37973176653499,
        37.92720584108805
      ],
      [
        -122.3742390790485,
        37.92704873010011
      ],
      [
        -122.36908693883741,
        37.927028353566335
      ],
      [
        -122.3644179877459,
        37.92598572185109
      ],
      [
        -122.36063282541198,
        37.923809877998195
      ],
      [
        -122.35632198137759,
        37.92194366879599
      ],
      [
        -122.35165522536217,
        37.92160476497497
      ],
      [
        -122.34686670039507,
        37.9216969868412
      ],
      [
        -122.34218145033836,
        37.92151230825615
      ],
      [
        -122.33761265524168,
        37.9213208920887
      ],
      [
        -122.33363915915106,
        37.92034101854577
      ],
      [
        -122.33024001086356,
        37.91819189020325
      ],
      [
        -122.32705842293817,
        37.91544447372636
      ],
      [
        -122.32522303658104,
        37.91301889293619
      ],
      [
        -122.32655323818423,
        37.91191504067172
      ],
      [
        -122.3263387680416,
        37.910996251986404
      ],
      [
        -122.32413064203193,
        37.91185735475488
      ],
      [
        -122.32345546976586,
        37.913403604036006
      ],
      [
        -122.32258463231175,
        37.91361818362796
      ],
      [
        -122.32011008229102,
        37.912385440673944
      ],
      [
        -122.31875727438481,
        37.91166284039642
      ],
      [
        -122.31733150827345,
        37.910896667827465
      ],
      [
        -122.31709447228388,
        37.91190937706968
      ],
      [
        -122.31728025361318,
        37.914824698887
      ],
      [
        -122.31728986917133,
        37.918121871542894
      ],
      [
        -122.31811420901077,
        37.921732834224336
      ],
      [
        -122.32018963836944,
        37.9248679915605
      ],
      [
        -122.32229937438031,
        37.927883080966815
      ],
      [
        -122.32467102328089,
        37.93106280173928
      ],
      [
        -122.32653831768721,
        37.93387274023346
      ],
      [
        -122.32610992552327,
        37.93702906203018
      ],
      [
        -122.32443559331689,
        37.94026519867772
      ],
      [
        -122.32361390535473,
        37.94346834556834
      ],
      [
        -122.32470210098974,
        37.94616809344645
      ],
      [
        -122.32590161915586,
        37.94868538497782
      ],
      [
        -122.32701910462325,
        37.95101505157849
      ],
      [
        -122.32804758191874,
        37.95314812527156
      ],
      [
        -122.32960517569238,
        37.955741349696204
      ],
      [
        -122.33055913412878,
        37.95902239026977
      ],
      [
        -122.32883402222701,
        37.96235753373062
      ],
      [
        -122.32529783738639,
        37.96447645622534
      ],
      [
        -122.32224341359633,
        37.96631791907385
      ],
      [
        -122.3207552129354,
        37.96878009951891
      ],
      [
        -122.31993389589489,
        37.971248458339
      ],
      [
        -122.31889812560742,
        37.97447253619364
      ],
      [
        -122.31771699980622,
        37.97797398077869
      ],
      [
        -122.31652596496141,
        37.981534721236386
      ],
      [
        -122.3152477614509,
        37.98518920146356
      ],
      [
        -122.31298275556976,
        37.9884375647513
      ],
      [
        -122.30977507529455,
        37.990924584155906
      ],
      [
        -122.30575725839526,
        37.992601745235255
      ],
      [
        -122.30098536415883,
        37.99342735810043
      ],
      [
        -122.29628447926103,
        37.99407890746554
      ],
      [
        -122.29156971524765,
        37.99471021785346
      ],
      [
        -122.28712469614428,
        37.99631769028749
      ],
      [
        -122.28403407923057,
        37.99907256982125
      ],
      [
        -122.28140585412494,
        38.001911266072916
      ],
      [
        -122.27889167962431,
        38.00462474180081
      ],
      [
        -122.27627934532687,
        38.00744828582284
      ],
      [
        -122.27370557637164,
        38.01018431253964
      ],
      [
        -122.27129396578016,
        38.01280265998081
      ],
      [
        -122.26885937355628,
        38.015460658190165
      ],
      [
        -122.26654086366065,
        38.01787681215224
      ],
      [
        -122.2641034367867,
        38.020490091373844
      ],
      [
        -122.26174067692372,
        38.023048929498366
      ],
      [
        -122.25952574830852,
        38.0254516707106
      ],
      [
        -122.25736174163117,
        38.027768270088785
      ],
      [
        -122.2553235516003,
        38.029940002839126
      ],
      [
        -122.25322446723996,
        38.03222446372476
      ],
      [
        -122.25104778726583,
        38.03458182408589
      ],
      [
        -122.24868280073365,
        38.037132078791714
      ],
      [
        -122.24603438282557,
        38.03947305684618
      ],
      [
        -122.24312311981323,
        38.04155104601305
      ],
      [
        -122.24018720826005,
        38.04361651767637
      ],
      [
        -122.23723276613461,
        38.045663265153145
      ],
      [
        -122.23438805817598,
        38.0476737121477
      ],
      [
        -122.23110991225758,
        38.04996416601205
      ],
      [
        -122.22782230271814,
        38.05226193173348
      ],
      [
        -122.22515067748984,
        38.05441743596307
      ],
      [
        -122.22482037000908,
        38.05745217384769
      ],
      [
        -122.22508373193097,
        38.06049667271594
      ],
      [
        -122.22540241227753,
        38.063726720948424
      ],
      [
        -122.22568129186806,
        38.066896359280975
      ],
      [
        -122.22635793282834,
        38.06893145432952
      ],
      [
        -122.22680054298215,
        38.06977566556734
      ],
      [
        -122.22808093184733,
        38.07141045475657
      ],
      [
        -122.23002209166616,
        38.073799723696794
      ],
      [
        -122.23209885775661,
        38.07687347351108
      ],
      [
        -122.23321395112838,
        38.0806096995265
      ],
      [
        -122.23305416426895,
        38.0843749323048
      ],
      [
        -122.23190843915911,
        38.08764042135664
      ],
      [
        -122.23060833791538,
        38.09068752092388
      ],
      [
        -122.22992471359746,
        38.0937082971228
      ],
      [
        -122.22973731121986,
        38.096417332503655
      ],
      [
        -122.22969508486275,
        38.09910605983319
      ],
      [
        -122.2296709380403,
        38.10174765381934
      ],
      [
        -122.22963174829597,
        38.10442739274942
      ],
      [
        -122.22959358753862,
        38.10695452193022
      ],
      [
        -122.2295160397975,
        38.10990271689794
      ],
      [
        -122.22971215063937,
        38.113017684725364
      ],
      [
        -122.22995687798763,
        38.11612477598837
      ],
      [
        -122.2302215266839,
        38.11929880776099
      ],
      [
        -122.2299521835785,
        38.12272630131299
      ],
      [
        -122.22833915478394,
        38.12595865148509
      ],
      [
        -122.22650067751802,
        38.128890570897674
      ],
      [
        -122.22468858993678,
        38.13172002178206
      ],
      [
        -122.22276122859947,
        38.13469257293504
      ],
      [
        -122.22095583458992,
        38.137485492585746
      ],
      [
        -122.2191480297825,
        38.140266123790994
      ],
      [
        -122.2175244579459,
        38.142893396678865
      ],
      [
        -122.21662959617196,
        38.145979670958134
      ],
      [
        -122.21672588515753,
        38.14914950667767
      ],
      [
        -122.21618416574397,
        38.15230598568159
      ],
      [
        -122.21441997256437,
        38.15534355787379
      ],
      [
        -122.21234113767014,
        38.158284424685135
      ],
      [
        -122.2101387173917,
        38.161397175134866
      ],
      [
        -122.20765621204657,
        38.16412246105147
      ],
      [
        -122.20470379538871,
        38.16611485885296
      ],
      [
        -122.20158104956788,
        38.16821109706804
      ],
      [
        -122.19833253139561,
        38.170443896084514
      ],
      [
        -122.19477785491058,
        38.1729146084458
      ],
      [
        -122.19187627886006,
        38.17575593484715
      ],
      [
        -122.18939868592238,
        38.17837307649951
      ],
      [
        -122.1857103150845,
        38.18078213575651
      ],
      [
        -122.18249462551434,
        38.18354511688132
      ],
      [
        -122.17881830099091,
        38.18573501327548
      ],
      [
        -122.17455032674489,
        38.186967713553166
      ],
      [
        -122.1705785982618,
        38.18900691297368
      ],
      [
        -122.16776990719055,
        38.19173320928025
      ],
      [
        -122.16539193123201,
        38.19445619903247
      ],
      [
        -122.16278230596085,
        38.1969463052911
      ],
      [
        -122.16004273087869,
        38.199306258677126
      ],
      [
        -122.15743593291195,
        38.201597945807265
      ],
      [
        -122.15467519526504,
        38.203977242741495
      ],
      [
        -122.15182489457139,
        38.206464334259465
      ],
      [
        -122.14878162465723,
        38.20897538548241
      ],
      [
        -122.14560389920265,
        38.21117441863997
      ],
      [
        -122.14258559230663,
        38.213301024911
      ],
      [
        -122.13948522477145,
        38.21543183787307
      ],
      [
        -122.13616700268574,
        38.217746522736235
      ],
      [
        -122.13290490888102,
        38.220008759010796
      ],
      [
        -122.1295956124152,
        38.22231561207606
      ],
      [
        -122.12616127727021,
        38.22447865682642
      ],
      [
        -122.1224456141968,
        38.22653970259809
      ],
      [
        -122.11865559179824,
        38.228376053640105
      ],
      [
        -122.11488998634822,
        38.22999393394933
      ],
      [
        -122.11096874433528,
        38.231678450904475
      ],
      [
        -122.10648790515927,
        38.23363634441115
      ],
      [
        -122.10200073716697,
        38.235559369758455
      ],
      [
        -122.09807879503455,
        38.23729454931096
      ],
      [
        -122.094145314587,
        38.23901145510935
      ],
      [
        -122.09017294200517,
        38.240754884466696
      ],
      [
        -122.08591018412984,
        38.24260410415459
      ],
      [
        -122.08184907218259,
        38.244382125890084
      ],
      [
        -122.07765156328553,
        38.24619010875674
      ],
      [
        -122.07264289841677,
        38.247788537886656
      ],
      [
        -122.06887864619173,
        38.25050392539844
      ],
      [
        -122.06568928842235,
        38.25429181447099
      ],
      [
        -122.06239884044221,
        38.25808250380872
      ],
      [
        -122.05960925245041,
        38.261386134212614
      ],
      [
        -122.05685814357973,
        38.264683731615015
      ],
      [
        -122.05394856511015,
        38.26816607167916
      ],
      [
        -122.05097789529985,
        38.271593149606446
      ],
      [
        -122.04814513297542,
        38.27494915338083
      ],
      [
        -122.04532262246046,
        38.278315750851704
      ],
      [
        -122.04248172803159,
        38.281663698302516
      ],
      [
        -122.03952963246782,
        38.28508579854994
      ],
      [
        -122.03658601389057,
        38.28859369936419
      ],
      [
        -122.03426442686892,
        38.29200013753926
      ],
      [
        -122.03387274231098,
        38.29566903866265
      ],
      [
        -122.03377609764371,
        38.29930599000072
      ],
      [
        -122.03370894102754,
        38.302789552044246
      ],
      [
        -122.03365907609603,
        38.30638720055007
      ],
      [
        -122.03322466728046,
        38.30986839430442
      ],
      [
        -122.03257457666196,
        38.31346107606178
      ],
      [
        -122.03081126480406,
        38.31669573256253
      ],
      [
        -122.02817849012204,
        38.31963632849734
      ],
      [
        -122.02535900363084,
        38.322824511063146
      ],
      [
        -122.02311317503816,
        38.326214549787245
      ],
      [
        -122.02099412957953,
        38.32953046872416
      ],
      [
        -122.01892235721644,
        38.332742638489876
      ],
      [
        -122.01690617462381,
        38.3359208603283
      ],
      [
        -122.01444524656937,
        38.339062554530926
      ],
      [
        -122.01097730881084,
        38.34132388649999
      ],
      [
        -122.00683107933885,
        38.34270789422577
      ],
      [
        -122.00241710914666,
        38.344168211047155
      ],
      [
        -121.99839308906654,
        38.345744636951665
      ],
      [
        -121.99461539323265,
        38.347199485683326
      ],
      [
        -121.99071629055601,
        38.348723243550545
      ],
      [
        -121.98703066591828,
        38.350172879753266
      ],
      [
        -121.98476094734183,
        38.35105324339029
      ],
      [
        -121.9838540103181,
        38.351390246056326
      ],
      [
        -121.98345079697512,
        38.3515460913441
      ],
      [
        -121.98310359483561,
        38.35169414101633
      ],
      [
        -121.98249551643546,
        38.351921825898934
      ],
      [
        -121.9816572297724,
        38.35223657744774
      ],
      [
        -121.98100980811111,
        38.352541209497325
      ],
      [
        -121.98029166484943,
        38.352935426107194
      ],
      [
        -121.97896642465456,
        38.35390112002312
      ],
      [
        -121.97619548725979,
        38.356436044321335
      ],
      [
        -121.97292549953184,
        38.359243107362076
      ],
      [
        -121.96913066489053,
        38.36152504977118
      ],
      [
        -121.96501797558138,
        38.36404598707905
      ],
      [
        -121.96104416335048,
        38.36696899318749
      ],
      [
        -121.95686028221107,
        38.37021152628664
      ],
      [
        -121.95316179643228,
        38.37318441954514
      ],
      [
        -121.94947466216834,
        38.376023161111675
      ],
      [
        -121.94568829473978,
        38.37896525575854
      ],
      [
        -121.94195624063387,
        38.38180529943258
      ],
      [
        -121.93831810457208,
        38.38456146772505
      ],
      [
        -121.93472375416103,
        38.38728484205351
      ],
      [
        -121.93077093672589,
        38.390372200279145
      ],
      [
        -121.92670784530874,
        38.393579244000854
      ],
      [
        -121.92299158617172,
        38.39648701775302
      ],
      [
        -121.91907569146385,
        38.39956480581575
      ],
      [
        -121.9151203137084,
        38.40263214023133
      ],
      [
        -121.91110796869225,
        38.405653880821376
      ],
      [
        -121.9074028583302,
        38.40849453900642
      ],
      [
        -121.9036021735988,
        38.41139549479875
      ],
      [
        -121.89979026065073,
        38.414275330300796
      ],
      [
        -121.89588502109613,
        38.41727475747892
      ],
      [
        -121.89219033876934,
        38.420069051402386
      ],
      [
        -121.88850439231531,
        38.422878594012346
      ],
      [
        -121.8849368730481,
        38.42561673243636
      ],
      [
        -121.88140362300824,
        38.428277908368734
      ],
      [
        -121.87818849749071,
        38.43072685483985
      ],
      [
        -121.8750155001887,
        38.43313362816875
      ],
      [
        -121.87171683254864,
        38.43562576366023
      ],
      [
        -121.86861022682845,
        38.43801376397015
      ],
      [
        -121.86538184722569,
        38.44048082415607
      ],
      [
        -121.86224265232245,
        38.44294883941065
      ],
      [
        -121.85912089636679,
        38.445404742645444
      ],
      [
        -121.85595307898686,
        38.44784699295818
      ],
      [
        -121.85274091880672,
        38.450352681595625
      ],
      [
        -121.84951941781317,
        38.45282895275896
      ],
      [
        -121.84637331751118,
        38.455280263008426
      ],
      [
        -121.84323901507884,
        38.457701809135514
      ],
      [
        -121.84009332830638,
        38.46017932440082
      ],
      [
        -121.8370384854234,
        38.462527112403976
      ],
      [
        -121.83379327312353,
        38.465093023571775
      ],
      [
        -121.83055237089398,
        38.46757367079667
      ],
      [
        -121.8274686011,
        38.46996321182892
      ],
      [
        -121.82430241445871,
        38.47243654746145
      ],
      [
        -121.8211993311376,
        38.474884485165404
      ],
      [
        -121.81803437146529,
        38.47741266479869
      ],
      [
        -121.81477890301915,
        38.47998229016927
      ],
      [
        -121.81181708013331,
        38.48231054271719
      ],
      [
        -121.8087588931337,
        38.48475273585222
      ],
      [
        -121.80536419775788,
        38.48737303749118
      ],
      [
        -121.80225392874314,
        38.48983406860388
      ],
      [
        -121.79939543560745,
        38.492396261499906
      ],
      [
        -121.79656123387461,
        38.49505058696085
      ],
      [
        -121.79373015078887,
        38.497656568582784
      ],
      [
        -121.79074658029096,
        38.50042608363158
      ],
      [
        -121.78783081357862,
        38.50312595226087
      ],
      [
        -121.78495771949261,
        38.50586294098849
      ],
      [
        -121.78210637647193,
        38.50837865948678
      ],
      [
        -121.77923819829905,
        38.511134762997294
      ],
      [
        -121.77621622656102,
        38.513886703749996
      ],
      [
        -121.7730306545299,
        38.51653440403251
      ],
      [
        -121.76944579881585,
        38.51958852629832
      ],
      [
        -121.7687480952602,
        38.52367136399424
      ],
      [
        -121.76861365829437,
        38.528131993582406
      ],
      [
        -121.76846951729895,
        38.532672999147586
      ],
      [
        -121.76827688034193,
        38.53709894871181
      ],
      [
        -121.76814045976522,
        38.54180580414092
      ],
      [
        -121.76791998013107,
        38.5465268157641
      ],
      [
        -121.76774318651198,
        38.55087579641221
      ],
      [
        -121.76769290353234,
        38.55458005888099
      ],
      [
        -121.76753919549877,
        38.55808152600873
      ],
      [
        -121.7670806465066,
        38.560598072297495
      ],
      [
        -121.76557511218512,
        38.56082892101519
      ],
      [
        -121.76402916187106,
        38.560848543460914
      ],
      [
        -121.7640092970075,
        38.56083142109081
      ],
      [
        -121.76386114988523,
        38.56166659409223
      ],
      [
        -121.76256023534663,
        38.562168727264506
      ],
      [
        -121.76235641701385,
        38.562106509111345
      ],
      [
        -121.76227740039718,
        38.56202251048374
      ],
      [
        -121.76132808844983,
        38.56197868134376
      ],
      [
        -121.7614445711045,
        38.56143008452658
      ],
      [
        -121.76133703991427,
        38.56112976528735
      ],
      [
        -121.7612575181962,
        38.56120898391917
      ],
      [
        -121.7612575181962,
        38.56120898391917
      ],
      [
        -121.7612575181962,
        38.56120898391917
      ],
      [
        -121.7612388265522,
        38.56120504442468
      ],
      [
        -121.7612388265522,
        38.56120504442468
      ],
      [
        -121.7612388265522,
        38.56120504442468
      ],
      [
        -121.7612388265522,
        38.56120504442468
      ],
      [
        -122.06021747089598,
        38.26058916783702
      ],
      [
        -122.05775662843358,
        38.26357554837481
      ],
      [
        -122.055093036289,
        38.26672502060219
      ],
      [
        -122.05224560578989,
        38.27007947200151
      ],
      [
        -122.04932338283695,
        38.273504679496355
      ],
      [
        -122.04648580945708,
        38.27689103453683
      ],
      [
        -122.04372718268647,
        38.28013709190872
      ],
      [
        -122.04128264906208,
        38.28304389520961
      ],
      [
        -122.03880967683781,
        38.28596002300939
      ],
      [
        -122.03650622553916,
        38.288667210165926
      ],
      [
        -122.03438720206391,
        38.29158604534515
      ],
      [
        -122.03382658804514,
        38.295425981337225
      ],
      [
        -122.03375791186548,
        38.29949349430044
      ],
      [
        -122.03367176124524,
        38.30361655873306
      ],
      [
        -122.03356203741173,
        38.30779521603697
      ],
      [
        -122.03287816706313,
        38.312107221253584
      ],
      [
        -122.03134717522474,
        38.31603768136255
      ],
      [
        -122.02830711203698,
        38.319506099776014
      ],
      [
        -122.02530822054906,
        38.32288476073352
      ],
      [
        -122.02283591383433,
        38.326679938562656
      ],
      [
        -122.02055319021225,
        38.330283915403676
      ],
      [
        -122.01789854283349,
        38.3344400545039
      ],
      [
        -122.01512241063166,
        38.33843098001082
      ],
      [
        -122.01050304145704,
        38.34155524248669
      ],
      [
        -122.00506941568356,
        38.34321097119685
      ],
      [
        -122.00033232844117,
        38.344973752975406
      ],
      [
        -121.99542517573457,
        38.346880689567826
      ],
      [
        -121.99041506487212,
        38.34883032801946
      ],
      [
        -121.98549568335166,
        38.35073505121617
      ],
      [
        -121.98058106083182,
        38.35273968826337
      ],
      [
        -121.9766801105191,
        38.35590541703258
      ],
      [
        -121.97299964538338,
        38.35910834694906
      ],
      [
        -121.96877490272094,
        38.36167687259848
      ],
      [
        -121.96434652497042,
        38.364409449485194
      ],
      [
        -121.96052761887698,
        38.36729931971817
      ],
      [
        -121.9565687303563,
        38.370374615330526
      ],
      [
        -121.95274166835348,
        38.37348834421599
      ],
      [
        -121.94896571963682,
        38.37638528554044
      ],
      [
        -121.94521975682703,
        38.37927369406157
      ],
      [
        -121.94186222142973,
        38.38182510567046
      ],
      [
        -121.93733235388962,
        38.3852585919534
      ],
      [
        -121.93320489286063,
        38.38848184138568
      ],
      [
        -121.92933387066165,
        38.39151019515265
      ],
      [
        -121.92571937969986,
        38.394375515661515
      ],
      [
        -121.92195671639004,
        38.39731618018199
      ],
      [
        -121.91820524736092,
        38.4002199454021
      ],
      [
        -121.91449079484472,
        38.40310873407531
      ],
      [
        -121.91066304811402,
        38.40602713438733
      ],
      [
        -121.90676422502138,
        38.40899648114991
      ],
      [
        -121.90285186802316,
        38.41197546233086
      ],
      [
        -121.89890834361258,
        38.41496644995845
      ],
      [
        -121.89482185622349,
        38.418068779480954
      ],
      [
        -121.89111870892494,
        38.420902391911824
      ],
      [
        -121.88725812582585,
        38.42382714627561
      ],
      [
        -121.88325581544137,
        38.42686996634655
      ],
      [
        -121.87924000484882,
        38.429935036834664
      ],
      [
        -121.87524323424104,
        38.432971474526994
      ],
      [
        -121.87147766613771,
        38.435834839586185
      ],
      [
        -121.86752174258646,
        38.43885714248082
      ],
      [
        -121.86349486683301,
        38.44196997933835
      ],
      [
        -121.85967123200084,
        38.44493685493607
      ],
      [
        -121.85591446193614,
        38.447863475798854
      ],
      [
        -121.85185289450827,
        38.4510246099768
      ],
      [
        -121.84778903774911,
        38.45419215167465
      ],
      [
        -121.84370424175334,
        38.45737102861424
      ],
      [
        -121.83983635175737,
        38.460386829110455
      ],
      [
        -121.83592315647117,
        38.46343182411998
      ],
      [
        -121.83203038456223,
        38.46646597164107
      ],
      [
        -121.82838714030508,
        38.46930535549749
      ],
      [
        -121.82417324617545,
        38.47257328685875
      ],
      [
        -121.8202765130884,
        38.47563277117385
      ],
      [
        -121.81643683833495,
        38.4786555636619
      ],
      [
        -121.81282639517812,
        38.48150722125528
      ],
      [
        -121.80923818213489,
        38.484342701051666
      ],
      [
        -121.80567587451932,
        38.4871469742714
      ],
      [
        -121.8019822961676,
        38.49007000985963
      ],
      [
        -121.79869940957468,
        38.49306320623372
      ],
      [
        -121.79553548596301,
        38.496021343642745
      ],
      [
        -121.79241611816673,
        38.498911592657265
      ],
      [
        -121.7890373468912,
        38.501944970803606
      ],
      [
        -121.78558125989295,
        38.505181707853225
      ],
      [
        -121.78256310288891,
        38.508020169975225
      ],
      [
        -121.77943082973079,
        38.51093770926321
      ],
      [
        -121.7761868579781,
        38.51397093161622
      ],
      [
        -121.77267869842127,
        38.5168071762075
      ],
      [
        -121.76923261514737,
        38.519916341755845
      ],
      [
        -121.76871833709436,
        38.523793234771
      ],
      [
        -121.76860127624806,
        38.52789455109144
      ],
      [
        -121.7684066075976,
        38.53208968024469
      ],
      [
        -121.76767757260961,
        38.53523186759754
      ],
      [
        -121.76567054622235,
        38.536723232263114
      ],
      [
        -121.76346180099478,
        38.53778299014
      ],
      [
        -121.76173784388031,
        38.53896497353371
      ],
      [
        -121.75036118333334,
        38.546337466666664
      ],
      [
        -121.75128450088675,
        38.54632115492959
      ],
      [
        -121.75303839687234,
        38.54634366021377
      ],
      [
        -121.75396021453216,
        38.54637054054767
      ],
      [
        -121.75569190415027,
        38.54632542499407
      ],
      [
        -121.75746173233027,
        38.54635691471774
      ],
      [
        -121.75861405782375,
        38.546455725861065
      ],
      [
        -121.75870031987499,
        38.54775858205416
      ],
      [
        -121.7586694311999,
        38.54978232253203
      ],
      [
        -121.75864865,
        38.550660533333335
      ],
      [
        -121.75864917667556,
        38.551919946993074
      ],
      [
        -121.75863890114985,
        38.554031522834855
      ],
      [
        -121.75853170823977,
        38.55627090880598
      ],
      [
        -121.75859317522729,
        38.55968586885529
      ],
      [
        -121.75858686058343,
        38.55780303579678
      ],
      [
        -121.7586485374882,
        38.556441787500546
      ],
      [
        -121.75868170004887,
        38.554712287440324
      ],
      [
        -121.75867316191916,
        38.55294275260383
      ],
      [
        -121.7587319484664,
        38.551087663349534
      ],
      [
        -121.75869697174859,
        38.54927917857624
      ],
      [
        -121.75872512915291,
        38.54747582681596
      ],
      [
        -121.75874125520043,
        38.546644381204985
      ],
      [
        -121.75874101994923,
        38.54666190971374
      ],
      [
        -121.75857834529069,
        38.54625984715764
      ],
      [
        -121.75658230477448,
        38.54621413378712
      ],
      [
        -121.75445931214996,
        38.54616507420443
      ],
      [
        -121.75276430202479,
        38.546120782852306
      ],
      [
        -121.7509816230363,
        38.54613984418812
      ],
      [
        -121.75097365873681,
        38.54615157474242
      ],
      [
        -121.74959901151846,
        38.54609417012251
      ],
      [
        -122.47170762717408,
        37.69963857257962
      ],
      [
        -122.47071567227512,
        37.69543275532494
      ],
      [
        -122.47051800674308,
        37.69095802939282
      ],
      [
        -122.47134316259195,
        37.686889633663476
      ],
      [
        -122.47167566802044,
        37.682977191076205
      ],
      [
        -122.47182660381208,
        37.67922625080424
      ],
      [
        -122.47013449646023,
        37.67576545233813
      ],
      [
        -122.46739022727358,
        37.67219154663017
      ],
      [
        -122.46585226375286,
        37.667646670131106
      ],
      [
        -122.46573347670662,
        37.662675299062315
      ],
      [
        -122.46288433401371,
        37.65890658318696
      ],
      [
        -122.45868519002711,
        37.655626230704044
      ],
      [
        -122.45432974786297,
        37.65220948561822
      ],
      [
        -122.45150216301447,
        37.648203363965244
      ],
      [
        -122.44854760980938,
        37.644454860769194
      ],
      [
        -122.44413045924479,
        37.641660735017126
      ],
      [
        -122.44080153692047,
        37.638140487593716
      ],
      [
        -122.43862304537508,
        37.633957341011396
      ],
      [
        -122.43558001152903,
        37.630607469725156
      ],
      [
        -122.43258278116978,
        37.62797277949344
      ],
      [
        -122.42935797477338,
        37.62762145862802
      ],
      [
        -122.42602258929453,
        37.62958316459459
      ],
      [
        -122.42210785257942,
        37.631390357383346
      ],
      [
        -122.41827223595126,
        37.63313907557199
      ],
      [
        -122.41452346127367,
        37.63410438908466
      ],
      [
        -122.41041855843025,
        37.63368832194542
      ],
      [
        -122.40645440912813,
        37.63380148880271
      ],
      [
        -122.40351877321348,
        37.63254950573927
      ],
      [
        -122.40292959935981,
        37.62949962463715
      ],
      [
        -122.40207234855842,
        37.62607635275566
      ],
      [
        -122.40058603592163,
        37.62197114776295
      ],
      [
        -122.39909793088458,
        37.617566194950506
      ],
      [
        -122.39710487654757,
        37.613924801228514
      ],
      [
        -122.39325956883823,
        37.61076625146887
      ],
      [
        -122.38863071566276,
        37.6078198170798
      ],
      [
        -122.384403677627,
        37.605063846434966
      ],
      [
        -122.38087666638091,
        37.6027317064832
      ],
      [
        -122.37731028446886,
        37.60033140933712
      ],
      [
        -122.37342856056203,
        37.59784487833484
      ],
      [
        -122.36968609824936,
        37.59541916953333
      ],
      [
        -122.36594878715944,
        37.59302216004312
      ],
      [
        -122.36198020055947,
        37.590439632020995
      ],
      [
        -122.35786678112295,
        37.588137055981015
      ],
      [
        -122.3530267250671,
        37.58714568743716
      ],
      [
        -122.34759220296472,
        37.58700823897202
      ],
      [
        -122.34232501220966,
        37.58687714459901
      ],
      [
        -122.33706645126598,
        37.586752349348
      ],
      [
        -122.33214504877016,
        37.58635710587085
      ],
      [
        -122.32837807672911,
        37.58399016974919
      ],
      [
        -122.32501606566323,
        37.580888121130485
      ],
      [
        -122.32150416847006,
        37.57766622525885
      ],
      [
        -122.31753123576644,
        37.57404157276273
      ],
      [
        -122.31381735346831,
        37.57062405791543
      ],
      [
        -122.31059316805319,
        37.567571421418094
      ],
      [
        -122.30691409857064,
        37.56423482244738
      ],
      [
        -122.30304098206628,
        37.560674136439985
      ],
      [
        -122.29956806876609,
        37.556820944398616
      ],
      [
        -122.2960249375298,
        37.553057587017626
      ],
      [
        -122.29287632452926,
        37.54970161096495
      ],
      [
        -122.28997721465369,
        37.546565477529874
      ],
      [
        -122.28695726945404,
        37.543341756960324
      ],
      [
        -122.28390426275675,
        37.53999374330445
      ],
      [
        -122.28073646283812,
        37.536635996160975
      ],
      [
        -122.2774793429881,
        37.53313723156957
      ],
      [
        -122.27420951383273,
        37.52976379749546
      ],
      [
        -122.27068937244081,
        37.526705100806865
      ],
      [
        -122.26725749325888,
        37.52361675316354
      ],
      [
        -122.26373578429157,
        37.52055611750288
      ],
      [
        -122.26035967731674,
        37.517617988624934
      ],
      [
        -122.25711057470534,
        37.51470145670142
      ],
      [
        -122.25384302844992,
        37.51178738229552
      ],
      [
        -122.25044710398367,
        37.50874336045481
      ],
      [
        -122.24712575726605,
        37.50581519771415
      ],
      [
        -122.24385212320529,
        37.50293415804656
      ],
      [
        -122.24063658809145,
        37.50008426463206
      ],
      [
        -122.2370361273591,
        37.49753356237649
      ],
      [
        -122.23278784117352,
        37.49610866844116
      ],
      [
        -122.22835987430109,
        37.494833144162975
      ],
      [
        -122.2237342071129,
        37.49330255592329
      ],
      [
        -122.21923018975293,
        37.4912390789082
      ],
      [
        -122.21473807353925,
        37.48934138088746
      ],
      [
        -122.2099825877549,
        37.487984980579164
      ],
      [
        -122.20501539946521,
        37.48728980022933
      ],
      [
        -122.20021053139448,
        37.486715507672706
      ],
      [
        -122.19536326901873,
        37.48612507472483
      ],
      [
        -122.19045475762825,
        37.48551352297868
      ],
      [
        -122.18569626337269,
        37.48470476989838
      ],
      [
        -122.18141679632626,
        37.48344763611326
      ],
      [
        -122.17751083168774,
        37.48166624174631
      ],
      [
        -122.17366232175948,
        37.47945371070012
      ],
      [
        -122.16971816456217,
        37.47720887649243
      ],
      [
        -122.16589330583345,
        37.47497888383992
      ],
      [
        -122.16176505754736,
        37.472534483637666
      ],
      [
        -122.15761251920016,
        37.470117186528284
      ],
      [
        -122.15393713254717,
        37.46793639857885
      ],
      [
        -122.14991196285509,
        37.46554712622169
      ],
      [
        -122.14556019474279,
        37.46301611403483
      ],
      [
        -122.14182058729541,
        37.460831444292474
      ],
      [
        -122.13816197469998,
        37.458650749761006
      ],
      [
        -122.13443008564147,
        37.45639503252784
      ],
      [
        -122.13122051713356,
        37.454593638160325
      ],
      [
        -122.12792102470567,
        37.452633300769676
      ],
      [
        -122.12505449850374,
        37.45039726420846
      ],
      [
        -122.12469893826852,
        37.448216489860314
      ],
      [
        -122.12636214729226,
        37.4470543861431
      ],
      [
        -122.12904765005707,
        37.4462196713306
      ],
      [
        -122.12961502710628,
        37.44606134635457
      ],
      [
        -122.13157380117337,
        37.44551261482026
      ],
      [
        -122.13464676028504,
        37.44463364761564
      ],
      [
        -122.1375607263577,
        37.44381698957528
      ],
      [
        -122.14026623374441,
        37.44305566113481
      ],
      [
        -122.14297646644805,
        37.44226609159773
      ],
      [
        -122.14568761590047,
        37.44147994692451
      ],
      [
        -122.14838044233151,
        37.440670017324585
      ],
      [
        -122.14948343467712,
        37.440366211330236
      ],
      [
        -122.15125411820154,
        37.43990848151573
      ],
      [
        -122.15327974388421,
        37.43929974714322
      ],
      [
        -122.15507018597124,
        37.43865152171971
      ],
      [
        -122.15742895012467,
        37.43799203398246
      ],
      [
        -122.15965544622944,
        37.43752342556451
      ],
      [
        -122.15999152892901,
        37.43741710806401
      ],
      [
        -122.16194852177621,
        37.43655886049102
      ],
      [
        -122.16320084421237,
        37.43535818000882
      ],
      [
        -122.16348026236167,
        37.43361255633763
      ],
      [
        -122.16397538391547,
        37.43237158043331
      ],
      [
        -122.16489462862017,
        37.43236591901534
      ],
      [
        -122.16622814315814,
        37.43365174826614
      ],
      [
        -122.16761356598435,
        37.43454809628622
      ],
      [
        -122.16920855591182,
        37.434548483805614
      ],
      [
        -122.17071121031236,
        37.4346047203184
      ],
      [
        -122.17242421333592,
        37.43435499848796
      ],
      [
        -122.17333021521327,
        37.433210584285874
      ],
      [
        -122.17343764264041,
        37.4323877209
      ],
      [
        -122.17385546118473,
        37.43098973745568
      ],
      [
        -122.17505516626224,
        37.430469622937345
      ],
      [
        -122.17607100446008,
        37.43071123444309
      ],
      [
        -122.17791909741,
        37.431023408287075
      ],
      [
        -122.1791531412982,
        37.43097725985369
      ],
      [
        -122.18034391006417,
        37.43005929634407
      ],
      [
        -122.18066967651389,
        37.42906362444912
      ],
      [
        -122.18113319194735,
        37.427522824940944
      ],
      [
        -122.18151377815131,
        37.4266503371844
      ],
      [
        -122.18013276383535,
        37.4263219908325
      ],
      [
        -122.17831588987694,
        37.42606129629767
      ],
      [
        -121.74421456295524,
        38.54402973718435
      ],
      [
        -121.74493684544814,
        38.54478701945906
      ],
      [
        -121.74537420692842,
        38.54620015240328
      ],
      [
        -121.74620557126838,
        38.54628722105295
      ],
      [
        -121.74866851760224,
        38.5462457136912
      ],
      [
        -121.75097068047032,
        38.54628920651467
      ],
      [
        -121.75341277713241,
        38.54632530466609
      ],
      [
        -121.75591624970569,
        38.546323436393095
      ],
      [
        -121.75817473416686,
        38.54640070065032
      ],
      [
        -121.75866071590106,
        38.54761336988594
      ],
      [
        -121.75866099719995,
        38.54964400903548
      ],
      [
        -121.75866293734951,
        38.55070141817662
      ],
      [
        -121.75867390869016,
        38.55067750232955
      ],
      [
        -121.75863745218436,
        38.55127053505098
      ],
      [
        -121.75860554438593,
        38.5527485508167
      ],
      [
        -121.7585908490247,
        38.554528398643704
      ],
      [
        -122.38926296492942,
        37.597351172017966
      ],
      [
        -122.38933432385878,
        37.59735500542054
      ],
      [
        -122.38772526086788,
        37.59814601372798
      ],
      [
        -122.38566490565428,
        37.599292979704664
      ],
      [
        -122.38475510826808,
        37.59991040250432
      ],
      [
        -122.3838908637465,
        37.600394735051225
      ],
      [
        -122.38214577367368,
        37.60137895622206
      ],
      [
        -122.38071802618362,
        37.6022488841176
      ],
      [
        -122.37935494724262,
        37.60303961131598
      ],
      [
        -122.37890554968138,
        37.60269916798525
      ],
      [
        -122.3806170986996,
        37.60312642143241
      ],
      [
        -122.38315594986709,
        37.60484584409529
      ],
      [
        -122.38678659119759,
        37.6074082751683
      ],
      [
        -122.39035469472765,
        37.60952673805772
      ],
      [
        -122.39404710514091,
        37.61179719432605
      ],
      [
        -122.39704566249786,
        37.61453230004159
      ],
      [
        -122.39866559474952,
        37.61776094350022
      ],
      [
        -122.39973138666905,
        37.6207420200796
      ],
      [
        -122.4005727293386,
        37.62348215384008
      ],
      [
        -122.40136515525718,
        37.62597969898701
      ],
      [
        -122.40213698818965,
        37.62917114967568
      ],
      [
        -122.40243399949027,
        37.632282991278714
      ],
      [
        -122.40419301614203,
        37.63415179418355
      ],
      [
        -122.40776562437148,
        37.63439607806754
      ],
      [
        -122.41113530787794,
        37.634314920468185
      ],
      [
        -122.41461731979352,
        37.634438064571825
      ],
      [
        -122.418696971363,
        37.63337587882426
      ],
      [
        -122.42244164624908,
        37.63171293714143
      ],
      [
        -122.42636174816705,
        37.63009477960621
      ],
      [
        -122.4299836731684,
        37.62954024766511
      ],
      [
        -122.4335350794953,
        37.62973039525943
      ],
      [
        -122.43650195209143,
        37.631931268662655
      ],
      [
        -122.43865709286113,
        37.6348812760557
      ],
      [
        -122.44024584578507,
        37.63783722778646
      ],
      [
        -122.44268117882054,
        37.64063941067856
      ],
      [
        -122.44696581324499,
        37.643881063474865
      ],
      [
        -122.45074697591095,
        37.6475494569432
      ],
      [
        -122.45300636911031,
        37.65114229857028
      ],
      [
        -122.45586362319935,
        37.653762424826255
      ],
      [
        -122.45886697501264,
        37.6561761048212
      ],
      [
        -122.4626303696337,
        37.65913045323332
      ],
      [
        -122.46547831184674,
        37.662786442671546
      ],
      [
        -122.46550531737418,
        37.66725678513216
      ],
      [
        -122.46691418787654,
        37.67189532931585
      ],
      [
        -122.4698120747445,
        37.67570840196161
      ],
      [
        -122.47167086045718,
        37.679538069856775
      ],
      [
        -122.47143559710955,
        37.68398896197092
      ],
      [
        -122.47065290561486,
        37.688553487146464
      ],
      [
        -122.47038350993004,
        37.693225086395614
      ],
      [
        -122.47132363730081,
        37.69814507926612
      ],
      [
        -122.471496117162,
        37.702933339862064
      ],
      [
        -122.47121407150881,
        37.70678221829872
      ],
      [
        -122.47106912239028,
        37.71017696016218
      ],
      [
        -122.47121377419425,
        37.71329601906791
      ],
      [
        -122.47198627423973,
        37.71584967562112
      ],
      [
        -122.47244481751142,
        37.717575260275595
      ],
      [
        -122.47230985939947,
        37.71967045691235
      ],
      [
        -122.47214373552902,
        37.72196122439219
      ],
      [
        -122.47204812553174,
        37.724499326294506
      ],
      [
        -122.47195735055318,
        37.72693444555242
      ],
      [
        -122.47179762864234,
        37.729475406186026
      ],
      [
        -122.47169478724723,
        37.73060638564506
      ],
      [
        -122.47170423388607,
        37.7306158848915
      ],
      [
        -122.47170717,
        37.730619088968645
      ],
      [
        -122.47170729658913,
        37.73061913436225
      ],
      [
        -122.47152909072514,
        37.732244988366936
      ],
      [
        -122.47134229240018,
        37.73451082277137
      ]
    ]
  },
  "properties": {}
}