{
  "type": "Feature",
  "geometry": {
    "type": "LineString",
    "coordinates": [
      [
        -122.46898939885634,
        37.73990756772751
      ],
      [
        -122.47019861091967,
        37.73956531055822
      ],
      [
        -122.47163231290696,
        37.739494714530196
      ],
      [
        -122.47315220891396,
        37.73941669264514
      ],
      [
        -122.47435335828564,
        37.73936992137607
      ],
      [
        -122.47536332816105,
        37.73952346252667
      ],
      [
        -122.47547833668716,
        37.741181369254704
      ],
      [
        -122.47555111785664,
        37.74265764425531
      ],
      [
        -122.47572682912008,
        37.74430360013488
      ],
      [
        -122.4757368118711,
        37.74454427420883
      ],
      [
        -122.4757368118711,
        37.74454427420883
      ],
      [
        -122.4757760506793,
        37.745315950578416
      ],
      [
        -122.47584430789124,
        37.74633874916803
      ],
      [
        -122.47587944858793,
        37.74687920426
      ],
      [
        -122.47599392860504,
        37.7485486798007
      ],
      [
        -122.47612681535298,
        37.750455748991804
      ],
      [
        -122.47626461065796,
        37.75245855188029
      ],
      [
        -122.47638509976107,
        37.75421314035449
      ],
      [
        -122.47652012590619,
        37.75613690569312
      ],
      [
        -122.47663811571417,
        37.75783312796391
      ],
      [
        -122.47675984341568,
        37.75961784424425
      ],
      [
        -122.47692672058464,
        37.761320417554934
      ],
      [
        -122.4769513496407,
        37.76148292705208
      ],
      [
        -122.4769440573849,
        37.76148095730483
      ],
      [
        -122.47700497682318,
        37.76204206799136
      ],
      [
        -122.4771092097697,
        37.7632584392367
      ],
      [
        -122.47711389444412,
        37.763353009555594
      ],
      [
        -122.47720836925117,
        37.76486924619988
      ],
      [
        -122.47774535803143,
        37.76701404603399
      ],
      [
        -122.47849231243029,
        37.76948698390562
      ],
      [
        -122.47938334619813,
        37.77157459667606
      ],
      [
        -122.47689604592993,
        37.77233602251323
      ],
      [
        -122.47371181510584,
        37.77241685642362
      ],
      [
        -122.47178978103241,
        37.77270296963498
      ],
      [
        -122.47176226614471,
        37.772769776522914
      ],
      [
        -122.47172126434934,
        37.77292295874568
      ],
      [
        -122.47182927099463,
        37.774760064106346
      ],
      [
        -122.47199101124234,
        37.77701598992504
      ],
      [
        -122.47220043035371,
        37.77930084898898
      ],
      [
        -122.47236740447391,
        37.781677868220676
      ],
      [
        -122.4725082529529,
        37.78366231801696
      ],
      [
        -122.47259305460551,
        37.784884768631365
      ],
      [
        -122.47248768909687,
        37.78688900534406
      ],
      [
        -122.47130616606206,
        37.789026647484356
      ],
      [
        -122.4697939971304,
        37.791318174535775
      ],
      [
        -122.46951524380326,
        37.793841548326846
      ],
      [
        -122.46947513208696,
        37.796761560485194
      ],
      [
        -122.46943924388614,
        37.79936190725852
      ],
      [
        -122.4694113652789,
        37.80241572967277
      ],
      [
        -122.47104236551031,
        37.804249849261915
      ],
      [
        -122.47360858303831,
        37.805532269441244
      ],
      [
        -122.47567138778354,
        37.807532168355166
      ],
      [
        -122.47728854293703,
        37.80944269068123
      ],
      [
        -122.47761894163705,
        37.812079207336474
      ],
      [
        -122.47794747561205,
        37.81505728184019
      ],
      [
        -122.47830924265399,
        37.81807426073121
      ],
      [
        -122.4786398163018,
        37.82097219732399
      ],
      [
        -122.47899648942142,
        37.82403443209927
      ],
      [
        -122.47937355696348,
        37.82715338350891
      ],
      [
        -122.47974489022079,
        37.83035520347734
      ],
      [
        -122.48141556775462,
        37.83283125609589
      ],
      [
        -122.48418900694563,
        37.83494126573658
      ],
      [
        -122.48593642680581,
        37.837775354511834
      ],
      [
        -122.48636237442851,
        37.84061538616826
      ],
      [
        -122.48557199036831,
        37.84340158601849
      ],
      [
        -122.48631405674081,
        37.84621089235854
      ],
      [
        -122.48876140153311,
        37.848405708936134
      ],
      [
        -122.4899929154171,
        37.85095209217764
      ],
      [
        -122.49228338700458,
        37.85287077503121
      ],
      [
        -122.4935479087527,
        37.855149787591714
      ],
      [
        -122.49618531659625,
        37.856803248294305
      ],
      [
        -122.49919054338787,
        37.85802418939393
      ],
      [
        -122.50167299126453,
        37.86031886353511
      ],
      [
        -122.50519307015146,
        37.862241054076215
      ],
      [
        -122.5069515094887,
        37.865124771750786
      ],
      [
        -122.50705141172969,
        37.86825024120542
      ],
      [
        -122.50712419290392,
        37.87138364293454
      ],
      [
        -122.50870438651845,
        37.874468911312434
      ],
      [
        -122.51172370926112,
        37.87682998189943
      ],
      [
        -122.51519959914287,
        37.87899586445664
      ],
      [
        -122.51654906846414,
        37.88187549317356
      ],
      [
        -122.51663632044676,
        37.88540123660467
      ],
      [
        -122.51664879797347,
        37.88940450508635
      ],
      [
        -122.51636140017159,
        37.89368276888985
      ],
      [
        -122.51601667822231,
        37.8981605907734
      ],
      [
        -122.51565182840976,
        37.902655706885234
      ],
      [
        -122.51482046355568,
        37.906913414259876
      ],
      [
        -122.51319740710949,
        37.91067802699975
      ],
      [
        -122.51180152875742,
        37.91464978691865
      ],
      [
        -122.51113794591802,
        37.91868873304918
      ],
      [
        -122.51279155725734,
        37.92268472646652
      ],
      [
        -122.51485981068862,
        37.92664995745135
      ],
      [
        -122.51577733553911,
        37.93063259474361
      ],
      [
        -122.51653716462835,
        37.9346900293137
      ],
      [
        -122.51630703808713,
        37.939005462327025
      ],
      [
        -122.51520469211584,
        37.94300095923451
      ],
      [
        -122.51382899998838,
        37.94647698025559
      ],
      [
        -122.51187466112705,
        37.94967386063365
      ],
      [
        -122.50928997773303,
        37.95213859465562
      ],
      [
        -122.50844733980605,
        37.95528015556596
      ],
      [
        -122.5090875505771,
        37.95861186275486
      ],
      [
        -122.50982115286419,
        37.961889845757945
      ],
      [
        -122.51230650503327,
        37.96394075048395
      ],
      [
        -122.5155439630414,
        37.96578959988404
      ],
      [
        -122.51862780205198,
        37.96757394212838
      ],
      [
        -122.52096743131472,
        37.969411551022674
      ],
      [
        -122.5212599338242,
        37.97037801708837
      ],
      [
        -122.5212599338242,
        37.97037801708837
      ],
      [
        -122.52126868017014,
        37.97038331805629
      ],
      [
        -122.52119749563329,
        37.97128573589083
      ],
      [
        -122.52220031556085,
        37.97141186313024
      ],
      [
        -122.5236267534258,
        37.97162395438286
      ],
      [
        -122.5260429699907,
        37.97195107674546
      ],
      [
        -122.52852515979059,
        37.97219845502444
      ],
      [
        -122.4728281170109,
        37.739435823947886
      ],
      [
        -122.47417030606184,
        37.73937722185952
      ],
      [
        -122.47526312687673,
        37.739368550455126
      ],
      [
        -122.47527235654849,
        37.73936790417669
      ],
      [
        -122.4753859858667,
        37.73985084805912
      ],
      [
        -122.47551914334116,
        37.742008306253915
      ],
      [
        -122.47563670177675,
        37.744094900597325
      ],
      [
        -122.47567784297928,
        37.744727014682894
      ],
      [
        -122.47567779194114,
        37.74472625942116
      ],
      [
        -122.4757245640921,
        37.74537088470239
      ],
      [
        -122.47581404526647,
        37.74656488831444
      ],
      [
        -122.47584784727526,
        37.74705067723187
      ],
      [
        -122.47596667341467,
        37.74866141728966
      ],
      [
        -122.47610936140694,
        37.75068810992166
      ],
      [
        -122.47621432988272,
        37.75210463917612
      ],
      [
        -122.47631599778546,
        37.753621955906326
      ],
      [
        -122.4764680099991,
        37.75583698753581
      ],
      [
        -122.4766080386588,
        37.757873615378514
      ],
      [
        -122.47677900075095,
        37.760071412239625
      ],
      [
        -122.47704137662346,
        37.76226514635302
      ],
      [
        -122.47722325593813,
        37.764522583209605
      ],
      [
        -122.47755216360144,
        37.76666314438212
      ],
      [
        -122.47836376638273,
        37.76898431001084
      ],
      [
        -122.479115652858,
        37.77065112580241
      ],
      [
        -122.47841703274653,
        37.772251468137874
      ],
      [
        -122.47539443733513,
        37.77247701084469
      ],
      [
        -122.47242489155217,
        37.77230164641072
      ],
      [
        -122.4717802182981,
        37.77264875363351
      ],
      [
        -122.47174067519495,
        37.77274820067551
      ],
      [
        -122.47176642334233,
        37.773976806207955
      ],
      [
        -122.47190709466767,
        37.77578687047212
      ],
      [
        -122.47197780413165,
        37.776764742764
      ],
      [
        -122.4719843176403,
        37.77679180264266
      ],
      [
        -122.47201362876149,
        37.77694604399298
      ],
      [
        -122.47211795856292,
        37.77840227486136
      ],
      [
        -122.47214943694829,
        37.778668237039675
      ],
      [
        -122.472278900207,
        37.78046891729615
      ],
      [
        -122.47245467583443,
        37.78290459278261
      ],
      [
        -122.47254226665153,
        37.78400478295032
      ],
      [
        -122.47260680640916,
        37.78510625912828
      ],
      [
        -122.47239061322529,
        37.78716931837481
      ],
      [
        -122.47092592878147,
        37.78955732336866
      ],
      [
        -122.46957045665758,
        37.79210056284417
      ],
      [
        -122.4694851401655,
        37.79560089683477
      ],
      [
        -122.4694630960645,
        37.79763886864793
      ],
      [
        -122.46942166850587,
        37.800606510709116
      ],
      [
        -122.46957334622445,
        37.80357449573101
      ],
      [
        -122.47228335948306,
        37.80459685832205
      ],
      [
        -122.47470579387944,
        37.80666600586868
      ],
      [
        -122.476836506454,
        37.80862163165142
      ],
      [
        -122.47752129694886,
        37.81154069269622
      ],
      [
        -122.47787257418734,
        37.81458357061023
      ],
      [
        -122.47824281352626,
        37.81769036004215
      ],
      [
        -122.47859999552658,
        37.820735881281976
      ],
      [
        -122.47896030108443,
        37.82380260821994
      ],
      [
        -122.47932209695432,
        37.826922447611636
      ],
      [
        -122.47975280718614,
        37.83047259107755
      ],
      [
        -122.48188530688218,
        37.83316084379881
      ],
      [
        -122.484674539029,
        37.83581755788292
      ],
      [
        -122.48650092153248,
        37.838645629654465
      ],
      [
        -122.48585891855416,
        37.841385427094664
      ],
      [
        -122.4857258197037,
        37.84404567391806
      ],
      [
        -122.48671358050264,
        37.84680642186541
      ],
      [
        -122.48936222455099,
        37.84919342703151
      ],
      [
        -122.49090695325626,
        37.85184473570816
      ],
      [
        -122.49318161846918,
        37.85431742083209
      ],
      [
        -122.4957883425425,
        37.85667587641559
      ],
      [
        -122.49933411863248,
        37.858171027514615
      ],
      [
        -122.50203431487112,
        37.86047318907697
      ],
      [
        -122.50511823160845,
        37.862174338673704
      ],
      [
        -122.50683352636524,
        37.864785858328
      ],
      [
        -122.50699691950896,
        37.86805364319216
      ],
      [
        -122.50711682729985,
        37.871318717190285
      ],
      [
        -122.50883147220154,
        37.874599467802504
      ],
      [
        -122.51232432806556,
        37.87725204475095
      ],
      [
        -122.5159307992007,
        37.87983473365501
      ],
      [
        -122.5165859921237,
        37.883631434029866
      ],
      [
        -122.51662336093254,
        37.88751254074174
      ],
      [
        -122.51651220088677,
        37.89160010606504
      ],
      [
        -122.51618806696716,
        37.89560351081789
      ],
      [
        -122.5158837041149,
        37.89958044025183
      ],
      [
        -122.51564035498158,
        37.90355595219999
      ],
      [
        -122.5145166330391,
        37.907512295734485
      ],
      [
        -122.51298366298978,
        37.91096005964865
      ],
      [
        -122.5117354911163,
        37.91453180253008
      ],
      [
        -122.51101752270209,
        37.91838497682909
      ],
      [
        -122.51238297525687,
        37.92212067142703
      ],
      [
        -122.51437411666232,
        37.92570548433201
      ],
      [
        -122.51544844737373,
        37.92911750361089
      ],
      [
        -122.51606053732431,
        37.9325146949294
      ],
      [
        -122.5167080369007,
        37.93603716497731
      ],
      [
        -122.51610642816127,
        37.93950194141645
      ],
      [
        -122.5151634055328,
        37.94308228546054
      ],
      [
        -122.513583428873,
        37.946518646044034
      ],
      [
        -122.51200345221322,
        37.94995500662752
      ],
      [
        -122.51042347555342,
        37.953391367211005
      ],
      [
        -122.50884349889363,
        37.95682772779449
      ],
      [
        -122.5094475359901,
        37.960545760244926
      ],
      [
        -122.5114399265723,
        37.96345028159389
      ],
      [
        -122.51517898006533,
        37.96561249881169
      ],
      [
        -122.518858928115,
        37.967734196641665
      ],
      [
        -122.52122866296409,
        37.969821366037635
      ],
      [
        -122.52110298711996,
        37.971245372259304
      ],
      [
        -122.52208275247935,
        37.97140956075008
      ],
      [
        -122.5238520973097,
        37.97166908983886
      ],
      [
        -122.52614271946912,
        37.97198334224978
      ],
      [
        -122.52819554438243,
        37.97217469129031
      ],
      [
        -122.52895328922469,
        37.972264225605095
      ],
      [
        -122.48305816338677,
        37.821213846351554
      ],
      [
        -122.484468036543,
        37.824114941387776
      ],
      [
        -122.48587790969924,
        37.82701603642399
      ],
      [
        -122.48728778285547,
        37.82991713146021
      ],
      [
        -122.48869765601171,
        37.83281822649643
      ],
      [
        -122.49010752916793,
        37.83571932153264
      ],
      [
        -122.49151740232416,
        37.838620416568865
      ],
      [
        -122.4929272754804,
        37.84152151160508
      ],
      [
        -122.49433714863663,
        37.8444226066413
      ],
      [
        -122.49574702179287,
        37.84732370167752
      ],
      [
        -122.4971568949491,
        37.85022479671373
      ],
      [
        -122.49856676810533,
        37.853125891749954
      ],
      [
        -122.49997664126157,
        37.85602698678617
      ],
      [
        -122.5013865144178,
        37.85892808182239
      ],
      [
        -122.50279638757402,
        37.861829176858606
      ],
      [
        -122.50420626073026,
        37.86473027189482
      ],
      [
        -122.51520490802274,
        37.89959094714506
      ],
      [
        -122.5149838107593,
        37.90174739189319
      ],
      [
        -122.51476271349588,
        37.90390383664132
      ],
      [
        -122.51454161623245,
        37.90606028138945
      ],
      [
        -122.51432051896903,
        37.90821672613758
      ],
      [
        -122.5140994217056,
        37.910373170885705
      ],
      [
        -122.51387832444217,
        37.91252961563384
      ],
      [
        -122.51365722717875,
        37.91468606038197
      ],
      [
        -122.51343612991532,
        37.9168425051301
      ],
      [
        -122.5132150326519,
        37.91899894987823
      ],
      [
        -122.51299393538847,
        37.92115539462636
      ],
      [
        -122.51277283812504,
        37.923311839374485
      ],
      [
        -122.51255174086161,
        37.925468284122616
      ],
      [
        -122.51233064359819,
        37.92762472887075
      ],
      [
        -122.51210954633476,
        37.92978117361888
      ],
      [
        -122.51188844907134,
        37.93193761836701
      ],
      [
        -122.5116673518079,
        37.93409406311513
      ],
      [
        -122.51144625454448,
        37.936250507863264
      ],
      [
        -122.51122515728105,
        37.938406952611395
      ],
      [
        -122.51100406001763,
        37.940563397359526
      ],
      [
        -122.48658492656888,
        37.846589212260426
      ],
      [
        -122.48955339346347,
        37.84966038976048
      ],
      [
        -122.4917131759866,
        37.85233267813233
      ],
      [
        -122.493734997948,
        37.855339571050465
      ],
      [
        -122.4977008968454,
        37.85707840437317
      ],
      [
        -122.50104818423972,
        37.85977119522698
      ],
      [
        -122.50505413855015,
        37.86202657968655
      ],
      [
        -122.50702544499543,
        37.86550958997185
      ],
      [
        -122.50712563455735,
        37.869515530165366
      ],
      [
        -122.50792444448103,
        37.87351240531997
      ],
      [
        -122.51120483192106,
        37.876449080719446
      ],
      [
        -122.51494730831354,
        37.87877551611534
      ],
      [
        -122.5165714377235,
        37.881902374276244
      ],
      [
        -122.51666714785982,
        37.88557909899272
      ],
      [
        -122.51662243819804,
        37.890409740465365
      ],
      [
        -122.51620850416484,
        37.895058659063544
      ],
      [
        -122.51585205606132,
        37.899677022394464
      ],
      [
        -122.51545324566393,
        37.90442013259029
      ],
      [
        -122.51398283939866,
        37.90874576637008
      ],
      [
        -122.5123492062361,
        37.91287867960141
      ],
      [
        -122.51108359220082,
        37.91723494228676
      ],
      [
        -122.51197359511612,
        37.921225728402824
      ],
      [
        -122.51391124484832,
        37.924844208389366
      ],
      [
        -122.51535298079853,
        37.928666867370694
      ],
      [
        -122.51603952929162,
        37.932399192310605
      ],
      [
        -122.51662473998735,
        37.936152910043674
      ],
      [
        -122.5159826747611,
        37.93948608207641
      ],
      [
        -122.51514093203784,
        37.94213015079938
      ],
      [
        -122.5143363888339,
        37.944417679186884
      ],
      [
        -122.51220963920912,
        37.94539116483065
      ],
      [
        -122.51168298954427,
        37.94606586340474
      ],
      [
        -122.47229581137711,
        37.73950371876772
      ],
      [
        -122.4733129497134,
        37.73945640048011
      ],
      [
        -122.47433945236054,
        37.73938279575967
      ],
      [
        -122.47517043972204,
        37.739365148459804
      ],
      [
        -122.47546724525802,
        37.74066611032808
      ],
      [
        -122.47558038695264,
        37.74257156656467
      ],
      [
        -122.47568064025006,
        37.74430448797293
      ],
      [
        -122.4757248257496,
        37.74458903357176
      ],
      [
        -122.47574768280683,
        37.74461199686946
      ],
      [
        -122.47582313213758,
        37.74583879578434
      ],
      [
        -122.47587083003611,
        37.7464571861275
      ],
      [
        -122.47590906800933,
        37.74727148294903
      ],
      [
        -122.47604469593261,
        37.749087856653915
      ],
      [
        -122.47617469198201,
        37.7510129077154
      ],
      [
        -122.47632630310515,
        37.75310679697007
      ],
      [
        -122.47651651852357,
        37.75534336141745
      ],
      [
        -122.47660301574207,
        37.75714138304779
      ],
      [
        -122.47664796994115,
        37.75780700566751
      ],
      [
        -122.47674818946842,
        37.759262842858185
      ],
      [
        -122.47686970530081,
        37.76069669708824
      ],
      [
        -122.4769115719858,
        37.7611575833695
      ],
      [
        -122.4769112003245,
        37.76115687101871
      ],
      [
        -122.47696241592307,
        37.76156525207411
      ],
      [
        -122.47708209632341,
        37.762732868484456
      ],
      [
        -122.47711139571977,
        37.76309812497206
      ],
      [
        -122.47723659135967,
        37.76437467645255
      ],
      [
        -122.4773250761654,
        37.76584236015866
      ],
      [
        -122.47809404268345,
        37.76745661513331
      ],
      [
        -122.47848841604477,
        37.76931934271255
      ],
      [
        -122.47910187263633,
        37.770517493888974
      ],
      [
        -122.4789730556645,
        37.77210142161004
      ],
      [
        -122.47608183773966,
        37.772396514759905
      ],
      [
        -122.47356441827824,
        37.772387565204355
      ],
      [
        -122.47221367109796,
        37.77229363663904
      ],
      [
        -122.4717265859444,
        37.77303051278345
      ],
      [
        -122.47182741754021,
        37.774651184753054
      ],
      [
        -122.4718384725251,
        37.77485671456696
      ],
      [
        -122.47185573857026,
        37.77499822600964
      ],
      [
        -122.47201983311771,
        37.776850283950054
      ],
      [
        -122.47205692187855,
        37.77781034105818
      ],
      [
        -122.47208108351009,
        37.778082202495575
      ],
      [
        -122.47213577445319,
        37.77913827214446
      ],
      [
        -122.47225848416345,
        37.78053476596681
      ],
      [
        -122.4723749087735,
        37.78225244491929
      ],
      [
        -122.4724344258406,
        37.78238793838563
      ],
      [
        -122.4724344258406,
        37.78238793838563
      ],
      [
        -122.47243532909064,
        37.78303467574004
      ],
      [
        -122.472512572048,
        37.78406763309332
      ],
      [
        -122.4725275487848,
        37.78417131401392
      ],
      [
        -122.47257043531629,
        37.78503226185462
      ],
      [
        -122.47252395126858,
        37.786844987646845
      ],
      [
        -122.47126077244282,
        37.78907184890206
      ],
      [
        -122.46975964625452,
        37.79137463734069
      ],
      [
        -122.46944518527349,
        37.79356146618125
      ],
      [
        -122.46953949956914,
        37.79654884528166
      ],
      [
        -122.46942280935863,
        37.799527883658996
      ],
      [
        -122.46938151419768,
        37.80282477374056
      ],
      [
        -122.47179452810254,
        37.80446261621525
      ],
      [
        -122.47420215492957,
        37.80617810773732
      ],
      [
        -122.47621599194152,
        37.80793064762999
      ],
      [
        -122.47736520490623,
        37.81002017884183
      ],
      [
        -122.47768245620627,
        37.81276619416813
      ],
      [
        -122.47801159590932,
        37.81579070186615
      ],
      [
        -122.47837282110554,
        37.818826906994275
      ],
      [
        -122.4787371705826,
        37.82183882840714
      ],
      [
        -122.47908992386004,
        37.824968929863275
      ],
      [
        -122.47943824744104,
        37.82810635052531
      ],
      [
        -122.47992250929502,
        37.8312727084378
      ],
      [
        -122.48276137795989,
        37.83353570555679
      ],
      [
        -122.4852521714936,
        37.836723293404155
      ],
      [
        -122.48664683386684,
        37.840062572940006
      ],
      [
        -122.4855800048055,
        37.843459524499785
      ],
      [
        -122.48665324991893,
        37.846792600443024
      ],
      [
        -122.48934377381636,
        37.84915158868068
      ],
      [
        -122.49127444003511,
        37.852028995223804
      ],
      [
        -122.49347453851415,
        37.854898704415504
      ],
      [
        -122.49696005016193,
        37.85691961962559
      ],
      [
        -122.50030907777828,
        37.85910767655561
      ],
      [
        -122.50379681901731,
        37.86128246148706
      ],
      [
        -122.5065753099523,
        37.86380836266665
      ],
      [
        -122.50706769779994,
        37.86705272130469
      ],
      [
        -122.50707197296133,
        37.8703837471726
      ],
      [
        -122.5080781412203,
        37.87369423023236
      ],
      [
        -122.51099828614801,
        37.87629611141741
      ],
      [
        -122.51451586903586,
        37.87847161781639
      ],
      [
        -122.51647287814544,
        37.88128719596709
      ],
      [
        -122.51654830066491,
        37.884498858261786
      ],
      [
        -122.51657734911339,
        37.88767990420832
      ],
      [
        -122.51646863309776,
        37.891070201127114
      ],
      [
        -122.51618235925561,
        37.894582848256725
      ],
      [
        -122.51591885642507,
        37.898056027141216
      ],
      [
        -122.51565939279529,
        37.901469017845486
      ],
      [
        -122.51531965912906,
        37.904942406337604
      ],
      [
        -122.51421520640952,
        37.90792460189762
      ],
      [
        -122.51290721476889,
        37.91094261970407
      ],
      [
        -122.51177912410456,
        37.91438168896066
      ],
      [
        -122.51106547108961,
        37.91861925493005
      ],
      [
        -122.51280089623484,
        37.92276315162678
      ],
      [
        -122.51468241818473,
        37.926486735515525
      ],
      [
        -122.51559479517418,
        37.93029698206583
      ],
      [
        -122.51628646838236,
        37.93403490362354
      ],
      [
        -122.51653641611405,
        37.93777839169971
      ],
      [
        -122.51558169651582,
        37.941462200712316
      ],
      [
        -122.51458336179864,
        37.945056284545934
      ],
      [
        -122.51241890650725,
        37.948750911134105
      ],
      [
        -122.5095463784454,
        37.95182321265426
      ],
      [
        -122.50842965585683,
        37.955078791202574
      ],
      [
        -122.50909803422846,
        37.95848494513842
      ],
      [
        -122.50985139189228,
        37.96191046649058
      ],
      [
        -122.51295675933885,
        37.96425866123404
      ],
      [
        -122.51652778876992,
        37.966374396504186
      ],
      [
        -122.51972041918721,
        37.968298474043785
      ],
      [
        -122.52126489482013,
        37.97018800950973
      ],
      [
        -122.521267309899,
        37.97031796075215
      ],
      [
        -122.5212631189474,
        37.97032122969438
      ],
      [
        -122.52121009485195,
        37.97040521815122
      ],
      [
        -122.5214785533572,
        37.971325019873234
      ],
      [
        -122.52197021106275,
        37.9714326102147
      ],
      [
        -122.52345033699002,
        37.97159114244583
      ],
      [
        -122.52571381212279,
        37.9719371026343
      ],
      [
        -122.52799084846771,
        37.972161121805605
      ],
      [
        -122.52827625407147,
        37.97219767054344
      ],
      [
        -122.52844943085886,
        37.97219916939235
      ],
      [
        -122.5305009151535,
        37.972407105031685
      ],
      [
        -122.53269856205314,
        37.97261092098503
      ],
      [
        -122.53326156679711,
        37.973323562017804
      ],
      [
        -122.53465581838707,
        37.97381256880399
      ],
      [
        -122.53633310695433,
        37.974049617599064
      ],
      [
        -122.53617164825266,
        37.97464332872547
      ],
      [
        -122.5361568388739,
        37.97474067196061
      ],
      [
        -122.5361627900251,
        37.97473229005744
      ],
      [
        -122.5361627900251,
        37.97473229005744
      ],
      [
        -122.536154491941,
        37.97472315378298
      ],
      [
        -122.536154491941,
        37.97472315378298
      ],
      [
        -122.536154491941,
        37.97472315378298
      ],
      [
        -122.5361698308238,
        37.97473229005744
      ],
      [
        -122.5361698308238,
        37.97473229005744
      ],
      [
        -122.5361695793667,
        37.97472327951153
      ],
      [
        -122.1775692479722,
        37.42813195744159
      ],
      [
        -122.1782770853396,
        37.429018462174675
      ],
      [
        -122.1782828952579,
        37.43071214353903
      ],
      [
        -122.17707904950896,
        37.4306634216796
      ],
      [
        -122.17587518199953,
        37.43063493876599
      ],
      [
        -122.17449942439742,
        37.43037387994846
      ],
      [
        -122.17355174167109,
        37.43170523473192
      ],
      [
        -122.17322159778837,
        37.4326844740221
      ],
      [
        -122.17270006722407,
        37.433745871265906
      ],
      [
        -122.17125477504085,
        37.43428566779516
      ],
      [
        -122.16946389781471,
        37.434246760783125
      ],
      [
        -122.1676753330907,
        37.434379380131816
      ],
      [
        -122.16646715276856,
        37.43335672774805
      ],
      [
        -122.16498864697606,
        37.43205257548073
      ],
      [
        -122.16398474616588,
        37.43155985352589
      ],
      [
        -122.16341838681029,
        37.43349687294231
      ],
      [
        -122.16300666689096,
        37.43567344149693
      ],
      [
        -122.16076913972543,
        37.4368990338244
      ],
      [
        -122.15932862452776,
        37.43647054561793
      ],
      [
        -122.15733389482996,
        37.43472486674014
      ],
      [
        -122.15537702167434,
        37.432924878922584
      ],
      [
        -122.15339517721125,
        37.431172060500536
      ],
      [
        -122.1514670866502,
        37.429454068066576
      ],
      [
        -122.1496779895973,
        37.427941353766336
      ],
      [
        -122.14915084788333,
        37.42740385274108
      ],
      [
        -122.1472079148696,
        37.42571698920426
      ],
      [
        -122.14486874351921,
        37.42433075260968
      ],
      [
        -122.14263112527873,
        37.42319515871093
      ],
      [
        -122.1401906168115,
        37.42194755469413
      ],
      [
        -122.13714223671657,
        37.42037092566427
      ],
      [
        -122.13417690798089,
        37.41885946504333
      ],
      [
        -122.1313956150661,
        37.417429579845354
      ],
      [
        -122.12876674565035,
        37.41603441542787
      ],
      [
        -122.12655801901963,
        37.41420641931587
      ],
      [
        -122.47234605426281,
        37.72176107443435
      ],
      [
        -122.47214630446352,
        37.72267780656261
      ],
      [
        -122.47211110883484,
        37.72288923955045
      ],
      [
        -122.47220492306485,
        37.72479164865419
      ],
      [
        -122.4719402945374,
        37.726856808260344
      ],
      [
        -122.47186597889393,
        37.72887218799766
      ],
      [
        -122.4717724232341,
        37.73031208628153
      ],
      [
        -122.47179678497642,
        37.73029951761694
      ],
      [
        -122.47180814565695,
        37.7303770548863
      ],
      [
        -122.47178387805486,
        37.73038073763113
      ],
      [
        -122.4716155471044,
        37.73141180021412
      ],
      [
        -122.47151972323208,
        37.733177234289656
      ],
      [
        -122.47140851709659,
        37.73463279668968
      ]
    ]
  },
  "properties": {}
}