{
  "type": "Feature",
  "geometry": {
    "type": "LineString",
    "coordinates": [
      [
        -122.47708250160797,
        37.762983807022195
      ],
      [
        -122.47709259616053,
        37.76315797662267
      ],
      [
        -122.47717867707073,
        37.76429032386516
      ],
      [
        -122.47731519451702,
        37.76610941894738
      ],
      [
        -122.47828903554478,
        37.76821309092611
      ],
      [
        -122.47893211711552,
        37.77035651006181
      ],
      [
        -122.47893118349751,
        37.772180982800805
      ],
      [
        -122.47578146970487,
        37.77241412863085
      ],
      [
        -122.47265523091343,
        37.77233666875637
      ],
      [
        -122.47190835,
        37.77251903333333
      ],
      [
        -122.47174900987851,
        37.772692933439835
      ],
      [
        -122.47180433958232,
        37.7742486463218
      ],
      [
        -122.4719594741738,
        37.776313980470036
      ],
      [
        -122.4721183147557,
        37.77848687427088
      ],
      [
        -122.4722612426103,
        37.78079544460091
      ],
      [
        -122.47236676666667,
        37.78244323333333
      ],
      [
        -122.47236676666667,
        37.78244323333333
      ],
      [
        -122.47236676666667,
        37.78244323333333
      ],
      [
        -122.47248460205303,
        37.78384156702326
      ],
      [
        -122.47251918333333,
        37.78422141666667
      ],
      [
        -122.47259963504818,
        37.78507689974491
      ],
      [
        -122.47238503303859,
        37.78722615792325
      ],
      [
        -122.4707278248522,
        37.7897485760632
      ],
      [
        -122.46954985284637,
        37.792508700498125
      ],
      [
        -122.46951195080881,
        37.795095747719124
      ],
      [
        -122.4694713932025,
        37.797707232411945
      ],
      [
        -122.46935763042441,
        37.80086141308308
      ],
      [
        -122.4699775136501,
        37.804031338679536
      ],
      [
        -122.47308874701424,
        37.80520447967276
      ],
      [
        -122.4753026378342,
        37.80729445407426
      ],
      [
        -122.47733291420845,
        37.8096589194198
      ],
      [
        -122.47774612552057,
        37.81299129590517
      ],
      [
        -122.47812220373372,
        37.81624095981928
      ],
      [
        -122.47850072065766,
        37.81943369764605
      ],
      [
        -122.47886697110744,
        37.822633799875085
      ],
      [
        -122.47921759253741,
        37.825790793465984
      ],
      [
        -122.479617163011,
        37.82877406433888
      ],
      [
        -122.48057661503458,
        37.83215870197191
      ],
      [
        -122.4838582931251,
        37.83438718427646
      ],
      [
        -122.48616632475962,
        37.837908572497106
      ],
      [
        -122.4858126031058,
        37.84155044938676
      ],
      [
        -122.48619921098123,
        37.84523957206053
      ],
      [
        -122.48872180570041,
        37.848327564161636
      ],
      [
        -122.49067865360747,
        37.851672183279554
      ],
      [
        -122.4933678587738,
        37.85456853962294
      ],
      [
        -122.4968505660094,
        37.85697627835146
      ],
      [
        -122.50055751513754,
        37.85937036336733
      ],
      [
        -122.50463581498272,
        37.86169674662848
      ],
      [
        -122.50701153979142,
        37.86516239800481
      ],
      [
        -122.50703342476551,
        37.86926137779843
      ],
      [
        -122.50783901276486,
        37.87353867142681
      ],
      [
        -122.5113144641978,
        37.876568727663994
      ],
      [
        -122.51532548920117,
        37.879041945015956
      ],
      [
        -122.51656718467723,
        37.882769607235566
      ],
      [
        -122.51660957760393,
        37.88680137841534
      ],
      [
        -122.51649303509525,
        37.89123131843558
      ],
      [
        -122.51619652361482,
        37.89559480180196
      ],
      [
        -122.51584163650315,
        37.90010388553134
      ],
      [
        -122.5154889625663,
        37.90449479102523
      ],
      [
        -122.51405825138686,
        37.908528609289974
      ],
      [
        -122.5125306854803,
        37.91227378002597
      ],
      [
        -122.51121631115457,
        37.91637133746193
      ],
      [
        -122.51153027519507,
        37.92037654039166
      ],
      [
        -122.51364324215884,
        37.92432734824076
      ],
      [
        -122.51517699446983,
        37.92795880192742
      ],
      [
        -122.51593053478709,
        37.93196388330809
      ],
      [
        -122.51670425760632,
        37.936007112439086
      ],
      [
        -122.5159303169949,
        37.94020171637729
      ],
      [
        -122.51490712855224,
        37.94407358449508
      ],
      [
        -122.51301135564604,
        37.947848975392134
      ],
      [
        -122.51037061331678,
        37.95121046849859
      ],
      [
        -122.50835576279263,
        37.95425175365067
      ],
      [
        -122.50901032497212,
        37.95798992824108
      ],
      [
        -122.50974688132,
        37.961743340349614
      ],
      [
        -122.5126103206142,
        37.964144771384674
      ],
      [
        -122.51639859830475,
        37.96630824370143
      ],
      [
        -122.51982841488065,
        37.96837992711278
      ],
      [
        -122.52124687472659,
        37.97032100490096
      ],
      [
        -122.52152198823232,
        37.97137195223831
      ],
      [
        -122.52292407522442,
        37.97154498207915
      ],
      [
        -122.52525268495327,
        37.97187648740194
      ],
      [
        -122.52745240701245,
        37.972115751238874
      ],
      [
        -122.47609351402353,
        37.750353467089795
      ],
      [
        -122.47614842592628,
        37.75159509287613
      ],
      [
        -122.47619692202197,
        37.752301443349616
      ],
      [
        -122.47630090321174,
        37.75367060845909
      ],
      [
        -122.47639541665322,
        37.754758075098785
      ],
      [
        -122.47652983188149,
        37.756836611742166
      ],
      [
        -122.47665675917996,
        37.758376258527804
      ],
      [
        -122.47679859668366,
        37.760119754562524
      ],
      [
        -122.4769911555985,
        37.7620149428874
      ],
      [
        -122.47716551519265,
        37.76400228870132
      ],
      [
        -122.47727623505658,
        37.76604977149875
      ],
      [
        -122.47824423212893,
        37.76817805307659
      ],
      [
        -122.4789768347501,
        37.77043314399914
      ],
      [
        -122.47906375465702,
        37.77213094967731
      ],
      [
        -122.47602837992363,
        37.772414242031104
      ],
      [
        -122.47284796613106,
        37.77234186193035
      ],
      [
        -122.47172161666667,
        37.77274176666667
      ],
      [
        -122.4716654027476,
        37.77298467200289
      ],
      [
        -122.47179862641356,
        37.77467694617839
      ],
      [
        -122.47195516036577,
        37.776839846068476
      ],
      [
        -122.47212552503228,
        37.77895787776043
      ],
      [
        -122.4722465041834,
        37.781125565948436
      ],
      [
        -122.47241395703978,
        37.78314615530777
      ],
      [
        -122.47256875613093,
        37.78517643744975
      ],
      [
        -122.47232181180794,
        37.78727592053491
      ],
      [
        -122.4709827116141,
        37.78948044014947
      ],
      [
        -122.46967694067791,
        37.79158697219423
      ],
      [
        -122.46947936121605,
        37.79410241109384
      ],
      [
        -122.46930824303055,
        37.79670322600196
      ],
      [
        -122.46928029648984,
        37.79984958621822
      ],
      [
        -122.46939477213475,
        37.803072294271416
      ],
      [
        -122.47186969587726,
        37.80462988868343
      ],
      [
        -122.47481619304493,
        37.806694806639435
      ],
      [
        -122.47732406740798,
        37.80941589790997
      ],
      [
        -122.47766819865106,
        37.81265976916264
      ],
      [
        -122.47810243378068,
        37.81622838717001
      ],
      [
        -122.47850363605967,
        37.81977511500986
      ],
      [
        -122.47895339245737,
        37.82343888286337
      ],
      [
        -122.47943209365376,
        37.82725666662422
      ],
      [
        -122.47985137032622,
        37.83083249889406
      ],
      [
        -122.48205138483142,
        37.833122670312044
      ],
      [
        -122.48484946611345,
        37.83598430407038
      ],
      [
        -122.48680945744803,
        37.839374163150026
      ],
      [
        -122.48558887121136,
        37.8430497153405
      ],
      [
        -122.48672035676736,
        37.84652008459006
      ],
      [
        -122.4895756109048,
        37.84963435919558
      ],
      [
        -122.4921435620734,
        37.85263350733477
      ],
      [
        -122.49452991468577,
        37.85616908502429
      ],
      [
        -122.49923136051905,
        37.85790944449308
      ],
      [
        -122.50305608366597,
        37.86094861070736
      ],
      [
        -122.50691068592715,
        37.86432959762523
      ],
      [
        -122.50721308616976,
        37.86899985233061
      ],
      [
        -122.50804911728743,
        37.87379253291124
      ],
      [
        -122.51153078150713,
        37.87677634729849
      ],
      [
        -122.51514366065943,
        37.87894913942805
      ],
      [
        -122.51664759736795,
        37.881837473169014
      ],
      [
        -122.51665939507495,
        37.88577898850833
      ],
      [
        -122.5166501850418,
        37.89023599618127
      ],
      [
        -122.51627901358512,
        37.8946331810564
      ],
      [
        -122.51591914399202,
        37.89900018725317
      ],
      [
        -122.5156169563174,
        37.90314846829567
      ],
      [
        -122.51466097679483,
        37.90722247680446
      ],
      [
        -122.51309432756226,
        37.91075161413655
      ],
      [
        -122.51176929577049,
        37.914650625458385
      ],
      [
        -122.51118664912579,
        37.91885484803136
      ],
      [
        -122.51277870452984,
        37.922720101262044
      ],
      [
        -122.51473632717831,
        37.92652670059529
      ],
      [
        -122.51570498278272,
        37.93064858618444
      ],
      [
        -122.51646407479235,
        37.934913410520494
      ],
      [
        -122.51629111914819,
        37.9388034822409
      ],
      [
        -122.51534947934454,
        37.94246760273756
      ],
      [
        -122.51424638253397,
        37.945792326338314
      ],
      [
        -122.51233523467127,
        37.94893938552368
      ],
      [
        -122.50953357389467,
        37.95189426413448
      ],
      [
        -122.50849705518499,
        37.95541156482877
      ],
      [
        -122.50917022959025,
        37.959104031160294
      ],
      [
        -122.50997700962476,
        37.96218682258743
      ],
      [
        -122.5124605454727,
        37.96408482135031
      ],
      [
        -122.5163579244762,
        37.96630833072211
      ],
      [
        -122.51978012994303,
        37.96839677510903
      ],
      [
        -122.52126019234954,
        37.970397189203545
      ],
      [
        -122.52163218378412,
        37.971369787150024
      ],
      [
        -122.5237998885079,
        37.97167133400561
      ],
      [
        -122.52588175587535,
        37.97195463025015
      ],
      [
        -122.52812655655757,
        37.97221330233087
      ],
      [
        -122.52821148333334,
        37.972224833333335
      ],
      [
        -122.47137876877883,
        37.70791735840474
      ],
      [
        -122.47179044088365,
        37.70419124212407
      ],
      [
        -122.47168331151357,
        37.699984589912034
      ],
      [
        -122.47079722828475,
        37.695794792645025
      ],
      [
        -122.47048346543792,
        37.691587502595084
      ],
      [
        -122.47117038067977,
        37.68741967360296
      ],
      [
        -122.47167398050546,
        37.683191394337925
      ],
      [
        -122.47183125517729,
        37.67896145924047
      ],
      [
        -122.46961301035155,
        37.67512952570604
      ],
      [
        -122.46696475715301,
        37.67147128582663
      ],
      [
        -122.46584201117082,
        37.66733026672149
      ],
      [
        -122.46577453916946,
        37.66306771169716
      ],
      [
        -122.46350120994036,
        37.65936372981403
      ],
      [
        -122.45965936203419,
        37.65627267206069
      ],
      [
        -122.45566658668682,
        37.653172323579504
      ],
      [
        -122.45237749320329,
        37.64959763113113
      ],
      [
        -122.44989852204596,
        37.645656678467404
      ],
      [
        -122.44568405812899,
        37.64285753082398
      ],
      [
        -122.44202640098992,
        37.63949133816937
      ],
      [
        -122.43934282975279,
        37.635633671122186
      ],
      [
        -122.43678224975757,
        37.63175783596877
      ],
      [
        -122.43318714126009,
        37.628576131636144
      ],
      [
        -122.4294042017958,
        37.62755633612386
      ],
      [
        -122.42473118911947,
        37.63024600806316
      ],
      [
        -122.41965391150863,
        37.63256706796843
      ],
      [
        -122.41459296227823,
        37.634142107918784
      ],
      [
        -122.41072588389798,
        37.63375601221245
      ],
      [
        -122.40686015900722,
        37.63376314803385
      ],
      [
        -122.4035170316309,
        37.63258036017087
      ],
      [
        -122.40287881475425,
        37.62924904422552
      ],
      [
        -122.4017116966674,
        37.62534241410606
      ],
      [
        -122.40041551697092,
        37.62183887562777
      ],
      [
        -122.3992096189985,
        37.61828528547656
      ],
      [
        -122.39750227736963,
        37.61455247239221
      ],
      [
        -122.39387556107555,
        37.611205712298556
      ],
      [
        -122.3894591575541,
        37.608361467566965
      ],
      [
        -122.38527916401821,
        37.60563284479739
      ],
      [
        -122.38110955992059,
        37.60290576735175
      ],
      [
        -122.37697349443074,
        37.60020283109536
      ],
      [
        -122.37266001206194,
        37.59741871969228
      ],
      [
        -122.36829740767872,
        37.594566807837126
      ],
      [
        -122.36402016006299,
        37.591787748087725
      ],
      [
        -122.35982615425036,
        37.58909320795415
      ],
      [
        -122.35492134911598,
        37.58739039930202
      ],
      [
        -122.34948290846731,
        37.587052575830086
      ],
      [
        -122.34381377765943,
        37.586887816483475
      ],
      [
        -122.33805478861528,
        37.586728648200776
      ],
      [
        -122.33226957700458,
        37.58638309545131
      ],
      [
        -122.32820099473963,
        37.583828894291344
      ],
      [
        -122.32522556902586,
        37.58111123663718
      ],
      [
        -122.32187929639066,
        37.57802158490353
      ],
      [
        -122.31845774162468,
        37.57486841371986
      ],
      [
        -122.3151021259592,
        37.57179073882601
      ],
      [
        -122.31179190884163,
        37.568727048131876
      ],
      [
        -122.30842267607763,
        37.56562978897675
      ],
      [
        -122.30474288172677,
        37.56224472965611
      ],
      [
        -122.3014672773689,
        37.559044889185905
      ],
      [
        -122.29858406409069,
        37.55584406461413
      ],
      [
        -122.29565009528392,
        37.55274975648214
      ],
      [
        -122.2928852094376,
        37.54977199621773
      ],
      [
        -122.29004886230223,
        37.54673301723955
      ],
      [
        -122.28719079703927,
        37.54364917010821
      ],
      [
        -122.28433689283959,
        37.54053655341009
      ],
      [
        -122.28144320180161,
        37.537405315206044
      ],
      [
        -122.27850851812916,
        37.53425274822293
      ],
      [
        -122.27567801523094,
        37.531217738734334
      ],
      [
        -122.27261515645738,
        37.52839945359308
      ],
      [
        -122.26954324197746,
        37.52569109069799
      ],
      [
        -122.26641336475744,
        37.522917701033435
      ],
      [
        -122.263304238886,
        37.52015722649305
      ],
      [
        -122.26011781415988,
        37.517358690790765
      ],
      [
        -122.25699387791293,
        37.51461680915721
      ],
      [
        -122.25384998285719,
        37.511823376954204
      ],
      [
        -122.2507287828586,
        37.50900090722108
      ],
      [
        -122.24754233600213,
        37.50622936240196
      ],
      [
        -122.24443096657383,
        37.50347582279519
      ],
      [
        -122.24124163846996,
        37.50064785935882
      ],
      [
        -122.23786420600173,
        37.49800414714558
      ],
      [
        -122.23377730608465,
        37.49643032179022
      ],
      [
        -122.22949786011974,
        37.49521299024209
      ],
      [
        -122.22526179047114,
        37.493934668577786
      ],
      [
        -122.2206058108831,
        37.49200416127328
      ],
      [
        -122.21598387202553,
        37.48995214216184
      ],
      [
        -122.21102259590437,
        37.488372224836205
      ],
      [
        -122.20581291434738,
        37.48746829724206
      ],
      [
        -122.20055573429286,
        37.486834696268986
      ],
      [
        -122.1952445973403,
        37.48617845472729
      ],
      [
        -122.18999990348294,
        37.48552920073888
      ],
      [
        -122.18477978722002,
        37.48454880854639
      ],
      [
        -122.17983226813111,
        37.48294078294888
      ],
      [
        -122.17539584056576,
        37.48059277499119
      ],
      [
        -122.17109444319667,
        37.478085118423806
      ],
      [
        -122.16677421337153,
        37.47557621351378
      ],
      [
        -122.16248688965048,
        37.47305627141694
      ],
      [
        -122.15818813007365,
        37.47053600497216
      ],
      [
        -122.15402092394604,
        37.468076406788974
      ],
      [
        -122.14995805281467,
        37.465696756787544
      ],
      [
        -122.14566143792129,
        37.46317200592477
      ],
      [
        -122.14137528076805,
        37.46064944119131
      ],
      [
        -122.13710531881219,
        37.45810353528531
      ],
      [
        -122.13288573152232,
        37.45557473711805
      ],
      [
        -122.12926617481509,
        37.45340671028133
      ],
      [
        -122.12592194856727,
        37.45133448717507
      ],
      [
        -122.12355925834423,
        37.4491767401386
      ],
      [
        -122.12106467051385,
        37.44680323810579
      ],
      [
        -122.11796873723773,
        37.443814496324975
      ],
      [
        -122.11493332090824,
        37.44091949994599
      ],
      [
        -122.11176214238768,
        37.437915264696315
      ],
      [
        -122.1084811545846,
        37.43477684440091
      ],
      [
        -122.1053312081073,
        37.431759752661826
      ],
      [
        -122.10252385199793,
        37.428942831610264
      ],
      [
        -122.10169540581605,
        37.42633055145861
      ],
      [
        -122.10150532871818,
        37.42381685447249
      ],
      [
        -122.1019774414744,
        37.42196352050153
      ],
      [
        -122.10421760649032,
        37.42204211274701
      ],
      [
        -122.10660660521509,
        37.42147827194168
      ],
      [
        -122.10917749995814,
        37.42045008298796
      ],
      [
        -122.1104377124982,
        37.41989636025201
      ],
      [
        -122.11266755346551,
        37.41868412490737
      ],
      [
        -122.11509393379804,
        37.41738848841378
      ],
      [
        -122.43689360387786,
        37.73152025913695
      ],
      [
        -122.43689407042959,
        37.73152027708173
      ],
      [
        -122.43689414120462,
        37.73152027980392
      ],
      [
        -122.43679993872603,
        37.73151665653419
      ],
      [
        -122.43459283755199,
        37.731232898976565
      ],
      [
        -122.43026919484196,
        37.73213788782776
      ],
      [
        -122.42512124652941,
        37.73136547439611
      ],
      [
        -122.41990285006317,
        37.73184439249833
      ],
      [
        -122.4146868472279,
        37.73216364105627
      ],
      [
        -122.41007867204313,
        37.73408999929346
      ],
      [
        -122.40754650734726,
        37.73695266397672
      ],
      [
        -122.40777004878892,
        37.74058193945297
      ],
      [
        -122.40561358737943,
        37.7439664073977
      ],
      [
        -122.40423707639604,
        37.74755228319379
      ],
      [
        -122.40308564051824,
        37.75124432293969
      ],
      [
        -122.40300074941125,
        37.754830531851255
      ],
      [
        -122.40447346010751,
        37.75802388891282
      ],
      [
        -122.40631221431774,
        37.7606132418034
      ],
      [
        -122.40508276273722,
        37.763463156267136
      ],
      [
        -122.40498844308433,
        37.76667206010681
      ],
      [
        -122.40528617218592,
        37.76985811499512
      ],
      [
        -122.4065902094421,
        37.772576159998415
      ],
      [
        -122.4055495075693,
        37.77531213146891
      ],
      [
        -122.40296662236705,
        37.77709944923425
      ],
      [
        -122.39994514384611,
        37.77900889813742
      ],
      [
        -122.39723457438024,
        37.78130767924307
      ],
      [
        -122.39433502899182,
        37.78370736688651
      ],
      [
        -122.39118018153498,
        37.78581572630015
      ],
      [
        -122.38877434974431,
        37.788036441122856
      ],
      [
        -122.38631911413275,
        37.79034501211846
      ],
      [
        -122.38396473098285,
        37.79250688998989
      ],
      [
        -122.38135540729347,
        37.79494555316435
      ],
      [
        -122.37890079285717,
        37.79726607441237
      ],
      [
        -122.37620864042326,
        37.799775107886184
      ],
      [
        -122.37329780064049,
        37.802481478410286
      ],
      [
        -122.37035158569834,
        37.80519353243451
      ],
      [
        -122.36740915839972,
        37.80797329444898
      ],
      [
        -122.3647170596309,
        37.81070653990733
      ],
      [
        -122.36165233952715,
        37.813171680919275
      ],
      [
        -122.35778631078745,
        37.815440642533424
      ],
      [
        -122.35386175949142,
        37.81762009862057
      ],
      [
        -122.34971856676748,
        37.81880837739804
      ],
      [
        -122.34451243648861,
        37.819576796473925
      ],
      [
        -122.33973436122783,
        37.820295253021776
      ],
      [
        -122.33468583750532,
        37.82103257958524
      ],
      [
        -122.33015242809991,
        37.82161662747599
      ],
      [
        -122.32473386724706,
        37.82206473002431
      ],
      [
        -122.31968954830094,
        37.82280482245797
      ],
      [
        -122.31507857406729,
        37.823616115748756
      ],
      [
        -122.31058053592766,
        37.82437581857515
      ],
      [
        -122.30552199244647,
        37.82498826552586
      ],
      [
        -122.3009216153784,
        37.826065198236215
      ],
      [
        -122.29595522175269,
        37.827154871332674
      ],
      [
        -122.29359079776248,
        37.82979336745783
      ],
      [
        -122.29411750312417,
        37.83353001718602
      ],
      [
        -122.29623706331748,
        37.83734877272636
      ],
      [
        -122.29710572490481,
        37.84147381003568
      ],
      [
        -122.29798677831344,
        37.845541062221834
      ],
      [
        -122.29882992328396,
        37.849230377316175
      ],
      [
        -122.29957790147766,
        37.852273518609074
      ],
      [
        -122.30036601082134,
        37.85504861809503
      ],
      [
        -122.30130488003836,
        37.85839780050455
      ],
      [
        -122.30217049259186,
        37.86153466069392
      ],
      [
        -122.30305585795497,
        37.86477859109053
      ],
      [
        -122.30408081705072,
        37.86835512570696
      ],
      [
        -122.30519320781724,
        37.87204208526409
      ],
      [
        -122.30618233600987,
        37.87548634662712
      ],
      [
        -122.30681928532178,
        37.877944889267084
      ],
      [
        -122.30574892223777,
        37.8784804033364
      ],
      [
        -122.30343862896616,
        37.878944353326844
      ],
      [
        -122.30144068580053,
        37.87929344044496
      ],
      [
        -122.3008573752488,
        37.87785817409903
      ],
      [
        -122.30024428528456,
        37.87595722826384
      ],
      [
        -122.29966330521478,
        37.874139840390235
      ],
      [
        -122.29906597462731,
        37.87224034508838
      ],
      [
        -122.29846444686625,
        37.870389592794325
      ],
      [
        -122.29788387626608,
        37.86859724512623
      ],
      [
        -122.29670422131097,
        37.868119310416596
      ],
      [
        -122.29410924849013,
        37.86864943765429
      ],
      [
        -122.29239199611656,
        37.86900285157413
      ],
      [
        -122.29049274816522,
        37.869255711929206
      ],
      [
        -122.2882555461189,
        37.8695507583855
      ],
      [
        -122.28601698128321,
        37.86983206101516
      ],
      [
        -122.28364484871071,
        37.87013275718691
      ],
      [
        -122.28127254722233,
        37.870436397059166
      ],
      [
        -122.27896135768323,
        37.870749442246314
      ],
      [
        -122.27662181166721,
        37.87107936186121
      ],
      [
        -122.27419913026674,
        37.87139008507888
      ],
      [
        -122.27310429661676,
        37.871523661197884
      ],
      [
        -122.27247385720271,
        37.8716186658471
      ],
      [
        -122.27184341778866,
        37.87171367049632
      ],
      [
        -122.2712129783746,
        37.87180867514554
      ],
      [
        -122.27060718396913,
        37.87193861520262
      ],
      [
        -122.27069265062097,
        37.872390690660446
      ]
    ]
  },
  "properties": {}
}