{
  "type": "Feature",
  "geometry": {
    "type": "LineString",
    "coordinates": [
      [
        -122.46529910260949,
        37.738824145922486
      ],
      [
        -122.46576424894249,
        37.738543484457416
      ],
      [
        -122.46577900875955,
        37.738517114056656
      ],
      [
        -122.46577049702951,
        37.73849508217813
      ],
      [
        -122.4659134462227,
        37.73850579756346
      ],
      [
        -122.466148963042,
        37.73919234540349
      ],
      [
        -122.4679457702608,
        37.737772196856085
      ],
      [
        -122.4705105437417,
        37.73577457063148
      ],
      [
        -122.4717671779765,
        37.73421541678433
      ],
      [
        -122.4719206021918,
        37.731644353759464
      ],
      [
        -122.4719205231101,
        37.731309165682255
      ],
      [
        -122.47193328471917,
        37.731305567186695
      ],
      [
        -122.47193280654969,
        37.730308143567385
      ],
      [
        -122.47212818703163,
        37.72742875923785
      ],
      [
        -122.47227293590402,
        37.724464020898274
      ],
      [
        -122.47245186329509,
        37.721909409741535
      ],
      [
        -122.47244375848153,
        37.72182586688332
      ],
      [
        -122.47250303450228,
        37.72026432107788
      ],
      [
        -122.47265317190958,
        37.71798592938468
      ],
      [
        -122.47262949638312,
        37.71756590396816
      ],
      [
        -122.47263227516065,
        37.717180428201004
      ],
      [
        -122.47182040039412,
        37.714753136034105
      ],
      [
        -122.47122011658635,
        37.711519662930385
      ],
      [
        -122.47132394341405,
        37.70805144029185
      ],
      [
        -122.47178586355493,
        37.70428960826784
      ],
      [
        -122.47166927698781,
        37.69979984401177
      ],
      [
        -122.47067794195408,
        37.69526753109697
      ],
      [
        -122.47050037301356,
        37.69060707615673
      ],
      [
        -122.46535393486332,
        37.73960938842848
      ],
      [
        -122.46535962342233,
        37.73963195388968
      ],
      [
        -122.46401086126548,
        37.73996462258743
      ],
      [
        -122.46148741171105,
        37.74021622720309
      ],
      [
        -122.4600658570371,
        37.74043112129519
      ],
      [
        -122.45918455387847,
        37.74050017849342
      ],
      [
        -122.4591811817727,
        37.74048855593479
      ],
      [
        -122.45726301172975,
        37.74112642196775
      ],
      [
        -122.45567071232591,
        37.742303278097594
      ],
      [
        -122.45441629511959,
        37.743795230025576
      ],
      [
        -122.4525535363976,
        37.74504448771733
      ],
      [
        -122.45091077442099,
        37.74568518714616
      ],
      [
        -122.44859007842969,
        37.74614018794813
      ],
      [
        -122.44590635943577,
        37.74676951982546
      ],
      [
        -122.4444316749404,
        37.747040426422735
      ],
      [
        -122.44399329468854,
        37.74857166830761
      ],
      [
        -122.44318827783434,
        37.750525501864715
      ],
      [
        -122.44258525078622,
        37.75285749852474
      ],
      [
        -122.44166006262432,
        37.754764490879374
      ],
      [
        -122.44099761543546,
        37.75618723479342
      ],
      [
        -122.44256673245626,
        37.75698953271731
      ],
      [
        -122.44378385372721,
        37.75810349370573
      ],
      [
        -122.44520862034035,
        37.75843070910923
      ],
      [
        -122.44580526970556,
        37.75870783361368
      ],
      [
        -122.44646399210934,
        37.75923995933353
      ],
      [
        -122.4464102094359,
        37.760642895736794
      ],
      [
        -122.44656972022347,
        37.76149894139138
      ],
      [
        -122.44696728298959,
        37.76272758785514
      ],
      [
        -122.44627531816228,
        37.76397773104675
      ],
      [
        -122.44585050420211,
        37.76500586451191
      ],
      [
        -122.44605385129906,
        37.765760436458606
      ],
      [
        -122.44628548417833,
        37.76702305725988
      ],
      [
        -122.44639847295275,
        37.767612913978674
      ],
      [
        -122.44677877856581,
        37.76888743706609
      ],
      [
        -122.44686267424834,
        37.76958025609565
      ],
      [
        -122.44703753729598,
        37.77021852090267
      ],
      [
        -122.44710843706069,
        37.77093999381675
      ],
      [
        -122.4463077035373,
        37.771033494071524
      ],
      [
        -122.44570050774462,
        37.77108335639679
      ],
      [
        -122.44569306142847,
        37.77107943193268
      ],
      [
        -122.44501338122211,
        37.77115700808208
      ],
      [
        -122.4439434767444,
        37.77134852031833
      ],
      [
        -122.44248186937287,
        37.77158037129243
      ],
      [
        -122.44184506725055,
        37.77169314068689
      ],
      [
        -122.44078335874977,
        37.77181124050691
      ],
      [
        -122.4408262030205,
        37.77182870117464
      ],
      [
        -122.44063571627736,
        37.77203680531352
      ],
      [
        -122.44076802810437,
        37.7726648889595
      ]
    ]
  },
  "properties": {}
}