{
  "type": "Feature",
  "geometry": {
    "type": "LineString",
    "coordinates": [
      [
        -122.27524654951158,
        37.871083770913884
      ],
      [
        -122.276192294844,
        37.87116123164357
      ],
      [
        -122.27818184439454,
        37.87092690600774
      ],
      [
        -122.28059901475919,
        37.87062916241213
      ],
      [
        -122.2821737031806,
        37.87044198182081
      ],
      [
        -122.28400902193097,
        37.87020478601053
      ],
      [
        -122.28628632484799,
        37.869908762593475
      ],
      [
        -122.28811725484142,
        37.86967747983147
      ],
      [
        -122.3264601032386,
        37.93345580042339
      ],
      [
        -122.32597012726171,
        37.93745987901608
      ],
      [
        -122.32393593783262,
        37.941529787670234
      ],
      [
        -122.32461353906946,
        37.945733704762326
      ],
      [
        -122.32663708705023,
        37.949986448532734
      ],
      [
        -122.3286148427208,
        37.95389075178909
      ],
      [
        -122.33060021010726,
        37.95781525543527
      ],
      [
        -122.3294834309931,
        37.96182676860626
      ],
      [
        -122.27544348830034,
        38.00842838735508
      ],
      [
        -122.27215939023453,
        38.01193287640804
      ],
      [
        -122.26887925504963,
        38.01544504930747
      ],
      [
        -122.26569669657681,
        38.01882220698546
      ],
      [
        -122.26255001708323,
        38.02225306952966
      ],
      [
        -122.2593517001231,
        38.025698136037555
      ],
      [
        -122.25625796497457,
        38.02904290066196
      ],
      [
        -122.25342639984889,
        38.032008869194996
      ],
      [
        -122.25080724793136,
        38.03484903192444
      ],
      [
        -122.24818951814606,
        38.03771077317673
      ],
      [
        -122.24500017071914,
        38.04020188479268
      ],
      [
        -122.24146529310285,
        38.042716050561665
      ],
      [
        -122.23778056491356,
        38.04528434782615
      ],
      [
        -122.2341916956849,
        38.047828011573365
      ],
      [
        -122.23094312996017,
        38.05015768037039
      ],
      [
        -122.22756241175937,
        38.05252784147233
      ],
      [
        -122.22490489653933,
        38.05497227870051
      ],
      [
        -122.2249011293862,
        38.057937922581154
      ],
      [
        -122.22516598565734,
        38.06093246997346
      ],
      [
        -122.22541893440709,
        38.06380063104174
      ],
      [
        -122.22564612761185,
        38.06622670730806
      ],
      [
        -122.2261953981203,
        38.0683468194769
      ],
      [
        -122.22633706995134,
        38.068613430531705
      ],
      [
        -122.22634233545719,
        38.06863630194037
      ],
      [
        -122.22647395926484,
        38.06887272748106
      ],
      [
        -122.22655065593865,
        38.06899759128653
      ],
      [
        -122.22655238732658,
        38.06907284909607
      ],
      [
        -122.22770527014535,
        38.07090454935343
      ],
      [
        -122.23017694138868,
        38.073997263236066
      ],
      [
        -122.23253859470415,
        38.07790859475482
      ],
      [
        -122.23329995317755,
        38.08237067728859
      ],
      [
        -122.23230039081434,
        38.08678088073745
      ],
      [
        -122.23052855574421,
        38.09100146195951
      ],
      [
        -122.22977838140376,
        38.094981798712475
      ],
      [
        -122.22971831434566,
        38.09881898247057
      ],
      [
        -122.22965629022316,
        38.10319322468086
      ],
      [
        -122.22960811796699,
        38.10724289053156
      ],
      [
        -122.22957473502463,
        38.11106147448272
      ],
      [
        -122.22984442353658,
        38.11437335233252
      ],
      [
        -122.23011220586831,
        38.1175974556044
      ],
      [
        -122.2302344326484,
        38.12115007066323
      ],
      [
        -122.22916390102228,
        38.124610133294695
      ],
      [
        -122.22720145148682,
        38.12775422632906
      ],
      [
        -122.22499595078236,
        38.131238224007376
      ],
      [
        -122.22259554893765,
        38.13496468670601
      ],
      [
        -122.2202294749963,
        38.13867102721906
      ],
      [
        -122.21813566849205,
        38.14201038598841
      ],
      [
        -122.2167319058817,
        38.145444272519775
      ],
      [
        -122.21680905716185,
        38.149365840401515
      ],
      [
        -122.21564482180052,
        38.153620152985496
      ],
      [
        -122.21287039098682,
        38.157564247786375
      ],
      [
        -122.21011870331996,
        38.161385661505406
      ],
      [
        -122.2069956310625,
        38.16461712789153
      ],
      [
        -122.2026315436771,
        38.1674855379147
      ],
      [
        -122.1981791083549,
        38.170567978769355
      ],
      [
        -122.19384832529997,
        38.173661068870615
      ],
      [
        -122.19043420517133,
        38.17748781995459
      ],
      [
        -122.18603112904455,
        38.180603346018586
      ],
      [
        -122.1819561646016,
        38.18388046717363
      ],
      [
        -122.17699736144303,
        38.18624448494272
      ],
      [
        -122.17196109928301,
        38.188072053413926
      ],
      [
        -122.16802927440646,
        38.1912080555906
      ],
      [
        -122.1646770911108,
        38.19512412167149
      ],
      [
        -122.1609162360137,
        38.19847539033649
      ],
      [
        -122.15715282640738,
        38.201752952174154
      ],
      [
        -122.15346337856066,
        38.204997787965546
      ],
      [
        -122.14979245293539,
        38.20823191448644
      ],
      [
        -122.14565705220892,
        38.21111181981588
      ],
      [
        -122.14155392178513,
        38.21394296662984
      ],
      [
        -122.13733867379008,
        38.21687654582347
      ],
      [
        -122.13336784414261,
        38.219658335179744
      ],
      [
        -122.12959177165708,
        38.222229603411996
      ],
      [
        -122.12538064402501,
        38.22489816001082
      ],
      [
        -122.1208650918167,
        38.22733897648927
      ],
      [
        -122.11630442411787,
        38.22937833173553
      ],
      [
        -122.11192164647422,
        38.23120066591527
      ],
      [
        -122.10751508520678,
        38.233143078866156
      ],
      [
        -122.1031816563269,
        38.23496930699645
      ],
      [
        -122.09872659205236,
        38.23694005415272
      ],
      [
        -122.09413851602848,
        38.23895735490892
      ],
      [
        -122.08969985509847,
        38.24095644412159
      ],
      [
        -122.08535847927229,
        38.24284738512644
      ],
      [
        -122.08096537203946,
        38.244773618200306
      ],
      [
        -122.07620863833002,
        38.246748041092545
      ],
      [
        -122.071239114212,
        38.24845664548822
      ],
      [
        -122.06777494456568,
        38.251812205191335
      ],
      [
        -122.06475166616578,
        38.25543265257839
      ],
      [
        -122.06188384117448,
        38.258786086761205
      ],
      [
        -122.0589834089955,
        38.26216096137477
      ],
      [
        -122.05589030399321,
        38.26582048054924
      ],
      [
        -122.05290855634519,
        38.2693384999183
      ],
      [
        -122.05004123736983,
        38.27275896715008
      ],
      [
        -122.04752124422474,
        38.275776408413705
      ],
      [
        -122.04579568123884,
        38.27779120423216
      ],
      [
        -122.04452140574989,
        38.27927979352649
      ],
      [
        -122.04318136824335,
        38.28087342326182
      ],
      [
        -122.04194706858154,
        38.28229620301657
      ],
      [
        -122.04060020814661,
        38.28384429129534
      ],
      [
        -122.03945961359233,
        38.28519508200634
      ],
      [
        -122.03811021845193,
        38.286801647516505
      ],
      [
        -122.03645290350568,
        38.28878454408378
      ],
      [
        -122.03462848650665,
        38.29112964790987
      ],
      [
        -122.03395728475321,
        38.29323655373195
      ],
      [
        -122.03385692086921,
        38.295189377178694
      ],
      [
        -122.0338313258627,
        38.297056869542615
      ],
      [
        -122.03379292420475,
        38.29931728967884
      ],
      [
        -122.03372765610384,
        38.30181091237378
      ],
      [
        -122.03368962187429,
        38.30431143910986
      ],
      [
        -122.03359770700526,
        38.30727412232261
      ],
      [
        -122.03318593736412,
        38.31004772734043
      ],
      [
        -122.03265793299225,
        38.31311875325502
      ],
      [
        -122.03113906278824,
        38.316265829525356
      ],
      [
        -122.02854187022577,
        38.31921141336164
      ],
      [
        -122.02576967240903,
        38.32233906036611
      ],
      [
        -122.02333792639033,
        38.32590323176185
      ],
      [
        -122.02103166220583,
        38.3295134560603
      ],
      [
        -122.01867490681522,
        38.33321243221699
      ],
      [
        -122.01630097564282,
        38.3369069514119
      ],
      [
        -122.43737074677679,
        37.77236343441802
      ],
      [
        -122.43730718859003,
        37.77206609581834
      ],
      [
        -122.43719596555147,
        37.771476425843154
      ],
      [
        -122.43729881416914,
        37.771546192330746
      ],
      [
        -122.43733182384518,
        37.77147768067005
      ],
      [
        -122.43733650216134,
        37.771503497739296
      ],
      [
        -122.4373078314501,
        37.771299567025586
      ],
      [
        -122.4386246787172,
        37.77113279225981
      ],
      [
        -122.43978480152143,
        37.77102076523803
      ],
      [
        -122.44035963775558,
        37.771073061994926
      ],
      [
        -122.44051244078615,
        37.77179008914314
      ],
      [
        -122.44062298206565,
        37.772540683417255
      ],
      [
        -122.44062625370495,
        37.772611360629924
      ],
      [
        -122.44063738989131,
        37.772622419782635
      ],
      [
        -122.44063742210352,
        37.772622192279734
      ],
      [
        -122.44069633384002,
        37.772978616319314
      ],
      [
        -122.44077214646818,
        37.773360086790404
      ],
      [
        -122.44084254362886,
        37.773389914206184
      ],
      [
        -122.44084165253484,
        37.773401504280635
      ],
      [
        -122.44267791857057,
        37.773277656596186
      ],
      [
        -122.44501234727349,
        37.77309870405268
      ],
      [
        -122.44554795270359,
        37.77292190397933
      ],
      [
        -122.44551708733918,
        37.77294573760729
      ],
      [
        -122.4461419970744,
        37.77289531817924
      ],
      [
        -122.4472705232544,
        37.7726754657781
      ],
      [
        -122.44899956232999,
        37.77253131221898
      ],
      [
        -122.45108001639231,
        37.7722551791107
      ],
      [
        -122.45298000637105,
        37.77187134411097
      ],
      [
        -122.45333547052219,
        37.771770061560524
      ],
      [
        -122.45377336694737,
        37.77158800610706
      ],
      [
        -122.45523987411045,
        37.77094513987135
      ],
      [
        -122.45512628738466,
        37.769702068440424
      ],
      [
        -122.4556144618844,
        37.76815957824444
      ],
      [
        -122.45792729267724,
        37.767524087389276
      ],
      [
        -122.45991490635905,
        37.76652524062152
      ],
      [
        -122.46121458970535,
        37.7662347481188
      ],
      [
        -122.4624145924648,
        37.76611040813939
      ],
      [
        -122.46442028459313,
        37.76601473777961
      ],
      [
        -122.46652433232528,
        37.76592111945144
      ],
      [
        -122.46901137448334,
        37.76586779233071
      ],
      [
        -122.47188262785888,
        37.765646529835095
      ],
      [
        -122.47444728008315,
        37.765552428858165
      ],
      [
        -122.47619792838069,
        37.76554004482503
      ],
      [
        -122.47732787376114,
        37.76547900249422
      ],
      [
        -122.4782989940316,
        37.76545388132507
      ],
      [
        -122.47869830832506,
        37.76546926601091
      ],
      [
        -122.4806990237114,
        37.76544485672221
      ],
      [
        -122.48328711892937,
        37.76528185749199
      ],
      [
        -122.4833567074246,
        37.76544562150855
      ],
      [
        -122.4834491885922,
        37.765441412596054
      ],
      [
        -122.48345041197761,
        37.765372266738446
      ],
      [
        -122.48382123694937,
        37.765360590608616
      ],
      [
        -122.48619087013242,
        37.76529232979618
      ],
      [
        -122.48909711617135,
        37.76506623323029
      ],
      [
        -122.49215980593947,
        37.764814119294705
      ],
      [
        -122.49457449158692,
        37.76465871665366
      ],
      [
        -122.49530424860316,
        37.76469306252998
      ],
      [
        -122.49638793237095,
        37.7646704129286
      ],
      [
        -122.49655737056449,
        37.764305415905326
      ],
      [
        -122.49610968020936,
        37.7629963857116
      ],
      [
        -122.49601237131517,
        37.76288445656401
      ],
      [
        -122.49597034426871,
        37.76183984470133
      ],
      [
        -122.49575002004197,
        37.759928171430516
      ],
      [
        -122.4955349949255,
        37.758619317963934
      ],
      [
        -122.49556058881376,
        37.75707666873482
      ],
      [
        -122.49543848857174,
        37.755634961626555
      ],
      [
        -122.49548246217039,
        37.75426206855944
      ],
      [
        -122.49533050665251,
        37.75260614528211
      ],
      [
        -122.49526535807985,
        37.7520887681442
      ],
      [
        -122.4951658676733,
        37.75071478630605
      ],
      [
        -122.49492032151956,
        37.74902807236289
      ],
      [
        -122.49484333059749,
        37.74751312812811
      ],
      [
        -122.49473177586148,
        37.745673409085626
      ],
      [
        -122.49454453239625,
        37.744361443045825
      ],
      [
        -122.49453419740426,
        37.74263202985791
      ],
      [
        -122.49448005575914,
        37.741128666377904
      ],
      [
        -122.49442051499973,
        37.740121375238076
      ],
      [
        -122.4943858468573,
        37.73838184917617
      ],
      [
        -122.49430568586847,
        37.73720364509919
      ],
      [
        -122.4940506166125,
        37.73570679445413
      ],
      [
        -122.4939642414868,
        37.73367190036916
      ],
      [
        -122.49443497981673,
        37.73336576826665
      ],
      [
        -122.49444259869153,
        37.73381906423233
      ],
      [
        -122.48181999886614,
        37.73443357005962
      ],
      [
        -122.47914675806302,
        37.7344874930693
      ],
      [
        -122.47642754982498,
        37.73455336811458
      ],
      [
        -122.47541324296317,
        37.73460469776324
      ],
      [
        -122.47539908100677,
        37.73460059527589
      ],
      [
        -122.47539816216411,
        37.734600513824745
      ],
      [
        -122.47539742901957,
        37.734600318823894
      ],
      [
        -122.47536947236502,
        37.73460272266103
      ],
      [
        -122.47373032039242,
        37.73462129076271
      ],
      [
        -122.47179730577139,
        37.734696823960576
      ],
      [
        -122.47019144841252,
        37.73583652439249
      ],
      [
        -122.46824429363629,
        37.737622742058896
      ],
      [
        -122.46612809748821,
        37.73896449408996
      ],
      [
        -122.46689621951782,
        37.7387793033198
      ],
      [
        -122.46820638349949,
        37.73761138148892
      ],
      [
        -122.46998017769774,
        37.73622191618579
      ],
      [
        -122.47099708849505,
        37.73535511506189
      ],
      [
        -122.47104969906525,
        37.73528100160298
      ],
      [
        -122.47104806692461,
        37.735281525865574
      ],
      [
        -122.47104724450074,
        37.73528106290015
      ],
      [
        -122.47143672042777,
        37.7348865751592
      ],
      [
        -122.47187575313983,
        37.733568475351966
      ],
      [
        -122.47199655144458,
        37.73193034817161
      ],
      [
        -122.4720952548256,
        37.73097118424664
      ],
      [
        -122.47214205104967,
        37.72865003891899
      ],
      [
        -122.47221678463396,
        37.72614497256016
      ],
      [
        -122.47231812547015,
        37.72393292965293
      ],
      [
        -122.47241072361489,
        37.722591434107656
      ],
      [
        -122.4724449674061,
        37.72202677839581
      ],
      [
        -122.47251607244436,
        37.72047622549835
      ],
      [
        -122.47263236997415,
        37.71871102220077
      ],
      [
        -122.47265880396355,
        37.71804061252472
      ],
      [
        -122.47263491490256,
        37.718019609496466
      ],
      [
        -122.47264487554301,
        37.718043594557464
      ],
      [
        -122.47269301504838,
        37.718034990380474
      ],
      [
        -122.47270921468822,
        37.71804476762588
      ],
      [
        -122.4727107779241,
        37.71802604420876
      ],
      [
        -122.47259584985113,
        37.71653679054178
      ],
      [
        -122.4717335593796,
        37.71425827760044
      ],
      [
        -122.47132286273079,
        37.7115760284052
      ],
      [
        -122.47132271989014,
        37.7090650203221
      ],
      [
        -122.47160962154622,
        37.70618330701791
      ],
      [
        -122.47183317321527,
        37.702823194438125
      ],
      [
        -122.47168413916764,
        37.69950822887588
      ],
      [
        -122.47104427689686,
        37.69618720477441
      ],
      [
        -122.47062185546257,
        37.692773890231386
      ],
      [
        -122.47071959245531,
        37.68921077727008
      ],
      [
        -122.47157013295868,
        37.68582779390065
      ],
      [
        -122.47173223848101,
        37.68236976709424
      ],
      [
        -122.47185265210636,
        37.679110746927286
      ],
      [
        -122.47031436488056,
        37.67587250652441
      ],
      [
        -122.46792858667693,
        37.67282260509188
      ],
      [
        -122.46624174408855,
        37.66941827820239
      ],
      [
        -122.46594085267661,
        37.6659157489278
      ],
      [
        -122.46567788416431,
        37.66219763740663
      ],
      [
        -122.46338743196708,
        37.6591889349524
      ],
      [
        -122.46044468074567,
        37.65674072964195
      ],
      [
        -122.45722317931559,
        37.654261457006626
      ],
      [
        -122.45408654375025,
        37.65175743697227
      ],
      [
        -122.45202194908936,
        37.648711103887294
      ],
      [
        -122.44961366061858,
        37.645130782475974
      ],
      [
        -122.44568959435371,
        37.6427034459963
      ],
      [
        -122.44248667266739,
        37.63975075670676
      ],
      [
        -122.43982901946579,
        37.63644295807992
      ],
      [
        -122.43776819256449,
        37.632689947448874
      ],
      [
        -122.43465302764145,
        37.629959868518775
      ],
      [
        -122.43134140147117,
        37.627379742770565
      ],
      [
        -122.42867597244228,
        37.62433104386506
      ],
      [
        -122.42639326243491,
        37.62081020941741
      ],
      [
        -122.42476138485797,
        37.617499825943646
      ],
      [
        -122.42410923204739,
        37.61496134019306
      ],
      [
        -122.42167871013214,
        37.614798623519235
      ],
      [
        -122.42046159130754,
        37.61422410688736
      ],
      [
        -122.42153032353545,
        37.61409323194949
      ],
      [
        -122.42380164862661,
        37.61330036135471
      ],
      [
        -122.42519630797655,
        37.61212860653147
      ],
      [
        -122.42510916650245,
        37.612184413720776
      ],
      [
        -122.42506074276257,
        37.612243795283305
      ],
      [
        -122.42518373594888,
        37.612130545041964
      ],
      [
        -122.42507337114071,
        37.6121991502071
      ],
      [
        -122.42531686154054,
        37.61200832141933
      ],
      [
        -122.42500042051304,
        37.61221116452508
      ],
      [
        -122.42519490425848,
        37.61201358493669
      ],
      [
        -122.42407583043997,
        37.61295947324113
      ],
      [
        -122.42139024178566,
        37.61419039876559
      ],
      [
        -122.4203569092573,
        37.61398101977836
      ],
      [
        -122.4203674586966,
        37.613991208404535
      ],
      [
        -122.42032179774175,
        37.61403553202789
      ],
      [
        -122.42138603606196,
        37.614941500258546
      ],
      [
        -122.42200235104266,
        37.61554526479619
      ],
      [
        -122.42165105997428,
        37.61506156435621
      ],
      [
        -122.42337381039441,
        37.616043326791306
      ],
      [
        -122.42517784130479,
        37.61981361965136
      ],
      [
        -122.4275854555794,
        37.62351671622613
      ],
      [
        -122.42905568848784,
        37.6269383906438
      ],
      [
        -122.42638236783029,
        37.62950001545519
      ],
      [
        -122.42262141093605,
        37.631125526110395
      ],
      [
        -122.41840412983628,
        37.63310858528072
      ],
      [
        -122.4140428734347,
        37.634119654379695
      ],
      [
        -122.41036192818817,
        37.63366687654148
      ],
      [
        -122.4065844031087,
        37.633795404479365
      ],
      [
        -122.40322744647989,
        37.63178306592222
      ],
      [
        -122.4026432320873,
        37.62804334169607
      ],
      [
        -122.40145517277415,
        37.62439699335474
      ],
      [
        -122.40001652890581,
        37.620449438344934
      ],
      [
        -122.39863626580357,
        37.616504532401926
      ],
      [
        -122.39619957542851,
        37.612956065573194
      ],
      [
        -122.39256636925941,
        37.61028699278633
      ],
      [
        -122.38923212040697,
        37.60811005250073
      ],
      [
        -122.38599826183506,
        37.60600012299087
      ],
      [
        -122.38267444235136,
        37.60385124774453
      ],
      [
        -122.3791069585072,
        37.60150650457963
      ],
      [
        -122.37566193590047,
        37.59927061938128
      ],
      [
        -122.37217997118958,
        37.59702265010916
      ],
      [
        -122.36857079686729,
        37.59467917178442
      ],
      [
        -122.36519776292259,
        37.592476373597925
      ],
      [
        -122.36182645946111,
        37.590266877164076
      ],
      [
        -122.35833722585778,
        37.58827620685995
      ],
      [
        -122.35395799940795,
        37.58717267768787
      ],
      [
        -122.34919348249171,
        37.58700225138101
      ],
      [
        -122.34477759339136,
        37.586898159477336
      ],
      [
        -122.34005879625444,
        37.586782551
      ],
      [
        -122.33447627035902,
        37.58666786808297
      ],
      [
        -122.32999538455965,
        37.585340919992596
      ],
      [
        -122.32647238968053,
        37.582192137049034
      ],
      [
        -122.3230391873324,
        37.57908038769103
      ],
      [
        -122.31951964082606,
        37.57585009782139
      ],
      [
        -122.31593681294913,
        37.57255108079935
      ],
      [
        -122.31242380740441,
        37.56929298490366
      ],
      [
        -122.30893398276764,
        37.56608755669731
      ],
      [
        -122.30571994257976,
        37.5631376793359
      ],
      [
        -122.30216324519826,
        37.55978065188764
      ],
      [
        -122.29890818984595,
        37.55617563132677
      ],
      [
        -122.29607915573078,
        37.55313954404665
      ],
      [
        -122.29392404752555,
        37.5508261973388
      ],
      [
        -122.2919935233605,
        37.54873482654768
      ],
      [
        -122.29042866525572,
        37.54705497738494
      ],
      [
        -122.28911780103692,
        37.54565415126609
      ],
      [
        -122.28753771959722,
        37.54393656552133
      ],
      [
        -122.28545900285526,
        37.54167626582912
      ],
      [
        -122.28275130916263,
        37.53874586661765
      ],
      [
        -122.2796712904528,
        37.535431612224976
      ],
      [
        -122.27657381289606,
        37.53208770033048
      ],
      [
        -122.27316243042537,
        37.528817822289426
      ],
      [
        -122.26971170932077,
        37.52582088457771
      ],
      [
        -122.26665329926534,
        37.523106648752744
      ],
      [
        -122.26346879145558,
        37.52029220092787
      ],
      [
        -122.26012153300721,
        37.517346342864634
      ],
      [
        -122.25679527230689,
        37.514403323792024
      ],
      [
        -122.25343007601433,
        37.5114286967313
      ],
      [
        -122.25000581558805,
        37.50838405478417
      ],
      [
        -122.24672213694197,
        37.505490349943095
      ],
      [
        -122.24349042847555,
        37.5026265347047
      ],
      [
        -122.24012797710597,
        37.49965978091514
      ],
      [
        -122.2365091073168,
        37.497298303798246
      ],
      [
        -122.23234352694172,
        37.495992859199035
      ],
      [
        -122.22789732941747,
        37.49473389759848
      ],
      [
        -122.22355810073735,
        37.49323579113276
      ],
      [
        -122.21927100829359,
        37.491376887956996
      ],
      [
        -122.21472929728469,
        37.48946626553146
      ],
      [
        -122.20975752798296,
        37.48806653854937
      ],
      [
        -122.20477107171675,
        37.48731943694696
      ],
      [
        -122.1998294599581,
        37.486710074440175
      ],
      [
        -122.19498843273824,
        37.48612302691762
      ],
      [
        -122.18977591474261,
        37.48546153372537
      ],
      [
        -122.18455459040017,
        37.48446849295171
      ],
      [
        -122.17971073469248,
        37.482889867561106
      ],
      [
        -122.17533392489644,
        37.48051215272131
      ],
      [
        -122.17093433278714,
        37.47795384431392
      ],
      [
        -122.16681442536003,
        37.47555236856835
      ],
      [
        -122.16255559125123,
        37.473056789625915
      ],
      [
        -122.15848637599113,
        37.470683661952975
      ],
      [
        -122.15452865294277,
        37.468340301411715
      ],
      [
        -122.15046316500772,
        37.46594568183842
      ],
      [
        -122.14637918248623,
        37.463594043728435
      ],
      [
        -122.14241234453408,
        37.461216543484184
      ],
      [
        -122.13858650762114,
        37.4589757606457
      ],
      [
        -122.13531711658585,
        37.45703450569382
      ],
      [
        -122.13270851642724,
        37.45546886346764
      ],
      [
        -122.12973688701841,
        37.453726293793046
      ],
      [
        -122.12623110644081,
        37.45159810024258
      ],
      [
        -122.12305284951002,
        37.44878075353955
      ],
      [
        -122.11971034722208,
        37.44552904945386
      ],
      [
        -122.11605913490146,
        37.44203086229917
      ],
      [
        -122.11235976093472,
        37.438546422051424
      ],
      [
        -122.1085695974379,
        37.4349584506598
      ],
      [
        -122.1048213230206,
        37.43142804807193
      ],
      [
        -122.10110199257143,
        37.427891325048655
      ],
      [
        -122.09722397166928,
        37.42439460732737
      ],
      [
        -122.09295591800586,
        37.421233422769745
      ],
      [
        -122.08896914356396,
        37.41832305099522
      ],
      [
        -122.0849950029909,
        37.415419964690585
      ],
      [
        -122.0809790829242,
        37.41297523909489
      ],
      [
        -122.07697882912437,
        37.41119575861307
      ],
      [
        -122.07273497646355,
        37.40925660231119
      ],
      [
        -122.07006665026798,
        37.406321654414874
      ],
      [
        -122.07003850581876,
        37.40245289046177
      ],
      [
        -122.06959144031288,
        37.39845339632516
      ],
      [
        -122.06875363217361,
        37.39518713315404
      ],
      [
        -122.06888065508238,
        37.39299513117317
      ],
      [
        -122.06925458792878,
        37.39225982995208
      ],
      [
        -122.07142056710339,
        37.39316183105814
      ],
      [
        -122.07430957555789,
        37.39427799963062
      ],
      [
        -122.07677679318489,
        37.3952211337521
      ],
      [
        -122.07749284819462,
        37.395484820825125
      ],
      [
        -122.07826147586309,
        37.39515560775295
      ]
    ]
  },
  "properties": {}
}