{
  "type": "Feature",
  "geometry": {
    "type": "LineString",
    "coordinates": [
      [
        -122.53225324710361,
        37.97168093341492
      ],
      [
        -122.53129150146555,
        37.97149174646769
      ],
      [
        -122.53122763406074,
        37.97148521990242
      ],
      [
        -122.52985654662412,
        37.971300754257285
      ],
      [
        -122.52891768726151,
        37.97118514661398
      ],
      [
        -122.52829166430939,
        37.97118788490112
      ],
      [
        -122.52701249242222,
        37.97105016010329
      ],
      [
        -122.5254315882017,
        37.970888048370256
      ],
      [
        -122.52382413808394,
        37.97072422521508
      ],
      [
        -122.5222722218391,
        37.97040923184353
      ],
      [
        -122.52118943073954,
        37.968782055685374
      ],
      [
        -122.51823863622826,
        37.96700012246309
      ],
      [
        -122.51441716506498,
        37.96479696125697
      ],
      [
        -122.51058817385328,
        37.962454042537644
      ],
      [
        -122.50940265615353,
        37.95895538729086
      ],
      [
        -122.50869012310365,
        37.95511894913628
      ],
      [
        -122.50998193941096,
        37.95181118245549
      ],
      [
        -122.51262888130296,
        37.94890501395916
      ],
      [
        -122.51471943415984,
        37.945353819349336
      ],
      [
        -122.51567811405431,
        37.942078367172854
      ],
      [
        -122.51632560597055,
        37.93977183068763
      ],
      [
        -122.51666258807617,
        37.93853336718135
      ],
      [
        -122.51679401843026,
        37.93798578324
      ],
      [
        -122.51691146681377,
        37.93730670872568
      ],
      [
        -122.51694611311588,
        37.93600526461434
      ],
      [
        -122.51648126636606,
        37.93320077522152
      ],
      [
        -122.51593213718886,
        37.93017787963666
      ],
      [
        -122.51553549679566,
        37.927883360588645
      ],
      [
        -122.51611172618784,
        37.92593787574765
      ],
      [
        -122.515460837109,
        37.925570350974425
      ],
      [
        -122.51371708998276,
        37.926263118222685
      ],
      [
        -122.5134934299835,
        37.92634825691388
      ],
      [
        -121.75869521147037,
        38.55226453917559
      ],
      [
        -121.75859340365953,
        38.550795772248335
      ],
      [
        -121.75631460434332,
        38.550775891897274
      ],
      [
        -121.75354618630871,
        38.55076132949503
      ],
      [
        -121.7530222145112,
        38.5507209180282
      ],
      [
        -121.75186635602343,
        38.550728246385304
      ],
      [
        -121.74936455598065,
        38.550690269519016
      ],
      [
        -121.74684722782608,
        38.55065705808979
      ],
      [
        -121.74615366962237,
        38.54940766910789
      ],
      [
        -121.74577704944313,
        38.54751954294364
      ],
      [
        -121.74530533659154,
        38.545809991516684
      ],
      [
        -121.74489138627051,
        38.54451479895347
      ],
      [
        -121.7447921166256,
        38.54417230825118
      ],
      [
        -121.74391433031158,
        38.544089721002464
      ],
      [
        -121.7438541244436,
        38.54481598077595
      ],
      [
        -121.74395580096729,
        38.54486867864439
      ],
      [
        -121.7439583596976,
        38.54485811203583
      ],
      [
        -121.7439583596976,
        38.54485811203583
      ],
      [
        -121.7439583596976,
        38.54485811203583
      ],
      [
        -121.7439583596976,
        38.54485811203583
      ],
      [
        -121.7439583596976,
        38.54485811203583
      ],
      [
        -121.7439583596976,
        38.54485811203583
      ],
      [
        -121.7439583596976,
        38.54485811203583
      ],
      [
        -121.7439583596976,
        38.54485811203583
      ],
      [
        -121.7439958268048,
        38.54486376982047
      ],
      [
        -121.81498958026273,
        38.480082884357024
      ],
      [
        -121.81894321645686,
        38.47696399646563
      ],
      [
        -121.82239222299854,
        38.4742356585747
      ],
      [
        -121.82574737112802,
        38.47161745326513
      ],
      [
        -121.82917465252386,
        38.46896176278953
      ],
      [
        -121.83282434602049,
        38.46613339833361
      ],
      [
        -121.83676159159025,
        38.4630594672724
      ],
      [
        -121.8407846855908,
        38.45993698932681
      ],
      [
        -121.84472571788437,
        38.45685706467588
      ],
      [
        -121.84890158666161,
        38.45362004274491
      ],
      [
        -121.85286075382997,
        38.45053647826474
      ],
      [
        -121.8569694818066,
        38.447338213683594
      ],
      [
        -121.86101047850417,
        38.44419078669616
      ],
      [
        -121.86493019587392,
        38.44114055060519
      ],
      [
        -121.86891838851625,
        38.4380759474856
      ],
      [
        -121.87315528622455,
        38.43486703644428
      ],
      [
        -121.8776003072837,
        38.431482437847585
      ],
      [
        -121.88185194897716,
        38.42823877583975
      ],
      [
        -121.88615372091469,
        38.424967259769645
      ],
      [
        -121.89036091894707,
        38.42176414825849
      ],
      [
        -121.89433381670777,
        38.41873240929578
      ],
      [
        -121.89829924678997,
        38.41571427262863
      ],
      [
        -121.90224815408506,
        38.41270952121434
      ],
      [
        -121.90609622822382,
        38.40977043060472
      ],
      [
        -121.90998577898809,
        38.406810031647
      ],
      [
        -121.91369623851087,
        38.40399235098983
      ],
      [
        -121.91766400465012,
        38.40093562820861
      ],
      [
        -121.92165165300231,
        38.39782745042883
      ],
      [
        -121.92561742657313,
        38.394737623606815
      ],
      [
        -121.9295966371197,
        38.391620508210174
      ],
      [
        -121.93338306292569,
        38.388675487473215
      ],
      [
        -121.93710713622667,
        38.38577405311128
      ],
      [
        -121.94090035500788,
        38.38309377662651
      ],
      [
        -121.94504971447624,
        38.3800850639025
      ],
      [
        -121.949098471726,
        38.376954228854814
      ],
      [
        -121.95321045421666,
        38.37368943709987
      ],
      [
        -121.95714132447426,
        38.37022352387356
      ],
      [
        -121.9613503140584,
        38.3670284249113
      ],
      [
        -121.96559520512903,
        38.36393110402897
      ],
      [
        -121.97007881530314,
        38.36120528496385
      ],
      [
        -121.97435747473449,
        38.35845127083018
      ],
      [
        -121.97770223378899,
        38.35533720656616
      ],
      [
        -121.98124891597767,
        38.35269570236709
      ],
      [
        -121.98539238742806,
        38.351061181095616
      ],
      [
        -121.99002509658483,
        38.3492401777197
      ],
      [
        -121.99482173217272,
        38.347400803078536
      ],
      [
        -121.99968774607393,
        38.34549703686835
      ],
      [
        -122.0044286531031,
        38.34367818580104
      ],
      [
        -122.00918173065286,
        38.34230218261403
      ],
      [
        -122.01341210867619,
        38.34025795475969
      ],
      [
        -122.01638316452762,
        38.337309978299025
      ],
      [
        -122.0185155246493,
        38.33399360813313
      ],
      [
        -122.02073851496144,
        38.33050907341778
      ],
      [
        -122.02303420276012,
        38.32689082238069
      ],
      [
        -122.02533393103644,
        38.323321395346014
      ],
      [
        -122.02806500655066,
        38.32019084357284
      ],
      [
        -122.03091902630881,
        38.317004560578226
      ],
      [
        -122.03291744953079,
        38.31331583629987
      ],
      [
        -122.0336950982298,
        38.3090694911563
      ],
      [
        -122.03401032445893,
        38.30465087353209
      ],
      [
        -122.03410871762203,
        38.30038173458434
      ],
      [
        -122.03417351379144,
        38.29621480430583
      ],
      [
        -122.03447727429013,
        38.29219309717732
      ],
      [
        -122.03695882136604,
        38.28862614365051
      ],
      [
        -122.03993530663325,
        38.285117771151306
      ],
      [
        -122.04308334801874,
        38.281392569155734
      ],
      [
        -122.04616298631714,
        38.27777485039948
      ],
      [
        -122.04916338301497,
        38.27421651229148
      ],
      [
        -122.05200052418931,
        38.27085589581829
      ],
      [
        -122.05486435854039,
        38.26749244820062
      ],
      [
        -122.05776400593838,
        38.26401417222015
      ],
      [
        -122.0608205316148,
        38.26040722005949
      ],
      [
        -122.06394402400738,
        38.25670189710486
      ],
      [
        -122.06697986663495,
        38.25312001350309
      ],
      [
        -122.0701124405385,
        38.249517525572706
      ],
      [
        -122.07505363961371,
        38.24726777380997
      ],
      [
        -122.0799686539424,
        38.24539840783587
      ],
      [
        -122.08464846139593,
        38.24336533153539
      ],
      [
        -122.08931506725118,
        38.24133271270211
      ],
      [
        -122.0940302455604,
        38.23928419610032
      ],
      [
        -122.09890866549871,
        38.2371595674861
      ],
      [
        -122.10376157367203,
        38.23503767154673
      ],
      [
        -122.10853784328083,
        38.23294671802709
      ],
      [
        -122.11351232722309,
        38.23079219717416
      ],
      [
        -122.11842644338769,
        38.22867003650435
      ],
      [
        -122.12341638150231,
        38.2262082045093
      ],
      [
        -122.12818139526351,
        38.22341420239927
      ],
      [
        -122.13246899142732,
        38.220503096421794
      ],
      [
        -122.13671065200818,
        38.217576436795184
      ],
      [
        -122.14099894314766,
        38.214885555471945
      ],
      [
        -122.14509655663016,
        38.21205141056631
      ],
      [
        -122.14915282919394,
        38.209041178397705
      ],
      [
        -122.15293705475695,
        38.2057777460229
      ],
      [
        -122.1569797584291,
        38.20226695189972
      ],
      [
        -122.16081567479017,
        38.1989268178417
      ],
      [
        -122.16478610209734,
        38.195449612302234
      ],
      [
        -122.16829338293142,
        38.191553524911654
      ],
      [
        -122.17272682263084,
        38.18825306035096
      ],
      [
        -122.17826813298235,
        38.18638596461029
      ],
      [
        -122.18320033182431,
        38.18365046307507
      ],
      [
        -122.18738855481803,
        38.18033420316405
      ],
      [
        -122.19135533882016,
        38.1769524554265
      ],
      [
        -122.1948149042033,
        38.17317483364701
      ],
      [
        -122.19924495907532,
        38.17011496279997
      ],
      [
        -122.20360879062444,
        38.167027386724165
      ],
      [
        -122.20789890772753,
        38.16413250937973
      ],
      [
        -122.21125815168422,
        38.1599922108659
      ],
      [
        -122.21421239674346,
        38.1559141756296
      ],
      [
        -122.21660115407751,
        38.151682290120306
      ],
      [
        -122.2167593172166,
        38.14682566519333
      ],
      [
        -122.21817727709538,
        38.142271000526584
      ],
      [
        -122.22084153320309,
        38.13809370218683
      ],
      [
        -122.22340632151072,
        38.13406569218405
      ],
      [
        -122.22596312061118,
        38.13003858087564
      ],
      [
        -122.22841792885819,
        38.12618104012474
      ],
      [
        -122.2302412582228,
        38.12243907641086
      ],
      [
        -122.23033042662452,
        38.118587331863054
      ],
      [
        -122.23000276648081,
        38.11468567156549
      ],
      [
        -122.22970544597919,
        38.11061834935065
      ],
      [
        -122.22975108319231,
        38.10641536862161
      ],
      [
        -122.22981791500482,
        38.10185798333837
      ],
      [
        -122.22985916249593,
        38.09742274162414
      ],
      [
        -122.23013318582773,
        38.09328681344993
      ],
      [
        -122.23148773318901,
        38.0890730594183
      ],
      [
        -122.23313622075551,
        38.08481950944531
      ],
      [
        -122.2332980154613,
        38.080229781789605
      ],
      [
        -122.23176985520547,
        38.07593224522121
      ],
      [
        -122.22897469097063,
        38.072089518737755
      ],
      [
        -122.22694563816255,
        38.0680876068276
      ],
      [
        -122.22651557875695,
        38.06384194182674
      ],
      [
        -122.22618359182215,
        38.059533593802215
      ],
      [
        -122.22602861232963,
        38.05503755247548
      ],
      [
        -122.2293637557624,
        38.0516713354078
      ],
      [
        -122.23314834735119,
        38.04881296298485
      ],
      [
        -122.23699045406424,
        38.04608619854886
      ],
      [
        -122.2411693266683,
        38.043139964462846
      ],
      [
        -122.24542406790341,
        38.040139023583635
      ],
      [
        -122.24922940803366,
        38.03683766991328
      ],
      [
        -122.2526179041334,
        38.03317368168599
      ],
      [
        -122.25582973200211,
        38.029746549427976
      ],
      [
        -122.25878439738273,
        38.02656162881829
      ],
      [
        -122.26177662112138,
        38.02336937861375
      ],
      [
        -122.26514056264222,
        38.019679806584676
      ],
      [
        -122.26884166766641,
        38.0156966245877
      ],
      [
        -122.27233527119661,
        38.011954154834676
      ],
      [
        -122.27557644254314,
        38.00844511804893
      ],
      [
        -122.2788009571704,
        38.004947140585436
      ],
      [
        -122.28199635145018,
        38.001510071398776
      ],
      [
        -122.28517891604326,
        37.99802759457876
      ],
      [
        -122.28924102674718,
        37.99539403338529
      ],
      [
        -122.29396635052719,
        37.99454370831762
      ],
      [
        -122.29817325145059,
        37.993959075916834
      ],
      [
        -122.30302761143325,
        37.99327219796219
      ],
      [
        -122.30752928771322,
        37.992146678988995
      ],
      [
        -122.31132264790679,
        37.99016078669378
      ],
      [
        -122.31449335030864,
        37.98725777466772
      ],
      [
        -122.31616062258938,
        37.983856716316666
      ],
      [
        -122.31710616300083,
        37.980172932113696
      ],
      [
        -122.31836997956735,
        37.97642668003268
      ],
      [
        -122.31951197100868,
        37.97300761867907
      ],
      [
        -122.3208049490318,
        37.9691539072093
      ],
      [
        -122.32305162157756,
        37.96581675787483
      ],
      [
        -122.32728804696066,
        37.96355168976509
      ],
      [
        -122.33031711521973,
        37.96081324985646
      ],
      [
        -122.33070246268315,
        37.95767657950388
      ],
      [
        -122.32909193536625,
        37.95448459166659
      ],
      [
        -122.32729347052388,
        37.951144240092724
      ],
      [
        -122.32542785335708,
        37.94723286137676
      ],
      [
        -122.32382660966847,
        37.94345680045703
      ],
      [
        -122.32485276745017,
        37.93993323646099
      ],
      [
        -122.32646988563579,
        37.93679326531701
      ],
      [
        -122.3265465969385,
        37.93336230621905
      ],
      [
        -122.32429564722423,
        37.9301106779551
      ],
      [
        -122.32202922087208,
        37.92681978482053
      ],
      [
        -122.31952120401344,
        37.92338899383172
      ],
      [
        -122.31756707010712,
        37.919683328760435
      ],
      [
        -122.31748563210309,
        37.91557801304257
      ],
      [
        -122.31743736163321,
        37.91135354747261
      ],
      [
        -122.31538307043654,
        37.90752025735977
      ],
      [
        -122.31298968923767,
        37.90403399628905
      ],
      [
        -122.31088017256367,
        37.900958418386885
      ],
      [
        -122.30922620515244,
        37.89760635511767
      ],
      [
        -122.30793649786807,
        37.894364616061026
      ],
      [
        -122.30780068617358,
        37.89129983834739
      ],
      [
        -122.30912342802458,
        37.888544049899785
      ],
      [
        -122.30933313195801,
        37.886918583234156
      ],
      [
        -122.30919721576093,
        37.8858367571056
      ],
      [
        -122.30889125815078,
        37.88453004769065
      ],
      [
        -122.30863155837297,
        37.883397887754874
      ],
      [
        -122.51297181595865,
        37.96432776369034
      ],
      [
        -122.51644396401288,
        37.9663249274354
      ],
      [
        -122.5197010255937,
        37.96828841345117
      ],
      [
        -122.52119569104714,
        37.96978992149103
      ],
      [
        -122.52104755682744,
        37.971047444007915
      ],
      [
        -122.52104148333333,
        37.97107363333333
      ],
      [
        -122.52102728333334,
        37.97111735
      ],
      [
        -122.5219624438577,
        37.97138319802953
      ],
      [
        -122.52208808333333,
        37.971402166666664
      ],
      [
        -122.52222564781489,
        37.97142418627091
      ],
      [
        -122.52390132045912,
        37.97165935024444
      ],
      [
        -122.52426531960485,
        37.97170264193995
      ],
      [
        -122.52566018333333,
        37.97187518333333
      ],
      [
        -122.52566018333333,
        37.97187518333333
      ],
      [
        -122.52599038778618,
        37.97192395788075
      ],
      [
        -122.52755940478465,
        37.97207390544546
      ],
      [
        -121.88334801810879,
        38.42674481282717
      ],
      [
        -121.87971306294922,
        38.42954420236147
      ],
      [
        -121.87613951185133,
        38.432279100539965
      ],
      [
        -121.87277671819207,
        38.434806756953215
      ],
      [
        -121.86943051381367,
        38.43734223149718
      ],
      [
        -121.86598792953795,
        38.4400065850993
      ],
      [
        -121.86263355279264,
        38.442630349353465
      ],
      [
        -121.85912348533817,
        38.44532351415897
      ],
      [
        -121.85563193326524,
        38.44806692838516
      ],
      [
        -122.27561145266444,
        37.86319413103723
      ],
      [
        -122.27629960793944,
        37.86282732454698
      ],
      [
        -122.27832506306824,
        37.86253616251383
      ],
      [
        -122.28025090222307,
        37.862290479915
      ],
      [
        -122.28109299870789,
        37.86220106500269
      ],
      [
        -122.28116188164792,
        37.86223420078668
      ],
      [
        -122.28092881012272,
        37.86139042751808
      ],
      [
        -122.28038869255543,
        37.85937804589179
      ],
      [
        -122.27998606373812,
        37.8574009969138
      ],
      [
        -122.27964106656576,
        37.85575611423304
      ],
      [
        -122.27928134443157,
        37.85409826399148
      ],
      [
        -122.27916060163373,
        37.85364958139605
      ],
      [
        -122.27914082125122,
        37.85341667654244
      ],
      [
        -122.28033980365403,
        37.8532687332683
      ],
      [
        -122.28283518408819,
        37.852908777877985
      ],
      [
        -122.28518930755804,
        37.852426099339525
      ],
      [
        -122.2868110294897,
        37.852149260507254
      ],
      [
        -122.28880286356475,
        37.851805016254986
      ],
      [
        -122.28910349020924,
        37.85172567124188
      ],
      [
        -122.28952553461357,
        37.85168326097138
      ],
      [
        -122.29008687732758,
        37.85150194204879
      ],
      [
        -122.29031491237984,
        37.851390813442016
      ],
      [
        -122.29027609673324,
        37.85138835826402
      ],
      [
        -122.29027524946649,
        37.85138761
      ],
      [
        -122.29027552785631,
        37.85138802629832
      ],
      [
        -122.2902974752471,
        37.85138412910936
      ],
      [
        -122.29178968962316,
        37.85080997959931
      ],
      [
        -122.29414272432251,
        37.84981776002948
      ],
      [
        -122.29733491543047,
        37.848729927897914
      ],
      [
        -122.300519665746,
        37.84828128659461
      ],
      [
        -122.29957524145286,
        37.84668802516132
      ],
      [
        -122.29918660545232,
        37.846446964206265
      ],
      [
        -122.29814904887137,
        37.84420289487915
      ],
      [
        -122.29754681962048,
        37.84200666288256
      ],
      [
        -122.2972978405249,
        37.84085867793734
      ],
      [
        -122.29696674999627,
        37.83879754212721
      ],
      [
        -122.29645262353668,
        37.83692182301867
      ],
      [
        -122.29581911591971,
        37.83547897726113
      ],
      [
        -122.29492404515011,
        37.83361363778446
      ],
      [
        -122.2940460411125,
        37.8307165313782
      ],
      [
        -122.29543598211085,
        37.82785330284674
      ],
      [
        -122.29868771063298,
        37.826857680799904
      ],
      [
        -122.2997551850398,
        37.82662610630076
      ],
      [
        -122.3002808316047,
        37.82650153355348
      ],
      [
        -122.3016471217942,
        37.82623726145532
      ],
      [
        -122.30377433157182,
        37.82582098314643
      ],
      [
        -122.30469356181865,
        37.82562541778863
      ],
      [
        -122.30517966950455,
        37.825536732168715
      ],
      [
        -122.30544591508685,
        37.8254779684796
      ],
      [
        -122.30614735139756,
        37.825386557425446
      ],
      [
        -122.30680691204121,
        37.8252850705772
      ],
      [
        -122.30724414826724,
        37.82524579765242
      ],
      [
        -122.30774401360351,
        37.82520260360692
      ],
      [
        -122.30815011302977,
        37.825171255937704
      ],
      [
        -122.30840338315816,
        37.82515986708877
      ],
      [
        -122.30873809475331,
        37.825132192993316
      ],
      [
        -122.30900942089258,
        37.825118438803244
      ],
      [
        -122.30939290709075,
        37.825095103479036
      ],
      [
        -122.3095824378831,
        37.82508977771423
      ],
      [
        -122.30974610789936,
        37.82507793707361
      ],
      [
        -122.30990739687121,
        37.82506302983895
      ],
      [
        -122.3102637070817,
        37.825067829691555
      ],
      [
        -122.31041521730575,
        37.82505527834177
      ],
      [
        -122.31055481873334,
        37.82504603239278
      ],
      [
        -122.31066512371481,
        37.825047330890634
      ],
      [
        -122.31073008302067,
        37.825018685947505
      ],
      [
        -122.31075750573746,
        37.82502912476094
      ],
      [
        -122.31084653553833,
        37.825040378508625
      ],
      [
        -122.31087859325335,
        37.82505297352581
      ],
      [
        -122.31100361955458,
        37.82504834757287
      ],
      [
        -122.31123255192698,
        37.82504543372918
      ],
      [
        -122.3115703147477,
        37.825021516137795
      ],
      [
        -122.31161550926396,
        37.825045286393724
      ],
      [
        -122.31167894973943,
        37.825069739386265
      ],
      [
        -122.31180001229386,
        37.8250715538194
      ],
      [
        -122.31180554003456,
        37.825082730192086
      ],
      [
        -122.31185632355633,
        37.825068829117185
      ],
      [
        -122.31208247397656,
        37.82506374824962
      ],
      [
        -122.31209613320223,
        37.82506253059006
      ],
      [
        -122.31211120987989,
        37.825064482838776
      ],
      [
        -122.31213226526332,
        37.82507760329248
      ],
      [
        -122.31229722791265,
        37.82510583515642
      ],
      [
        -122.31246690093586,
        37.82512095633468
      ],
      [
        -122.31252269659407,
        37.8251139623906
      ],
      [
        -122.3126391777589,
        37.825090309319265
      ],
      [
        -122.31283740146573,
        37.825114916457345
      ],
      [
        -122.3130176067291,
        37.82511233134995
      ],
      [
        -122.31308723141673,
        37.82509439752072
      ],
      [
        -122.31319819444418,
        37.8250914174797
      ],
      [
        -122.3132589676943,
        37.82504970680355
      ],
      [
        -122.31328861122361,
        37.82504921287754
      ],
      [
        -122.31346901833754,
        37.825046940042064
      ],
      [
        -122.31361918866008,
        37.82502687509867
      ],
      [
        -122.31381645003032,
        37.82497432028626
      ],
      [
        -122.31387748703224,
        37.8249715089445
      ],
      [
        -122.31387996137735,
        37.82497279104719
      ],
      [
        -122.3139096458082,
        37.824963995901705
      ],
      [
        -122.31411720104498,
        37.82496650431887
      ],
      [
        -122.31421255896805,
        37.82493732282798
      ],
      [
        -122.3143610774978,
        37.82489581981476
      ],
      [
        -122.31446600804796,
        37.82488829686722
      ],
      [
        -122.31451951335146,
        37.82486243628644
      ],
      [
        -122.31450548873345,
        37.82485866596815
      ],
      [
        -122.31450530142686,
        37.824858814286564
      ],
      [
        -122.31465173789105,
        37.82482726361136
      ],
      [
        -122.31482421704223,
        37.82480591571301
      ],
      [
        -122.31499174724316,
        37.82477039234828
      ],
      [
        -122.3150008721004,
        37.824765961534816
      ],
      [
        -122.31506950144818,
        37.824744084012046
      ],
      [
        -122.3151831976463,
        37.82472580155718
      ],
      [
        -122.31525673334883,
        37.824695942875024
      ],
      [
        -122.31537564836121,
        37.82467520886968
      ],
      [
        -122.31557378111984,
        37.82463627071489
      ],
      [
        -122.31567570336934,
        37.824603959074814
      ],
      [
        -122.31576053925158,
        37.82457010905198
      ],
      [
        -122.31593470300615,
        37.8245279466462
      ],
      [
        -122.31620493480253,
        37.82446187144713
      ],
      [
        -122.31674108105463,
        37.82435656712842
      ],
      [
        -122.31700847411831,
        37.824335820621094
      ],
      [
        -122.31811459123367,
        37.824016303727916
      ],
      [
        -122.32096164790987,
        37.823049761113886
      ],
      [
        -122.3245920870465,
        37.82245967008243
      ],
      [
        -122.32869938640097,
        37.8221292141023
      ],
      [
        -122.33294413372522,
        37.821685303722006
      ],
      [
        -122.3374157027282,
        37.821068474160306
      ],
      [
        -122.3417867823179,
        37.82042276332831
      ],
      [
        -122.34595358463176,
        37.819841879010156
      ],
      [
        -122.35017518972651,
        37.81921969599124
      ],
      [
        -122.354102527172,
        37.81802396357909
      ],
      [
        -122.35758726632598,
        37.816053093080754
      ],
      [
        -122.36083758327045,
        37.81415392462463
      ],
      [
        -122.36353140124238,
        37.8116961466568
      ],
      [
        -122.36595730571415,
        37.80934976851727
      ],
      [
        -122.36851199504326,
        37.80692520745335
      ],
      [
        -122.37099137679382,
        37.80464160223151
      ],
      [
        -122.37337822238916,
        37.8024342774032
      ],
      [
        -122.37574624843832,
        37.80023024002654
      ],
      [
        -122.3781014907495,
        37.79803136177001
      ],
      [
        -122.38036622826634,
        37.79592492527047
      ],
      [
        -122.3824588889176,
        37.79394403731553
      ],
      [
        -122.38437714187721,
        37.79213529428406
      ],
      [
        -122.38617679407545,
        37.79044340850291
      ],
      [
        -122.38775649250724,
        37.78899019830826
      ],
      [
        -122.38931053340197,
        37.78750132088431
      ],
      [
        -122.39074665433472,
        37.78615185927234
      ],
      [
        -122.39212010578386,
        37.78537140248921
      ],
      [
        -122.3927865066485,
        37.78507251918992
      ],
      [
        -122.39365023069408,
        37.78451154931195
      ],
      [
        -122.39449425758987,
        37.783829089016706
      ],
      [
        -122.39554019219743,
        37.78301846494467
      ],
      [
        -122.39698705417288,
        37.78189902125263
      ],
      [
        -122.39867825986875,
        37.78068682584822
      ],
      [
        -122.40043319536055,
        37.77930084629459
      ],
      [
        -122.40199974290176,
        37.77808439624216
      ],
      [
        -122.40401403352604,
        37.77678074528784
      ],
      [
        -122.40498964022375,
        37.77619615860654
      ],
      [
        -122.40612961433986,
        37.775337593270976
      ],
      [
        -122.40655626382903,
        37.77475021273335
      ],
      [
        -122.40692925419917,
        37.77328092644495
      ],
      [
        -122.40651939352944,
        37.771807673066405
      ],
      [
        -122.40563016921121,
        37.76968683463652
      ],
      [
        -122.40554396691795,
        37.76833025214783
      ],
      [
        -122.40539933268161,
        37.76732780978939
      ],
      [
        -122.40534020053943,
        37.766576829447914
      ],
      [
        -122.40525337682256,
        37.76533001593483
      ],
      [
        -122.40534637387827,
        37.7632080430517
      ],
      [
        -122.40645489183031,
        37.76092283702403
      ],
      [
        -122.40522964534814,
        37.758339701300855
      ],
      [
        -122.40328906840067,
        37.755616357411846
      ],
      [
        -122.40316759436755,
        37.75228207952584
      ],
      [
        -122.40402766521724,
        37.74907725681589
      ],
      [
        -122.40502433543847,
        37.745906871764525
      ],
      [
        -122.40673756830512,
        37.74299265236591
      ],
      [
        -122.40824788884217,
        37.73986401391972
      ],
      [
        -122.40833202634765,
        37.736689099498854
      ],
      [
        -122.41103661047762,
        37.73416301365193
      ],
      [
        -122.41449646960615,
        37.732457076101035
      ],
      [
        -122.41857014572304,
        37.732092058467515
      ],
      [
        -122.42256793803969,
        37.73177000342417
      ],
      [
        -122.42677513480497,
        37.7318580039739
      ],
      [
        -122.4305637233594,
        37.732506747165615
      ],
      [
        -122.43468771812518,
        37.731656058752755
      ],
      [
        -122.43861679142366,
        37.7305136081748
      ],
      [
        -122.442607367982,
        37.72897401267726
      ],
      [
        -122.44561099826043,
        37.72689664540678
      ],
      [
        -122.44759865374017,
        37.724450409893656
      ],
      [
        -122.44898978239063,
        37.72307111873353
      ],
      [
        -122.44986634628113,
        37.72307208378304
      ],
      [
        -122.45127285426112,
        37.72313441884897
      ],
      [
        -122.45123904565361,
        37.723120034993286
      ],
      [
        -122.45142581465286,
        37.723144675210634
      ],
      [
        -122.45254707889053,
        37.72319230055775
      ],
      [
        -122.45339493663982,
        37.723388777671225
      ],
      [
        -122.45373974473488,
        37.72344965036001
      ],
      [
        -122.454510174941,
        37.723563803741364
      ],
      [
        -122.45464063809074,
        37.72354844076056
      ],
      [
        -122.45479736112546,
        37.72357199220896
      ],
      [
        -122.45549134757212,
        37.72371561401979
      ],
      [
        -122.45671163459865,
        37.72400199720176
      ],
      [
        -122.45754695298919,
        37.72420084073824
      ],
      [
        -122.45767740003396,
        37.72425334913155
      ],
      [
        -122.45804098220378,
        37.72434032310718
      ],
      [
        -122.45803755238137,
        37.72432212589605
      ],
      [
        -122.45838660149337,
        37.72438930421309
      ],
      [
        -122.4598404884448,
        37.72473733993955
      ],
      [
        -122.46110125492795,
        37.72498742770906
      ],
      [
        -122.46107782667221,
        37.72550230098051
      ],
      [
        -122.4609859325317,
        37.72605880424152
      ],
      [
        -122.46163932957508,
        37.72631155091841
      ],
      [
        -122.43884538119461,
        37.78637206458058
      ],
      [
        -122.43783335800072,
        37.78650230477103
      ],
      [
        -122.43700968387186,
        37.78661154805818
      ],
      [
        -122.43557391533764,
        37.78682149966002
      ],
      [
        -122.43539502470293,
        37.78683388586172
      ],
      [
        -122.43537139867301,
        37.78682642080508
      ],
      [
        -122.43418540750345,
        37.78701098361912
      ],
      [
        -122.43230178840331,
        37.78722695106274
      ],
      [
        -122.43032595821153,
        37.787448533190904
      ],
      [
        -122.42844791692288,
        37.787674294800475
      ],
      [
        -122.42741478185796,
        37.78778708781103
      ],
      [
        -122.42669726192526,
        37.7878704560539
      ],
      [
        -122.42641104702282,
        37.78790024607137
      ],
      [
        -122.42623493663551,
        37.787931240656434
      ],
      [
        -122.426238354675,
        37.787929834868706
      ],
      [
        -122.42603918346664,
        37.78793282682052
      ],
      [
        -122.42511377799575,
        37.787650664750316
      ],
      [
        -122.42517017393942,
        37.78731412985338
      ],
      [
        -122.42496395950656,
        37.78634426767558
      ],
      [
        -122.42461768672483,
        37.78477218282637
      ],
      [
        -122.42446188265167,
        37.78402448473148
      ],
      [
        -122.42422643331061,
        37.78294490917819
      ],
      [
        -122.4240971588498,
        37.78237888204741
      ],
      [
        -122.42396132628917,
        37.781720508986176
      ],
      [
        -122.42400537276936,
        37.78169437890423
      ],
      [
        -122.42399690594264,
        37.78167354518792
      ],
      [
        -122.4239732093434,
        37.78153415185873
      ],
      [
        -122.42376244642301,
        37.78061566865755
      ],
      [
        -122.42320517947682,
        37.77974616958535
      ],
      [
        -122.42231825282177,
        37.779863689574235
      ],
      [
        -122.42210180205474,
        37.77988281916948
      ],
      [
        -122.42209778,
        37.77987934667911
      ],
      [
        -122.4220975062625,
        37.779879497575
      ],
      [
        -122.42209243510538,
        37.779904739384534
      ],
      [
        -122.42091607695029,
        37.78007063441231
      ],
      [
        -122.42085898498135,
        37.780061737242605
      ],
      [
        -122.4208520637838,
        37.78005624874594
      ],
      [
        -122.42076937518206,
        37.78005572805125
      ],
      [
        -122.41947990723803,
        37.78015978619872
      ],
      [
        -122.41910873713182,
        37.780253744474045
      ],
      [
        -122.41890935436926,
        37.78026518312688
      ],
      [
        -122.41852713398687,
        37.779627851342426
      ],
      [
        -122.41850023787109,
        37.7796187491377
      ],
      [
        -122.41839982641189,
        37.778633179452996
      ],
      [
        -122.41742170809351,
        37.77860900711116
      ],
      [
        -122.41677509718689,
        37.778714042899026
      ],
      [
        -122.41680967648728,
        37.778709468702544
      ],
      [
        -122.41680405170631,
        37.778711542417035
      ],
      [
        -122.41677992798508,
        37.77942394176193
      ],
      [
        -122.41676886781866,
        37.77938976187945
      ],
      [
        -122.41686682759502,
        37.77980022405682
      ],
      [
        -122.41699288742025,
        37.78034831017028
      ],
      [
        -122.41699966342382,
        37.78037343952911
      ],
      [
        -122.41698957162178,
        37.78035993716115
      ],
      [
        -122.41703018844306,
        37.780464491599446
      ],
      [
        -122.41820032267763,
        37.78035553980518
      ],
      [
        -122.41851865872772,
        37.780350234141295
      ],
      [
        -122.4187378980648,
        37.78059575683134
      ],
      [
        -122.4183493904216,
        37.7812802427271
      ],
      [
        -122.41731196518506,
        37.781489528655
      ],
      [
        -122.41733185896,
        37.78155904341883
      ],
      [
        -122.41721549933423,
        37.78181868186028
      ],
      [
        -122.41730553978933,
        37.781868138852346
      ],
      [
        -122.41733971286467,
        37.78186994568274
      ],
      [
        -122.41740027184979,
        37.781951367253654
      ],
      [
        -122.41755846255597,
        37.78269137527282
      ],
      [
        -122.41757435383336,
        37.783198381279625
      ],
      [
        -122.41760329998549,
        37.78322473040804
      ],
      [
        -122.41763005467305,
        37.78329819514722
      ],
      [
        -122.41872706953778,
        37.78317142070695
      ],
      [
        -122.41917310391412,
        37.78309797354949
      ],
      [
        -122.41907483928058,
        37.782488919291666
      ],
      [
        -122.4193610044497,
        37.778349017929976
      ],
      [
        -122.41973460855387,
        37.77832523126263
      ],
      [
        -122.41995818236892,
        37.777971346597404
      ],
      [
        -122.41990144630886,
        37.77769498058719
      ],
      [
        -122.41969815817146,
        37.77677353868883
      ],
      [
        -122.41933157938358,
        37.7757360818803
      ],
      [
        -122.41918697701418,
        37.775326362735775
      ],
      [
        -122.41915104018042,
        37.775380148430834
      ],
      [
        -122.41914034224375,
        37.77538160735977
      ],
      [
        -122.41913496497298,
        37.77538188989309
      ],
      [
        -122.41931536968195,
        37.77514629518253
      ],
      [
        -122.42017691585606,
        37.77449846483614
      ],
      [
        -122.42012540448731,
        37.7744362341167
      ],
      [
        -122.42012142428398,
        37.77443740571603
      ],
      [
        -122.42012133714172,
        37.77443733
      ],
      [
        -122.42012800929083,
        37.774435003528986
      ],
      [
        -122.42125386918562,
        37.77366197147929
      ],
      [
        -122.42201991399361,
        37.77310075607418
      ],
      [
        -122.42249057485138,
        37.77273003797391
      ],
      [
        -122.42297006064663,
        37.772366209813434
      ],
      [
        -122.42326340688385,
        37.77213740268133
      ],
      [
        -122.42469088980546,
        37.77100293705815
      ],
      [
        -122.42606118506636,
        37.76988867395024
      ],
      [
        -122.42603397501718,
        37.76981757012991
      ],
      [
        -122.42608100722883,
        37.7698090225225
      ],
      [
        -122.42629690923677,
        37.76969423749886
      ],
      [
        -122.4268953482697,
        37.769205160606155
      ],
      [
        -122.42795206428823,
        37.76831514836398
      ],
      [
        -122.42804036052402,
        37.76824128375812
      ],
      [
        -122.42804968056087,
        37.7682225995018
      ],
      [
        -122.42806476424757,
        37.76820447973298
      ],
      [
        -122.42806028099812,
        37.768211746847385
      ],
      [
        -122.42811831336465,
        37.76817287070482
      ],
      [
        -122.42920080954153,
        37.76735655276817
      ],
      [
        -122.43027613480221,
        37.766433056123866
      ],
      [
        -122.43060732746875,
        37.76620960417189
      ],
      [
        -122.43070026625328,
        37.76625791084891
      ],
      [
        -122.43072426876674,
        37.7662824780563
      ],
      [
        -122.43072737406229,
        37.76628426843737
      ],
      [
        -122.4308493285152,
        37.76621367546608
      ],
      [
        -122.43236839107445,
        37.764933940254146
      ],
      [
        -122.43282648320007,
        37.764531638199905
      ],
      [
        -122.43282091,
        37.764523604360384
      ],
      [
        -122.4337120243744,
        37.763785795516554
      ],
      [
        -122.43557307434745,
        37.76247953244509
      ],
      [
        -122.43806227670198,
        37.76178099540346
      ],
      [
        -122.44054595683237,
        37.7611321929262
      ],
      [
        -122.44311585341404,
        37.76086277403051
      ],
      [
        -122.4449470840121,
        37.75934672737279
      ],
      [
        -122.4443038267092,
        37.75839412459218
      ],
      [
        -122.44431522385503,
        37.75840711499702
      ],
      [
        -122.44426349058885,
        37.75837241841968
      ],
      [
        -122.44279792087619,
        37.757148787350246
      ],
      [
        -122.44142609974533,
        37.756456048323756
      ],
      [
        -122.44178925875067,
        37.75467527007393
      ],
      [
        -122.44275428837014,
        37.752607018736484
      ],
      [
        -122.44330104464638,
        37.75058868770941
      ],
      [
        -122.44389229620612,
        37.749012216774744
      ],
      [
        -122.44440553663338,
        37.7472487017514
      ],
      [
        -122.44473277382782,
        37.74706980420958
      ],
      [
        -122.44472545033081,
        37.74707133407186
      ],
      [
        -122.4463912414181,
        37.746804962363996
      ],
      [
        -122.44790439500267,
        37.74653931107373
      ],
      [
        -122.45048101308282,
        37.74603515273731
      ],
      [
        -122.45284539043497,
        37.74507604591553
      ],
      [
        -122.45398220933552,
        37.744309671548265
      ],
      [
        -122.45493684916786,
        37.743558143183996
      ],
      [
        -122.46306088841992,
        37.74001257349631
      ],
      [
        -122.46063312857142,
        37.74020343469332
      ],
      [
        -122.45907722321357,
        37.74048757934034
      ],
      [
        -122.45906311074687,
        37.74047740062485
      ],
      [
        -122.45832785755773,
        37.740632161042576
      ],
      [
        -122.45619499176578,
        37.74180451043485
      ],
      [
        -122.45476517627121,
        37.74357871644325
      ],
      [
        -122.45331720058908,
        37.7446691106845
      ],
      [
        -122.4523711353053,
        37.745232142972576
      ],
      [
        -122.4517948599563,
        37.745488533920465
      ],
      [
        -122.45000412760078,
        37.745987476893696
      ],
      [
        -122.44770312435853,
        37.74642840849008
      ],
      [
        -122.44544319916206,
        37.74681566195935
      ],
      [
        -122.44486566484828,
        37.74668064572955
      ],
      [
        -122.44412068494721,
        37.74670937880608
      ],
      [
        -122.44282357766997,
        37.747826388607145
      ],
      [
        -122.44045328118803,
        37.74855970908642
      ],
      [
        -122.43837812770838,
        37.748522363779784
      ],
      [
        -122.43830012692744,
        37.74893366670458
      ],
      [
        -122.43779934528077,
        37.74945682921539
      ],
      [
        -122.43629230225996,
        37.74952697689835
      ],
      [
        -122.43518569036894,
        37.7495605405223
      ],
      [
        -122.43408522201439,
        37.74964918399974
      ],
      [
        -122.43217848538897,
        37.74969216770742
      ],
      [
        -122.43143215893646,
        37.74973596363468
      ],
      [
        -122.43005387905401,
        37.74977742873151
      ],
      [
        -122.42943198732162,
        37.74985275859418
      ],
      [
        -122.42782207994522,
        37.74990778489099
      ],
      [
        -122.42711773609416,
        37.74994573240432
      ],
      [
        -122.42547114797306,
        37.75005526816275
      ],
      [
        -122.42497724930537,
        37.75020154978613
      ],
      [
        -122.42387353360394,
        37.750271103113604
      ],
      [
        -122.4230099070537,
        37.7504403886174
      ],
      [
        -122.422875662942,
        37.75034118914916
      ],
      [
        -122.42277420074382,
        37.750307964781285
      ],
      [
        -122.42270073285756,
        37.75064036394988
      ],
      [
        -122.42289226479085,
        37.752009451219365
      ],
      [
        -122.42291764259626,
        37.75212663938319
      ],
      [
        -122.42292607403198,
        37.75210981689693
      ],
      [
        -122.42303174052311,
        37.75333661163246
      ],
      [
        -122.42310342909535,
        37.755120261214614
      ],
      [
        -122.42320478070359,
        37.75582719542224
      ],
      [
        -122.42336654299129,
        37.757647447007685
      ],
      [
        -122.42346918904833,
        37.75862093475157
      ],
      [
        -122.42363529007464,
        37.75981794902422
      ],
      [
        -122.42391342102387,
        37.76162526730025
      ],
      [
        -122.42391444374161,
        37.76320538362434
      ],
      [
        -122.42275776549654,
        37.7632787384209
      ],
      [
        -122.4218660597839,
        37.76333114826101
      ],
      [
        -122.42187837362515,
        37.76334559725032
      ],
      [
        -122.42114577989312,
        37.763290476923366
      ],
      [
        -122.41978543108895,
        37.763292730646064
      ],
      [
        -122.41971999944836,
        37.76326417721751
      ],
      [
        -122.41966937280075,
        37.763309174619486
      ],
      [
        -122.41970179321902,
        37.7633199106276
      ],
      [
        -122.41877729485618,
        37.76340625587879
      ],
      [
        -122.41850041378302,
        37.76347568153266
      ],
      [
        -122.4186628246335,
        37.76437931271231
      ],
      [
        -122.41873709242121,
        37.76576142112766
      ],
      [
        -122.41880314407835,
        37.76659818778566
      ],
      [
        -122.41872846085384,
        37.76666635299584
      ],
      [
        -122.41960029096624,
        37.766827781951804
      ]
    ]
  },
  "properties": {}
}