{
  "type": "Feature",
  "geometry": {
    "type": "LineString",
    "coordinates": [
      [
        -122.47565415894279,
        37.74212170205463
      ],
      [
        -122.4753019683747,
        37.741776403398866
      ],
      [
        -122.47494977780659,
        37.74143110474309
      ],
      [
        -122.47459758723849,
        37.74108580608733
      ],
      [
        -122.47424539667038,
        37.74074050743156
      ],
      [
        -122.47389320610229,
        37.740395208775794
      ],
      [
        -122.47354101553418,
        37.74004991012003
      ],
      [
        -122.47318882496609,
        37.73970461146426
      ],
      [
        -122.47261376377438,
        37.739512533829355
      ],
      [
        -122.47156916552848,
        37.73964325758303
      ],
      [
        -122.47052456728258,
        37.739773981336704
      ],
      [
        -122.46947996903668,
        37.73990470509038
      ],
      [
        -122.46859463448395,
        37.739919571983904
      ],
      [
        -122.467965482637,
        37.739748077985446
      ],
      [
        -122.46733633079006,
        37.73957658398698
      ],
      [
        -122.46670717894312,
        37.73940508998852
      ],
      [
        -122.4713139314568,
        37.7134467963648
      ],
      [
        -122.4719310809504,
        37.71556640357235
      ],
      [
        -122.47210651688967,
        37.716236860792606
      ],
      [
        -122.47217321596989,
        37.716366608034335
      ],
      [
        -122.47249664341626,
        37.717283746859565
      ],
      [
        -122.47254159709232,
        37.71966024619499
      ],
      [
        -122.47239272939383,
        37.72131481263031
      ],
      [
        -122.47243227878097,
        37.72160960421655
      ],
      [
        -122.47244409268906,
        37.72187271300983
      ],
      [
        -122.47226068853429,
        37.72338428833414
      ],
      [
        -122.47233223984287,
        37.726099225718585
      ],
      [
        -122.47219741993997,
        37.72838108550178
      ],
      [
        -122.47205787818584,
        37.73094927767985
      ],
      [
        -122.47188663369631,
        37.731045458296435
      ],
      [
        -122.4718570302226,
        37.731024020000405
      ],
      [
        -122.47182890792969,
        37.73097864097017
      ],
      [
        -122.47177580611965,
        37.73108175102888
      ],
      [
        -122.47160141803478,
        37.732850440737195
      ],
      [
        -122.47140654211218,
        37.7350323208331
      ],
      [
        -122.4695368979982,
        37.73661001222908
      ],
      [
        -122.36413440634317,
        37.81096823494438
      ],
      [
        -122.3645898854541,
        37.81057320100944
      ],
      [
        -122.36475385331403,
        37.81039743419174
      ],
      [
        -122.36501538652196,
        37.81017246228906
      ],
      [
        -122.36528660330124,
        37.80997323561
      ],
      [
        -122.36576047617834,
        37.80951061448605
      ],
      [
        -122.36692849449128,
        37.80838577205968
      ],
      [
        -122.36819187485496,
        37.807179756916696
      ],
      [
        -122.36952649665851,
        37.80591473736864
      ],
      [
        -122.37127293951382,
        37.80428933080179
      ],
      [
        -122.37301938236912,
        37.802663924234935
      ],
      [
        -122.37476582522444,
        37.80103851766808
      ],
      [
        -122.37651482964779,
        37.79941309081228
      ],
      [
        -122.37794959733638,
        37.79805695105954
      ],
      [
        -122.37912394236658,
        37.79697148066005
      ],
      [
        -122.38021943732615,
        37.79594882228466
      ],
      [
        -122.38180121182053,
        37.7944402439978
      ],
      [
        -122.38349842199015,
        37.792893379732014
      ],
      [
        -122.38449485644037,
        37.79195075558696
      ],
      [
        -122.3856634009427,
        37.79085842145848
      ],
      [
        -122.38677846891558,
        37.789845238134866
      ],
      [
        -122.38756557937755,
        37.78908462151714
      ],
      [
        -122.38851186990127,
        37.78821205131486
      ],
      [
        -122.38970469438455,
        37.78709487580495
      ],
      [
        -122.39020305205014,
        37.786716078272796
      ],
      [
        -122.39111760518504,
        37.786061528384806
      ],
      [
        -122.39203215831994,
        37.785406978496816
      ],
      [
        -122.39294671145483,
        37.784752428608826
      ],
      [
        -122.39386126458972,
        37.78409787872083
      ],
      [
        -122.39477581772461,
        37.78344332883284
      ],
      [
        -122.3956903708595,
        37.78278877894485
      ],
      [
        -122.3966049239944,
        37.78213422905686
      ],
      [
        -122.3975194771293,
        37.78147967916887
      ],
      [
        -122.39843403026418,
        37.78082512928087
      ],
      [
        -122.39934858339907,
        37.78017057939288
      ],
      [
        -122.40026313653397,
        37.77951602950489
      ],
      [
        -122.40117768966886,
        37.7788614796169
      ],
      [
        -122.40209224280375,
        37.7782069297289
      ],
      [
        -122.40300679593865,
        37.77755237984091
      ],
      [
        -122.40392134907354,
        37.77689782995292
      ],
      [
        -122.40483590220843,
        37.77624328006493
      ],
      [
        -122.40575045534332,
        37.77558873017694
      ],
      [
        -122.40667813172625,
        37.774264927926275
      ],
      [
        -122.4067715328634,
        37.77282350467309
      ],
      [
        -122.40623126043938,
        37.771258355932076
      ],
      [
        -122.40573536134427,
        37.770172838032984
      ],
      [
        -122.40580004887869,
        37.76797846453078
      ],
      [
        -122.40590813735766,
        37.76570148538535
      ],
      [
        -122.40601622583662,
        37.76342450623992
      ],
      [
        -122.40612431431559,
        37.761147527094494
      ],
      [
        -122.40623240279456,
        37.758870547949066
      ],
      [
        -122.40634049127353,
        37.75659356880364
      ],
      [
        -122.40644857975249,
        37.75431658965821
      ],
      [
        -122.40655666823146,
        37.75203961051278
      ],
      [
        -122.40666475671043,
        37.74976263136735
      ],
      [
        -122.4067728451894,
        37.747485652221926
      ],
      [
        -122.40688093366836,
        37.7452086730765
      ],
      [
        -122.40698902214733,
        37.74293169393107
      ],
      [
        -122.40812825779601,
        37.74023542945112
      ],
      [
        -122.40826493709457,
        37.736823465440054
      ],
      [
        -122.41017971241176,
        37.73454363660265
      ],
      [
        -122.41334655095605,
        37.732922528830464
      ],
      [
        -122.4174350396475,
        37.73204040979569
      ],
      [
        -122.42113491800896,
        37.731915248770356
      ],
      [
        -122.4249833494454,
        37.73163294748637
      ],
      [
        -122.4293316194223,
        37.732321713968766
      ],
      [
        -122.43290570499344,
        37.73223655057395
      ]
    ]
  },
  "properties": {}
}