{
  "type": "Feature",
  "geometry": {
    "type": "LineString",
    "coordinates": [
      [
        -122.47214893142632,
        37.779370974019145
      ],
      [
        -122.47229481495944,
        37.780996827324415
      ],
      [
        -122.47242688934772,
        37.78298672466893
      ],
      [
        -122.47258593997584,
        37.78481243308595
      ],
      [
        -122.47245071649877,
        37.78697193321458
      ],
      [
        -122.47114385570494,
        37.789193926348055
      ],
      [
        -122.46981659033604,
        37.79129652259414
      ],
      [
        -122.46950298761041,
        37.79415594700251
      ],
      [
        -122.46940151078492,
        37.79708446139877
      ],
      [
        -122.46944314149742,
        37.80003533925518
      ],
      [
        -122.46943742916746,
        37.80325290625414
      ],
      [
        -122.47229440356433,
        37.80465099355912
      ],
      [
        -122.47470588570285,
        37.806571279087095
      ],
      [
        -122.47716283185308,
        37.808996435372734
      ],
      [
        -122.4776399494168,
        37.81219023365819
      ],
      [
        -122.47799892943151,
        37.81533279016586
      ],
      [
        -122.47834222327295,
        37.818194194283485
      ],
      [
        -122.47870653192801,
        37.82136761464686
      ],
      [
        -122.47908080251388,
        37.8245137860599
      ],
      [
        -122.47941791474528,
        37.82754279449635
      ],
      [
        -122.47975328579228,
        37.83056280445763
      ],
      [
        -122.48140610873179,
        37.832837602833656
      ],
      [
        -122.48422494908154,
        37.834957613600324
      ],
      [
        -122.48589112373453,
        37.83756684951632
      ],
      [
        -122.48663301413747,
        37.84016383748353
      ],
      [
        -122.48545908914772,
        37.84278504821886
      ],
      [
        -122.48637043808053,
        37.8458976323582
      ],
      [
        -122.48881130862796,
        37.84839339335763
      ],
      [
        -122.49006904919933,
        37.85102432052179
      ],
      [
        -122.49252031457998,
        37.853064046154344
      ],
      [
        -122.49402665185659,
        37.85577089292551
      ],
      [
        -122.49734706555822,
        37.85700267700232
      ],
      [
        -122.50018235918651,
        37.85901893547637
      ],
      [
        -122.50344981874228,
        37.86115030319801
      ],
      [
        -122.5062107739365,
        37.86328331456922
      ],
      [
        -122.50704099272538,
        37.866529937316436
      ],
      [
        -122.5070594919862,
        37.87013094074069
      ],
      [
        -122.50809158794277,
        37.87382339128413
      ],
      [
        -122.51115903273822,
        37.876495107631044
      ],
      [
        -122.51494262981565,
        37.87879764910678
      ],
      [
        -122.51653478507284,
        37.88195012406828
      ],
      [
        -122.51657955485906,
        37.885422596558605
      ],
      [
        -122.51660796682233,
        37.88902653601831
      ],
      [
        -122.51630941508104,
        37.89285440962063
      ],
      [
        -122.5160321838665,
        37.89674664700995
      ],
      [
        -122.51571788725795,
        37.90099429214218
      ],
      [
        -122.51539674652126,
        37.90488879912287
      ],
      [
        -122.51420117642442,
        37.908313859962604
      ],
      [
        -122.51272428576037,
        37.911776083841794
      ],
      [
        -122.51146851769235,
        37.91544896413482
      ],
      [
        -122.51107638980135,
        37.919082422413965
      ],
      [
        -122.51258978540854,
        37.92243134550035
      ],
      [
        -122.51442439213275,
        37.925867968290035
      ],
      [
        -122.51545738609666,
        37.92932053548667
      ],
      [
        -122.51612395042211,
        37.93294023740146
      ],
      [
        -122.51671354713017,
        37.936425783261775
      ],
      [
        -122.5159005833623,
        37.940215238334986
      ],
      [
        -122.51502857146248,
        37.94363968975384
      ],
      [
        -122.51344191569544,
        37.94710075078904
      ],
      [
        -122.51109643254404,
        37.95057226984621
      ],
      [
        -122.50838279176752,
        37.95367222062899
      ],
      [
        -122.50890904831664,
        37.95747429586648
      ],
      [
        -122.5095141194842,
        37.961019012832395
      ],
      [
        -122.51158637516745,
        37.96353816619848
      ],
      [
        -122.51516095165553,
        37.96559697916061
      ],
      [
        -122.51860168654787,
        37.96760594071049
      ],
      [
        -122.52102120390441,
        37.96948619464852
      ],
      [
        -122.47156350827115,
        37.69821910179904
      ],
      [
        -122.47055338108741,
        37.69377329913715
      ],
      [
        -122.47056351547681,
        37.689400889669095
      ],
      [
        -122.47146498640474,
        37.68546635563984
      ],
      [
        -122.47176341868769,
        37.6813113041228
      ],
      [
        -122.4711748506737,
        37.67705956291339
      ],
      [
        -122.46830839617424,
        37.67348373737702
      ],
      [
        -122.46614245746636,
        37.669317639568696
      ],
      [
        -122.46582092626177,
        37.66477744362777
      ],
      [
        -122.46458357403071,
        37.66040055037985
      ],
      [
        -122.46088094823789,
        37.657329171799056
      ],
      [
        -122.4569815559777,
        37.6542451389225
      ],
      [
        -122.45314517779072,
        37.650825271251364
      ],
      [
        -122.45064415977272,
        37.646733735107574
      ],
      [
        -122.44686419931175,
        37.64346942416166
      ],
      [
        -122.44295851545283,
        37.64044206647134
      ],
      [
        -122.44001908695924,
        37.636959073961435
      ],
      [
        -122.43784286239038,
        37.632871982236196
      ],
      [
        -122.43412749505185,
        37.62948616704665
      ],
      [
        -122.47229220084611,
        37.7217348995525
      ],
      [
        -122.47237892053373,
        37.72090825719577
      ],
      [
        -122.47256788660358,
        37.71840334358422
      ],
      [
        -122.47264032821768,
        37.71754858672411
      ],
      [
        -122.472632722256,
        37.71755165345592
      ],
      [
        -122.47263478,
        37.717551922638194
      ],
      [
        -122.47263492967141,
        37.71755217098575
      ],
      [
        -122.47263463031474,
        37.71755214968526
      ],
      [
        -122.47263477,
        37.71755243065718
      ],
      [
        -122.47239834241684,
        37.7162293578748
      ],
      [
        -122.47143069385491,
        37.713340645007555
      ],
      [
        -122.47124376963674,
        37.70957742882045
      ],
      [
        -122.47171264786161,
        37.70526168507012
      ],
      [
        -122.47168520868357,
        37.700664997091735
      ],
      [
        -122.47092228535918,
        37.69629874494009
      ],
      [
        -122.47049884945038,
        37.6918564885611
      ],
      [
        -122.47111420338965,
        37.68740096580385
      ],
      [
        -122.47162782104647,
        37.68286807237421
      ],
      [
        -122.47161443453271,
        37.678363189722376
      ],
      [
        -122.46894470810119,
        37.67442434248981
      ],
      [
        -122.46646923683372,
        37.670355394944174
      ],
      [
        -122.46581499796845,
        37.66589929186366
      ],
      [
        -122.46523875185088,
        37.66144325145091
      ],
      [
        -122.46166752498031,
        37.657993239644966
      ],
      [
        -122.45766788404315,
        37.65474302972791
      ],
      [
        -122.45364932423777,
        37.65149158414176
      ],
      [
        -122.45108664209319,
        37.64742063114956
      ],
      [
        -122.44769580698603,
        37.64393220612534
      ],
      [
        -122.44346860963842,
        37.640963881284435
      ],
      [
        -122.44021344495197,
        37.637258466682404
      ],
      [
        -122.43779551964832,
        37.63276483933963
      ],
      [
        -122.43382402491804,
        37.629177375400694
      ],
      [
        -122.43024775857512,
        37.62733890410533
      ],
      [
        -122.42529341438471,
        37.629992346724
      ],
      [
        -122.41936162744416,
        37.632740101952265
      ],
      [
        -122.41402773185224,
        37.63417528040147
      ],
      [
        -122.40955237269587,
        37.63362333560859
      ],
      [
        -122.40460863616883,
        37.63353077085243
      ],
      [
        -122.40290412042785,
        37.62996649453386
      ],
      [
        -122.40190599302194,
        37.62565748771683
      ],
      [
        -122.40014494384828,
        37.62128096751875
      ],
      [
        -122.3985691309501,
        37.616646540153596
      ],
      [
        -122.39564520455836,
        37.61254603755981
      ],
      [
        -122.39107967288304,
        37.60942702548218
      ],
      [
        -122.38647732369753,
        37.6063994139823
      ],
      [
        -122.38179839223304,
        37.60338870231236
      ],
      [
        -122.37719171234944,
        37.60036558726012
      ],
      [
        -122.3727929190873,
        37.5975299331256
      ],
      [
        -122.36840652471831,
        37.594671001125356
      ],
      [
        -122.36415036226161,
        37.59189752142651
      ],
      [
        -122.35990652926898,
        37.58912618049564
      ],
      [
        -122.35513331784898,
        37.58744623618565
      ],
      [
        -122.34974987301995,
        37.587108452791334
      ],
      [
        -122.34391641112263,
        37.58695787847422
      ],
      [
        -122.33793723946283,
        37.58679947008922
      ],
      [
        -122.33200366285472,
        37.58634788285403
      ],
      [
        -122.32755734337306,
        37.58329210476876
      ],
      [
        -122.32361430723913,
        37.579705550120494
      ],
      [
        -122.3197290382337,
        37.57611091411578
      ],
      [
        -122.31578356545803,
        37.572485958599316
      ],
      [
        -122.3118602239887,
        37.5688615479007
      ],
      [
        -122.3079798247551,
        37.56526260227719
      ],
      [
        -122.30406952882171,
        37.56165284160494
      ],
      [
        -122.30041658469257,
        37.5578679894693
      ],
      [
        -122.29690984904661,
        37.55400167726266
      ],
      [
        -122.29331322088386,
        37.55017221209812
      ],
      [
        -122.2897784022013,
        37.546349777903195
      ],
      [
        -122.28622420816869,
        37.54252120676375
      ],
      [
        -122.28273625426117,
        37.5387590462852
      ],
      [
        -122.27952292595535,
        37.53525906323502
      ],
      [
        -122.27616511398418,
        37.53166436921681
      ],
      [
        -122.2723288981188,
        37.52805517957125
      ],
      [
        -122.26830135615124,
        37.5245354278109
      ],
      [
        -122.26447376183846,
        37.521140085461106
      ],
      [
        -122.26076847175104,
        37.5178787409671
      ],
      [
        -122.25693358312061,
        37.514498840845256
      ],
      [
        -122.25317626968183,
        37.51119101966256
      ],
      [
        -122.24939212944155,
        37.50779874735575
      ],
      [
        -122.24555856408989,
        37.50442467701365
      ],
      [
        -122.2417333223342,
        37.50104155880813
      ],
      [
        -122.238040224574,
        37.49806718993162
      ],
      [
        -122.23369595184491,
        37.49636188808163
      ],
      [
        -122.22914200094593,
        37.49508588830092
      ],
      [
        -122.22454743964714,
        37.4936661056787
      ],
      [
        -122.22030161060557,
        37.491857814364145
      ],
      [
        -122.21590169898386,
        37.48990601364247
      ],
      [
        -122.21101132971665,
        37.4883356776809
      ],
      [
        -122.20526325794164,
        37.48739007109655
      ],
      [
        -122.19937216535848,
        37.48665135773002
      ],
      [
        -122.19346379458773,
        37.485912765387674
      ],
      [
        -122.18769090326735,
        37.485148297969026
      ],
      [
        -122.18251762432762,
        37.48386564292561
      ],
      [
        -122.17808441656959,
        37.48206673294068
      ],
      [
        -122.17397672110937,
        37.479748313893985
      ],
      [
        -122.16946597607983,
        37.47713595063542
      ],
      [
        -122.16470809672083,
        37.47438097959999
      ],
      [
        -122.15992418378441,
        37.47158125632459
      ],
      [
        -122.15511359521192,
        37.468734701606415
      ],
      [
        -122.15030965655531,
        37.46592395086452
      ],
      [
        -122.14548638390639,
        37.46308055516914
      ],
      [
        -122.14069541558935,
        37.460267723947695
      ],
      [
        -122.13596979003079,
        37.45749093768046
      ],
      [
        -122.1315570047374,
        37.45480989098327
      ],
      [
        -122.12680271305513,
        37.452022082828414
      ],
      [
        -122.1233263686313,
        37.449011138693116
      ],
      [
        -122.12013646184589,
        37.44594723431195
      ],
      [
        -122.11667496143389,
        37.44260006988566
      ],
      [
        -122.11304556770357,
        37.43912132527447
      ],
      [
        -122.1096194041257,
        37.4357892692217
      ],
      [
        -122.1061390414181,
        37.43249749641287
      ],
      [
        -122.10291311782494,
        37.429360638550214
      ],
      [
        -122.1017951207493,
        37.42667711384963
      ],
      [
        -122.10153215768601,
        37.42367328437182
      ],
      [
        -122.10187504227945,
        37.421943582291654
      ],
      [
        -122.10451410016874,
        37.422067113434736
      ],
      [
        -122.1073856025446,
        37.42109610744956
      ],
      [
        -122.4754163110257,
        37.73916672870974
      ],
      [
        -122.4754650222016,
        37.737299331493176
      ],
      [
        -122.47524197914494,
        37.7356577949516
      ],
      [
        -122.47555894882419,
        37.73473881854455
      ],
      [
        -122.47762464194868,
        37.7345732328823
      ],
      [
        -122.479386587216,
        37.73457484844166
      ],
      [
        -122.47934672131838,
        37.733223626519454
      ],
      [
        -122.47339778193454,
        37.71780381987826
      ],
      [
        -122.47309075070383,
        37.7174729382975
      ],
      [
        -122.47308807980981,
        37.71747148360503
      ],
      [
        -122.4730876431524,
        37.717470562790524
      ],
      [
        -122.47241694819165,
        37.71594001484734
      ],
      [
        -122.47166654137206,
        37.71375094294047
      ],
      [
        -122.47161392619444,
        37.712198517154306
      ],
      [
        -122.47142316407606,
        37.71268891096707
      ],
      [
        -122.46890209927459,
        37.71250370331829
      ],
      [
        -122.46738058570843,
        37.71240097983651
      ],
      [
        -122.46676160312266,
        37.712413289148834
      ],
      [
        -122.46466032963862,
        37.71228535159762
      ],
      [
        -122.4633196942323,
        37.711367107576045
      ],
      [
        -122.46106673813713,
        37.710566615100795
      ],
      [
        -122.45880300233937,
        37.71002924932417
      ],
      [
        -122.45742209849489,
        37.71024837877884
      ],
      [
        -122.45676685719761,
        37.710289842685924
      ],
      [
        -122.45435929425632,
        37.71130290031693
      ],
      [
        -122.45160430117926,
        37.713637306040376
      ],
      [
        -122.44883752344565,
        37.71634354271977
      ],
      [
        -122.44808642185338,
        37.71994734282207
      ],
      [
        -122.44741164339857,
        37.72350784265633
      ],
      [
        -122.44532807351602,
        37.72682054604793
      ],
      [
        -122.44148502648386,
        37.72915917904208
      ],
      [
        -122.44884820064895,
        37.73150654193922
      ],
      [
        -122.44663871518594,
        37.731506260497746
      ],
      [
        -122.44432979948178,
        37.731514078838124
      ],
      [
        -122.4421859168389,
        37.73152875949911
      ],
      [
        -122.43992520356315,
        37.73154825079103
      ],
      [
        -122.43788528570992,
        37.73154754163433
      ],
      [
        -122.43684958865552,
        37.73151856619823
      ],
      [
        -122.43563836928683,
        37.73127275783172
      ],
      [
        -122.43185966133512,
        37.732098887109004
      ],
      [
        -122.42696234332304,
        37.731671481992144
      ],
      [
        -122.42205362319389,
        37.73162643722396
      ],
      [
        -122.41713743147137,
        37.73193051477578
      ],
      [
        -122.41246799288524,
        37.7331605120911
      ],
      [
        -122.40838308791963,
        37.735162965259946
      ],
      [
        -122.40779063265225,
        37.73882891709058
      ],
      [
        -122.40693572142068,
        37.74230364703469
      ],
      [
        -122.4048342172225,
        37.74540689556881
      ],
      [
        -122.40379824343312,
        37.74868327809015
      ],
      [
        -122.40278047085756,
        37.752337981989015
      ],
      [
        -122.40301878885879,
        37.75560416396071
      ],
      [
        -122.40482407143152,
        37.75831914754939
      ],
      [
        -122.40605483899832,
        37.761493911637835
      ],
      [
        -122.4048518401473,
        37.764935718801816
      ],
      [
        -122.40513095974558,
        37.76886979167093
      ],
      [
        -122.40646235539134,
        37.77239535385375
      ],
      [
        -122.4054694945953,
        37.77545613629437
      ],
      [
        -122.40170231392729,
        37.77787094029553
      ],
      [
        -122.3981661583567,
        37.780561868967425
      ],
      [
        -122.39484071747215,
        37.783404359384726
      ],
      [
        -122.39200655792641,
        37.785798108947866
      ],
      [
        -122.38917239838068,
        37.788191858511
      ],
      [
        -122.38633823883494,
        37.79058560807413
      ],
      [
        -122.38350636905525,
        37.79298121169216
      ],
      [
        -122.38035129182846,
        37.79593019939343
      ],
      [
        -122.37714845745424,
        37.79892171347105
      ],
      [
        -122.3741121830482,
        37.80176050609944
      ],
      [
        -122.37088177801499,
        37.804764933614315
      ],
      [
        -122.36774203240968,
        37.807694693704015
      ],
      [
        -122.36460555357246,
        37.81058997980579
      ],
      [
        -122.3613346463011,
        37.81341327389024
      ],
      [
        -122.35745606593535,
        37.81571486794484
      ],
      [
        -122.35348452423835,
        37.81786649418852
      ],
      [
        -122.34892611066606,
        37.818992157507125
      ],
      [
        -122.34423619413141,
        37.819657502057936
      ],
      [
        -122.33944272267141,
        37.82038498708116
      ],
      [
        -122.33470782624981,
        37.82107500367409
      ],
      [
        -122.32996525112418,
        37.82168261621225
      ],
      [
        -122.32513360165053,
        37.822098363979826
      ],
      [
        -122.32039579451735,
        37.822733381238095
      ],
      [
        -122.31582594825792,
        37.823549046637844
      ],
      [
        -122.31112502574258,
        37.82437938103073
      ],
      [
        -122.30631499952885,
        37.824928955822195
      ],
      [
        -122.30190819052731,
        37.826012069671684
      ],
      [
        -122.30013872801153,
        37.82823144317574
      ],
      [
        -122.29836926549575,
        37.830450816679786
      ],
      [
        -122.29659980297997,
        37.83267019018383
      ],
      [
        -122.29487988301501,
        37.83491700091954
      ],
      [
        -122.29650162089136,
        37.83853667740288
      ],
      [
        -122.29723495566819,
        37.8424731845969
      ],
      [
        -122.2981147580206,
        37.846253569402364
      ],
      [
        -122.29894100322112,
        37.850017960347294
      ],
      [
        -122.29988356388047,
        37.85378450349349
      ],
      [
        -122.3009520712775,
        37.857504468033824
      ],
      [
        -122.30200383423815,
        37.86121063754436
      ],
      [
        -122.30294092884678,
        37.864903406957076
      ],
      [
        -122.30221746723048,
        37.86706561227661
      ]
    ]
  },
  "properties": {}
}