{
  "type": "Feature",
  "geometry": {
    "type": "LineString",
    "coordinates": [
      [
        -122.47496288262941,
        37.73938314977104
      ],
      [
        -122.47540966520336,
        37.74029442193044
      ],
      [
        -122.4754787330725,
        37.74108887653588
      ],
      [
        -122.47556044127356,
        37.742558303170135
      ],
      [
        -122.47559906436415,
        37.743509115374835
      ],
      [
        -122.47574793808089,
        37.74563731405782
      ],
      [
        -122.47591433650484,
        37.747937573259684
      ],
      [
        -122.47605349499625,
        37.7500762331765
      ],
      [
        -122.475984748567,
        37.75033654648601
      ],
      [
        -122.475984748567,
        37.75033654648601
      ],
      [
        -122.4759747741022,
        37.75038537107199
      ],
      [
        -122.4759747741022,
        37.75038537107199
      ],
      [
        -122.4759747741022,
        37.75038537107199
      ],
      [
        -122.4759747741022,
        37.75038537107199
      ],
      [
        -122.4759747741022,
        37.75038537107199
      ],
      [
        -122.4759747741022,
        37.75038537107199
      ],
      [
        -122.4759747741022,
        37.75038537107199
      ],
      [
        -122.4759747741022,
        37.75038537107199
      ],
      [
        -122.4759747741022,
        37.75038537107199
      ],
      [
        -122.4759747741022,
        37.75038537107199
      ],
      [
        -122.4759747741022,
        37.75038537107199
      ],
      [
        -122.4759747741022,
        37.75038537107199
      ],
      [
        -122.4759747741022,
        37.75038537107199
      ],
      [
        -122.4759747741022,
        37.75038537107199
      ],
      [
        -122.4759845809289,
        37.7504327288249
      ],
      [
        -122.4759845809289,
        37.7504327288249
      ],
      [
        -122.47610316387642,
        37.7505609315545
      ],
      [
        -122.47621459363147,
        37.75181073421119
      ],
      [
        -122.47635576053892,
        37.75360762371731
      ],
      [
        -122.47650621266826,
        37.75585828972313
      ],
      [
        -122.47662734397952,
        37.757708756482074
      ],
      [
        -122.4766264670738,
        37.7577602723965
      ],
      [
        -122.4766264670738,
        37.7577602723965
      ],
      [
        -122.47671680631467,
        37.758891336202815
      ],
      [
        -122.47694299576972,
        37.76117348080101
      ],
      [
        -122.47714659145791,
        37.763215736106794
      ],
      [
        -122.47727125241678,
        37.765172381956184
      ],
      [
        -122.47792606170917,
        37.76722431095525
      ],
      [
        -122.47852864911407,
        37.769565925631476
      ],
      [
        -122.4794153360281,
        37.77142630473831
      ],
      [
        -122.47717855274216,
        37.77233580714974
      ],
      [
        -122.47385880187234,
        37.77241931910514
      ],
      [
        -122.47171330505628,
        37.77285666952182
      ],
      [
        -122.47173608535628,
        37.772990778281034
      ],
      [
        -122.47182340235236,
        37.77466400681146
      ],
      [
        -122.47201530748963,
        37.77704067194783
      ],
      [
        -122.4721852622071,
        37.7795040753809
      ],
      [
        -122.47232874079843,
        37.781744006213124
      ],
      [
        -122.47247429245415,
        37.78357671869287
      ],
      [
        -122.4725291337426,
        37.78439662167969
      ],
      [
        -122.47262352590627,
        37.78585361369104
      ],
      [
        -122.47209577280714,
        37.78787083600553
      ],
      [
        -122.47022008188685,
        37.79057368299877
      ],
      [
        -122.46944980394437,
        37.793866003168716
      ],
      [
        -122.46946890889056,
        37.79731006096128
      ],
      [
        -122.46944010015301,
        37.801168216852375
      ],
      [
        -122.47056373796015,
        37.804201980175286
      ],
      [
        -122.47384894481158,
        37.80581678926032
      ],
      [
        -122.47643088373687,
        37.808137398768615
      ],
      [
        -122.47745158873632,
        37.81092874904409
      ],
      [
        -122.47781044315497,
        37.8142241765371
      ],
      [
        -122.47816377968674,
        37.8175531563618
      ],
      [
        -122.47856160277458,
        37.82085884750019
      ],
      [
        -122.47894798427427,
        37.824257452033436
      ],
      [
        -122.4794098122718,
        37.82761831243003
      ],
      [
        -122.479929412668,
        37.83122378376654
      ],
      [
        -122.48286429158988,
        37.83362109120959
      ],
      [
        -122.48523266548999,
        37.836594248160544
      ],
      [
        -122.48671823029721,
        37.83999582935677
      ],
      [
        -122.48557532088994,
        37.843320198950664
      ],
      [
        -122.48690327675256,
        37.84695524883602
      ],
      [
        -122.48963831859821,
        37.85000592935407
      ],
      [
        -122.49236581421158,
        37.85285961517292
      ],
      [
        -122.49457344526321,
        37.85618034672755
      ],
      [
        -122.49878721251955,
        37.85767935094258
      ],
      [
        -122.50194025500673,
        37.86043382214861
      ],
      [
        -122.50587453255788,
        37.862861547810446
      ],
      [
        -122.50709057477674,
        37.866804057925314
      ],
      [
        -122.5071367556462,
        37.87095939257277
      ],
      [
        -122.50895127089703,
        37.87465322241462
      ],
      [
        -122.51258049643775,
        37.87739864840678
      ],
      [
        -122.51613495252991,
        37.88018939263203
      ],
      [
        -122.51657981007529,
        37.88404724057145
      ],
      [
        -122.51662743878887,
        37.88803571001641
      ],
      [
        -122.51641713505862,
        37.8923213011372
      ],
      [
        -122.51611032737947,
        37.89638372211223
      ],
      [
        -122.51578037339745,
        37.90060617667564
      ],
      [
        -122.51539725492049,
        37.904977428211836
      ],
      [
        -122.513910504305,
        37.90884636189249
      ],
      [
        -122.51236544817121,
        37.91276934211761
      ],
      [
        -122.51109063866637,
        37.91709445073928
      ],
      [
        -122.51203952033384,
        37.92136077673648
      ],
      [
        -122.51420530395455,
        37.925352186779115
      ],
      [
        -122.51549193645349,
        37.929416569159606
      ],
      [
        -122.51624261087828,
        37.933595356559685
      ],
      [
        -122.51664585231333,
        37.93759625779853
      ],
      [
        -122.5155712852333,
        37.94164503336524
      ],
      [
        -122.51445342464939,
        37.94535423840955
      ],
      [
        -122.51226858944887,
        37.9490415904835
      ],
      [
        -122.50954457135636,
        37.95190366724189
      ],
      [
        -122.50843152620284,
        37.95503468985022
      ],
      [
        -122.5090573918339,
        37.95850608879498
      ],
      [
        -122.50993368579817,
        37.962186153198274
      ],
      [
        -122.51359780372887,
        37.96473976197004
      ],
      [
        -122.51733597076516,
        37.96688658391159
      ],
      [
        -122.52048664520984,
        37.96895955838879
      ],
      [
        -122.52113919695195,
        37.970769746624995
      ],
      [
        -122.5210384839424,
        37.97114026736279
      ],
      [
        -122.5210384839424,
        37.97114026736279
      ],
      [
        -122.52144447076404,
        37.97136364656074
      ],
      [
        -122.52192049045345,
        37.971441275223974
      ],
      [
        -122.52204214932448,
        37.97140893395768
      ],
      [
        -122.52336988454105,
        37.97165135573241
      ],
      [
        -122.52568770352693,
        37.97194579512589
      ],
      [
        -122.5279706857422,
        37.972217404632225
      ],
      [
        -122.5282079448202,
        37.97225694641282
      ],
      [
        -122.47592704847172,
        37.74754454033071
      ],
      [
        -122.47608203898264,
        37.74971985677442
      ],
      [
        -122.47623680490231,
        37.7518341159239
      ],
      [
        -122.47640928432286,
        37.754011776174174
      ],
      [
        -122.47657090141718,
        37.756394850007986
      ],
      [
        -122.47667703479415,
        37.75814227666714
      ],
      [
        -122.47681416511976,
        37.75995120896905
      ],
      [
        -122.47704009721839,
        37.76202614526653
      ],
      [
        -122.47720339108335,
        37.76403562820558
      ],
      [
        -122.4773691043153,
        37.76620357870066
      ],
      [
        -122.47834213127206,
        37.76897427324911
      ],
      [
        -122.4794268400083,
        37.771450231870254
      ],
      [
        -122.4769305774501,
        37.77234636988318
      ],
      [
        -122.47385384720472,
        37.772430876888905
      ],
      [
        -122.47176705980453,
        37.77275090370784
      ],
      [
        -122.47172117060401,
        37.77299620400225
      ],
      [
        -122.47172671477551,
        37.77297958108839
      ],
      [
        -122.47180814090532,
        37.77409623682355
      ],
      [
        -122.47196574628573,
        37.776254342619936
      ],
      [
        -122.47212460976215,
        37.77851252570576
      ],
      [
        -122.4722910299534,
        37.7810113425501
      ],
      [
        -122.47247492988838,
        37.78343562976209
      ],
      [
        -122.47263233160898,
        37.78572175719059
      ],
      [
        -122.47184736315572,
        37.788293065368066
      ],
      [
        -122.46996009052046,
        37.790985389129155
      ],
      [
        -122.46958566152476,
        37.79354388060456
      ],
      [
        -122.46952397539164,
        37.796555110475005
      ],
      [
        -122.46945641666575,
        37.80008291094217
      ],
      [
        -122.46989696350875,
        37.80365376884347
      ],
      [
        -122.47312028604833,
        37.805164101724124
      ],
      [
        -122.47578972946269,
        37.80763345025049
      ],
      [
        -122.47747250634782,
        37.81043168132088
      ],
      [
        -122.47781592099953,
        37.813564350041595
      ],
      [
        -122.47815863697505,
        37.81675483768043
      ],
      [
        -122.47854241257934,
        37.81990670653005
      ],
      [
        -122.47893626708012,
        37.82338565716734
      ],
      [
        -122.47935140845112,
        37.82677484686027
      ],
      [
        -122.47976503770948,
        37.83036602315208
      ],
      [
        -122.48201419999232,
        37.83312217920846
      ],
      [
        -122.48458147563717,
        37.83556545361371
      ],
      [
        -122.48641613040222,
        37.838419456675766
      ],
      [
        -122.48578258773135,
        37.84147374262316
      ],
      [
        -122.48578457602807,
        37.84428863198152
      ],
      [
        -122.4877047425528,
        37.847557510692155
      ],
      [
        -122.48988837168469,
        37.850631450856476
      ],
      [
        -122.49268451327998,
        37.85320841225778
      ],
      [
        -122.49485910876771,
        37.856304978073695
      ],
      [
        -122.49905295068656,
        37.857812226469996
      ],
      [
        -122.50228197416295,
        37.86056781947559
      ],
      [
        -122.50596384039429,
        37.86293633862839
      ],
      [
        -122.5071015864304,
        37.86662830479463
      ],
      [
        -122.50712623518037,
        37.87048645189785
      ],
      [
        -122.50856906743844,
        37.874288666210205
      ],
      [
        -122.51210258168383,
        37.87706268567242
      ],
      [
        -122.51580635025232,
        37.879618950895235
      ],
      [
        -122.5166051366326,
        37.8833828710482
      ],
      [
        -122.5166405923874,
        37.88750486006566
      ],
      [
        -122.51646086743126,
        37.89193284727583
      ],
      [
        -122.51613200394048,
        37.89617816838497
      ],
      [
        -122.51582000637161,
        37.900303462581796
      ],
      [
        -122.51545981440762,
        37.904602593855465
      ],
      [
        -122.51407483782577,
        37.908424461750116
      ],
      [
        -122.51261097284385,
        37.9119676909505
      ],
      [
        -122.51133698402194,
        37.91586421044578
      ],
      [
        -122.5113828879417,
        37.91998593364814
      ],
      [
        -122.51325985234098,
        37.92366424077763
      ],
      [
        -122.51505034677703,
        37.92735436861
      ],
      [
        -122.51582935692531,
        37.931256253932595
      ],
      [
        -122.51658174543904,
        37.935151739212095
      ],
      [
        -122.51617222845937,
        37.93918168739229
      ],
      [
        -122.51516732494323,
        37.94312983639102
      ],
      [
        -122.513641568219,
        37.94676444445698
      ],
      [
        -122.51149829710185,
        37.950124796402335
      ],
      [
        -122.50869153581715,
        37.95289620298184
      ],
      [
        -122.50868831524707,
        37.956437378037535
      ],
      [
        -122.50940017677736,
        37.96018039454325
      ],
      [
        -122.51135306287911,
        37.963377602400655
      ],
      [
        -122.51507976194496,
        37.96554865960449
      ],
      [
        -122.51852111462739,
        37.96755584849285
      ],
      [
        -122.52094780867579,
        37.969401714551395
      ],
      [
        -122.52123741637827,
        37.970375396708974
      ],
      [
        -122.52123591666667,
        37.97034607046865
      ],
      [
        -122.52110503272182,
        37.97127777996943
      ],
      [
        -122.5220701079427,
        37.97142156664163
      ],
      [
        -122.52336448329581,
        37.971600929664135
      ],
      [
        -122.52565954910158,
        37.97189079281565
      ],
      [
        -122.52795782864764,
        37.9721203887412
      ],
      [
        -122.5282235292772,
        37.97214641225996
      ],
      [
        -122.30842984261587,
        37.883914336296456
      ],
      [
        -122.30872231425813,
        37.887633871535954
      ],
      [
        -122.30855380736136,
        37.891392169596564
      ],
      [
        -122.3101151344635,
        37.895280622721785
      ],
      [
        -122.3128486193564,
        37.89867295713892
      ],
      [
        -122.31557073755916,
        37.902005882881326
      ],
      [
        -122.31833451117288,
        37.90536027336887
      ],
      [
        -122.32112447215675,
        37.90873855406561
      ],
      [
        -122.32385230960699,
        37.91211903556174
      ],
      [
        -122.32675783559004,
        37.915430712130416
      ],
      [
        -122.33027307380898,
        37.91845622474216
      ],
      [
        -122.33436872182264,
        37.92083597664789
      ],
      [
        -122.33906242366496,
        37.92160512350533
      ],
      [
        -122.34443731043129,
        37.921805396297714
      ],
      [
        -122.34956926166771,
        37.921876322461024
      ],
      [
        -122.35462328718067,
        37.92185167230182
      ],
      [
        -122.35924234745555,
        37.92316316845397
      ],
      [
        -122.36313994959217,
        37.92551571235425
      ],
      [
        -122.36734920577474,
        37.927016069531504
      ],
      [
        -122.37202460695366,
        37.927231908854466
      ],
      [
        -122.37711282899294,
        37.92722391474432
      ],
      [
        -122.3816858554707,
        37.92777994569831
      ],
      [
        -122.3859828176611,
        37.929086888573394
      ],
      [
        -122.3902209129814,
        37.930672301337275
      ],
      [
        -122.39434459333208,
        37.93249910653156
      ],
      [
        -122.39897133221592,
        37.93235631322952
      ],
      [
        -122.40259047036832,
        37.93247748832961
      ],
      [
        -122.40377036305304,
        37.932612180781746
      ],
      [
        -122.40810580510453,
        37.93267792554501
      ],
      [
        -122.41282988689385,
        37.93299937558704
      ],
      [
        -122.41774115808286,
        37.93334268853494
      ],
      [
        -122.42250355633784,
        37.93368929702639
      ],
      [
        -122.42682180819126,
        37.934041913390196
      ],
      [
        -122.43112467666323,
        37.934226128073895
      ],
      [
        -122.43600410348799,
        37.93454484454952
      ],
      [
        -122.44039549881447,
        37.93484714935574
      ],
      [
        -122.44495057666349,
        37.935169459349375
      ],
      [
        -122.44948492729989,
        37.93548666297399
      ],
      [
        -122.45411569109483,
        37.93639245704363
      ],
      [
        -122.45873727372255,
        37.93780006655563
      ],
      [
        -122.46312491724642,
        37.93915491411857
      ],
      [
        -122.46729618745294,
        37.94045874159955
      ],
      [
        -122.47123051427099,
        37.94144755136594
      ],
      [
        -122.47541658782188,
        37.94219406350116
      ],
      [
        -122.47955719797646,
        37.943107629133685
      ],
      [
        -122.48304445645601,
        37.94481951052855
      ],
      [
        -122.48737670939042,
        37.94487650337184
      ],
      [
        -122.4910351451702,
        37.946411389489434
      ],
      [
        -122.49373997748559,
        37.949036849974604
      ],
      [
        -122.49650005135597,
        37.95165748800387
      ],
      [
        -122.49912869007461,
        37.954160320709754
      ],
      [
        -122.50178801651877,
        37.95668450846817
      ],
      [
        -122.50453920971991,
        37.95932128736022
      ],
      [
        -122.50772125692751,
        37.961483442942374
      ],
      [
        -122.51133166183082,
        37.96342898405476
      ],
      [
        -122.51461845874584,
        37.9652729010419
      ],
      [
        -122.51761101566676,
        37.96702070345444
      ],
      [
        -122.52039472193238,
        37.96883903616758
      ],
      [
        -122.52125156950898,
        37.97035090456367
      ],
      [
        -122.52102642487053,
        37.971124785833474
      ],
      [
        -122.52102313333333,
        37.97113793333333
      ],
      [
        -122.52170196143048,
        37.971383812545184
      ],
      [
        -122.52208626666666,
        37.97144365
      ],
      [
        -122.52214159530524,
        37.97145587862483
      ],
      [
        -122.5239900025354,
        37.97170522948558
      ],
      [
        -122.52629513886414,
        37.97199931387419
      ],
      [
        -122.52819558032083,
        37.97218343751801
      ],
      [
        -122.52820003333333,
        37.97218411666667
      ],
      [
        -122.52820003333333,
        37.97218411666667
      ],
      [
        -122.5298085312424,
        37.97235166304633
      ],
      [
        -122.53191587860272,
        37.9725553570339
      ],
      [
        -122.53370917595086,
        37.97253747852695
      ],
      [
        -122.53521317336214,
        37.97224416919563
      ],
      [
        -122.53712292601557,
        37.972665986994805
      ],
      [
        -122.44750961337536,
        37.771918690545384
      ],
      [
        -122.44750404940856,
        37.77193137059144
      ],
      [
        -122.44730933868551,
        37.77190328002113
      ],
      [
        -122.44547953522486,
        37.77214442124039
      ],
      [
        -122.44382442548061,
        37.77235314331377
      ],
      [
        -122.4418343941311,
        37.77261945994018
      ],
      [
        -122.4396158732653,
        37.77287251757789
      ],
      [
        -122.43788065310933,
        37.77314288730343
      ],
      [
        -122.43621855117856,
        37.77335614589196
      ],
      [
        -122.4346148478419,
        37.77355454083367
      ],
      [
        -122.43262507025358,
        37.77374997000401
      ],
      [
        -122.4306343179037,
        37.77401867861264
      ],
      [
        -122.42865079589873,
        37.77427696007832
      ],
      [
        -122.42705370437601,
        37.77452697117935
      ],
      [
        -122.42548267356239,
        37.77471636059094
      ],
      [
        -122.42482500137059,
        37.77483303760557
      ],
      [
        -122.42480275212095,
        37.77484963657093
      ],
      [
        -122.42412214912599,
        37.77444906676106
      ],
      [
        -122.4240811169891,
        37.77421996414132
      ],
      [
        -122.42404789556828,
        37.774144499698714
      ],
      [
        -122.42379434132594,
        37.7728811192462
      ],
      [
        -122.42329373815771,
        37.7715710257965
      ],
      [
        -122.4209662108264,
        37.77007082655957
      ],
      [
        -122.41741436183742,
        37.76969727688836
      ],
      [
        -122.41380877612643,
        37.76950595282892
      ],
      [
        -122.41036545459522,
        37.769253500540565
      ],
      [
        -122.40703672912836,
        37.76865373473216
      ],
      [
        -122.40537591484706,
        37.766739099775805
      ],
      [
        -122.40514732395637,
        37.76418299422579
      ],
      [
        -122.40621661675199,
        37.76165129353091
      ],
      [
        -122.4059422238857,
        37.7588966325302
      ],
      [
        -122.4035054800928,
        37.75656886431479
      ],
      [
        -122.4030913302183,
        37.753316185261205
      ],
      [
        -122.40381490220634,
        37.75044912474864
      ],
      [
        -122.40489686141079,
        37.74922727879954
      ],
      [
        -122.4070487330266,
        37.74875479335279
      ],
      [
        -122.4084880119412,
        37.74842857546424
      ],
      [
        -122.4084051709933,
        37.748437244017474
      ],
      [
        -122.40875068409431,
        37.74840602806361
      ],
      [
        -122.41100662930091,
        37.74834843413087
      ],
      [
        -122.41324221778922,
        37.74831372501015
      ],
      [
        -122.4134832286086,
        37.74830653594523
      ],
      [
        -122.41478040286951,
        37.74830209477412
      ],
      [
        -122.41580283559922,
        37.74827386364182
      ],
      [
        -122.41593044686594,
        37.74893414890882
      ],
      [
        -122.41604223555181,
        37.74990522306659
      ],
      [
        -122.41611724438245,
        37.750653151307205
      ],
      [
        -122.41614423068444,
        37.7509169389587
      ],
      [
        -122.4162900396234,
        37.75256248565536
      ],
      [
        -122.41638824304252,
        37.753941286295394
      ],
      [
        -122.41654869784807,
        37.75556804495858
      ],
      [
        -122.41668803114008,
        37.75687619796533
      ],
      [
        -122.41675046225514,
        37.758030760817434
      ],
      [
        -122.41698641732273,
        37.7596494544815
      ],
      [
        -122.41698690380927,
        37.7599518076123
      ],
      [
        -122.47147587025941,
        37.73497314947678
      ],
      [
        -122.4719099116953,
        37.73301162871187
      ],
      [
        -122.47192242844554,
        37.73141513328045
      ],
      [
        -122.47195249667426,
        37.731384825046206
      ],
      [
        -122.47195125850006,
        37.73138698249991
      ],
      [
        -122.47195920811721,
        37.731324106058665
      ],
      [
        -122.47206021098617,
        37.72967468587351
      ],
      [
        -122.47217025399858,
        37.72700312629312
      ],
      [
        -122.47244237298467,
        37.72389965802778
      ],
      [
        -122.47261236822716,
        37.72125668986075
      ],
      [
        -122.47265320398557,
        37.71872047410252
      ],
      [
        -122.47273049191692,
        37.71757885633991
      ],
      [
        -122.47270974289889,
        37.717605253763736
      ],
      [
        -122.47270849556458,
        37.717605909658815
      ],
      [
        -122.47267818289998,
        37.71700193496308
      ],
      [
        -122.47195067343311,
        37.7148807269155
      ],
      [
        -122.4712581233305,
        37.711732520971154
      ],
      [
        -122.47140099558318,
        37.70839303516661
      ],
      [
        -122.47182729361627,
        37.70483566699399
      ],
      [
        -122.47181331571949,
        37.70106579237568
      ],
      [
        -122.47140609914999,
        37.697270568078935
      ],
      [
        -122.47061204094223,
        37.69345446204294
      ],
      [
        -122.47055497383042,
        37.68952679000632
      ],
      [
        -122.47162207245799,
        37.6854640997361
      ],
      [
        -122.47183708729015,
        37.68129650102198
      ],
      [
        -122.47134189024959,
        37.67721644001943
      ],
      [
        -122.46854419626504,
        37.673656150417294
      ],
      [
        -122.46636719547364,
        37.66996335894306
      ],
      [
        -122.4658638913689,
        37.66588991247239
      ],
      [
        -122.4654871321877,
        37.661750027708734
      ],
      [
        -122.4624513662704,
        37.65840617295881
      ],
      [
        -122.45875358744632,
        37.65548441406627
      ],
      [
        -122.45491399758235,
        37.652586685494036
      ],
      [
        -122.45205670169976,
        37.64912081787133
      ],
      [
        -122.44962056074831,
        37.64534864815114
      ],
      [
        -122.44554479097246,
        37.64274691954036
      ],
      [
        -122.44212920520376,
        37.639685748802094
      ],
      [
        -122.43955537647456,
        37.6360797810704
      ],
      [
        -122.4373291693849,
        37.632286649033944
      ],
      [
        -122.4337422037488,
        37.629365647287685
      ],
      [
        -122.43014442377856,
        37.62642148055142
      ]
    ]
  },
  "properties": {}
}