{
  "type": "Feature",
  "geometry": {
    "type": "LineString",
    "coordinates": [
      [
        -122.53213512025305,
        37.97262389136946
      ],
      [
        -122.5322884593931,
        37.971838257932106
      ],
      [
        -122.53226577470674,
        37.97176137383057
      ],
      [
        -122.53227903791803,
        37.97165735952399
      ],
      [
        -122.53133725850536,
        37.971434662726196
      ],
      [
        -122.53122816310271,
        37.97143205426369
      ],
      [
        -122.53050720420717,
        37.97136331561081
      ],
      [
        -122.52921652306132,
        37.97122034146558
      ],
      [
        -122.52763622398102,
        37.971083159072485
      ],
      [
        -122.52552384191732,
        37.970885522321545
      ],
      [
        -122.52373127674541,
        37.97070678269993
      ],
      [
        -122.52239796995275,
        37.97057058399676
      ],
      [
        -122.52144067002891,
        37.96899776981538
      ],
      [
        -122.51872840679604,
        37.967249729616455
      ],
      [
        -122.51563378305966,
        37.96549035632935
      ],
      [
        -122.51250721574797,
        37.96373864951777
      ],
      [
        -122.50992271239791,
        37.961307051778604
      ],
      [
        -122.50947649101076,
        37.95910699964992
      ],
      [
        -122.50906970309835,
        37.95698243308634
      ],
      [
        -122.50867413206021,
        37.95476111040495
      ],
      [
        -122.50925643762702,
        37.95257184387039
      ],
      [
        -122.51129274556249,
        37.95075758418811
      ],
      [
        -122.5129566660593,
        37.94843455283117
      ],
      [
        -122.51460478404414,
        37.94569328017291
      ],
      [
        -122.51556865973556,
        37.942637442206596
      ],
      [
        -122.51633556873867,
        37.93973802289053
      ],
      [
        -122.51698433664255,
        37.936968651060646
      ],
      [
        -122.51675496775738,
        37.934696500752246
      ],
      [
        -122.5162997927957,
        37.93219913515039
      ],
      [
        -122.51585239724108,
        37.92975199563561
      ],
      [
        -122.51553650018397,
        37.92721551659452
      ],
      [
        -122.51619741358162,
        37.92561948713824
      ],
      [
        -122.51619890535292,
        37.92560115086034
      ],
      [
        -122.51544651775528,
        37.92559385936099
      ],
      [
        -122.51343909376331,
        37.92638553303777
      ],
      [
        -122.51084064193068,
        37.96276754568351
      ],
      [
        -122.50947894766561,
        37.95954132534925
      ],
      [
        -122.50888845666823,
        37.95628612181522
      ],
      [
        -122.50878421187643,
        37.95318569571786
      ],
      [
        -122.51095970439619,
        37.950846884386515
      ],
      [
        -122.51307162545768,
        37.94804048206706
      ],
      [
        -122.51492542952755,
        37.9448875126203
      ],
      [
        -122.51572627225865,
        37.94190249061459
      ],
      [
        -122.51646767613889,
        37.939311493435
      ],
      [
        -122.51688280045163,
        37.93775543761083
      ],
      [
        -122.51689954069391,
        37.9376178337613
      ],
      [
        -122.51685894542207,
        37.93756485856056
      ],
      [
        -122.51689873047289,
        37.93742470277703
      ],
      [
        -122.51698599854687,
        37.93681947336604
      ],
      [
        -121.82254305039733,
        38.46920602595881
      ],
      [
        -121.82233066982762,
        38.469266644673574
      ],
      [
        -121.82225262393841,
        38.4711273161243
      ],
      [
        -121.8222649871993,
        38.47327476414454
      ],
      [
        -121.82001900031013,
        38.475792803957425
      ],
      [
        -121.81626040129235,
        38.478782302925445
      ],
      [
        -121.81259290801832,
        38.48166014501814
      ],
      [
        -121.80918011668813,
        38.48434968298554
      ],
      [
        -121.80595575649187,
        38.48691591880948
      ],
      [
        -121.80236161697401,
        38.48980681093949
      ],
      [
        -121.79884291463384,
        38.49296946005791
      ],
      [
        -121.79537377458507,
        38.49619535979939
      ],
      [
        -121.79190591427451,
        38.49940302225806
      ],
      [
        -121.78844320639118,
        38.50264388105994
      ],
      [
        -121.78499779924132,
        38.5058567465715
      ],
      [
        -121.78153247213466,
        38.50908043965081
      ],
      [
        -121.7780675034477,
        38.512318201486444
      ],
      [
        -121.77461884088659,
        38.51555537233692
      ],
      [
        -121.77117557980115,
        38.518757977631324
      ],
      [
        -121.7677439013139,
        38.52199196664022
      ],
      [
        -121.76412009998819,
        38.52509980063651
      ],
      [
        -121.75981669294866,
        38.52759901171879
      ],
      [
        -121.75492528320824,
        38.52947882683746
      ],
      [
        -121.74975437397224,
        38.530391863975126
      ],
      [
        -121.74497445606735,
        38.53241848133423
      ],
      [
        -121.74113533649239,
        38.53530252879081
      ],
      [
        -121.737490474078,
        38.53839385919385
      ],
      [
        -121.73381469003427,
        38.54146482913913
      ],
      [
        -121.73004374355243,
        38.5442496676809
      ],
      [
        -121.72562397060899,
        38.54576943723447
      ],
      [
        -121.72070256836953,
        38.54696449366329
      ],
      [
        -121.71571070698872,
        38.5481018406343
      ],
      [
        -121.7107569180215,
        38.54909976530804
      ],
      [
        -121.70587684331551,
        38.55033341551715
      ],
      [
        -121.7009121268596,
        38.551440387027796
      ],
      [
        -121.69591360321047,
        38.552271319890195
      ],
      [
        -121.69105594479856,
        38.55339866803115
      ],
      [
        -121.68619556999282,
        38.55489714019083
      ],
      [
        -121.68127342568324,
        38.55595089696992
      ],
      [
        -121.67640332329483,
        38.557100841331895
      ],
      [
        -121.67146929740461,
        38.55802883999816
      ],
      [
        -121.66643405567153,
        38.55884948511665
      ],
      [
        -121.6614030342106,
        38.559548751801195
      ],
      [
        -121.65637560360217,
        38.56036247241293
      ],
      [
        -121.65133211074097,
        38.56108792013785
      ],
      [
        -121.64631088102125,
        38.561946043670204
      ],
      [
        -121.6412940838448,
        38.56282680719116
      ],
      [
        -121.6363019139549,
        38.563683882051855
      ],
      [
        -121.63130409591045,
        38.564594413239675
      ],
      [
        -121.62629234748407,
        38.56556341931078
      ],
      [
        -121.62128961099188,
        38.56643937293027
      ],
      [
        -121.61629451995962,
        38.56733175720232
      ],
      [
        -121.61124518258478,
        38.568171850675775
      ],
      [
        -121.60622370365506,
        38.569180595967026
      ],
      [
        -121.6012473836197,
        38.569884853020795
      ],
      [
        -121.59622159338804,
        38.57090664901833
      ],
      [
        -121.59120309858369,
        38.57181834386309
      ],
      [
        -121.5863562642396,
        38.57270417512747
      ],
      [
        -121.58224770656149,
        38.57345924275077
      ],
      [
        -121.57852644463593,
        38.5740134544194
      ],
      [
        -121.57442393683998,
        38.574595472777894
      ],
      [
        -121.56965246443441,
        38.575278286933404
      ],
      [
        -121.56448981854346,
        38.5754206840979
      ],
      [
        -121.55925627991917,
        38.575141533920714
      ],
      [
        -121.55426622501113,
        38.57491283104763
      ],
      [
        -121.54995730580691,
        38.574759947884985
      ],
      [
        -121.54884515559253,
        38.57339418795521
      ],
      [
        -121.54873774296631,
        38.572057407209314
      ],
      [
        -121.54895372917171,
        38.57049665492748
      ],
      [
        -121.54960407912759,
        38.56967269006186
      ],
      [
        -121.55115928080785,
        38.570583031351
      ],
      [
        -121.55336541835669,
        38.57202375613514
      ],
      [
        -121.55405335651501,
        38.57305632589947
      ],
      [
        -121.55227383177989,
        38.57287754753729
      ],
      [
        -121.55040970912194,
        38.57186785483396
      ],
      [
        -121.54905522138165,
        38.571889103785125
      ],
      [
        -121.54856852492507,
        38.57203241003869
      ],
      [
        -121.54830770929121,
        38.573546829045874
      ],
      [
        -121.54669182783256,
        38.57465386732196
      ],
      [
        -121.54299635009347,
        38.574871343390946
      ],
      [
        -121.53818446946738,
        38.57487132936209
      ],
      [
        -121.53342814172801,
        38.575274210665164
      ],
      [
        -121.52903595100734,
        38.5764368847197
      ],
      [
        -121.52432227860284,
        38.57690215301542
      ],
      [
        -121.52013157378366,
        38.57496878519923
      ],
      [
        -121.51688207999008,
        38.572082932674675
      ],
      [
        -121.51335276854384,
        38.569266286295424
      ],
      [
        -121.50876058770434,
        38.567728571588354
      ],
      [
        -121.5040115823051,
        38.566459195734296
      ],
      [
        -121.4994378517418,
        38.56511347239597
      ],
      [
        -121.495603664769,
        38.563975913611436
      ],
      [
        -121.49333945364967,
        38.56339088039417
      ],
      [
        -121.49346571272345,
        38.56334735152414
      ],
      [
        -121.49333928977428,
        38.563284919782994
      ],
      [
        -121.49278698882183,
        38.562976655107704
      ],
      [
        -121.49174847781201,
        38.56321623741094
      ],
      [
        -121.49206136947714,
        38.56399044280884
      ],
      [
        -121.49284324217903,
        38.56419816068654
      ],
      [
        -121.4954814528545,
        38.56495532377603
      ],
      [
        -121.49803192166888,
        38.56560477035172
      ],
      [
        -121.49893679592542,
        38.56587671530971
      ],
      [
        -121.50088574995256,
        38.566394501936934
      ],
      [
        -121.50216442846795,
        38.56674429970057
      ]
    ]
  },
  "properties": {}
}