{
  "type": "Feature",
  "geometry": {
    "type": "LineString",
    "coordinates": [
      [
        -122.4752035551914,
        37.73541013713715
      ],
      [
        -122.47519210204459,
        37.735383776454256
      ],
      [
        -122.47517185108613,
        37.73493078546043
      ],
      [
        -122.47373529288451,
        37.73461049981551
      ],
      [
        -122.4723813683935,
        37.73466896734921
      ],
      [
        -122.472382709498,
        37.73466758433518
      ],
      [
        -122.472382709498,
        37.73466758433518
      ],
      [
        -122.472382709498,
        37.73466758433518
      ],
      [
        -122.4723808654793,
        37.73466980553953
      ],
      [
        -122.47235789395725,
        37.734665322745265
      ],
      [
        -122.47238187250483,
        37.734663390783595
      ],
      [
        -122.4714759544945,
        37.73479888741261
      ],
      [
        -122.4700321820698,
        37.73606360908195
      ],
      [
        -122.46895903530226,
        37.73699574357466
      ],
      [
        -122.46829177964754,
        37.737391112239074
      ],
      [
        -122.46692626905624,
        37.738493120890624
      ],
      [
        -122.46633151147691,
        37.73901149028216
      ],
      [
        -122.46589432921442,
        37.738574714823265
      ],
      [
        -121.50085307166131,
        38.56686376324205
      ],
      [
        -121.50200200551068,
        38.56660097924623
      ],
      [
        -121.50421819801451,
        38.567273248000426
      ],
      [
        -121.50483336957043,
        38.56738669007771
      ],
      [
        -121.50524098878863,
        38.56749285452067
      ],
      [
        -121.50712692150479,
        38.56778151184145
      ],
      [
        -121.5098159186182,
        38.56839907000092
      ],
      [
        -121.51318148753596,
        38.56944822533392
      ],
      [
        -121.51621754513715,
        38.57178990321498
      ],
      [
        -121.5191542001426,
        38.57442468060423
      ],
      [
        -121.52233422405068,
        38.57669712929576
      ],
      [
        -121.52660396425378,
        38.577239442097444
      ],
      [
        -121.53078322183428,
        38.57623544598216
      ],
      [
        -121.53496067319861,
        38.57534763634329
      ],
      [
        -121.53939727754071,
        38.57516765792427
      ],
      [
        -121.54374365644053,
        38.57515083262639
      ],
      [
        -121.54808088461101,
        38.57517869576611
      ],
      [
        -121.55243399552018,
        38.57516715088923
      ],
      [
        -121.5568334279662,
        38.5752486289612
      ],
      [
        -121.56120291027837,
        38.57552223468934
      ],
      [
        -121.56554579548181,
        38.57575698141854
      ],
      [
        -121.5674875560545,
        38.57576069111724
      ],
      [
        -121.56786505860117,
        38.57575844879433
      ],
      [
        -121.5679779311974,
        38.57575065368069
      ],
      [
        -121.56823817155079,
        38.57573609766855
      ],
      [
        -121.56827346828618,
        38.57571076689572
      ],
      [
        -121.56836364207622,
        38.5757153685171
      ],
      [
        -121.56908274185292,
        38.57570869043632
      ],
      [
        -121.57131662516191,
        38.57543390290196
      ],
      [
        -121.57436890403648,
        38.575162165381954
      ],
      [
        -121.57581259396053,
        38.57556408693227
      ],
      [
        -121.57739481702866,
        38.574735744636676
      ],
      [
        -121.57807809860525,
        38.57322572480625
      ],
      [
        -121.5782252195832,
        38.572818462949435
      ],
      [
        -121.57861593757825,
        38.570914898244695
      ],
      [
        -121.57863204726202,
        38.56956589332455
      ],
      [
        -121.5785445636183,
        38.56707532469473
      ],
      [
        -121.57849671219734,
        38.56476111601218
      ],
      [
        -121.57759682534605,
        38.564243406520845
      ],
      [
        -121.57618421348273,
        38.564212141603065
      ],
      [
        -122.42437056119529,
        37.731618870495716
      ],
      [
        -122.42727191490442,
        37.731919336137956
      ],
      [
        -122.43042047860835,
        37.73234072633111
      ],
      [
        -122.4331166955836,
        37.73219506894954
      ],
      [
        -122.43492818705678,
        37.731713472430286
      ],
      [
        -122.43542189200369,
        37.73161516422467
      ],
      [
        -122.43617636616736,
        37.731560924310656
      ],
      [
        -122.43622222054141,
        37.73156154950082
      ],
      [
        -122.43622332130622,
        37.731561564508915
      ],
      [
        -122.43622064109181,
        37.73156152796619
      ],
      [
        -122.43622205566881,
        37.731561547252895
      ],
      [
        -122.43665323669741,
        37.73158558926561
      ],
      [
        -122.43820308089097,
        37.731635604219946
      ],
      [
        -122.43954334467013,
        37.73163239297798
      ],
      [
        -122.4408324716364,
        37.73162261068689
      ],
      [
        -122.44191505283469,
        37.73161451675175
      ],
      [
        -122.44338347381472,
        37.73162422483932
      ],
      [
        -122.4457616439091,
        37.73165469379318
      ],
      [
        -122.4469762591981,
        37.73163343255644
      ],
      [
        -122.44870437601287,
        37.73159411191658
      ],
      [
        -122.44879259895336,
        37.73159439798156
      ],
      [
        -122.44883642953359,
        37.73159454010326
      ],
      [
        -122.45036177196654,
        37.73159508540313
      ],
      [
        -122.45081260304934,
        37.731591804346216
      ],
      [
        -122.45121258664815,
        37.73158843378474
      ],
      [
        -122.45294407687109,
        37.73155390652402
      ],
      [
        -122.45424932236523,
        37.731544732641076
      ],
      [
        -122.45614754348786,
        37.73133771313424
      ],
      [
        -122.45752605202672,
        37.73120076929853
      ],
      [
        -122.45797677671848,
        37.73243996694246
      ]
    ]
  },
  "properties": {}
}