{
  "type": "Feature",
  "geometry": {
    "type": "LineString",
    "coordinates": [
      [
        -122.39450902323154,
        37.33859720851015
      ],
      [
        -122.39393931491719,
        37.33665523642278
      ],
      [
        -122.39325874921194,
        37.33430900613122
      ],
      [
        -122.39195101462838,
        37.33192140321699
      ],
      [
        -122.39193395373456,
        37.329330538275606
      ],
      [
        -122.39510423182897,
        37.32909888621263
      ],
      [
        -122.39777573032983,
        37.327574336318584
      ],
      [
        -122.39939480746636,
        37.32528667097369
      ],
      [
        -122.40102028924113,
        37.3227735516652
      ],
      [
        -122.4021888099544,
        37.32038900366483
      ],
      [
        -122.40311427348774,
        37.317552781732566
      ],
      [
        -122.4035097529846,
        37.31476627001245
      ],
      [
        -122.4039515637262,
        37.311715784027236
      ],
      [
        -122.40438425008236,
        37.30850343253179
      ],
      [
        -122.40467006069345,
        37.305144931535835
      ],
      [
        -122.40469527482225,
        37.301711406410035
      ],
      [
        -122.4047238710459,
        37.29896179255118
      ],
      [
        -122.40562764330166,
        37.29656091344679
      ],
      [
        -122.40641529572073,
        37.29408159306722
      ],
      [
        -122.40566432315103,
        37.291343354657776
      ],
      [
        -122.40471714848803,
        37.288478077135274
      ],
      [
        -122.40536485147908,
        37.285490969015335
      ],
      [
        -122.40725154347076,
        37.28274136565141
      ],
      [
        -122.40814361237854,
        37.280210164122735
      ],
      [
        -122.40819500680884,
        37.27765576593836
      ],
      [
        -122.40845677873426,
        37.274950981254044
      ],
      [
        -122.40912365364368,
        37.27230064469185
      ],
      [
        -122.40970969769036,
        37.269899817432524
      ],
      [
        -122.41086191161979,
        37.267383003532125
      ],
      [
        -122.41208302061816,
        37.264865422584194
      ],
      [
        -122.41256128238108,
        37.26254842474415
      ],
      [
        -122.41314691423437,
        37.26012012868761
      ],
      [
        -122.4137666538188,
        37.25724487595185
      ],
      [
        -122.41478407787861,
        37.25375391005894
      ],
      [
        -122.41614568265791,
        37.2509207891409
      ],
      [
        -122.4173763047043,
        37.248099223560494
      ],
      [
        -122.41781056020743,
        37.24507703368399
      ],
      [
        -122.41804799212717,
        37.242191113618105
      ],
      [
        -122.4169105356673,
        37.23914821008218
      ],
      [
        -122.41539190288069,
        37.23629375063833
      ],
      [
        -122.41475904750575,
        37.233556705585855
      ],
      [
        -122.41292029419482,
        37.23104401316544
      ],
      [
        -122.41104023338747,
        37.22883741779644
      ],
      [
        -122.4092193622961,
        37.22665993426893
      ],
      [
        -122.40739305942137,
        37.224488059663294
      ],
      [
        -122.40615630321028,
        37.22110347745244
      ],
      [
        -122.40628368550142,
        37.217250809503916
      ],
      [
        -122.40585196647497,
        37.213208356558795
      ],
      [
        -122.404056065069,
        37.209204473030496
      ],
      [
        -122.402395166883,
        37.20569776074175
      ],
      [
        -122.40092503984866,
        37.2022317393058
      ],
      [
        -122.40056348254498,
        37.19816843072142
      ],
      [
        -122.39877040371593,
        37.194321640253236
      ],
      [
        -122.39589529462641,
        37.19057734542933
      ],
      [
        -122.39277208007655,
        37.18651443436541
      ],
      [
        -122.38823653098623,
        37.18409743934006
      ],
      [
        -122.38358141935723,
        37.18367782276695
      ],
      [
        -122.37908584233132,
        37.18244110099334
      ],
      [
        -122.37524249244814,
        37.18039021032988
      ],
      [
        -122.37130841987494,
        37.17824657911297
      ],
      [
        -122.3675292870237,
        37.17619295179686
      ],
      [
        -122.36411610190504,
        37.173701082000655
      ],
      [
        -122.36253317503616,
        37.17022293185951
      ],
      [
        -122.36111571046071,
        37.16655919901565
      ],
      [
        -122.35937990102268,
        37.16302954703517
      ],
      [
        -122.35716164629527,
        37.15979865921881
      ],
      [
        -122.35488088460028,
        37.156607517887196
      ],
      [
        -122.35181103625042,
        37.15324109314423
      ],
      [
        -122.34867940487322,
        37.15012653597609
      ],
      [
        -122.34524959461474,
        37.14848933737894
      ],
      [
        -122.34298746130442,
        37.147753850444225
      ],
      [
        -122.33990858306198,
        37.14675822833383
      ],
      [
        -122.33618357507508,
        37.14553701983124
      ],
      [
        -122.33238022146818,
        37.144279688744355
      ],
      [
        -122.32832733467127,
        37.142904866788925
      ],
      [
        -122.32395149594626,
        37.141441160348194
      ],
      [
        -122.32027572274377,
        37.13911722809356
      ],
      [
        -122.31704196668545,
        37.135535706689375
      ],
      [
        -122.3141540865726,
        37.13243210252214
      ],
      [
        -122.31148700308079,
        37.129488221136064
      ],
      [
        -122.30937620627809,
        37.12664925478763
      ],
      [
        -122.30760514270884,
        37.12377528198713
      ],
      [
        -122.30585282353114,
        37.12093591708683
      ],
      [
        -122.30411133634875,
        37.11756800439633
      ],
      [
        -122.30216069695311,
        37.114781038092474
      ],
      [
        -122.29856125592335,
        37.11265299157969
      ],
      [
        -122.2958403989167,
        37.110643410915614
      ],
      [
        -122.29361068953567,
        37.10841042903077
      ],
      [
        -122.29081039825942,
        37.10629017267538
      ],
      [
        -122.28739594972583,
        37.10396983499905
      ],
      [
        -122.2845610265402,
        37.10163394573926
      ],
      [
        -122.28237735556829,
        37.098860930374286
      ],
      [
        -122.27952252138547,
        37.097014330548696
      ],
      [
        -122.27674536729849,
        37.095269842703594
      ],
      [
        -122.27452221350093,
        37.09279585804748
      ],
      [
        -122.27360047473746,
        37.08968218580972
      ],
      [
        -122.27146653894418,
        37.086984830621944
      ],
      [
        -122.268622158944,
        37.084691606038014
      ],
      [
        -122.26635463233713,
        37.08216610110971
      ],
      [
        -122.26430121600221,
        37.079752051728555
      ],
      [
        -122.26254969133018,
        37.07698565541962
      ],
      [
        -122.2609896706021,
        37.07438348755533
      ],
      [
        -122.2587572097608,
        37.071631570454414
      ],
      [
        -122.25660737929991,
        37.06878894781696
      ],
      [
        -122.25451768987033,
        37.065665719130315
      ],
      [
        -122.25246819789483,
        37.06262124413604
      ],
      [
        -122.24978090488491,
        37.05987613010283
      ],
      [
        -122.24679538489369,
        37.0572524966831
      ],
      [
        -122.2442851855463,
        37.05447944936284
      ],
      [
        -122.2419426682252,
        37.05204114198389
      ],
      [
        -122.23925893293439,
        37.049663208803494
      ],
      [
        -122.23663395280234,
        37.0473343806657
      ],
      [
        -122.23376016958521,
        37.04479571306239
      ],
      [
        -122.23081468058338,
        37.04220265401729
      ],
      [
        -122.22808726620562,
        37.03974100332194
      ],
      [
        -122.22660637645888,
        37.03693790029112
      ],
      [
        -122.22510364116067,
        37.03420063970539
      ],
      [
        -122.22211608199878,
        37.032147586715276
      ],
      [
        -122.21905643769357,
        37.0302358704933
      ],
      [
        -122.21605540937288,
        37.02834657394009
      ],
      [
        -122.21330365095046,
        37.02613418419913
      ],
      [
        -122.21088687185353,
        37.02368142424427
      ],
      [
        -122.20838276444313,
        37.02110528955211
      ],
      [
        -122.20499271992604,
        37.01810450135468
      ],
      [
        -122.20063688912585,
        37.0142445284089
      ],
      [
        -122.19712769767374,
        37.01223587381968
      ],
      [
        -122.19496868944206,
        37.01110642640684
      ],
      [
        -122.19285375492275,
        37.01013820508587
      ],
      [
        -122.18944674453772,
        37.00854966693507
      ],
      [
        -122.18654733294271,
        37.006672860780334
      ],
      [
        -122.18349042441851,
        37.00389775288426
      ],
      [
        -122.18080313057635,
        37.00132187492231
      ],
      [
        -122.17883288430912,
        36.99948299455479
      ],
      [
        -122.17584230093081,
        36.99742323009055
      ],
      [
        -122.1724641475562,
        36.995522556528
      ],
      [
        -122.1691953475436,
        36.99368228735444
      ],
      [
        -122.16559494697681,
        36.991762672264905
      ],
      [
        -122.16181738791123,
        36.989983876888786
      ],
      [
        -122.15809228118317,
        36.988286986857474
      ],
      [
        -122.15437855113571,
        36.9865814653025
      ],
      [
        -122.1505149724404,
        36.98479212850603
      ],
      [
        -122.14669019019168,
        36.98397746603917
      ],
      [
        -122.14312523923401,
        36.98253056765066
      ],
      [
        -122.1397044169116,
        36.98080356437969
      ],
      [
        -122.13611007848444,
        36.978779117402034
      ],
      [
        -122.13176829243147,
        36.97559656945061
      ],
      [
        -122.12715234162503,
        36.97229082890781
      ],
      [
        -122.12222368926741,
        36.97044179436447
      ],
      [
        -122.11784288627733,
        36.96976471217993
      ],
      [
        -122.11416157954984,
        36.968176133355705
      ],
      [
        -122.11103616159194,
        36.96693318506384
      ],
      [
        -122.1067470912755,
        36.96548620204247
      ],
      [
        -122.10186353820599,
        36.96303990163864
      ],
      [
        -122.09599327223582,
        36.96171694908047
      ],
      [
        -122.0909449721353,
        36.961463786763545
      ],
      [
        -122.0871428157641,
        36.961986295295304
      ],
      [
        -122.0832155559919,
        36.962231286505386
      ],
      [
        -122.07951914074887,
        36.962181711720376
      ],
      [
        -122.0755158352036,
        36.96213934109653
      ],
      [
        -122.07165348467578,
        36.962062805303006
      ],
      [
        -122.06762900980321,
        36.96175191985298
      ],
      [
        -122.06390025711679,
        36.96145094429633
      ],
      [
        -122.06046237243025,
        36.96115640775193
      ],
      [
        -122.0570030653704,
        36.96088434049968
      ],
      [
        -122.05363120973949,
        36.96062190654054
      ],
      [
        -122.05081497640784,
        36.96039564930846
      ],
      [
        -122.05010250746989,
        36.960414107946264
      ],
      [
        -122.04964935808435,
        36.96050435900749
      ],
      [
        -122.04828097083889,
        36.960947285331635
      ],
      [
        -122.0470161104688,
        36.96137794954664
      ],
      [
        -122.04671669410749,
        36.96147173339111
      ],
      [
        -122.04647599199345,
        36.961568212409716
      ],
      [
        -122.04584759130569,
        36.961794987980795
      ],
      [
        -122.0450610452858,
        36.962032112758
      ],
      [
        -122.04506733697008,
        36.962037174317565
      ],
      [
        -122.04506489928839,
        36.962025409772444
      ],
      [
        -122.04484383565875,
        36.96209160990947
      ],
      [
        -122.04460457992364,
        36.962206073144365
      ],
      [
        -122.04395011426682,
        36.9624497467327
      ],
      [
        -122.04397432848945,
        36.962045897430734
      ],
      [
        -122.0443047128814,
        36.961998228887
      ],
      [
        -122.04453872730882,
        36.961940128601604
      ],
      [
        -122.04450545156648,
        36.961876804320134
      ],
      [
        -122.04449961786123,
        36.96189465379995
      ],
      [
        -122.04449716769352,
        36.96188562951536
      ],
      [
        -122.0445009260447,
        36.961884872718734
      ],
      [
        -122.04450647465491,
        36.96188389465491
      ],
      [
        -122.04448778282637,
        36.96186939295793
      ],
      [
        -122.04448914523408,
        36.961872122851126
      ],
      [
        -122.04448516709317,
        36.9618769699584
      ],
      [
        -122.04453642915522,
        36.961964345956495
      ],
      [
        -122.04449441881299,
        36.961948887004986
      ],
      [
        -122.04398999008127,
        36.962011957321316
      ],
      [
        -122.04374296012683,
        36.96192849461032
      ],
      [
        -122.04366746146789,
        36.961337541344605
      ],
      [
        -122.04346033625052,
        36.95998664153743
      ],
      [
        -122.04319512329067,
        36.95844412511043
      ],
      [
        -122.04295656088574,
        36.95686063177547
      ],
      [
        -122.04227751280584,
        36.95641638260199
      ],
      [
        -122.03959035210808,
        36.95676547697952
      ],
      [
        -122.03791942193023,
        36.95700074893171
      ],
      [
        -122.03598994121755,
        36.9572809032486
      ],
      [
        -122.03391376181912,
        36.9575329764737
      ],
      [
        -122.03220005492243,
        36.95776902036414
      ],
      [
        -122.02989443314422,
        36.958153353940254
      ],
      [
        -122.02915784170848,
        36.95968006591367
      ],
      [
        -122.02880104696244,
        36.96065497922245
      ],
      [
        -122.02680843723789,
        36.96143924643648
      ],
      [
        -122.0263146815251,
        36.961377682492646
      ],
      [
        -122.0261108504006,
        36.96132002431182
      ],
      [
        -122.02594515434136,
        36.96129675521955
      ],
      [
        -122.02587194521662,
        36.961281721998475
      ],
      [
        -122.02566367790126,
        36.96125710832433
      ],
      [
        -122.02534022505394,
        36.96184700915361
      ],
      [
        -122.0247424900064,
        36.962521826957676
      ],
      [
        -122.02441328707187,
        36.962646085900786
      ],
      [
        -122.02401925720267,
        36.96271376776329
      ],
      [
        -122.02372984319577,
        36.962738499179316
      ],
      [
        -122.02363963234967,
        36.962800379090744
      ],
      [
        -122.02337815209002,
        36.96302251037138
      ],
      [
        -122.02349500824523,
        36.963256954810234
      ],
      [
        -122.02357193802017,
        36.96344067233736
      ],
      [
        -122.02359354224366,
        36.9635108018578
      ],
      [
        -122.0236089511596,
        36.963518943234824
      ],
      [
        -122.02368415127847,
        36.963744818523146
      ],
      [
        -122.02374644326427,
        36.964070106034036
      ],
      [
        -122.02402062473776,
        36.96442930645509
      ],
      [
        -122.02414703224188,
        36.96455984950998
      ],
      [
        -122.02473476901764,
        36.964345560696685
      ],
      [
        -122.02510142428387,
        36.96427293581549
      ],
      [
        -122.02527300813372,
        36.96421460410072
      ],
      [
        -122.02598696970453,
        36.964788172374185
      ],
      [
        -122.02660649735658,
        36.965326931757744
      ],
      [
        -122.02680247871584,
        36.96616114509509
      ],
      [
        -122.0268582920889,
        36.96623866305903
      ],
      [
        -122.02773258727159,
        36.966384860873106
      ],
      [
        -122.02789090714732,
        36.96652752773879
      ],
      [
        -122.02813628512193,
        36.966459787985556
      ],
      [
        -122.02814463826076,
        36.966454727246415
      ],
      [
        -122.02812695594753,
        36.96645583060253
      ],
      [
        -122.02819917464812,
        36.96646571329421
      ],
      [
        -122.02828067139993,
        36.96670875533568
      ],
      [
        -122.02839526339038,
        36.96705337529999
      ],
      [
        -122.02835026520617,
        36.96712781935594
      ],
      [
        -122.02835934135719,
        36.96711345169384
      ],
      [
        -122.0283717458712,
        36.966989310990954
      ],
      [
        -122.02818532118064,
        36.966410813614665
      ],
      [
        -122.02806256847533,
        36.966083899011224
      ],
      [
        -122.02782252889762,
        36.96604989525954
      ],
      [
        -122.02794723190118,
        36.96641643713271
      ],
      [
        -122.02776252636987,
        36.96644894685043
      ],
      [
        -122.02713010594331,
        36.96619368212287
      ],
      [
        -122.02686443911496,
        36.96620187859189
      ],
      [
        -122.02678194144924,
        36.96601059099792
      ],
      [
        -122.02678346688874,
        36.96599918655563
      ],
      [
        -122.026764388244,
        36.965932461510064
      ],
      [
        -122.02671526773207,
        36.96561380536888
      ],
      [
        -122.02668947980521,
        36.96544234287734
      ],
      [
        -122.02668010829845,
        36.965304085834134
      ],
      [
        -122.0266655004586,
        36.96529232335033
      ],
      [
        -122.02660966681123,
        36.965147495879734
      ],
      [
        -122.02675025034296,
        36.96498458315764
      ],
      [
        -122.02713319671452,
        36.96485453216578
      ],
      [
        -122.02696270392637,
        36.96474451685332
      ],
      [
        -122.02661184995407,
        36.96486881711567
      ],
      [
        -122.02658909926355,
        36.96512448629678
      ],
      [
        -122.02644885948884,
        36.965115051197046
      ],
      [
        -122.02642064938438,
        36.96508384918447
      ],
      [
        -122.0263759113961,
        36.965013616532886
      ],
      [
        -122.02628906474352,
        36.964814625098604
      ],
      [
        -122.02563226779517,
        36.964431438705915
      ],
      [
        -122.02530474099298,
        36.964122530856166
      ],
      [
        -122.02483477376872,
        36.963738439677506
      ],
      [
        -122.02436199798035,
        36.963251480668156
      ],
      [
        -122.02401244430463,
        36.96274184593627
      ],
      [
        -122.02378585411222,
        36.96262791561655
      ],
      [
        -122.02362536556834,
        36.962551455906734
      ],
      [
        -122.02343505611624,
        36.96250787046173
      ],
      [
        -122.02297310458934,
        36.96223415407041
      ],
      [
        -122.02232869214286,
        36.96178507648808
      ],
      [
        -122.02211792595315,
        36.961637055237105
      ],
      [
        -122.02207838853408,
        36.961602966446435
      ],
      [
        -122.0219937229611,
        36.961581898734416
      ],
      [
        -122.02190805627457,
        36.96155356105701
      ],
      [
        -122.02170440823302,
        36.96141554959936
      ],
      [
        -122.0214086426342,
        36.961211682908036
      ],
      [
        -122.0209329094445,
        36.960894535114534
      ],
      [
        -122.02086660864859,
        36.96083136540056
      ],
      [
        -122.02073077275169,
        36.960760545465234
      ],
      [
        -122.0206641064916,
        36.960693364960036
      ],
      [
        -122.02067218319407,
        36.960685386471695
      ],
      [
        -122.02066911171589,
        36.960671634503115
      ],
      [
        -122.02063242665531,
        36.960655316770314
      ],
      [
        -122.02065186978417,
        36.96065908621094
      ],
      [
        -122.0205911969306,
        36.96064373221832
      ],
      [
        -122.020588593295,
        36.96057711998941
      ],
      [
        -122.52234572872162,
        37.970392399432214
      ],
      [
        -122.52109917622857,
        37.968660347522196
      ],
      [
        -122.51754766938528,
        37.966659788338085
      ],
      [
        -122.51325186700275,
        37.964223222679834
      ],
      [
        -122.50986876623587,
        37.96132978133822
      ],
      [
        -122.50918536006677,
        37.9577915984158
      ],
      [
        -122.5086142481175,
        37.95441355466358
      ],
      [
        -122.51042253103441,
        37.95142359777301
      ],
      [
        -122.51286239939327,
        37.948406934374646
      ],
      [
        -122.51492121557352,
        37.94462044366237
      ],
      [
        -122.51604089617787,
        37.940448200430964
      ],
      [
        -122.51686119993406,
        37.93630601326654
      ],
      [
        -122.51614522760975,
        37.93203593823732
      ],
      [
        -122.51526938032872,
        37.9276099366396
      ],
      [
        -122.51330242596896,
        37.92339637190028
      ],
      [
        -122.51139686153354,
        37.91940521990652
      ],
      [
        -122.51185475267104,
        37.91482155898049
      ],
      [
        -122.51333155545346,
        37.910702980134836
      ],
      [
        -122.51517376311647,
        37.90647623846078
      ],
      [
        -122.51590738901523,
        37.90218620805604
      ],
      [
        -122.51621425917743,
        37.89819770058255
      ],
      [
        -122.51651223534071,
        37.89428078485004
      ],
      [
        -122.51679537821158,
        37.890687638158134
      ],
      [
        -122.51684533722334,
        37.88696542007986
      ],
      [
        -122.51682587648952,
        37.88357653286816
      ],
      [
        -122.51646918141022,
        37.88023814764332
      ],
      [
        -122.5135593727678,
        37.87769077638073
      ],
      [
        -122.51043360393685,
        37.875554636233176
      ],
      [
        -122.50849547426084,
        37.87365482906969
      ],
      [
        -122.50875866325035,
        37.87208360054817
      ],
      [
        -122.50955872647387,
        37.87154078217611
      ],
      [
        -122.51055726609047,
        37.87164551718744
      ],
      [
        -122.5098182748532,
        37.871949649394395
      ],
      [
        -122.50932198207465,
        37.871700394521355
      ],
      [
        -122.5093198289373,
        37.87170826460968
      ],
      [
        -122.5093198289373,
        37.87170826460968
      ],
      [
        -122.5093198289373,
        37.87170826460968
      ],
      [
        -122.5093198289373,
        37.87170826460968
      ],
      [
        -122.5091318228492,
        37.8717598552237
      ],
      [
        -122.5091318228492,
        37.8717598552237
      ],
      [
        -122.5091318228492,
        37.8717598552237
      ],
      [
        -122.5091318228492,
        37.8717598552237
      ],
      [
        -122.50933316062456,
        37.87214921982536
      ],
      [
        -122.51002736653255,
        37.87227425464957
      ],
      [
        -122.47670275,
        37.756534
      ],
      [
        -122.47670365345566,
        37.75653116643454
      ],
      [
        -122.47663651253795,
        37.75556034402514
      ],
      [
        -122.47651463119632,
        37.7539797048729
      ],
      [
        -122.47638122289479,
        37.752218093311484
      ],
      [
        -122.47626107717426,
        37.75043961272875
      ],
      [
        -122.47622051666667,
        37.7499924
      ],
      [
        -122.47617812943362,
        37.74971757758159
      ],
      [
        -122.47618055,
        37.749606316666664
      ],
      [
        -122.47618163576529,
        37.749539130556734
      ],
      [
        -122.47617031439253,
        37.74937826621693
      ],
      [
        -122.47606534887005,
        37.74759890206396
      ],
      [
        -122.47593276918423,
        37.74554181986424
      ],
      [
        -122.47583480467183,
        37.74380611630436
      ],
      [
        -122.47582653333333,
        37.74365898333333
      ],
      [
        -122.47581906748003,
        37.74356106493307
      ],
      [
        -122.47577693716022,
        37.742910641097524
      ],
      [
        -122.47569345496264,
        37.74147309777953
      ],
      [
        -122.47669190270712,
        37.74111421395423
      ],
      [
        -122.47664543515155,
        37.73963813563535
      ],
      [
        -122.47577560850998,
        37.73922263923438
      ],
      [
        -122.47477237369692,
        37.73931661793001
      ],
      [
        -122.47408784428762,
        37.739348351651536
      ],
      [
        -122.47347832068255,
        37.739381767810364
      ],
      [
        -122.4722822208025,
        37.73945406197298
      ],
      [
        -122.47099042123511,
        37.73950979258896
      ],
      [
        -122.4697731352533,
        37.73959718177742
      ],
      [
        -122.46839392266254,
        37.740015130403066
      ],
      [
        -122.1252704935794,
        37.407749636671646
      ],
      [
        -122.12566284336634,
        37.40722550105986
      ],
      [
        -122.12611268454813,
        37.40653581147997
      ],
      [
        -122.1270777869403,
        37.40513018552773
      ],
      [
        -122.1277966902296,
        37.40411022173591
      ],
      [
        -122.12884686479474,
        37.4025401026089
      ],
      [
        -122.1300479131652,
        37.400823356270415
      ],
      [
        -122.13206954139987,
        37.399907625120285
      ],
      [
        -122.13325562695765,
        37.399427885671194
      ],
      [
        -122.13329397383487,
        37.39941548064888
      ],
      [
        -122.13329668661969,
        37.399415109424375
      ],
      [
        -122.13329711902045,
        37.39941464130606
      ],
      [
        -122.13329894970421,
        37.39941434
      ],
      [
        -122.13346940859391,
        37.399352792950936
      ],
      [
        -122.13530678514624,
        37.398675998788825
      ],
      [
        -122.13691545262765,
        37.39778995688492
      ],
      [
        -122.13869103056317,
        37.39690509353443
      ],
      [
        -122.14077503678145,
        37.39587765664047
      ],
      [
        -122.14253592735744,
        37.39491847982677
      ],
      [
        -122.142758564233,
        37.3948103254704
      ],
      [
        -122.14303696354034,
        37.39467793376502
      ],
      [
        -122.14437161203709,
        37.394112096460624
      ],
      [
        -122.14727704492216,
        37.393108371401
      ],
      [
        -122.14778313233535,
        37.39293056704813
      ],
      [
        -122.14847307095327,
        37.393698083957176
      ],
      [
        -122.15033562311218,
        37.39580178026362
      ],
      [
        -122.15347449524015,
        37.396859886625464
      ],
      [
        -122.15627930440786,
        37.39669132347204
      ],
      [
        -122.15763669169714,
        37.39733429769024
      ],
      [
        -122.15831905637309,
        37.39748325402198
      ],
      [
        -122.16064295923655,
        37.39602382611938
      ],
      [
        -122.16216660648011,
        37.39354904251796
      ],
      [
        -122.16345982048747,
        37.39130723703507
      ],
      [
        -122.16660255715342,
        37.39176091773437
      ],
      [
        -122.1715940035706,
        37.392328909298314
      ],
      [
        -122.17670151069689,
        37.394462652614386
      ],
      [
        -122.18033331233144,
        37.39810733207649
      ],
      [
        -122.18397175774821,
        37.401776536905594
      ],
      [
        -122.18788264757391,
        37.40569001994185
      ],
      [
        -122.1930254304767,
        37.4087311525844
      ],
      [
        -122.19847567732455,
        37.41044364443153
      ],
      [
        -122.20366329511084,
        37.41212799367464
      ],
      [
        -122.20856433822254,
        37.41402685164637
      ],
      [
        -122.21226534929603,
        37.417234236606184
      ],
      [
        -122.21755081811443,
        37.41884321408537
      ],
      [
        -122.22321002496444,
        37.42049645141263
      ],
      [
        -122.22792776571345,
        37.42373814525491
      ],
      [
        -122.23212540796268,
        37.4269321333801
      ],
      [
        -122.23599227203205,
        37.4297493769495
      ],
      [
        -122.2398725477696,
        37.4326478937165
      ],
      [
        -122.24380387710345,
        37.435987330343124
      ],
      [
        -122.24776372489157,
        37.43927423902155
      ],
      [
        -122.2516069523059,
        37.44226070514879
      ],
      [
        -122.25621491232029,
        37.44409215942061
      ],
      [
        -122.26134871830898,
        37.44409899160335
      ],
      [
        -122.26671776253163,
        37.44398490297011
      ],
      [
        -122.2719726308656,
        37.4458270018251
      ],
      [
        -122.27634030314016,
        37.4488600124003
      ],
      [
        -122.28073088955232,
        37.451755227076596
      ],
      [
        -122.2852374736593,
        37.454795731810634
      ],
      [
        -122.28938423126965,
        37.458232903876954
      ],
      [
        -122.29069740068671,
        37.46266661024696
      ],
      [
        -122.29154080060411,
        37.4672785135927
      ],
      [
        -122.29464645829333,
        37.47129380840965
      ],
      [
        -122.29806175606838,
        37.47495740501104
      ],
      [
        -122.29920822094697,
        37.47925492334017
      ],
      [
        -122.29849737480734,
        37.48383759963688
      ],
      [
        -122.29835481728206,
        37.488551132806826
      ],
      [
        -122.3010998321881,
        37.49264283500029
      ],
      [
        -122.30627301511497,
        37.49501606238853
      ],
      [
        -122.3120591060212,
        37.496585315253675
      ],
      [
        -122.31676308692865,
        37.499013642582376
      ],
      [
        -122.32165643078838,
        37.50068982612891
      ],
      [
        -122.32689500956582,
        37.50109654044625
      ],
      [
        -122.33195918489547,
        37.50308354274985
      ],
      [
        -122.33666497442262,
        37.50598840445628
      ],
      [
        -122.34092004162385,
        37.50855541223382
      ],
      [
        -122.34484480712227,
        37.511406459562124
      ],
      [
        -122.34856643301639,
        37.514658574165296
      ],
      [
        -122.35219374902432,
        37.51783889851046
      ],
      [
        -122.35488366854693,
        37.52135578658525
      ],
      [
        -122.35733630908312,
        37.52498846759996
      ],
      [
        -122.35970658283226,
        37.52857378837631
      ],
      [
        -122.36141465640927,
        37.532489124548654
      ],
      [
        -122.36320071767369,
        37.53632687969634
      ],
      [
        -122.36544969029093,
        37.54005299385255
      ],
      [
        -122.36810875022717,
        37.54355071267234
      ],
      [
        -122.37139357092511,
        37.54671449097991
      ],
      [
        -122.37468942382486,
        37.54991172409868
      ],
      [
        -122.37773832260869,
        37.55329008651885
      ],
      [
        -122.38015256047588,
        37.556894715091595
      ],
      [
        -122.38307146299714,
        37.560394502891015
      ],
      [
        -122.38628383502973,
        37.56358972565682
      ],
      [
        -122.39016934075988,
        37.566251644728005
      ],
      [
        -122.39450350264887,
        37.56836962424566
      ],
      [
        -122.3976349630047,
        37.57157349204926
      ],
      [
        -122.40047994245526,
        37.575008426475904
      ],
      [
        -122.40220510418531,
        37.57898063464826
      ],
      [
        -122.4048573037021,
        37.582490515468834
      ],
      [
        -122.40805934229434,
        37.5857111804164
      ],
      [
        -122.41174474411793,
        37.58861531389602
      ],
      [
        -122.4149963173793,
        37.59189457380519
      ],
      [
        -122.41860499994175,
        37.59553348172809
      ],
      [
        -122.42225580228784,
        37.59871305551374
      ],
      [
        -122.42592055161214,
        37.60177528626006
      ],
      [
        -122.42796609360968,
        37.60556752802375
      ],
      [
        -122.4272610447373,
        37.609741054580695
      ],
      [
        -122.42487546142807,
        37.6135076231352
      ],
      [
        -122.42425756724681,
        37.61750306530078
      ],
      [
        -122.4263415102642,
        37.62122345233504
      ],
      [
        -122.42874885488371,
        37.62484316698236
      ],
      [
        -122.43185134124195,
        37.62817886765328
      ],
      [
        -122.43556214600811,
        37.631007189598165
      ],
      [
        -122.43850321830716,
        37.63432022736006
      ],
      [
        -122.44047421832347,
        37.63801089814094
      ],
      [
        -122.44323293203203,
        37.64117639470247
      ],
      [
        -122.44730167227237,
        37.64405097601332
      ],
      [
        -122.45058707427776,
        37.64725547733645
      ],
      [
        -122.45280370158983,
        37.650887746117235
      ],
      [
        -122.45622845996635,
        37.65402832459064
      ],
      [
        -122.45963330374094,
        37.6567012470538
      ],
      [
        -122.46332722685226,
        37.65960994343021
      ],
      [
        -122.4654748560306,
        37.66309934423115
      ],
      [
        -122.46555203198497,
        37.66733184284722
      ],
      [
        -122.46665564235094,
        37.67142911284258
      ],
      [
        -122.46921767988908,
        37.67490907576697
      ],
      [
        -122.47157563246782,
        37.67839214563151
      ],
      [
        -122.4714935631113,
        37.68264027499692
      ],
      [
        -122.47107432649693,
        37.68734203471599
      ],
      [
        -122.47032742475785,
        37.69131466522582
      ],
      [
        -122.4704221779767,
        37.69509161868621
      ],
      [
        -122.47136807342739,
        37.69909142602941
      ],
      [
        -122.47156054700221,
        37.70350801167799
      ],
      [
        -122.47109493323413,
        37.70786993801715
      ],
      [
        -122.47109950026042,
        37.71139906473928
      ],
      [
        -122.47155329839462,
        37.7144030712758
      ],
      [
        -122.4719434624705,
        37.715581746146356
      ],
      [
        -122.47193758093248,
        37.71559481895097
      ],
      [
        -122.4719374297681,
        37.7155949102319
      ],
      [
        -122.47193752963716,
        37.71559472036284
      ],
      [
        -122.47227018949052,
        37.7166630060225
      ],
      [
        -122.47236159194323,
        37.71859123990886
      ],
      [
        -122.47219949448471,
        37.72097313971808
      ],
      [
        -122.47221434608569,
        37.72138645640817
      ],
      [
        -122.47222284,
        37.72138627077744
      ],
      [
        -122.47222341,
        37.72138454054435
      ],
      [
        -122.4722149589641,
        37.721351026050556
      ],
      [
        -122.47212121706877,
        37.72260325088663
      ],
      [
        -122.47201084153853,
        37.72505083231714
      ],
      [
        -122.47185565616653,
        37.727261944665244
      ],
      [
        -122.47176924680477,
        37.729609122990134
      ],
      [
        -122.47163848771147,
        37.730624163267116
      ],
      [
        -122.47165700954329,
        37.73063777893436
      ],
      [
        -122.47167063444088,
        37.7307235314058
      ],
      [
        -122.47167779541944,
        37.7307391287364
      ],
      [
        -122.47154271325073,
        37.73154859349748
      ],
      [
        -122.47142910886741,
        37.733758382609565
      ],
      [
        -122.47062684849163,
        37.73552254967572
      ],
      [
        -122.46886054910148,
        37.73698467888823
      ],
      [
        -122.46864890172691,
        37.7371869324498
      ],
      [
        -122.27045092998334,
        37.881367635921606
      ],
      [
        -122.27044887551364,
        37.881367320934416
      ],
      [
        -122.27044871638621,
        37.881367325544815
      ],
      [
        -122.27044851,
        37.88136734271174
      ],
      [
        -122.27044846090743,
        37.88136753
      ],
      [
        -122.27044841640463,
        37.88136780280929
      ],
      [
        -122.27041941804895,
        37.88136411414365
      ],
      [
        -122.27042048481917,
        37.8813647287965
      ],
      [
        -122.2704011256123,
        37.881362787718906
      ],
      [
        -122.27051374614794,
        37.881489725844474
      ],
      [
        -122.26991428411303,
        37.89178885497962
      ],
      [
        -122.26865934144935,
        37.8926101772042
      ],
      [
        -122.2678457425496,
        37.893070548043845
      ],
      [
        -122.26718283431534,
        37.893521709725114
      ],
      [
        -122.265991198089,
        37.89433122558592
      ],
      [
        -122.26489924027717,
        37.89501563564798
      ],
      [
        -122.26429546440764,
        37.8954135759618
      ],
      [
        -122.26321072491776,
        37.896145080223796
      ],
      [
        -122.26206734100597,
        37.89686417383655
      ],
      [
        -122.26168748864211,
        37.8970296023741
      ],
      [
        -122.26048359906393,
        37.8962107932119
      ],
      [
        -122.25960825959056,
        37.89482253662034
      ],
      [
        -122.25804696570069,
        37.89398623083598
      ],
      [
        -122.2572652669406,
        37.89270830319016
      ],
      [
        -122.25574917242855,
        37.89233637223203
      ],
      [
        -122.25433497911963,
        37.89116739960367
      ],
      [
        -122.25270255481101,
        37.89064503289262
      ],
      [
        -122.25196241752138,
        37.89081046051498
      ],
      [
        -122.25018484232291,
        37.89134666862832
      ],
      [
        -122.24896471684774,
        37.89124246977615
      ],
      [
        -122.24744448704963,
        37.892271272714794
      ],
      [
        -122.24583279321624,
        37.89312053409332
      ],
      [
        -122.24473180188888,
        37.89254488238606
      ],
      [
        -122.24270297788561,
        37.892746835299576
      ],
      [
        -122.2415402604786,
        37.89180353265197
      ],
      [
        -122.2400609036306,
        37.890725185704994
      ],
      [
        -122.23812774136788,
        37.89054742232416
      ],
      [
        -122.23634232264385,
        37.890254602577656
      ],
      [
        -122.23468378837445,
        37.88929142502773
      ],
      [
        -122.23338191838032,
        37.88806234895032
      ],
      [
        -122.23201467645241,
        37.88699321921215
      ],
      [
        -122.23063585845254,
        37.8859184067889
      ],
      [
        -122.22926967946186,
        37.88496609827267
      ],
      [
        -122.22822604710682,
        37.883874951762806
      ],
      [
        -122.2268074560773,
        37.88294424590642
      ],
      [
        -122.22596460366675,
        37.88142771922066
      ],
      [
        -122.2261781727029,
        37.88001019722924
      ],
      [
        -122.22617227520225,
        37.879718500370565
      ],
      [
        -122.22475326265443,
        37.88023383709554
      ],
      [
        -122.22237242916688,
        37.87989167595111
      ],
      [
        -122.22171177468468,
        37.87974968695402
      ],
      [
        -122.221809409067,
        37.880103111527724
      ]
    ]
  },
  "properties": {}
}