{
  "type": "Feature",
  "geometry": {
    "type": "LineString",
    "coordinates": [
      [
        -121.49715735481888,
        38.57389859291605
      ],
      [
        -121.49890194920518,
        38.574391525519985
      ],
      [
        -121.50015452385195,
        38.57465566786469
      ],
      [
        -121.50153024927394,
        38.57504183299134
      ],
      [
        -121.50272105215944,
        38.57542753077157
      ],
      [
        -121.50294123108297,
        38.57556828633609
      ],
      [
        -121.50235747806623,
        38.576876836887365
      ],
      [
        -121.50219200580585,
        38.577571486034095
      ],
      [
        -121.50210719142117,
        38.57770612977413
      ],
      [
        -121.5017078301801,
        38.57856323704126
      ],
      [
        -121.50250921956321,
        38.57914069135253
      ],
      [
        -121.50449610807121,
        38.57964029907983
      ],
      [
        -121.5053041638864,
        38.57987403085176
      ],
      [
        -121.50548799381333,
        38.57985917170362
      ],
      [
        -121.50672465477476,
        38.580272481953166
      ],
      [
        -121.50699875527914,
        38.58052268795401
      ],
      [
        -121.50676324103206,
        38.58095144071053
      ],
      [
        -121.50598343432156,
        38.5807665113352
      ],
      [
        -121.50547181408716,
        38.580602397489734
      ],
      [
        -121.50581549330123,
        38.580001713860014
      ],
      [
        -121.507135025845,
        38.579096164323005
      ],
      [
        -121.50760441271446,
        38.578406925190684
      ],
      [
        -121.50785917527743,
        38.57782395685154
      ],
      [
        -121.50861390678001,
        38.5767781941508
      ],
      [
        -121.50935245595113,
        38.57514050494582
      ],
      [
        -121.50983366428973,
        38.57392565642849
      ],
      [
        -121.5097180704679,
        38.5737677163894
      ],
      [
        -121.50930374260122,
        38.57522475625247
      ],
      [
        -121.50867539365902,
        38.57657849639058
      ],
      [
        -121.50792794455334,
        38.57781036673164
      ],
      [
        -121.5075215201201,
        38.57857993944
      ],
      [
        -121.50670134663639,
        38.579216366465836
      ],
      [
        -121.5054487036172,
        38.580385049153136
      ],
      [
        -121.5055663742598,
        38.58068368510787
      ],
      [
        -121.50635064647156,
        38.580808571056686
      ],
      [
        -121.50642224509157,
        38.580910138735064
      ],
      [
        -121.50698611721157,
        38.580556460669285
      ],
      [
        -121.50683594864533,
        38.58044818168886
      ],
      [
        -121.50685529697198,
        38.58063013420419
      ],
      [
        -121.50669669386293,
        38.58066681958451
      ],
      [
        -122.27946435529208,
        37.854829945178025
      ],
      [
        -122.2792526414045,
        37.853889576082025
      ],
      [
        -122.27919619741868,
        37.85334016489327
      ],
      [
        -122.2812402500112,
        37.853242485066986
      ],
      [
        -122.28305552314961,
        37.852908200150594
      ],
      [
        -122.28464152383687,
        37.85259562905379
      ],
      [
        -122.28504580813005,
        37.85248603875386
      ],
      [
        -122.28508952656384,
        37.85250317342209
      ],
      [
        -122.28521103964177,
        37.85246025347179
      ],
      [
        -122.2862579582182,
        37.852242080809035
      ],
      [
        -122.28785505318064,
        37.85196457095272
      ],
      [
        -122.28947804295197,
        37.85165424501402
      ],
      [
        -122.30316250417523,
        37.82572790731633
      ],
      [
        -122.30476207059345,
        37.82541126074451
      ],
      [
        -122.30612055475484,
        37.82524670931065
      ],
      [
        -122.30744851061614,
        37.82503547701585
      ],
      [
        -122.30768882109784,
        37.825019461656716
      ],
      [
        -122.3081191133555,
        37.824973156069255
      ],
      [
        -122.30884721261698,
        37.82491800654469
      ],
      [
        -122.30917441397119,
        37.824903142405255
      ],
      [
        -122.30968283175336,
        37.82488661819854
      ],
      [
        -122.31076924957634,
        37.82484236762825
      ],
      [
        -122.31157854230291,
        37.82479510123251
      ],
      [
        -122.31209833760344,
        37.824767350060185
      ],
      [
        -122.31227629785765,
        37.82474194572789
      ],
      [
        -122.31240567216953,
        37.82472920109852
      ],
      [
        -122.31245520243606,
        37.82472847954918
      ],
      [
        -122.31247835647588,
        37.824734405974915
      ],
      [
        -122.3125064456054,
        37.82473684016045
      ],
      [
        -122.31253938446672,
        37.824727041060044
      ],
      [
        -122.31259761480453,
        37.82472671865113
      ],
      [
        -122.31270668744253,
        37.82472131256151
      ],
      [
        -122.31285129952107,
        37.82469821618774
      ],
      [
        -122.31294562067339,
        37.82468908851643
      ],
      [
        -122.31304144291273,
        37.824674437693815
      ],
      [
        -122.31317741922469,
        37.824656172061694
      ],
      [
        -122.31348988350905,
        37.82462070459626
      ],
      [
        -122.31371687000883,
        37.824568916116554
      ],
      [
        -122.31378239615074,
        37.824555389259196
      ],
      [
        -122.31383792277516,
        37.82459467097246
      ],
      [
        -122.31384539826595,
        37.824588603758954
      ],
      [
        -122.31398431463803,
        37.82456045646091
      ],
      [
        -122.31416007977454,
        37.824533455031464
      ],
      [
        -122.31421782109847,
        37.82451731323663
      ],
      [
        -122.31431879993914,
        37.82449907737604
      ],
      [
        -122.31447658848636,
        37.82446981230969
      ],
      [
        -122.31464771815544,
        37.82443833825384
      ],
      [
        -122.31476130031871,
        37.82442573501447
      ],
      [
        -122.31480519367526,
        37.824418634328495
      ],
      [
        -122.3149195820537,
        37.82440062252002
      ],
      [
        -122.31504022805778,
        37.82438003716954
      ],
      [
        -122.31506954670019,
        37.824344210011176
      ],
      [
        -122.31511581634405,
        37.824366775348146
      ],
      [
        -122.31544604894376,
        37.824305678980494
      ],
      [
        -122.31570281771751,
        37.82425996653168
      ],
      [
        -122.31596443150782,
        37.824238211373604
      ],
      [
        -122.31624794144689,
        37.824189609136575
      ],
      [
        -122.31656189994658,
        37.82412330171676
      ],
      [
        -122.31674633046498,
        37.82407486749519
      ],
      [
        -122.317003952907,
        37.82402173469032
      ],
      [
        -122.31770809870169,
        37.823910742758606
      ],
      [
        -122.32057174498946,
        37.82304760568905
      ],
      [
        -122.32338520294849,
        37.82251214527707
      ],
      [
        -122.32684081129862,
        37.82222516800777
      ],
      [
        -122.33070918859633,
        37.82183849043529
      ],
      [
        -122.33476060544663,
        37.82134538120025
      ],
      [
        -122.33885475673074,
        37.82075674971707
      ],
      [
        -122.34290573432074,
        37.82016420073747
      ],
      [
        -122.34738610633775,
        37.81949383477917
      ],
      [
        -122.35229332556638,
        37.81861320767293
      ],
      [
        -122.35551456744328,
        37.817163332392155
      ],
      [
        -122.3571891811679,
        37.81621132776339
      ],
      [
        -122.35956455383561,
        37.81484471675985
      ],
      [
        -122.36230044662757,
        37.81284814465593
      ],
      [
        -122.36471204942004,
        37.81038300248056
      ],
      [
        -122.36763187992031,
        37.80767278770137
      ],
      [
        -122.37045136447985,
        37.80509060586705
      ],
      [
        -122.37324690828073,
        37.802442768464786
      ],
      [
        -122.37602697314509,
        37.79983870057213
      ],
      [
        -122.22225805051471,
        37.87991416
      ],
      [
        -122.22225833669532,
        37.87991412
      ],
      [
        -122.22225829976024,
        37.879913876267075
      ],
      [
        -122.22225851961537,
        37.87991421641024
      ],
      [
        -122.22225827675963,
        37.879914530557784
      ],
      [
        -122.22225804959744,
        37.87991466639829
      ],
      [
        -122.22225795644279,
        37.87991499644279
      ],
      [
        -122.22225810683446,
        37.87991493366891
      ],
      [
        -122.22225820677002,
        37.87991536385008
      ],
      [
        -122.22225779042505,
        37.87991533595824
      ],
      [
        -122.2222575625567,
        37.879915246777614
      ],
      [
        -122.22225762647574,
        37.87991549352426
      ],
      [
        -122.22225728673833,
        37.879915436953304
      ],
      [
        -122.2222569764123,
        37.879915159618434
      ],
      [
        -122.22225693623497,
        37.87991487493987
      ],
      [
        -122.22225679,
        37.879914756337634
      ],
      [
        -122.22225668254761,
        37.87991455610543
      ],
      [
        -122.2222567267522,
        37.879914269486775
      ],
      [
        -122.22225651064501,
        37.879914236236665
      ],
      [
        -122.22225640325024,
        37.87991414650047
      ],
      [
        -122.2222561531741,
        37.87991423317409
      ],
      [
        -122.22225609316973,
        37.87991399
      ],
      [
        -122.2222558960863,
        37.87991395930355
      ],
      [
        -122.22225573369778,
        37.87991382205776
      ],
      [
        -122.22225583704797,
        37.87991341
      ],
      [
        -122.22225580675945,
        37.87991324
      ],
      [
        -122.2222556705776,
        37.8799133568592
      ],
      [
        -122.22225585359742,
        37.879913183201296
      ],
      [
        -122.222269913207,
        37.87992157994849
      ],
      [
        -122.22225008352426,
        37.8799223
      ],
      [
        -122.22225991134933,
        37.879900523818115
      ],
      [
        -122.22224778574899,
        37.879903154848954
      ],
      [
        -122.22224684037968,
        37.879903935072846
      ],
      [
        -122.22224071332867,
        37.87996104111022
      ],
      [
        -122.22219487749604,
        37.87995164051992
      ],
      [
        -122.22218141634774,
        37.87994464155918
      ],
      [
        -122.22216470777698,
        37.879964314878315
      ],
      [
        -122.22196691722156,
        37.8798978080002
      ],
      [
        -122.22210931547428,
        37.88010275416272
      ],
      [
        -122.2218630727413,
        37.88017528622985
      ],
      [
        -122.22163965382032,
        37.87981053290001
      ],
      [
        -122.22267549478443,
        37.880011663896134
      ],
      [
        -122.22469247654047,
        37.880219429202846
      ],
      [
        -122.22603767116634,
        37.87989334735622
      ],
      [
        -122.2257938128241,
        37.88136643469704
      ],
      [
        -122.22668481277697,
        37.88298927172286
      ],
      [
        -122.22813295998546,
        37.884094180850795
      ],
      [
        -122.22925320895546,
        37.88582439961972
      ],
      [
        -122.2315257565754,
        37.88651276676909
      ],
      [
        -122.23322054744723,
        37.88788234771628
      ],
      [
        -122.2347763568573,
        37.88939768925141
      ],
      [
        -122.23643830801818,
        37.890357258608056
      ],
      [
        -122.23867799444764,
        37.89060725177243
      ],
      [
        -122.24081070733854,
        37.8912951969074
      ],
      [
        -122.24218129379389,
        37.8924751125921
      ],
      [
        -122.24252301798542,
        37.89281603670479
      ],
      [
        -122.24214859881958,
        37.89243135390327
      ],
      [
        -122.24085221822507,
        37.89130911398967
      ],
      [
        -122.23915873090345,
        37.890635409996925
      ],
      [
        -122.2369746935688,
        37.89040305160984
      ],
      [
        -122.23501076701794,
        37.88962120792728
      ],
      [
        -122.23363589923419,
        37.88829670239067
      ],
      [
        -122.23207079704795,
        37.887002086293236
      ],
      [
        -122.2304559547809,
        37.88595392513613
      ],
      [
        -122.22874272034555,
        37.88554842273893
      ],
      [
        -122.22802249602722,
        37.884278707666965
      ],
      [
        -122.2270111000598,
        37.88334313096078
      ],
      [
        -122.22606163411643,
        37.882153857647765
      ],
      [
        -122.22555798440983,
        37.88082841784265
      ],
      [
        -122.22606702713524,
        37.87975569393719
      ],
      [
        -122.22478372970532,
        37.88017730215584
      ],
      [
        -122.22258370773703,
        37.879948958572996
      ],
      [
        -122.22130706358925,
        37.87847367389386
      ],
      [
        -122.22029977043462,
        37.87686030624782
      ],
      [
        -122.22166871189285,
        37.87542646753936
      ],
      [
        -122.22088259895442,
        37.87392095965206
      ],
      [
        -122.22038983687052,
        37.872340773462476
      ],
      [
        -122.21880937536187,
        37.871910750864025
      ],
      [
        -122.21849819361628,
        37.87047216106985
      ],
      [
        -122.21692576820449,
        37.86903139172652
      ],
      [
        -122.21646423507045,
        37.867990210043175
      ],
      [
        -122.21761834969402,
        37.86848034243069
      ],
      [
        -122.21808209384561,
        37.86755960085455
      ],
      [
        -122.21794367300592,
        37.86538660177184
      ],
      [
        -122.21635181912062,
        37.8635394095473
      ],
      [
        -122.21394516794754,
        37.862327149043054
      ],
      [
        -122.2114661493759,
        37.86141076590888
      ],
      [
        -122.21042739198005,
        37.86232473312344
      ],
      [
        -122.2094491296697,
        37.864711780561024
      ],
      [
        -122.20910325995183,
        37.86432099641056
      ],
      [
        -122.21031000605517,
        37.8617599593359
      ],
      [
        -122.21286692010736,
        37.859644119737276
      ],
      [
        -122.21558678363367,
        37.85757858338747
      ],
      [
        -122.21830664715998,
        37.85551304703767
      ],
      [
        -122.22144022930037,
        37.85373916750258
      ],
      [
        -122.22320656619411,
        37.85074396386973
      ],
      [
        -122.22622264077144,
        37.848780878397406
      ],
      [
        -122.23021355503212,
        37.84911250070485
      ],
      [
        -122.23415872397881,
        37.848884568212604
      ],
      [
        -122.23849748524634,
        37.8501275158361
      ],
      [
        -122.24282368355637,
        37.84906603983302
      ],
      [
        -122.24658688989712,
        37.84694555458291
      ],
      [
        -122.25065810999808,
        37.845233643041254
      ],
      [
        -122.25438762232818,
        37.84377728468313
      ],
      [
        -122.25787497419222,
        37.84261346358481
      ],
      [
        -122.26150542034877,
        37.8414728970741
      ],
      [
        -122.26432887288998,
        37.83990186102572
      ],
      [
        -122.26573471811004,
        37.837445405506976
      ],
      [
        -122.26629412825676,
        37.83469437251997
      ],
      [
        -122.26684715310257,
        37.832287270041704
      ],
      [
        -122.2674432549152,
        37.82987280272172
      ],
      [
        -122.26818395102758,
        37.82724576582703
      ],
      [
        -122.27030370016661,
        37.82526140570224
      ],
      [
        -122.27401769664772,
        37.82595398781782
      ],
      [
        -122.2776707172727,
        37.82670602282342
      ],
      [
        -122.28126879201939,
        37.82755998044517
      ],
      [
        -122.28357019361326,
        37.82757071555907
      ],
      [
        -122.28599890063175,
        37.826968146261144
      ],
      [
        -122.28968216461615,
        37.826784286617674
      ],
      [
        -122.29323841222707,
        37.828137847429545
      ],
      [
        -122.29511003900973,
        37.82786108055273
      ],
      [
        -122.29615638584201,
        37.82744000167488
      ],
      [
        -122.29682388029367,
        37.82721516647782
      ],
      [
        -122.29787824763238,
        37.82694924336504
      ],
      [
        -122.29847990594651,
        37.82680729114381
      ],
      [
        -122.29851569905351,
        37.82680592273975
      ],
      [
        -122.29895249325722,
        37.82674611046276
      ],
      [
        -122.29956149350859,
        37.82660897700164
      ],
      [
        -122.29975462728717,
        37.82656915636402
      ],
      [
        -122.30054834279947,
        37.82639863486615
      ],
      [
        -122.3008474206757,
        37.82636523233346
      ],
      [
        -122.30170443179604,
        37.826195680530326
      ],
      [
        -122.30224205298055,
        37.826075207936306
      ],
      [
        -122.30287726638406,
        37.82594350622458
      ],
      [
        -122.30355962884973,
        37.82584258960457
      ],
      [
        -122.30381841035609,
        37.82577986553716
      ],
      [
        -122.30417304390392,
        37.825710184639924
      ],
      [
        -122.30457162352651,
        37.82561887119705
      ],
      [
        -122.30524024480422,
        37.825525234317766
      ],
      [
        -122.30587007784146,
        37.825444269614785
      ],
      [
        -122.30621352012409,
        37.82540552462857
      ],
      [
        -122.30673987565358,
        37.825310087908576
      ],
      [
        -122.30707807530808,
        37.82525004763992
      ],
      [
        -122.30741455344814,
        37.82521452701122
      ],
      [
        -122.3077716450142,
        37.82517748748162
      ],
      [
        -122.30812889622239,
        37.82513201255898
      ],
      [
        -122.30856976456506,
        37.82510124687367
      ],
      [
        -122.30896372056998,
        37.82509182355003
      ],
      [
        -122.30893233971562,
        37.82508835876159
      ],
      [
        -122.30925325389339,
        37.82506287533722
      ],
      [
        -122.30943608185322,
        37.825044764341484
      ],
      [
        -122.30975600874916,
        37.825025523100905
      ],
      [
        -122.31014388789104,
        37.82501202333793
      ],
      [
        -122.31042326285174,
        37.82503758723201
      ],
      [
        -122.31090940518166,
        37.82502891365471
      ],
      [
        -122.31147756821467,
        37.82501677356695
      ],
      [
        -122.31186060795315,
        37.82503355228547
      ],
      [
        -122.31190726802343,
        37.82502735081611
      ],
      [
        -122.31190482672203,
        37.825039395433066
      ],
      [
        -122.31212280572556,
        37.82503651321586
      ],
      [
        -122.31252352455313,
        37.824990688544865
      ],
      [
        -122.31284477998231,
        37.82496699523739
      ],
      [
        -122.31298702967464,
        37.82495026731377
      ],
      [
        -122.31310432175496,
        37.82495163516599
      ],
      [
        -122.31325142676076,
        37.82494639299016
      ],
      [
        -122.31348211386144,
        37.824902333251295
      ],
      [
        -122.31359360308903,
        37.824911398462255
      ],
      [
        -122.31375897890752,
        37.82489448642091
      ],
      [
        -122.31466588046686,
        37.82471753648348
      ],
      [
        -122.31516895886311,
        37.82462835293953
      ],
      [
        -122.31532267103478,
        37.82458501408604
      ],
      [
        -122.31545380107275,
        37.8245643249759
      ],
      [
        -122.31565077459895,
        37.82451713169766
      ],
      [
        -122.31599846176739,
        37.82446874054414
      ],
      [
        -122.31623492360801,
        37.8243881006872
      ],
      [
        -122.31647241736933,
        37.82433932639423
      ],
      [
        -122.31669370768478,
        37.82430089618237
      ],
      [
        -122.31702222947291,
        37.82423183781379
      ],
      [
        -122.31710307481082,
        37.82420885120235
      ],
      [
        -122.31959741726313,
        37.82352377735026
      ],
      [
        -122.32249334854835,
        37.822697724911734
      ],
      [
        -122.32564578555849,
        37.82235753230985
      ],
      [
        -122.3297452402845,
        37.822044234541984
      ],
      [
        -122.33393101139767,
        37.82151180839943
      ],
      [
        -122.33832831577406,
        37.82087880941241
      ],
      [
        -122.34260928885055,
        37.820204726283386
      ],
      [
        -122.34701206151357,
        37.81959470746081
      ],
      [
        -122.35139222317028,
        37.81891251401798
      ],
      [
        -122.35538687483346,
        37.817282877526615
      ],
      [
        -122.35900490134222,
        37.81520146561047
      ],
      [
        -122.36239189892058,
        37.81288582356939
      ],
      [
        -122.36512895210669,
        37.810076564883616
      ],
      [
        -122.3679825183976,
        37.807449070041976
      ],
      [
        -122.37073819024566,
        37.804853200320835
      ],
      [
        -122.37340622058335,
        37.80238138031696
      ],
      [
        -122.37571755090379,
        37.80022091444323
      ],
      [
        -122.37822663523994,
        37.7978782635827
      ],
      [
        -122.38083754447271,
        37.79541244500818
      ],
      [
        -122.38303199895769,
        37.7933623510892
      ],
      [
        -122.3845136146064,
        37.791984868669665
      ],
      [
        -122.38568093527502,
        37.79090595721012
      ],
      [
        -122.38672459524751,
        37.78989296273769
      ],
      [
        -122.38820159681433,
        37.78854322652518
      ],
      [
        -122.38980689024258,
        37.78704462127316
      ],
      [
        -122.39067751515553,
        37.78622414258524
      ],
      [
        -122.39119502992682,
        37.78586176087128
      ],
      [
        -122.39180028658187,
        37.7855091383161
      ],
      [
        -122.39316208596875,
        37.78476309632645
      ],
      [
        -122.39413520138288,
        37.784077916543204
      ],
      [
        -122.39488202506242,
        37.78349721388936
      ],
      [
        -122.39594741293058,
        37.78265751590288
      ],
      [
        -122.3973572390534,
        37.781628392445114
      ],
      [
        -122.39877905525812,
        37.7805371524137
      ],
      [
        -122.40013230706035,
        37.779519351951635
      ],
      [
        -122.40148595379193,
        37.778466837653205
      ],
      [
        -122.40365021767039,
        37.776974484846995
      ],
      [
        -122.40643911636595,
        37.77481178549311
      ],
      [
        -122.40652349979734,
        37.77180794590359
      ],
      [
        -122.40559625105281,
        37.769783766805176
      ],
      [
        -122.40543222898913,
        37.76828060019984
      ],
      [
        -122.40528016247916,
        37.76672749034208
      ],
      [
        -122.40516371307616,
        37.7650852453189
      ],
      [
        -122.40554607769789,
        37.76266016776807
      ],
      [
        -122.40634549135302,
        37.75965733154979
      ],
      [
        -122.40372933279077,
        37.75712053681924
      ],
      [
        -122.40300908814322,
        37.75377116165667
      ],
      [
        -122.40351623353735,
        37.75037911911741
      ],
      [
        -122.40466483979378,
        37.74704288127758
      ],
      [
        -122.40598504190578,
        37.74399178599296
      ],
      [
        -122.40771477758794,
        37.74169135432236
      ],
      [
        -122.4082767827846,
        37.738757171982606
      ],
      [
        -122.40909435849959,
        37.73554936717219
      ],
      [
        -122.41239289984627,
        37.73347699526225
      ],
      [
        -122.41606506578658,
        37.732141575844906
      ],
      [
        -122.42011498512913,
        37.73207722186834
      ],
      [
        -122.42406874022473,
        37.73160813397924
      ],
      [
        -122.42816898759304,
        37.73211312810278
      ],
      [
        -122.43209571619677,
        37.73234447736694
      ],
      [
        -122.43354489914313,
        37.73207567055818
      ],
      [
        -122.43454203597626,
        37.73181108923474
      ],
      [
        -122.43521051752316,
        37.731681679295285
      ],
      [
        -122.43535609245004,
        37.731646556287096
      ],
      [
        -122.43535361704288,
        37.73164148704288
      ],
      [
        -122.43535403415139,
        37.73164172707569
      ],
      [
        -122.43595022342677,
        37.73159282642099
      ],
      [
        -122.43622789980734,
        37.73158510887993
      ],
      [
        -122.4362223119821,
        37.73158974
      ],
      [
        -122.43622288423828,
        37.73158952288086
      ],
      [
        -122.43623224470825,
        37.731603046770644
      ],
      [
        -122.43624313013102,
        37.73160141426445
      ],
      [
        -122.43800713659877,
        37.731673073775916
      ],
      [
        -122.43955663958488,
        37.731638356194686
      ],
      [
        -122.44059610721243,
        37.73166309051326
      ],
      [
        -122.44198827679544,
        37.731642900758246
      ],
      [
        -122.44351809701826,
        37.73166509174361
      ],
      [
        -122.44547500164282,
        37.73162839432401
      ],
      [
        -122.44645138591608,
        37.731609827479915
      ],
      [
        -122.44818377932273,
        37.731625231358386
      ],
      [
        -122.44873919541658,
        37.731631792564585
      ],
      [
        -122.44871708065575,
        37.73162346311475
      ],
      [
        -122.44947454686198,
        37.73161298709379
      ],
      [
        -122.45101097567488,
        37.73163020463957
      ],
      [
        -122.45106861274239,
        37.731623540656315
      ],
      [
        -122.45286832198606,
        37.73165891134298
      ],
      [
        -122.45349765447975,
        37.731615995829145
      ],
      [
        -122.45556434203218,
        37.73150440528033
      ],
      [
        -122.45743783315697,
        37.73107251355724
      ],
      [
        -122.45750402052535,
        37.731183510077024
      ],
      [
        -122.45778155283045,
        37.732341239599734
      ],
      [
        -122.45865473512036,
        37.73274514850245
      ],
      [
        -122.45935877986635,
        37.73410507802893
      ],
      [
        -122.46053565568954,
        37.73527716819814
      ],
      [
        -122.46118059746078,
        37.73667681574253
      ],
      [
        -122.46144954045985,
        37.73807085480514
      ],
      [
        -122.46114407899671,
        37.739261428317505
      ],
      [
        -122.46005855080018,
        37.73925085309978
      ],
      [
        -122.45989089251943,
        37.74009759151968
      ],
      [
        -122.45920123032643,
        37.74009429764529
      ],
      [
        -122.45886745033799,
        37.740291854123996
      ],
      [
        -122.45887383266039,
        37.740291417233664
      ],
      [
        -122.45887420444737,
        37.74029096600527
      ],
      [
        -122.46024766802064,
        37.74043266385818
      ],
      [
        -122.46286441161052,
        37.74012713640409
      ],
      [
        -122.46511544214202,
        37.7398140279355
      ],
      [
        -122.4659811792701,
        37.73934073148265
      ],
      [
        -122.46597351060397,
        37.739322846884015
      ],
      [
        -122.46597383,
        37.739322438511415
      ],
      [
        -122.46599765193926,
        37.73932416322856
      ]
    ]
  },
  "properties": {}
}