{
  "type": "Feature",
  "geometry": {
    "type": "LineString",
    "coordinates": [
      [
        -122.46815236610718,
        37.73694335303673
      ],
      [
        -122.46806019160928,
        37.73588412438587
      ],
      [
        -122.46801457632492,
        37.735137159964275
      ],
      [
        -122.46801430597175,
        37.73463885701726
      ],
      [
        -122.46786424710479,
        37.73336426458097
      ],
      [
        -122.46785105582195,
        37.73240363907376
      ],
      [
        -122.46786580860883,
        37.73196918592734
      ],
      [
        -122.46796626801827,
        37.7307835961745
      ],
      [
        -122.46846787774307,
        37.729814233030396
      ],
      [
        -122.46846722245148,
        37.729815016607944
      ],
      [
        -122.46842851558921,
        37.72943672396022
      ],
      [
        -122.4678115539473,
        37.728438072693855
      ],
      [
        -122.46781184592355,
        37.72843859258089
      ],
      [
        -122.46704240418121,
        37.72752324481213
      ],
      [
        -122.46677912047646,
        37.72730781951423
      ],
      [
        -122.46653702153488,
        37.72711651131062
      ],
      [
        -122.46459713625039,
        37.72615912013194
      ],
      [
        -122.46240266703323,
        37.725326995473296
      ],
      [
        -122.46094698892037,
        37.7248826363683
      ],
      [
        -122.46050339517005,
        37.72478757855669
      ],
      [
        -122.46050380198524,
        37.72478766259399
      ],
      [
        -122.45954316034424,
        37.7245865209615
      ],
      [
        -122.45783866545752,
        37.72423373966081
      ],
      [
        -122.45631751836984,
        37.72391235528627
      ],
      [
        -122.45616831443122,
        37.72349850423871
      ],
      [
        -121.78267715843506,
        38.50789468952872
      ],
      [
        -121.7793387858158,
        38.51100645864807
      ],
      [
        -121.77581766971755,
        38.51426658810471
      ],
      [
        -121.77199645100258,
        38.51730261701202
      ],
      [
        -121.76888207731696,
        38.520866458556675
      ],
      [
        -121.76869720106926,
        38.52524583523164
      ],
      [
        -121.76855700508312,
        38.52946057259142
      ],
      [
        -121.76839326692587,
        38.53361263603094
      ],
      [
        -121.76827940050127,
        38.53782897219931
      ],
      [
        -121.76815124484538,
        38.54206944165642
      ],
      [
        -121.76792723844777,
        38.54622084543822
      ],
      [
        -121.7677323665072,
        38.55036274784736
      ],
      [
        -121.76770684040187,
        38.554508777995146
      ],
      [
        -121.76751768235665,
        38.55833887328216
      ],
      [
        -121.76713575225358,
        38.560462344490595
      ]
    ]
  },
  "properties": {}
}