{
  "type": "Feature",
  "geometry": {
    "type": "LineString",
    "coordinates": [
      [
        -122.40783350685065,
        37.74027091317177
      ],
      [
        -122.40581978840659,
        37.743640170428684
      ],
      [
        -122.4043616298291,
        37.74702667326739
      ],
      [
        -122.40320657632354,
        37.750586083320584
      ],
      [
        -122.40287704679406,
        37.75410464972393
      ],
      [
        -122.40366803257605,
        37.757297814177385
      ],
      [
        -122.40617806303977,
        37.75993356847241
      ],
      [
        -122.40511898083965,
        37.76325236246071
      ],
      [
        -122.40493738729147,
        37.766769206423724
      ],
      [
        -122.40533420171327,
        37.770196587501175
      ],
      [
        -122.40656048296655,
        37.77336279840321
      ],
      [
        -122.4043249444612,
        37.776423883357324
      ],
      [
        -122.4001325141974,
        37.778838507241
      ],
      [
        -122.396841929247,
        37.78165081161367
      ],
      [
        -122.39379929022405,
        37.78414456460384
      ],
      [
        -122.39064679600749,
        37.786125510048926
      ],
      [
        -122.3876955260553,
        37.78899085706419
      ],
      [
        -122.38420272828849,
        37.79228721769033
      ],
      [
        -122.3806073111897,
        37.795639551944845
      ],
      [
        -122.37696153211381,
        37.79907896191818
      ],
      [
        -122.37343213683984,
        37.80232666269779
      ],
      [
        -122.36979774918676,
        37.80573922589734
      ],
      [
        -122.36628744514158,
        37.80899627227032
      ],
      [
        -122.36249852396124,
        37.81264040708368
      ],
      [
        -122.35802865090422,
        37.815361988273075
      ],
      [
        -122.35339517369167,
        37.81787046237104
      ],
      [
        -122.34817747817348,
        37.81909680039724
      ],
      [
        -122.34270585229535,
        37.81990459786533
      ],
      [
        -122.33700916614362,
        37.82074049501106
      ],
      [
        -122.33154654130232,
        37.82150336956343
      ],
      [
        -122.32638393861787,
        37.82198954207033
      ],
      [
        -122.3213081330432,
        37.8225685955501
      ],
      [
        -122.31639929300846,
        37.82343030815741
      ],
      [
        -122.3114799876319,
        37.824299921978444
      ],
      [
        -122.30623451176575,
        37.82490735061504
      ],
      [
        -122.30128010885979,
        37.82596564866501
      ],
      [
        -122.29631152366623,
        37.827063688017994
      ],
      [
        -122.29353632959288,
        37.8297502034742
      ],
      [
        -122.29418161337162,
        37.833767928359485
      ],
      [
        -122.29641104239313,
        37.838083268929175
      ],
      [
        -122.29724165392095,
        37.84244385600009
      ],
      [
        -122.29818174527682,
        37.84664158588009
      ],
      [
        -122.29920134340857,
        37.850979497761955
      ],
      [
        -122.30027100678592,
        37.854978117357
      ],
      [
        -122.30128197402601,
        37.85857873751103
      ],
      [
        -122.30231405640369,
        37.862243168228275
      ],
      [
        -122.30298716484205,
        37.86524949256269
      ],
      [
        -122.30268362615196,
        37.86691516709021
      ],
      [
        -122.30219788016834,
        37.867346016778676
      ],
      [
        -122.30232181379472,
        37.86851424670584
      ],
      [
        -122.30059720294933,
        37.86880742381656
      ],
      [
        -122.29934082854167,
        37.869060474597156
      ],
      [
        -122.29826233300443,
        37.869261509144785
      ],
      [
        -122.29755092737825,
        37.868005049379995
      ],
      [
        -122.2955605063028,
        37.86835484918234
      ],
      [
        -122.29342422982573,
        37.86876987384801
      ],
      [
        -122.29230365129087,
        37.86899191179277
      ],
      [
        -122.2912787761003,
        37.86914209231417
      ],
      [
        -122.28895178487099,
        37.86943848725605
      ],
      [
        -122.28655251808183,
        37.86974717343347
      ],
      [
        -122.28421445869273,
        37.87005039681534
      ],
      [
        -122.28183941494287,
        37.87036752292326
      ]
    ]
  },
  "properties": {}
}