{
  "type": "Feature",
  "geometry": {
    "type": "LineString",
    "coordinates": [
      [
        -122.47248520994496,
        37.782675941239894
      ],
      [
        -122.4723339712966,
        37.780555104076775
      ],
      [
        -122.47215641081597,
        37.77830492155402
      ],
      [
        -122.4720662276283,
        37.77738477622852
      ],
      [
        -122.47206563333333,
        37.77737945
      ],
      [
        -122.47199554840024,
        37.77648035309218
      ],
      [
        -122.47185873050394,
        37.77438091739771
      ],
      [
        -122.47180341666666,
        37.77348248333333
      ],
      [
        -122.47180341666666,
        37.77348248333333
      ],
      [
        -122.47179812212981,
        37.773468674839684
      ],
      [
        -122.47262876654598,
        37.7724237446841
      ],
      [
        -122.47569742931694,
        37.77254319500976
      ],
      [
        -122.47865894355745,
        37.772331138285466
      ],
      [
        -122.47872295,
        37.77231795
      ],
      [
        -122.47935613602507,
        37.77186320244916
      ],
      [
        -122.47934160757232,
        37.77096909256032
      ],
      [
        -122.47917698333333,
        37.770709733333334
      ],
      [
        -122.47888529602767,
        37.77016597192386
      ],
      [
        -122.47857318662544,
        37.76961107983251
      ],
      [
        -122.47844193333333,
        37.76937025
      ],
      [
        -122.47844193333333,
        37.76937025
      ],
      [
        -122.47839836433108,
        37.76925049386498
      ],
      [
        -122.47830235625109,
        37.76830212955974
      ],
      [
        -122.47821013333333,
        37.767746116666665
      ],
      [
        -122.47821013333333,
        37.767746116666665
      ],
      [
        -122.47818065965778,
        37.767690150625384
      ],
      [
        -122.47752446161451,
        37.766599472377855
      ],
      [
        -122.47731041303182,
        37.76524363157512
      ],
      [
        -122.47726004632085,
        37.76421762387432
      ],
      [
        -122.47725951666666,
        37.764209316666665
      ],
      [
        -122.47725951666666,
        37.764209316666665
      ],
      [
        -122.47722890307944,
        37.76381796451278
      ],
      [
        -122.47706856183702,
        37.7620989614546
      ],
      [
        -122.47682340273731,
        37.7600918612856
      ],
      [
        -122.4767096321723,
        37.75884358002062
      ],
      [
        -122.47670548333333,
        37.7588057
      ],
      [
        -122.47670550089978,
        37.758809500208095
      ],
      [
        -122.47663667640697,
        37.757813259698125
      ],
      [
        -122.47650587109229,
        37.75602264328417
      ],
      [
        -122.4764453046263,
        37.75475926237111
      ],
      [
        -122.47644443333333,
        37.75474596666667
      ],
      [
        -122.47644443333333,
        37.75474596666667
      ],
      [
        -122.47638070373681,
        37.75365531211026
      ],
      [
        -122.47627200987567,
        37.75156466876874
      ],
      [
        -122.47620288954869,
        37.749345658907124
      ],
      [
        -122.4760317897284,
        37.74760962144561
      ],
      [
        -122.47601756666667,
        37.74727525
      ],
      [
        -122.4759142372722,
        37.74610350291065
      ],
      [
        -122.47584037528014,
        37.74415520788836
      ],
      [
        -122.47575237256842,
        37.74240996809071
      ],
      [
        -122.47594989563792,
        37.741200772352684
      ],
      [
        -122.47660070531137,
        37.74111296377722
      ],
      [
        -122.47657817695196,
        37.739604234936905
      ],
      [
        -122.4761277167012,
        37.739250654827686
      ],
      [
        -122.47575703333334,
        37.73927558333333
      ],
      [
        -122.47575703333334,
        37.73927558333333
      ],
      [
        -122.47575703333334,
        37.73927558333333
      ],
      [
        -122.47454509635048,
        37.73932501935411
      ],
      [
        -122.47337456863923,
        37.7393999273167
      ],
      [
        -122.47201749896753,
        37.73945848071461
      ],
      [
        -122.4706539983335,
        37.73953023950142
      ],
      [
        -122.46911753839606,
        37.73988468503942
      ],
      [
        -122.33395741578946,
        37.82140805374669
      ],
      [
        -122.33509170335299,
        37.821264122569595
      ],
      [
        -122.33641305477987,
        37.82109587851709
      ],
      [
        -122.33778556510887,
        37.82092084984359
      ],
      [
        -122.33880160485772,
        37.82075939224611
      ],
      [
        -122.3409228625393,
        37.820419555606726
      ],
      [
        -122.34239876103348,
        37.82021492936962
      ],
      [
        -122.3453600727419,
        37.819783051319504
      ],
      [
        -122.34825019842795,
        37.81937116431149
      ],
      [
        -122.34910010493336,
        37.81923518856542
      ],
      [
        -122.34922413910684,
        37.819236339825814
      ],
      [
        -122.34965343584234,
        37.81916298938001
      ],
      [
        -122.3502695207575,
        37.81906557792389
      ],
      [
        -122.3511665090458,
        37.8189040787676
      ],
      [
        -122.35164537586547,
        37.81876905327994
      ],
      [
        -122.3522226479902,
        37.81859751044941
      ]
    ]
  },
  "properties": {}
}