{
  "type": "Feature",
  "geometry": {
    "type": "LineString",
    "coordinates": [
      [
        -122.53360508847297,
        37.97138845491977
      ],
      [
        -122.53353717203647,
        37.97179065268905
      ],
      [
        -122.53345832455962,
        37.97226459401055
      ],
      [
        -122.53344980875123,
        37.97231578136201
      ],
      [
        -122.53343611291507,
        37.97239810514611
      ],
      [
        -122.53342027760792,
        37.972493288996034
      ],
      [
        -122.47716145810823,
        37.7622410100659
      ],
      [
        -122.47699557971461,
        37.760629189337756
      ],
      [
        -122.47687562235332,
        37.75902270817849
      ],
      [
        -122.47686691666667,
        37.7585799
      ],
      [
        -122.47680843894746,
        37.75764898548322
      ],
      [
        -122.47668751423674,
        37.75606108245858
      ],
      [
        -122.47659627118976,
        37.754538110143145
      ],
      [
        -122.47658583333333,
        37.75447805
      ],
      [
        -122.47658583333333,
        37.75447805
      ],
      [
        -122.47648254835423,
        37.753261469169196
      ],
      [
        -122.47633398044464,
        37.75099973431472
      ],
      [
        -122.47619121476563,
        37.74903415381293
      ],
      [
        -122.47608419460654,
        37.74735667039078
      ],
      [
        -122.476056,
        37.74710601666666
      ],
      [
        -122.4759827570271,
        37.74626134990792
      ],
      [
        -122.475880794755,
        37.745177559857375
      ],
      [
        -122.47577280422792,
        37.74374919205527
      ],
      [
        -122.47564995697066,
        37.74180021055598
      ],
      [
        -122.47563223333333,
        37.74138981666667
      ],
      [
        -122.47563187625613,
        37.74137370438902
      ],
      [
        -122.47655217289905,
        37.74116978578955
      ],
      [
        -122.47655232851264,
        37.73983815175018
      ],
      [
        -122.47604463728533,
        37.739260936598306
      ],
      [
        -122.47573208333333,
        37.739272666666665
      ],
      [
        -122.47519877382905,
        37.73930820007091
      ],
      [
        -122.47434879242974,
        37.73936644103107
      ],
      [
        -122.47344440281377,
        37.73940401132511
      ],
      [
        -122.47236841575176,
        37.739463114016026
      ],
      [
        -122.21972987758164,
        37.42025344469417
      ],
      [
        -122.22323687080632,
        37.420725336026734
      ],
      [
        -122.22683377534466,
        37.42305873098418
      ],
      [
        -122.23049240638024,
        37.42569070795892
      ],
      [
        -122.23398692498587,
        37.428427217610206
      ],
      [
        -122.2377573443763,
        37.431056863811676
      ],
      [
        -122.24128301198326,
        37.433884257961566
      ],
      [
        -122.2448411640631,
        37.436906085967564
      ],
      [
        -122.2489832002047,
        37.440247612535494
      ],
      [
        -122.25332423489935,
        37.443189058836666
      ],
      [
        -122.25878471930714,
        37.444251861993216
      ],
      [
        -122.26458022808201,
        37.44386561074246
      ],
      [
        -122.26966116824651,
        37.44467828814351
      ],
      [
        -122.2739771327852,
        37.44726313268718
      ],
      [
        -122.2782098445864,
        37.45012634127463
      ],
      [
        -122.28278828925178,
        37.45311331038896
      ],
      [
        -122.28733737797593,
        37.4561273796989
      ],
      [
        -122.29020550367146,
        37.45982845195176
      ],
      [
        -122.29055881623682,
        37.46360738606519
      ],
      [
        -122.2912185670326,
        37.467192473532066
      ],
      [
        -122.29189833816001,
        37.46877407039358
      ],
      [
        -122.29349328679734,
        37.46794303887758
      ],
      [
        -122.29362222905507,
        37.46917955150032
      ],
      [
        -122.29170023971477,
        37.46680033594408
      ],
      [
        -122.29094618683546,
        37.46278709482135
      ],
      [
        -122.29011473142313,
        37.458934507471874
      ],
      [
        -122.28721342534256,
        37.45574014470791
      ],
      [
        -122.28341219253986,
        37.4532179596448
      ],
      [
        -122.27955997485081,
        37.45067032380695
      ],
      [
        -122.2756821570679,
        37.448094891552586
      ],
      [
        -122.27192389393231,
        37.44551119019192
      ],
      [
        -122.2674463538122,
        37.443802346571
      ],
      [
        -122.26246740628542,
        37.443710985502214
      ],
      [
        -122.2575194366049,
        37.444043647483205
      ],
      [
        -122.25282526326907,
        37.44265057284227
      ],
      [
        -122.24907602592552,
        37.43993212193742
      ],
      [
        -122.24555167064526,
        37.437083790519885
      ],
      [
        -122.24211469181519,
        37.43418861319804
      ],
      [
        -122.23871071436703,
        37.43132819735812
      ],
      [
        -122.23501774812773,
        37.42859513237518
      ],
      [
        -122.2313325469181,
        37.42585352470493
      ],
      [
        -122.22766924964621,
        37.423240150869454
      ],
      [
        -122.22454670864691,
        37.420871648559604
      ],
      [
        -122.2216263359219,
        37.41919712479469
      ],
      [
        -122.2188725251641,
        37.41843199675844
      ],
      [
        -122.21995623977185,
        37.41816542925786
      ],
      [
        -122.21792909521137,
        37.41918697824069
      ],
      [
        -122.21408566550569,
        37.420511727651984
      ],
      [
        -122.2143249952115,
        37.42048383806787
      ],
      [
        -122.21618698902252,
        37.42029980228313
      ],
      [
        -122.2187403770133,
        37.42009293923803
      ],
      [
        -122.22153246935555,
        37.42004714308165
      ],
      [
        -122.22453479858783,
        37.42159334570965
      ],
      [
        -122.22847949260246,
        37.42424240039061
      ],
      [
        -122.2320294840995,
        37.4269761325993
      ],
      [
        -122.23565633603036,
        37.42957633922052
      ],
      [
        -122.23927379665118,
        37.43224967651514
      ],
      [
        -122.24279318177385,
        37.43515363021641
      ],
      [
        -122.24622113814615,
        37.43796007215157
      ],
      [
        -122.24987510984793,
        37.4408865565043
      ],
      [
        -122.25387005549237,
        37.44341230120546
      ],
      [
        -122.25902437536838,
        37.444215580173314
      ],
      [
        -122.26421192856745,
        37.44381533027182
      ],
      [
        -122.26933959913475,
        37.444579977319634
      ],
      [
        -122.27350207068609,
        37.44698794020538
      ],
      [
        -122.27746561929314,
        37.449586396063566
      ],
      [
        -122.28156226690228,
        37.45229428002813
      ],
      [
        -122.28561374742843,
        37.45500567391539
      ],
      [
        -122.28913696469384,
        37.4579392119741
      ],
      [
        -122.29055698612241,
        37.461842313018096
      ],
      [
        -122.29069563290237,
        37.46523625003273
      ],
      [
        -122.29135055135927,
        37.46788084573378
      ],
      [
        -122.291807195728,
        37.46861594859539
      ],
      [
        -122.29209564320269,
        37.46859924997277
      ],
      [
        -122.29406058059428,
        37.468479074050855
      ],
      [
        -122.29288981532267,
        37.46870635351238
      ],
      [
        -122.29111266460254,
        37.4652516566161
      ],
      [
        -122.29085739838021,
        37.461238921395264
      ],
      [
        -122.28922160167305,
        37.457520669231215
      ],
      [
        -122.28575640454297,
        37.454700069825364
      ],
      [
        -122.28197892006952,
        37.45230996461273
      ],
      [
        -122.27811143608668,
        37.4497239558329
      ],
      [
        -122.27427395284545,
        37.44709310478954
      ],
      [
        -122.27028956802641,
        37.444567665456994
      ],
      [
        -122.265616588603,
        37.443512971434764
      ],
      [
        -122.26062986630274,
        37.44380180665384
      ],
      [
        -122.25562623955106,
        37.44367175366762
      ],
      [
        -122.25122038572674,
        37.441623498342935
      ],
      [
        -122.2476689150135,
        37.43882750110026
      ],
      [
        -122.24420868272131,
        37.43592642488824
      ],
      [
        -122.24079922575307,
        37.4331044094035
      ],
      [
        -122.23725457941988,
        37.430270982573624
      ],
      [
        -122.23402127415326,
        37.42782867166185
      ],
      [
        -122.23065345115704,
        37.42528914221805
      ],
      [
        -122.22710438223483,
        37.42277641708365
      ],
      [
        -122.22397014946212,
        37.42046283729687
      ],
      [
        -122.22059854343354,
        37.41891128942742
      ],
      [
        -122.21899314174351,
        37.41792899206106
      ],
      [
        -122.21936560854786,
        37.41863608741035
      ],
      [
        -122.21670381182028,
        37.41955705977624
      ],
      [
        -122.21576575159958,
        37.419852809994424
      ],
      [
        -122.21084569964302,
        37.420175780163795
      ],
      [
        -122.21335997144404,
        37.4205223339116
      ],
      [
        -122.2157665009079,
        37.420373610079004
      ],
      [
        -122.21573270562926,
        37.42037556802857
      ],
      [
        -122.21836673969607,
        37.41995925312016
      ],
      [
        -122.22188106280578,
        37.42012223937632
      ],
      [
        -122.22534297198766,
        37.42211532099966
      ],
      [
        -122.22972931315431,
        37.42509997119963
      ],
      [
        -122.23367611718741,
        37.428201761465765
      ],
      [
        -122.23738425408216,
        37.43073545988615
      ],
      [
        -122.2411617917292,
        37.43375656386871
      ],
      [
        -122.24501895340664,
        37.43694076856139
      ],
      [
        -122.24899845534064,
        37.44016077051975
      ],
      [
        -122.25309170918034,
        37.442989332455674
      ],
      [
        -122.25832299009343,
        37.44428028384254
      ],
      [
        -122.2640062921005,
        37.44387371551962
      ],
      [
        -122.26954139355338,
        37.44457616818984
      ],
      [
        -122.2740597657661,
        37.447204352936694
      ],
      [
        -122.27799487615562,
        37.449970914900305
      ],
      [
        -122.28239745970887,
        37.4529368027702
      ],
      [
        -122.28691938702033,
        37.45593640838126
      ],
      [
        -122.29012403383568,
        37.45955905503829
      ],
      [
        -122.29070383624212,
        37.46386355471871
      ],
      [
        -122.29205858508512,
        37.4682187847027
      ],
      [
        -122.29539739319978,
        37.472027334502584
      ],
      [
        -122.29856769868901,
        37.47582818229029
      ],
      [
        -122.29906201632366,
        37.48035646493518
      ],
      [
        -122.29830022117768,
        37.48475400810651
      ],
      [
        -122.29848627316943,
        37.48918743989243
      ],
      [
        -122.30150195888666,
        37.493002057831426
      ],
      [
        -122.30646637294737,
        37.49509594976785
      ],
      [
        -122.31182969995608,
        37.496522142398724
      ],
      [
        -122.31657586057665,
        37.49887546120619
      ],
      [
        -122.32133321775505,
        37.500622537925295
      ],
      [
        -122.32610196262468,
        37.50097262521981
      ],
      [
        -122.33057492508102,
        37.502300740611524
      ],
      [
        -122.33452879648425,
        37.504690749582515
      ],
      [
        -122.3385826863371,
        37.50709402791818
      ],
      [
        -122.34297759335712,
        37.509877743550184
      ],
      [
        -122.34703334107294,
        37.51320435182525
      ],
      [
        -122.3509935159527,
        37.516755113379965
      ],
      [
        -122.3543898720956,
        37.5206170797973
      ],
      [
        -122.35702024288476,
        37.52471367674071
      ],
      [
        -122.3598192740269,
        37.52883601224248
      ],
      [
        -122.36161369274852,
        37.533069157361375
      ],
      [
        -122.36357457362385,
        37.53709857084908
      ],
      [
        -122.3659454004157,
        37.54104891061268
      ],
      [
        -122.36922328252139,
        37.5446795189868
      ],
      [
        -122.37293714745537,
        37.5483011768741
      ],
      [
        -122.37660415285619,
        37.55208177497353
      ],
      [
        -122.37958458046856,
        37.55603802189458
      ],
      [
        -122.3827819811476,
        37.56008292238241
      ],
      [
        -122.38636099503366,
        37.563751217924626
      ],
      [
        -122.39103867479633,
        37.56655456328207
      ],
      [
        -122.39559349286193,
        37.569454690318494
      ],
      [
        -122.3992358008039,
        37.573266826257054
      ],
      [
        -122.40145735386392,
        37.57749981741279
      ],
      [
        -122.4041543037014,
        37.58174818855449
      ],
      [
        -122.40772475678398,
        37.585445928132295
      ],
      [
        -122.41196972003421,
        37.58885770576875
      ],
      [
        -122.4154139797709,
        37.59249606631671
      ],
      [
        -122.4190062140446,
        37.59607148905228
      ],
      [
        -122.42305519549683,
        37.59944397372504
      ],
      [
        -122.42687334594184,
        37.60303725144445
      ],
      [
        -122.42784494812409,
        37.60761197942986
      ],
      [
        -122.42613178541414,
        37.61168733361176
      ],
      [
        -122.42401168608941,
        37.615596835334614
      ],
      [
        -122.42513604469771,
        37.61959968988156
      ],
      [
        -122.42771906639032,
        37.62344824857607
      ],
      [
        -122.43054548978375,
        37.627190195873446
      ],
      [
        -122.43460925054615,
        37.63029633272524
      ],
      [
        -122.43789397176276,
        37.633252870545576
      ],
      [
        -122.43965828118877,
        37.63676489450697
      ],
      [
        -122.44218614013691,
        37.64013482220561
      ],
      [
        -122.44527693692183,
        37.64307575454695
      ],
      [
        -122.4490588792721,
        37.645350453005726
      ],
      [
        -122.45121997378696,
        37.648422523625804
      ],
      [
        -122.45306319943239,
        37.65130773796925
      ],
      [
        -122.45599519677778,
        37.653984680487895
      ],
      [
        -122.45936604985891,
        37.656565771814925
      ],
      [
        -122.46306893949661,
        37.65944841085794
      ],
      [
        -122.46545709967124,
        37.66315180758426
      ],
      [
        -122.46548860137642,
        37.66711620826667
      ],
      [
        -122.46643080482893,
        37.67115009327236
      ],
      [
        -122.46884815851914,
        37.67457576341812
      ],
      [
        -122.47129917469304,
        37.67808758409663
      ],
      [
        -122.47145262350966,
        37.68207359114909
      ],
      [
        -122.4712574239843,
        37.68596452421381
      ],
      [
        -122.47033787105474,
        37.68980696068691
      ],
      [
        -122.47031331461949,
        37.693690948206374
      ],
      [
        -122.47110357793562,
        37.697235803692365
      ],
      [
        -122.47135531572395,
        37.700955305410574
      ],
      [
        -122.47144721487544,
        37.70416785877474
      ],
      [
        -122.47115394426841,
        37.70688834742182
      ],
      [
        -122.4710641882608,
        37.70872498950371
      ],
      [
        -122.47108980174688,
        37.70965571409302
      ],
      [
        -122.47110154547984,
        37.710657706763676
      ],
      [
        -122.47108347620988,
        37.7116730637095
      ],
      [
        -122.4711003651531,
        37.71209113413306
      ],
      [
        -122.4711645106889,
        37.712552306917495
      ],
      [
        -122.47126085570005,
        37.71314895792105
      ],
      [
        -122.47135180240316,
        37.713672848790964
      ],
      [
        -122.47145901286501,
        37.71406622859399
      ],
      [
        -122.4715264451985,
        37.71416455171544
      ],
      [
        -122.47156259750122,
        37.714279003083135
      ],
      [
        -122.47160796868278,
        37.714478776291
      ],
      [
        -122.47196043151156,
        37.71552767467136
      ],
      [
        -122.47212699011264,
        37.71591989956472
      ],
      [
        -122.47217292919099,
        37.71596564414073
      ],
      [
        -122.47218124869754,
        37.71597747444928
      ],
      [
        -122.47235046359971,
        37.716747064922195
      ],
      [
        -122.4723849021515,
        37.71875820279036
      ],
      [
        -122.47226931907076,
        37.72087891304583
      ],
      [
        -122.4722671347718,
        37.72107183439354
      ],
      [
        -122.47226862885542,
        37.721056323980534
      ],
      [
        -122.47219508790799,
        37.72192188467633
      ],
      [
        -122.47213286449121,
        37.72416150076668
      ],
      [
        -122.47201877868048,
        37.7262444480746
      ],
      [
        -122.47191348085829,
        37.72838938931089
      ],
      [
        -122.47180409298741,
        37.730324685913544
      ],
      [
        -122.47176724235324,
        37.7304257389948
      ],
      [
        -122.4717667892125,
        37.73043909472503
      ],
      [
        -122.47177227748357,
        37.730467841466634
      ],
      [
        -122.47171693802775,
        37.73063230717633
      ],
      [
        -122.47155786859206,
        37.732307283844094
      ],
      [
        -122.47146974087426,
        37.73345088810654
      ],
      [
        -122.47124036097485,
        37.734939405299414
      ]
    ]
  },
  "properties": {}
}