{
  "type": "Feature",
  "geometry": {
    "type": "LineString",
    "coordinates": [
      [
        -121.7601646856607,
        38.54388476353003
      ],
      [
        -121.7601709720881,
        38.54387139439447
      ],
      [
        -121.75953630151989,
        38.54369088665068
      ],
      [
        -121.7587501318379,
        38.54354926887704
      ],
      [
        -121.7586539257011,
        38.54332736567034
      ],
      [
        -121.7586539257011,
        38.54332736567034
      ],
      [
        -121.758653922152,
        38.543147045811594
      ],
      [
        -121.758653922152,
        38.5429817672008
      ],
      [
        -121.758653922152,
        38.54332471904636
      ],
      [
        -121.75945335387641,
        38.54368109269596
      ],
      [
        -121.75994978233446,
        38.54408189945334
      ],
      [
        -121.75888298359119,
        38.54574561277694
      ],
      [
        -121.75870918045182,
        38.546138245795085
      ],
      [
        -121.758706297218,
        38.54615891645311
      ],
      [
        -121.75870624683097,
        38.54615927769087
      ],
      [
        -121.7587069526603,
        38.54615421741511
      ],
      [
        -121.75868077572846,
        38.546925737795625
      ],
      [
        -121.75871246297342,
        38.548664362633254
      ],
      [
        -121.75869064006677,
        38.55016163923819
      ],
      [
        -121.75868545156752,
        38.55060773811695
      ],
      [
        -121.7586506057445,
        38.55208247270564
      ],
      [
        -122.46609555969033,
        37.73904569007405
      ],
      [
        -122.46537406699024,
        37.73952167095349
      ],
      [
        -122.46535783663583,
        37.739530186501106
      ],
      [
        -122.46408395392758,
        37.739879862983464
      ],
      [
        -122.46125377437002,
        37.740187851535325
      ],
      [
        -122.4592245431902,
        37.740405253101954
      ],
      [
        -122.45910145057749,
        37.74041136075146
      ],
      [
        -122.45824164124534,
        37.74060798655124
      ],
      [
        -122.4558447371246,
        37.74197969450737
      ],
      [
        -122.45428520500539,
        37.743945035212015
      ],
      [
        -122.45256649638898,
        37.74502167987969
      ],
      [
        -122.45209295255846,
        37.74529095452479
      ],
      [
        -122.45208701536492,
        37.74529508512164
      ],
      [
        -122.45183002744642,
        37.74540498487719
      ],
      [
        -122.44994830826913,
        37.74591983167584
      ],
      [
        -122.44774091572084,
        37.74634931023315
      ],
      [
        -122.44559532240537,
        37.74676556492695
      ],
      [
        -122.44489739948688,
        37.746704085396374
      ],
      [
        -122.44366489970548,
        37.74700669295016
      ],
      [
        -122.44163495939259,
        37.74854337926641
      ],
      [
        -122.43916541462809,
        37.74865346317576
      ],
      [
        -122.43829733733486,
        37.74868612417684
      ],
      [
        -122.43818884907327,
        37.74946407218131
      ],
      [
        -122.43637729053881,
        37.749565188217694
      ],
      [
        -122.43521624547444,
        37.74960110728845
      ],
      [
        -122.43375046370859,
        37.749702572199304
      ],
      [
        -122.43190404578831,
        37.749810929890145
      ],
      [
        -122.43053505196275,
        37.74987164296353
      ],
      [
        -122.42946942175357,
        37.7499283665046
      ],
      [
        -122.42761222656283,
        37.75006833102581
      ],
      [
        -122.4274492939997,
        37.75008589965954
      ],
      [
        -122.42735101609148,
        37.75080096158724
      ],
      [
        -122.4274406427679,
        37.751600138345516
      ],
      [
        -122.42753780476487,
        37.753017670533936
      ],
      [
        -122.42773862236098,
        37.75468726232284
      ],
      [
        -122.42784419460807,
        37.755885215766206
      ],
      [
        -122.42794780820925,
        37.756915838516996
      ],
      [
        -122.42805162407868,
        37.75786786265656
      ],
      [
        -122.42766159608415,
        37.75813011583143
      ],
      [
        -122.42722126027604,
        37.758145862944964
      ],
      [
        -122.42614041989275,
        37.758212298043254
      ],
      [
        -122.42509269635023,
        37.75826093585738
      ],
      [
        -122.42411499443446,
        37.75832636511949
      ],
      [
        -122.42362132838126,
        37.75835313156195
      ],
      [
        -122.42356367088973,
        37.75815673384169
      ],
      [
        -122.42352564721062,
        37.75795108275003
      ],
      [
        -122.42354214347974,
        37.75797184793465
      ],
      [
        -122.42354137617886,
        37.75795002729072
      ],
      [
        -122.42353833692167,
        37.757955695513054
      ],
      [
        -122.42352137430662,
        37.75796625325538
      ],
      [
        -122.42379441839219,
        37.75756650407164
      ],
      [
        -122.42436129878764,
        37.75747358711516
      ],
      [
        -122.42397257054283,
        37.75753268617001
      ],
      [
        -122.42347931955143,
        37.75730568093965
      ],
      [
        -122.42391282736106,
        37.75675733503047
      ],
      [
        -122.42520336742102,
        37.75667189005007
      ],
      [
        -122.42633898650217,
        37.756629418408245
      ],
      [
        -122.42660052970261,
        37.756645651351896
      ],
      [
        -122.42660056806392,
        37.75659790494366
      ],
      [
        -122.42674921734262,
        37.75656237223902
      ],
      [
        -122.42734546033573,
        37.75653177735058
      ],
      [
        -122.42735043591908,
        37.75658594020141
      ],
      [
        -122.42726677207554,
        37.75655175737854
      ],
      [
        -122.42728418065471,
        37.75650796366411
      ],
      [
        -122.42728371426524,
        37.75653539809433
      ],
      [
        -122.42738199007336,
        37.75657979144332
      ],
      [
        -122.42789921037627,
        37.75659101264387
      ],
      [
        -122.42800114654652,
        37.75728682396419
      ],
      [
        -122.42809896746834,
        37.75808502336568
      ],
      [
        -122.42817655472676,
        37.758607160841855
      ],
      [
        -122.42823258782659,
        37.7589005677187
      ],
      [
        -122.42823865145077,
        37.759777617409235
      ],
      [
        -122.4286331049285,
        37.760489160352364
      ],
      [
        -122.42913582910293,
        37.76042205936178
      ]
    ]
  },
  "properties": {}
}