{
  "type": "Feature",
  "geometry": {
    "type": "LineString",
    "coordinates": [
      [
        -122.48452112738406,
        37.83522895723053
      ],
      [
        -122.4841158380453,
        37.83454559486553
      ],
      [
        -122.48347750428809,
        37.833925233822306
      ],
      [
        -122.48295190965915,
        37.833523178244754
      ],
      [
        -122.48233625584103,
        37.83318338692748
      ],
      [
        -122.48156575680089,
        37.83278889132446
      ],
      [
        -122.48110094251629,
        37.8324748334757
      ],
      [
        -122.48083694523187,
        37.83227530491619
      ],
      [
        -122.48007904627943,
        37.83121197620821
      ],
      [
        -122.47977019682928,
        37.829627541645486
      ],
      [
        -122.47965669735076,
        37.82846700347669
      ],
      [
        -122.47942077772538,
        37.826412915363726
      ],
      [
        -122.47240442848687,
        37.78742845068691
      ],
      [
        -122.47241746250393,
        37.78739161291193
      ],
      [
        -122.47253983046303,
        37.78703822331346
      ],
      [
        -122.4727406784393,
        37.78596584118922
      ],
      [
        -122.47269450964878,
        37.78492901520195
      ],
      [
        -122.4726772218462,
        37.78466051086088
      ],
      [
        -122.47267731406609,
        37.78466194316893
      ],
      [
        -122.47267723896887,
        37.78466077680151
      ],
      [
        -122.47259209461458,
        37.78342559370237
      ],
      [
        -122.47248000093698,
        37.78184862422944
      ],
      [
        -122.47242173960893,
        37.7810451055112
      ],
      [
        -122.47242141497354,
        37.78104062825986
      ],
      [
        -122.4724156503775,
        37.78102742977234
      ],
      [
        -122.4724156503775,
        37.78102742977234
      ],
      [
        -122.47235138940839,
        37.78040858890534
      ],
      [
        -122.4722145323186,
        37.778528595463605
      ],
      [
        -122.47206572788971,
        37.7764174996041
      ],
      [
        -122.4719843176403,
        37.77528264097662
      ],
      [
        -122.4719777253932,
        37.77524810927527
      ],
      [
        -122.47188615591907,
        37.77393265765342
      ],
      [
        -122.4724067372444,
        37.772352705014235
      ],
      [
        -122.4750107982959,
        37.772558075515484
      ],
      [
        -122.47776136349916,
        37.772351107245186
      ],
      [
        -122.4795405146549,
        37.77131701520302
      ],
      [
        -122.47853415640793,
        37.76929273665512
      ],
      [
        -122.4780171568046,
        37.76718249793434
      ],
      [
        -122.4776664098003,
        37.76670753493697
      ],
      [
        -122.47765592683238,
        37.76669435298607
      ],
      [
        -122.47737790550708,
        37.76591079301847
      ],
      [
        -122.47726678645026,
        37.76426144001113
      ],
      [
        -122.47712734317457,
        37.762378027330875
      ],
      [
        -122.47696120786695,
        37.760629978496816
      ],
      [
        -122.47693673105223,
        37.76036237533217
      ],
      [
        -122.47693612476553,
        37.76035574684578
      ],
      [
        -122.47685923037223,
        37.75945171390128
      ],
      [
        -122.47669897982496,
        37.757706494566726
      ],
      [
        -122.4766110275257,
        37.75599755536782
      ],
      [
        -122.47653309028652,
        37.754901338208384
      ],
      [
        -122.47651982181664,
        37.754714712090866
      ],
      [
        -122.47647480884125,
        37.75406152740873
      ],
      [
        -122.47635949308231,
        37.75228466714562
      ],
      [
        -122.47626663491215,
        37.751015548647466
      ],
      [
        -122.47626486809462,
        37.75099140291672
      ],
      [
        -122.47626487843242,
        37.75099154419505
      ],
      [
        -122.47623317570097,
        37.75055828744552
      ],
      [
        -122.47612815313816,
        37.749029984575614
      ],
      [
        -122.47601627266005,
        37.74727261659848
      ],
      [
        -122.47586515999726,
        37.74508410448164
      ],
      [
        -122.47573618615213,
        37.743412310105995
      ],
      [
        -122.475728719997,
        37.74331430475879
      ],
      [
        -122.47572725271468,
        37.7432950443081
      ],
      [
        -122.47564491503285,
        37.74197227715619
      ],
      [
        -122.47640885183328,
        37.74114873745383
      ],
      [
        -122.47662774055962,
        37.74109863337915
      ],
      [
        -122.4765340321115,
        37.73975733511175
      ],
      [
        -122.47631602822011,
        37.73928931641324
      ],
      [
        -122.4756990039671,
        37.73931791886453
      ],
      [
        -122.47569923500483,
        37.739317908167536
      ],
      [
        -122.47569919105915,
        37.73931791020222
      ],
      [
        -122.47569938559862,
        37.73931790119508
      ],
      [
        -122.47548209489432,
        37.73932725337375
      ],
      [
        -122.47405209322399,
        37.739381931333426
      ],
      [
        -122.4725115572121,
        37.73945194396696
      ],
      [
        -122.47126802972028,
        37.739512037223925
      ],
      [
        -122.47014136515972,
        37.739569316370876
      ],
      [
        -122.46851581782447,
        37.740003349541325
      ]
    ]
  },
  "properties": {}
}