{
  "type": "Feature",
  "geometry": {
    "type": "LineString",
    "coordinates": [
      [
        -122.51135825315944,
        37.950569614099855
      ],
      [
        -122.51375114128001,
        37.94699511978819
      ],
      [
        -122.51543428673429,
        37.94280850721725
      ],
      [
        -122.51656743595267,
        37.9385239905097
      ],
      [
        -122.5166129283227,
        37.9344441393223
      ],
      [
        -122.51588271983387,
        37.930444376208115
      ],
      [
        -122.51495589902561,
        37.926553150093895
      ],
      [
        -122.51284932942033,
        37.922499111587214
      ],
      [
        -122.51127486480989,
        37.91845168440768
      ],
      [
        -122.51205786318508,
        37.914213027542985
      ],
      [
        -122.51342378482367,
        37.91040409540303
      ],
      [
        -122.51498464725195,
        37.90679725420764
      ],
      [
        -122.51577954845806,
        37.902740007846496
      ],
      [
        -122.51610450853127,
        37.89846531127036
      ],
      [
        -122.51643835949582,
        37.89419641036284
      ],
      [
        -122.51674850061804,
        37.89011079442882
      ],
      [
        -122.51675545756399,
        37.88590930622745
      ],
      [
        -122.51670219274497,
        37.8820192166951
      ],
      [
        -122.51490371821971,
        37.878586158826465
      ],
      [
        -122.5110392926271,
        37.87619279510231
      ],
      [
        -122.50781868709724,
        37.873188579472775
      ],
      [
        -122.50719649199797,
        37.86947873170773
      ],
      [
        -122.507178540943,
        37.86579010965156
      ],
      [
        -122.5054039051993,
        37.86220572359074
      ],
      [
        -122.50116203603943,
        37.85980454914729
      ],
      [
        -122.49749357646955,
        37.85694430499684
      ],
      [
        -122.49348801086819,
        37.85466998537877
      ],
      [
        -122.49054219584883,
        37.85137314759965
      ],
      [
        -122.48838045538906,
        37.84793913943145
      ],
      [
        -122.4862691716422,
        37.84475625438841
      ],
      [
        -122.48634819368559,
        37.84094129722372
      ],
      [
        -122.48601372044256,
        37.83759015845138
      ],
      [
        -122.48401870123242,
        37.834469563029
      ],
      [
        -122.48078135121716,
        37.83227024995805
      ],
      [
        -122.4797232300819,
        37.82921211440874
      ],
      [
        -122.4793440242824,
        37.82596547567892
      ],
      [
        -122.47898446906811,
        37.82301176900681
      ],
      [
        -122.47862666917341,
        37.81991796802185
      ],
      [
        -122.4782338138142,
        37.816613380614335
      ],
      [
        -122.47787235782297,
        37.813529335739176
      ],
      [
        -122.47750465117586,
        37.81037691020018
      ],
      [
        -122.47663452639766,
        37.80812841598436
      ],
      [
        -122.47570092818417,
        37.80714500277567
      ],
      [
        -122.47440036413113,
        37.805994839423036
      ],
      [
        -122.4719824395053,
        37.80405527274905
      ],
      [
        -122.4695575660612,
        37.80238152346293
      ],
      [
        -122.46950065164201,
        37.799922907032695
      ],
      [
        -122.4695505164084,
        37.797410051622855
      ],
      [
        -122.46963106911267,
        37.79474267907057
      ],
      [
        -122.4696523939187,
        37.79205886319696
      ],
      [
        -122.47120967893056,
        37.78927696352937
      ],
      [
        -122.47254860834826,
        37.78705536774324
      ],
      [
        -122.47260130402836,
        37.786753944453736
      ],
      [
        -122.47271384181755,
        37.78572218683559
      ],
      [
        -122.47263567573488,
        37.78444913052634
      ],
      [
        -122.47254582897796,
        37.78340231573797
      ],
      [
        -122.47250452894838,
        37.782561329639115
      ],
      [
        -122.47237424065032,
        37.781057880463194
      ],
      [
        -122.47224649835633,
        37.7793172539957
      ],
      [
        -122.47229039226681,
        37.77930260466679
      ],
      [
        -122.47227702571429,
        37.7792844327326
      ],
      [
        -122.47217019862741,
        37.778002163415984
      ],
      [
        -122.47217431867217,
        37.77745352337169
      ],
      [
        -122.47214119854871,
        37.77709833030988
      ],
      [
        -122.47199087612317,
        37.775491357166764
      ],
      [
        -122.4718911116918,
        37.77428862503861
      ],
      [
        -122.47184942005198,
        37.77371930534825
      ],
      [
        -122.47186692967888,
        37.773726474658524
      ],
      [
        -122.47185930402053,
        37.77367133746484
      ],
      [
        -122.47228269018399,
        37.772427378939945
      ],
      [
        -122.47536202235084,
        37.77256641642615
      ],
      [
        -122.47851139694673,
        37.77236712955639
      ],
      [
        -122.47948425174098,
        37.771262147462636
      ],
      [
        -122.47847159452792,
        37.76920111717808
      ],
      [
        -122.47782558161724,
        37.766976842916385
      ],
      [
        -122.47746196572821,
        37.76626974363419
      ],
      [
        -122.47729443017053,
        37.76468333501525
      ],
      [
        -122.47717792824497,
        37.76293443599779
      ],
      [
        -122.47696348586604,
        37.76083826980453
      ],
      [
        -122.47682441806438,
        37.758829948641214
      ],
      [
        -122.47678567175346,
        37.75837987278742
      ],
      [
        -122.47676765186694,
        37.75838443520026
      ],
      [
        -122.47671828275827,
        37.757559227214564
      ],
      [
        -122.47661001863644,
        37.755787544566346
      ],
      [
        -122.47651902981121,
        37.7545191921334
      ],
      [
        -122.4765139460472,
        37.75450000858997
      ],
      [
        -122.47648428184858,
        37.75408294298557
      ],
      [
        -122.47637565000502,
        37.752401272031825
      ],
      [
        -122.47629943349581,
        37.751354653571646
      ],
      [
        -122.47630388450912,
        37.75128087240909
      ],
      [
        -122.47631451761067,
        37.75127620487467
      ],
      [
        -122.47631345022191,
        37.7512755043331
      ],
      [
        -122.4762511625545,
        37.75053906445223
      ],
      [
        -122.47621806866111,
        37.75006142970061
      ],
      [
        -122.47620418181802,
        37.74955689004776
      ],
      [
        -122.47610212680605,
        37.748438612429375
      ],
      [
        -122.47605682443645,
        37.747234835359656
      ],
      [
        -122.47605978348182,
        37.74700418309005
      ],
      [
        -122.47596657729213,
        37.745609190478696
      ],
      [
        -122.47593458685071,
        37.74534634065261
      ],
      [
        -122.47591917647945,
        37.74533544993221
      ],
      [
        -122.47581889663638,
        37.74410547002476
      ],
      [
        -122.47576448128432,
        37.74291452919119
      ],
      [
        -122.47571965519192,
        37.742064676911575
      ],
      [
        -122.4756973213482,
        37.741549146597904
      ],
      [
        -122.47580206133053,
        37.74122003253004
      ],
      [
        -122.47664314348849,
        37.740686671097244
      ],
      [
        -122.47647720817153,
        37.739315466171796
      ],
      [
        -122.47582330709832,
        37.73929530544371
      ],
      [
        -122.47583836666666,
        37.7393132
      ],
      [
        -122.47583853333333,
        37.739313233333334
      ],
      [
        -122.47476038001489,
        37.73936117674928
      ],
      [
        -122.4740843297842,
        37.73937206168341
      ],
      [
        -122.47275726192457,
        37.73944144917177
      ],
      [
        -122.47142441309404,
        37.7394981169484
      ],
      [
        -122.47022161449907,
        37.739544492158444
      ],
      [
        -122.46943842231519,
        37.739769142726104
      ],
      [
        -122.46818839174178,
        37.74001626834891
      ],
      [
        -122.46720340165582,
        37.73981286076186
      ],
      [
        -122.47582105323293,
        37.743715757977576
      ],
      [
        -122.47581241666667,
        37.74317776666667
      ],
      [
        -122.47628808979456,
        37.74303982899327
      ],
      [
        -122.47671517629121,
        37.74170811183422
      ],
      [
        -122.47666956051297,
        37.740517389470945
      ],
      [
        -122.4761630816821,
        37.739240409726065
      ],
      [
        -122.47575263333333,
        37.73928548333333
      ],
      [
        -122.47575263333333,
        37.73928548333333
      ],
      [
        -122.47458859390564,
        37.739329136358194
      ],
      [
        -122.47373779828956,
        37.73937467910985
      ],
      [
        -122.47290584599475,
        37.73943049039294
      ],
      [
        -122.47196268357794,
        37.739471514821815
      ],
      [
        -122.47119092367953,
        37.73950233093107
      ],
      [
        -122.47018052015109,
        37.739543126058535
      ],
      [
        -122.46887138776007,
        37.73993201814346
      ],
      [
        -122.46825603101242,
        37.74000333836372
      ],
      [
        -122.4783360478357,
        37.81752550237378
      ],
      [
        -122.47799719851177,
        37.81469987101339
      ],
      [
        -122.4776797428789,
        37.81200882018219
      ],
      [
        -122.47738029494523,
        37.809500865637744
      ],
      [
        -122.475939937697,
        37.80746402440799
      ],
      [
        -122.47413925265023,
        37.80582172687003
      ],
      [
        -122.47117076051917,
        37.80357088825338
      ],
      [
        -122.46943442311387,
        37.80105181013607
      ],
      [
        -122.46956340248683,
        37.798317756343614
      ],
      [
        -122.46958621498646,
        37.79613616092209
      ],
      [
        -122.46959105854046,
        37.79352180918662
      ],
      [
        -122.47019895352454,
        37.790652938329046
      ],
      [
        -122.47186955656996,
        37.788410649422374
      ],
      [
        -122.47232881666666,
        37.78761888333333
      ],
      [
        -122.47249765905156,
        37.787211446834306
      ],
      [
        -122.47268385284598,
        37.78565745507903
      ],
      [
        -122.47267898333334,
        37.784970916666666
      ],
      [
        -122.47267898333334,
        37.784970916666666
      ],
      [
        -122.47264317905206,
        37.78488483836821
      ],
      [
        -122.47255662491882,
        37.78360704322335
      ],
      [
        -122.47251923333333,
        37.782960116666665
      ],
      [
        -122.47249048666426,
        37.78242244096075
      ],
      [
        -122.47233740355446,
        37.7804781205315
      ],
      [
        -122.47219982867712,
        37.778430840843995
      ],
      [
        -122.47211778743642,
        37.77692229385396
      ],
      [
        -122.4719393329505,
        37.77478778823672
      ],
      [
        -122.47183926666666,
        37.773401066666665
      ],
      [
        -122.47183926666666,
        37.773401066666665
      ],
      [
        -122.47183926666666,
        37.773401066666665
      ],
      [
        -122.47194792576411,
        37.772622191878284
      ],
      [
        -122.47488875881243,
        37.77261238387424
      ],
      [
        -122.47826476779319,
        37.77231656164278
      ],
      [
        -122.4795154620635,
        37.771265272425644
      ],
      [
        -122.4784028595299,
        37.76897868070161
      ],
      [
        -122.47760635876755,
        37.7666532428172
      ],
      [
        -122.47730107387206,
        37.764441861058046
      ],
      [
        -122.47720431781569,
        37.762196565016836
      ],
      [
        -122.47717875,
        37.761887783333336
      ],
      [
        -122.47717875,
        37.761887783333336
      ],
      [
        -122.47708623740807,
        37.761293222400816
      ],
      [
        -122.47687810251554,
        37.75945580388063
      ],
      [
        -122.47673977975668,
        37.757368160516535
      ],
      [
        -122.4765977688317,
        37.75520265666181
      ],
      [
        -122.47655105,
        37.75443143333333
      ],
      [
        -122.47655105,
        37.75443143333333
      ],
      [
        -122.4765224942862,
        37.75408516202414
      ],
      [
        -122.4764203602709,
        37.752349911858644
      ],
      [
        -122.4762753501239,
        37.75045998847724
      ],
      [
        -122.47615921654014,
        37.748930787493315
      ],
      [
        -122.47606388831258,
        37.747295216173534
      ],
      [
        -122.4759232021381,
        37.745532841224744
      ],
      [
        -122.47589761666667,
        37.745269433333334
      ],
      [
        -122.47589761666667,
        37.745269433333334
      ],
      [
        -122.47587605828993,
        37.74487460705857
      ],
      [
        -122.47576679618925,
        37.74350612431432
      ],
      [
        -122.47566651184907,
        37.74209695748885
      ],
      [
        -122.47640913493755,
        37.74114837353872
      ],
      [
        -122.4766225819894,
        37.74022957354827
      ],
      [
        -122.47645590161329,
        37.739285973569004
      ],
      [
        -122.47563486666667,
        37.73927748333333
      ],
      [
        -122.47563486666667,
        37.73927748333333
      ],
      [
        -122.47563486666667,
        37.73927748333333
      ],
      [
        -122.47563486666667,
        37.73927748333333
      ],
      [
        -122.47542885056778,
        37.73929078292777
      ],
      [
        -122.47394007786208,
        37.73935659770678
      ],
      [
        -122.47249539192471,
        37.73942974785955
      ],
      [
        -122.47126151767239,
        37.73947948237375
      ],
      [
        -122.4701674301937,
        37.739530724874946
      ],
      [
        -121.75061490110748,
        38.54628300123122
      ],
      [
        -121.7524738344443,
        38.546275311122535
      ],
      [
        -121.75449650159914,
        38.54630061125885
      ],
      [
        -121.75672335972426,
        38.54633873904691
      ],
      [
        -121.75842639922165,
        38.546414908617955
      ],
      [
        -121.75873117323866,
        38.54694101763995
      ],
      [
        -121.75871488656381,
        38.548720156243604
      ],
      [
        -121.75871816,
        38.550148745287025
      ],
      [
        -121.75871961496745,
        38.55031079438178
      ],
      [
        -121.75868664299458,
        38.55112735186741
      ],
      [
        -121.75866776244632,
        38.552638752641236
      ],
      [
        -121.75861518762183,
        38.55411962566631
      ],
      [
        -121.75857677315793,
        38.5556549681548
      ],
      [
        -121.75861205000317,
        38.557392097161
      ],
      [
        -121.75854000397075,
        38.559377564778835
      ],
      [
        -121.75855005755164,
        38.560387879723635
      ],
      [
        -121.75854405300355,
        38.560468026126024
      ],
      [
        -121.75854003490699,
        38.560468027735055
      ],
      [
        -121.75851078906597,
        38.56049032186808
      ],
      [
        -122.28140797546628,
        37.8532102678932
      ],
      [
        -122.28347757180602,
        37.852816280199185
      ],
      [
        -122.28562207512928,
        37.85236722864463
      ],
      [
        -122.28614092896775,
        37.85228136011829
      ],
      [
        -122.28613899707169,
        37.85228041081003
      ],
      [
        -122.28730050775007,
        37.852059364064225
      ],
      [
        -122.28946921570312,
        37.85163327033277
      ],
      [
        -122.29029029445661,
        37.8513876442503
      ],
      [
        -122.29069435397709,
        37.851209333599435
      ],
      [
        -122.29230214427537,
        37.850538583615226
      ],
      [
        -122.29468674458623,
        37.849551440634244
      ],
      [
        -122.2978545997496,
        37.84876597128639
      ],
      [
        -122.30056135301881,
        37.84790908104496
      ],
      [
        -122.2999332666902,
        37.84693026447562
      ],
      [
        -122.29974243056586,
        37.84681032911918
      ],
      [
        -122.29954989084413,
        37.84668449066126
      ],
      [
        -122.29939364280195,
        37.84660495214426
      ],
      [
        -122.2983626512641,
        37.845377418821094
      ],
      [
        -122.2978653166133,
        37.843399070141295
      ],
      [
        -122.29751881151904,
        37.84192721054118
      ],
      [
        -122.37063388389201,
        37.80493532289239
      ],
      [
        -122.3729212994941,
        37.80280293447353
      ],
      [
        -122.37534606230828,
        37.80052524663537
      ],
      [
        -122.37783539968599,
        37.798207177434016
      ],
      [
        -122.38038987451752,
        37.79581223649913
      ],
      [
        -122.38285853929064,
        37.793496079205255
      ],
      [
        -122.38523758358424,
        37.79129119248834
      ],
      [
        -122.38732473143686,
        37.78932038913357
      ],
      [
        -122.38939757218553,
        37.78741022635781
      ],
      [
        -122.39155670739991,
        37.78562611572154
      ],
      [
        -122.39323723924376,
        37.78471551614364
      ],
      [
        -122.39458067400861,
        37.78378658366716
      ],
      [
        -122.39621514284825,
        37.78249170892497
      ],
      [
        -122.39820829193798,
        37.78100989641479
      ],
      [
        -122.40015614133215,
        37.779467482596004
      ],
      [
        -122.40181503639313,
        37.77817013075363
      ],
      [
        -122.40343361559796,
        37.777093147546594
      ],
      [
        -122.40514238015585,
        37.7760530324434
      ],
      [
        -122.40647119525038,
        37.77471266098792
      ],
      [
        -122.40680943664843,
        37.77323846705307
      ],
      [
        -122.40651149204436,
        37.771835222213646
      ],
      [
        -122.40597283846269,
        37.77080713584762
      ],
      [
        -122.40563278789973,
        37.76985060615944
      ],
      [
        -122.40545201388696,
        37.768617532240356
      ],
      [
        -122.40534452357653,
        37.767398612847174
      ],
      [
        -122.40520842269076,
        37.76622545684257
      ],
      [
        -122.40508414344289,
        37.76461639580439
      ],
      [
        -122.4057106475806,
        37.76247225896114
      ],
      [
        -122.40651418052751,
        37.75999896428116
      ],
      [
        -122.40457886963803,
        37.757719207973864
      ],
      [
        -122.40324104650183,
        37.75491370079465
      ],
      [
        -122.40321235294469,
        37.75154368108754
      ],
      [
        -122.40429668441443,
        37.74809461104762
      ],
      [
        -122.4052963835732,
        37.744994772451435
      ],
      [
        -122.40694541018337,
        37.74267914733059
      ],
      [
        -122.40815069346405,
        37.740033830494895
      ],
      [
        -122.40820264825211,
        37.73709965341474
      ],
      [
        -122.41007933010461,
        37.73461574850291
      ],
      [
        -122.41345331778622,
        37.73285169774901
      ],
      [
        -122.41673547937573,
        37.732081575153764
      ],
      [
        -122.42085614254194,
        37.73197699254111
      ],
      [
        -122.42467019919448,
        37.731555642051354
      ],
      [
        -122.42830660591818,
        37.73208418927439
      ],
      [
        -122.4322688152085,
        37.73227293856341
      ],
      [
        -122.43491393671839,
        37.73170758148709
      ],
      [
        -122.43528972691225,
        37.73163727021829
      ],
      [
        -122.43527768692675,
        37.731643573203286
      ],
      [
        -122.4353871506289,
        37.73162371951361
      ],
      [
        -122.43583064194206,
        37.731579636459074
      ],
      [
        -122.43748905518889,
        37.73164229146813
      ],
      [
        -122.43944901849093,
        37.73155793143605
      ],
      [
        -122.44084208293201,
        37.73160915033838
      ],
      [
        -122.44188925704644,
        37.731576933111754
      ],
      [
        -122.44328817992326,
        37.73154804708883
      ],
      [
        -122.44557925555596,
        37.73159299689371
      ],
      [
        -122.44653468389207,
        37.731553913324724
      ],
      [
        -122.44799561712199,
        37.731657923685965
      ],
      [
        -122.44864662527222,
        37.73158597480397
      ],
      [
        -122.45016224067746,
        37.73163556934544
      ],
      [
        -122.45254472972265,
        37.73154074086088
      ],
      [
        -122.45341977363853,
        37.73161251581534
      ],
      [
        -122.45556303198474,
        37.73143677829375
      ],
      [
        -122.45737301102392,
        37.731065022577354
      ],
      [
        -122.45768206524684,
        37.7321301327945
      ],
      [
        -122.4585849705981,
        37.73264700700878
      ],
      [
        -122.45921873379208,
        37.733906944498344
      ],
      [
        -122.46020514218857,
        37.73497086935015
      ],
      [
        -122.21226203657899,
        37.76623729115117
      ],
      [
        -122.21222378822175,
        37.76637774348605
      ],
      [
        -122.21373080255545,
        37.767816760990634
      ],
      [
        -122.21556573349243,
        37.76941504831976
      ],
      [
        -122.21754499212702,
        37.770903506778424
      ],
      [
        -122.21958125714818,
        37.771874948863605
      ],
      [
        -122.21901125709846,
        37.77263736763331
      ],
      [
        -122.21799604651665,
        37.77181211036458
      ],
      [
        -122.22021818366206,
        37.77020984953953
      ],
      [
        -122.22130684394965,
        37.770241189182606
      ],
      [
        -122.2222603842288,
        37.77107685170847
      ],
      [
        -122.22258662055509,
        37.77127758406992
      ],
      [
        -122.22287498289755,
        37.77143906769074
      ],
      [
        -122.22320299472067,
        37.77159589306581
      ],
      [
        -122.22377432401596,
        37.771943846067316
      ],
      [
        -122.22472179322668,
        37.77230622702656
      ],
      [
        -122.22678349214257,
        37.77299116437043
      ],
      [
        -122.22915379411718,
        37.773743944192766
      ],
      [
        -122.23172558554862,
        37.77455128131857
      ],
      [
        -122.23439865862471,
        37.77564664648485
      ],
      [
        -122.23660412219198,
        37.777300872505116
      ],
      [
        -122.23809584321867,
        37.780011904573385
      ],
      [
        -122.23964204233219,
        37.78304619602996
      ],
      [
        -122.24248001248795,
        37.78489566897009
      ],
      [
        -122.24473741355806,
        37.786147771548215
      ],
      [
        -122.24723520206389,
        37.78732538401318
      ],
      [
        -122.2499320097336,
        37.788288121425836
      ],
      [
        -122.25269474465901,
        37.78907183183224
      ],
      [
        -122.25635188871563,
        37.78985082734077
      ],
      [
        -122.25984061026975,
        37.79064328419274
      ],
      [
        -122.26243131045352,
        37.79245071159265
      ],
      [
        -122.26537598845609,
        37.794729328418285
      ],
      [
        -122.26908927477959,
        37.79635753290633
      ],
      [
        -122.27159076359098,
        37.797478526535805
      ],
      [
        -122.27420017015432,
        37.79834836168765
      ],
      [
        -122.27850202188021,
        37.79999293567996
      ],
      [
        -122.28252088379887,
        37.80162355905767
      ],
      [
        -122.2867684709089,
        37.80291804530833
      ],
      [
        -122.29142554719272,
        37.80283343737084
      ],
      [
        -122.29599378257461,
        37.802143870061066
      ],
      [
        -122.30136610116507,
        37.80339754550439
      ],
      [
        -122.30439230360307,
        37.807174451747336
      ],
      [
        -122.3041101190758,
        37.810711373196064
      ],
      [
        -122.30138657801066,
        37.813789660244325
      ],
      [
        -122.29735940307107,
        37.81658632818449
      ],
      [
        -122.29609530849294,
        37.81924320053035
      ],
      [
        -122.29649423332546,
        37.82030977081232
      ],
      [
        -122.29732062974362,
        37.82126815639747
      ],
      [
        -122.29774832163538,
        37.8214950077131
      ],
      [
        -122.29808564040309,
        37.821698855936575
      ],
      [
        -122.29818175875961,
        37.82172065651836
      ],
      [
        -122.29827990338595,
        37.821790008470394
      ],
      [
        -122.29833623209046,
        37.82188360632965
      ],
      [
        -122.29873724811208,
        37.82202309486661
      ],
      [
        -122.29884635909923,
        37.82208352483657
      ],
      [
        -122.29916520539706,
        37.822235161050855
      ],
      [
        -122.29956358857349,
        37.822404303992144
      ],
      [
        -122.30008130343228,
        37.82265522850399
      ],
      [
        -122.30081763907299,
        37.82300567112319
      ],
      [
        -122.30143180173071,
        37.82327802135828
      ],
      [
        -122.30195843764172,
        37.823494798224075
      ],
      [
        -122.30213459781723,
        37.823563155966326
      ],
      [
        -122.30244861312747,
        37.82368941397728
      ],
      [
        -122.30258578828749,
        37.823769757991066
      ],
      [
        -122.30271902182785,
        37.823821118660305
      ],
      [
        -122.30309006226187,
        37.82398458981002
      ],
      [
        -122.30344528381602,
        37.824154955789695
      ],
      [
        -122.30383265893188,
        37.82434807703345
      ],
      [
        -122.3040603702729,
        37.82438014941481
      ],
      [
        -122.304428799192,
        37.82454800077006
      ],
      [
        -122.30477770143852,
        37.82468196741054
      ],
      [
        -122.30509706041995,
        37.824802994660935
      ],
      [
        -122.30530769404871,
        37.82481612856282
      ],
      [
        -122.30546783039011,
        37.82487861971688
      ],
      [
        -122.30569840533742,
        37.824925446227276
      ],
      [
        -122.30569285781384,
        37.824938509265294
      ],
      [
        -122.30588072059551,
        37.82496821122843
      ],
      [
        -122.3063258524224,
        37.82500273837563
      ],
      [
        -122.30668774902533,
        37.82503343051439
      ],
      [
        -122.30689255119101,
        37.825007718383176
      ],
      [
        -122.30717185456717,
        37.82496913117314
      ],
      [
        -122.30733836794874,
        37.824961786585476
      ],
      [
        -122.30759955696522,
        37.82493427968993
      ],
      [
        -122.30783165321905,
        37.82491886949769
      ],
      [
        -122.30819817700592,
        37.82487549951641
      ],
      [
        -122.30867610189131,
        37.82484287937174
      ],
      [
        -122.30911252417278,
        37.82481707579348
      ],
      [
        -122.30955924342109,
        37.824756023489805
      ],
      [
        -122.30947512616535,
        37.82469917940396
      ],
      [
        -122.3096775061455,
        37.824757287513464
      ],
      [
        -122.30992602158726,
        37.824758724456665
      ],
      [
        -122.30985522217394,
        37.82481739677167
      ],
      [
        -122.31010931224979,
        37.824706678019
      ],
      [
        -122.31026811001163,
        37.82476212482677
      ],
      [
        -122.31061605633299,
        37.82476059805033
      ],
      [
        -122.31094602783482,
        37.824722342767146
      ],
      [
        -122.31129582476512,
        37.824709905869454
      ],
      [
        -122.31140385188834,
        37.824742730913535
      ],
      [
        -122.31162540567175,
        37.82474310119013
      ],
      [
        -122.31187062145406,
        37.824736696165346
      ],
      [
        -122.31202995256115,
        37.82473236989556
      ],
      [
        -122.312208685644,
        37.824711642339004
      ],
      [
        -122.3124637969836,
        37.82464211829643
      ],
      [
        -122.312603452133,
        37.82464595453254
      ],
      [
        -122.31280417844422,
        37.82463037185858
      ],
      [
        -122.31288852735624,
        37.82461319649269
      ],
      [
        -122.31312150647356,
        37.82460348288982
      ],
      [
        -122.313324875886,
        37.82459654454805
      ],
      [
        -122.31346471112123,
        37.82453821438193
      ],
      [
        -122.31346833129807,
        37.82453678198427
      ],
      [
        -122.31442425988533,
        37.82436540173665
      ],
      [
        -122.31478481366874,
        37.82434883745537
      ],
      [
        -122.31507781824736,
        37.82428673894955
      ],
      [
        -122.3153146947243,
        37.82423439439947
      ],
      [
        -122.31549888997222,
        37.824240507595
      ],
      [
        -122.31573432119318,
        37.824202641298974
      ],
      [
        -122.31602576155072,
        37.82415942367931
      ],
      [
        -122.31612315923728,
        37.82416037803184
      ],
      [
        -122.31632972708447,
        37.82407701902658
      ],
      [
        -122.3164985423825,
        37.82406137582065
      ],
      [
        -122.31673531179729,
        37.82401942084296
      ],
      [
        -122.31694966588823,
        37.82397929509098
      ],
      [
        -122.31767924009235,
        37.82387074638018
      ],
      [
        -122.32115946350693,
        37.82287989070466
      ],
      [
        -122.32479591296016,
        37.82239663400078
      ],
      [
        -122.32868492388651,
        37.822092818071056
      ],
      [
        -122.33281607222364,
        37.82161829975966
      ],
      [
        -122.33771611107953,
        37.82088367062709
      ],
      [
        -122.3426493502583,
        37.820173015153514
      ],
      [
        -122.34769725357964,
        37.819441348801554
      ],
      [
        -122.35237367569852,
        37.81858576266368
      ],
      [
        -122.35640531306827,
        37.8166366705448
      ],
      [
        -122.3603856990362,
        37.814397935073664
      ],
      [
        -122.36340844804236,
        37.811671726182055
      ],
      [
        -122.36630869100902,
        37.80892842245424
      ],
      [
        -122.36932294400611,
        37.80606072960418
      ],
      [
        -122.37238460899233,
        37.803183190310044
      ],
      [
        -122.37487856351554,
        37.80090434093451
      ],
      [
        -122.37597222779732,
        37.79987940013287
      ],
      [
        -122.37730296556413,
        37.798668118998876
      ],
      [
        -122.37917928882365,
        37.796892296233295
      ],
      [
        -122.38128308495894,
        37.79487007445071
      ],
      [
        -122.38308113726508,
        37.79324379003481
      ],
      [
        -122.38402990312947,
        37.792362633377245
      ],
      [
        -122.38514742966892,
        37.791299008809176
      ],
      [
        -122.38647105910009,
        37.79005315301152
      ],
      [
        -122.38807976780487,
        37.78859401130521
      ],
      [
        -122.38972710322551,
        37.787134077601785
      ],
      [
        -122.39183177901003,
        37.78546388188674
      ],
      [
        -122.39444724354291,
        37.78383374471394
      ],
      [
        -122.39609534285466,
        37.782559143419896
      ],
      [
        -122.39756465080632,
        37.78144044249071
      ],
      [
        -122.3993591689722,
        37.78010457156083
      ],
      [
        -122.40112297045181,
        37.778692647655
      ],
      [
        -122.40354087028138,
        37.77700523082903
      ],
      [
        -122.40601820876009,
        37.77527288105586
      ],
      [
        -122.40676801450961,
        37.77293556139291
      ],
      [
        -122.40567181143892,
        37.76992151535126
      ],
      [
        -122.40525538294628,
        37.76635034136459
      ],
      [
        -122.40518668823181,
        37.76356148379389
      ],
      [
        -122.40650677126332,
        37.760285432858
      ],
      [
        -122.40434480672404,
        37.757657132995526
      ],
      [
        -122.40320479731888,
        37.754596799918666
      ],
      [
        -122.40337371195164,
        37.75082062549726
      ],
      [
        -122.40471552253504,
        37.74664100654579
      ],
      [
        -122.40606104666101,
        37.74373290590148
      ],
      [
        -122.40795798348672,
        37.74106485852807
      ],
      [
        -122.40825330856498,
        37.737549839629374
      ],
      [
        -122.40994449815746,
        37.73473091317951
      ],
      [
        -122.41326620690468,
        37.732982869974364
      ],
      [
        -122.41746745956297,
        37.73207166571326
      ],
      [
        -122.42149216852248,
        37.731939964053836
      ],
      [
        -122.42470906065509,
        37.73164980167141
      ],
      [
        -122.42792950724264,
        37.73207787396044
      ],
      [
        -122.43092968483214,
        37.73245701554152
      ],
      [
        -122.43333869936055,
        37.73216084161156
      ],
      [
        -122.43355336327375,
        37.732070617767434
      ],
      [
        -122.43440084371227,
        37.73181420767082
      ],
      [
        -122.43501523515137,
        37.73165651586876
      ],
      [
        -122.43508862225347,
        37.7316710330436
      ],
      [
        -122.43507519124499,
        37.7316840156225
      ],
      [
        -122.43524899018536,
        37.731656368649105
      ],
      [
        -122.43600627864514,
        37.731542020666346
      ],
      [
        -122.43596768336747,
        37.73158905316252
      ],
      [
        -122.43596043586977,
        37.73158891826045
      ],
      [
        -122.43596149586186,
        37.73158794403947
      ],
      [
        -122.43598296836588,
        37.73157289601161
      ],
      [
        -122.43707938700045,
        37.73161472724758
      ],
      [
        -122.43883136691726,
        37.731670874012714
      ],
      [
        -122.43975385902039,
        37.73166849542626
      ],
      [
        -122.44137610452083,
        37.73171413980131
      ],
      [
        -122.44214827386129,
        37.73166863275831
      ],
      [
        -122.44460339191077,
        37.73161167508889
      ],
      [
        -122.44643566945811,
        37.73166939986733
      ],
      [
        -122.44788671787974,
        37.73176453874728
      ],
      [
        -122.4486725371292,
        37.73164912823598
      ],
      [
        -122.44882785028793,
        37.73164542223352
      ],
      [
        -122.45062810182408,
        37.731709450204114
      ],
      [
        -122.45165833651575,
        37.73167806440988
      ],
      [
        -122.4532398244775,
        37.73168323051252
      ],
      [
        -122.45443069165495,
        37.73171518546534
      ],
      [
        -122.45659761795984,
        37.73133092242546
      ],
      [
        -122.45756857641601,
        37.731321957827454
      ],
      [
        -122.45840517629577,
        37.732608072936095
      ],
      [
        -122.45901339846851,
        37.73366949743802
      ],
      [
        -122.4601805115918,
        37.734979431190155
      ],
      [
        -122.46125842373549,
        37.73587963769786
      ]
    ]
  },
  "properties": {}
}