{
  "type": "Feature",
  "geometry": {
    "type": "LineString",
    "coordinates": [
      [
        -121.73887983434119,
        38.56056949006538
      ],
      [
        -121.73819027941062,
        38.56057092897634
      ],
      [
        -121.73500187884325,
        38.561138760002464
      ],
      [
        -121.73204302449578,
        38.56227127243765
      ],
      [
        -121.72878505569071,
        38.562505807888456
      ],
      [
        -121.72500348144274,
        38.562761936230324
      ],
      [
        -121.72087952569423,
        38.563123312807086
      ],
      [
        -121.71809989859723,
        38.56336773112038
      ],
      [
        -121.71632111120378,
        38.563520857233584
      ],
      [
        -121.71309655232227,
        38.56381052615755
      ],
      [
        -121.70947939951444,
        38.564147910074794
      ],
      [
        -121.70583943808367,
        38.5644433400693
      ],
      [
        -121.70242098219086,
        38.56473277128671
      ],
      [
        -121.6986941938048,
        38.56496630651274
      ],
      [
        -121.69554488319123,
        38.563751579401504
      ],
      [
        -121.69415456624213,
        38.56114962511425
      ],
      [
        -121.69414758727201,
        38.55910740346499
      ],
      [
        -121.69415554722923,
        38.55728985857531
      ],
      [
        -121.6941773147524,
        38.55672462381288
      ],
      [
        -121.6941773147524,
        38.55672462381288
      ],
      [
        -121.69421042243016,
        38.556680826244126
      ],
      [
        -121.69435543939704,
        38.5546631565581
      ],
      [
        -121.69449181752516,
        38.55222644720472
      ],
      [
        -121.69448994578939,
        38.55061559357038
      ],
      [
        -121.6944765486956,
        38.55061735961451
      ],
      [
        -121.6944640596599,
        38.55060604404523
      ],
      [
        -121.6944640596599,
        38.55060604404523
      ],
      [
        -121.69414787940572,
        38.550519957838986
      ],
      [
        -121.69329589717134,
        38.551158628847276
      ],
      [
        -121.69384678732584,
        38.55162789221086
      ],
      [
        -121.6938355007411,
        38.55162553492799
      ],
      [
        -121.6938355007411,
        38.55162553492799
      ],
      [
        -121.6938355007411,
        38.55162553492799
      ],
      [
        -121.6938355007411,
        38.55162553492799
      ],
      [
        -121.6938355007411,
        38.55162553492799
      ],
      [
        -121.6938355007411,
        38.55162553492799
      ],
      [
        -121.6938355007411,
        38.55162553492799
      ],
      [
        -121.6938355007411,
        38.55162553492799
      ],
      [
        -121.6938355007411,
        38.55162553492799
      ],
      [
        -121.6938355007411,
        38.55162553492799
      ]
    ]
  },
  "properties": {}
}