{
  "type": "Feature",
  "geometry": {
    "type": "LineString",
    "coordinates": [
      [
        -122.40623055896292,
        37.76583928052676
      ],
      [
        -122.40626049168586,
        37.76582500681032
      ],
      [
        -122.40628186293459,
        37.76583537267267
      ],
      [
        -122.40721647358004,
        37.76583340462981
      ],
      [
        -122.40733363518915,
        37.765823666226794
      ],
      [
        -122.40732652176858,
        37.76582974967777
      ],
      [
        -122.40732517539664,
        37.76582584820112
      ],
      [
        -122.40745189645529,
        37.765819301720406
      ],
      [
        -122.4080139718188,
        37.76582233472412
      ],
      [
        -122.40803442174239,
        37.76579523579739
      ],
      [
        -122.40803812323001,
        37.76579787900638
      ],
      [
        -122.40803742689705,
        37.765796651796826
      ],
      [
        -122.40803680178759,
        37.76579658178759
      ],
      [
        -122.40803594506419,
        37.76563822503362
      ],
      [
        -122.40796295121484,
        37.76567102429493
      ],
      [
        -122.407958939239,
        37.765631491475
      ],
      [
        -122.40795984207524,
        37.76563321792475
      ],
      [
        -122.40795825703385,
        37.76563185889842
      ],
      [
        -122.40795793803987,
        37.765631521960124
      ],
      [
        -122.39685576836148,
        37.7638318134942
      ],
      [
        -122.39596229801175,
        37.76390387718548
      ],
      [
        -122.3950654273367,
        37.76393605566831
      ],
      [
        -122.39427008503142,
        37.763984789926766
      ],
      [
        -122.3933246533489,
        37.76400337418741
      ],
      [
        -122.3929693922854,
        37.762168941510964
      ],
      [
        -122.39243633632793,
        37.75808224287052
      ],
      [
        -122.39175617613691,
        37.75368543875712
      ],
      [
        -122.39274554447542,
        37.749113110062865
      ],
      [
        -122.39487327584139,
        37.745215786846956
      ],
      [
        -122.3979133776029,
        37.741860114974806
      ],
      [
        -122.40108817368254,
        37.73835649633259
      ],
      [
        -122.40468541725087,
        37.735354427553595
      ],
      [
        -122.40442310051016,
        37.73190084153187
      ],
      [
        -122.40298482401224,
        37.728128804865854
      ],
      [
        -122.40135552819211,
        37.72377174801847
      ],
      [
        -122.3999926478463,
        37.71986840233011
      ],
      [
        -122.39869162729396,
        37.715670313330726
      ],
      [
        -122.39606370111683,
        37.71183105799732
      ],
      [
        -122.39498104508898,
        37.707975986414176
      ],
      [
        -122.39395707138661,
        37.70353430781099
      ],
      [
        -122.39289203033817,
        37.698835248461464
      ],
      [
        -122.3919615418178,
        37.69380984065602
      ],
      [
        -122.39073668523446,
        37.68869440587306
      ],
      [
        -122.38967490220514,
        37.68430319214659
      ],
      [
        -122.38872223254549,
        37.68031152297077
      ],
      [
        -122.38890721117623,
        37.67590435324703
      ],
      [
        -122.39132544492901,
        37.67160673175291
      ],
      [
        -122.3952856563946,
        37.66714956302653
      ],
      [
        -122.39984713836581,
        37.663275159502504
      ],
      [
        -122.40365411580031,
        37.660750860929234
      ],
      [
        -122.40595496259388,
        37.65746683563017
      ],
      [
        -122.4071517566959,
        37.653956181924386
      ],
      [
        -122.40691630388233,
        37.64997428594612
      ],
      [
        -122.40659211012446,
        37.64614838261324
      ],
      [
        -122.40633100048126,
        37.642931498369876
      ],
      [
        -122.40568500476346,
        37.63939515450869
      ],
      [
        -122.40417563490728,
        37.6358185694559
      ],
      [
        -122.40339896566921,
        37.6315384777896
      ],
      [
        -122.40259751775322,
        37.626827701103316
      ],
      [
        -122.4009888564901,
        37.62247437218515
      ],
      [
        -122.39997142599036,
        37.618926526628705
      ],
      [
        -122.39854916837417,
        37.61514908865143
      ],
      [
        -122.39625420387313,
        37.61348800240338
      ],
      [
        -122.39309042504235,
        37.61407258284183
      ],
      [
        -122.39121331288108,
        37.614566354102884
      ],
      [
        -122.39133609915132,
        37.614655104797
      ],
      [
        -122.39145888542156,
        37.61474385549113
      ],
      [
        -122.39158167169178,
        37.614832606185246
      ],
      [
        -122.39170445796202,
        37.614921356879364
      ],
      [
        -122.39182724423225,
        37.61501010757349
      ],
      [
        -122.39195003050249,
        37.61509885826761
      ],
      [
        -122.39207281677272,
        37.615187608961726
      ],
      [
        -122.39219560304295,
        37.61527635965585
      ],
      [
        -122.39329952038958,
        37.61513848350524
      ],
      [
        -122.39620095442842,
        37.614816753833836
      ],
      [
        -122.39804034140431,
        37.616910273289875
      ],
      [
        -122.39948944709096,
        37.62078002639467
      ],
      [
        -122.4006442260461,
        37.624366732955416
      ],
      [
        -122.40169641317624,
        37.6277058789241
      ],
      [
        -122.402080248866,
        37.630996207982456
      ],
      [
        -122.40277170431035,
        37.63484294895009
      ],
      [
        -122.40431118587851,
        37.637718921777456
      ],
      [
        -122.40582966035176,
        37.64134736817226
      ],
      [
        -122.406311102514,
        37.64580108838184
      ],
      [
        -122.40667112864122,
        37.65018886627899
      ],
      [
        -122.40688538728196,
        37.65430716542704
      ],
      [
        -122.4053720165595,
        37.65836514790818
      ],
      [
        -122.4023600576071,
        37.66166320313845
      ],
      [
        -122.39818220112345,
        37.664292866344795
      ],
      [
        -122.39485133807351,
        37.667542186554385
      ],
      [
        -122.39180507527352,
        37.67081363736393
      ],
      [
        -122.38930769784501,
        37.6745486454501
      ],
      [
        -122.38827649697556,
        37.67876351100692
      ],
      [
        -122.38914736396363,
        37.68292613506141
      ],
      [
        -122.39010266233404,
        37.687236965181306
      ],
      [
        -122.3910894851655,
        37.69146510974536
      ],
      [
        -122.3919793882499,
        37.69555637456825
      ],
      [
        -122.39292676824599,
        37.69961857913328
      ],
      [
        -122.39388788080177,
        37.70386952981585
      ],
      [
        -122.39486835559548,
        37.70809437984873
      ],
      [
        -122.39604396393887,
        37.712497750323394
      ],
      [
        -122.3985831316435,
        37.716096413673604
      ],
      [
        -122.39958449215244,
        37.71961340289953
      ],
      [
        -122.40076736867891,
        37.72296088634578
      ],
      [
        -122.40187544705915,
        37.72619919325513
      ],
      [
        -122.40350162493984,
        37.729750167877164
      ],
      [
        -122.40571464859434,
        37.73379255431718
      ],
      [
        -122.40694493587296,
        37.736264097996305
      ],
      [
        -122.40725732362439,
        37.73767818930335
      ],
      [
        -122.4072852263855,
        37.73769738284325
      ],
      [
        -122.40728229058169,
        37.73769113117451
      ],
      [
        -122.40693772225863,
        37.73793301311578
      ],
      [
        -122.40571375226786,
        37.738346957502436
      ],
      [
        -121.75866129658944,
        38.55283134826804
      ],
      [
        -121.75866343813112,
        38.55120294099047
      ],
      [
        -121.758659044394,
        38.55098926465823
      ],
      [
        -121.7586597149463,
        38.550995257719
      ],
      [
        -121.75760395833125,
        38.55076557493203
      ],
      [
        -121.69406233163224,
        38.560746580146976
      ],
      [
        -121.69531291163823,
        38.5636258669137
      ],
      [
        -121.69813900417999,
        38.564966687627916
      ],
      [
        -121.70136609997746,
        38.564947566853725
      ],
      [
        -121.70445026200053,
        38.56467322051449
      ],
      [
        -121.70735554660058,
        38.56440739455138
      ],
      [
        -121.71048291766685,
        38.56413562898439
      ],
      [
        -121.7137804877634,
        38.563869638583945
      ],
      [
        -121.71699164405476,
        38.56357494970662
      ],
      [
        -121.7174495012702,
        38.56351803060487
      ],
      [
        -121.7178896728954,
        38.563482973009506
      ],
      [
        -121.72051481974525,
        38.56325727470113
      ],
      [
        -121.72387893189764,
        38.563027727105414
      ],
      [
        -121.72682525802516,
        38.562673256994145
      ],
      [
        -121.72957608020977,
        38.562604648171686
      ],
      [
        -121.73084076662822,
        38.56251378422654
      ],
      [
        -121.73083930854136,
        38.562513865880064
      ],
      [
        -121.73241952830557,
        38.56226031453993
      ],
      [
        -121.73531298601327,
        38.5611305259665
      ],
      [
        -121.7377875363945,
        38.56067761189774
      ],
      [
        -121.73952837251541,
        38.56067242809497
      ],
      [
        -121.7423500904215,
        38.56073215854605
      ],
      [
        -121.74421246850711,
        38.56080396931564
      ],
      [
        -121.74445473737738,
        38.56081092808634
      ],
      [
        -121.74645264710719,
        38.56081954453759
      ],
      [
        -121.74886531975535,
        38.56085338218238
      ],
      [
        -121.75060530953985,
        38.56086882841729
      ],
      [
        -121.75194320918247,
        38.56087112048861
      ],
      [
        -121.75232867551264,
        38.560870965032876
      ],
      [
        -121.75441627673672,
        38.560900893029654
      ],
      [
        -121.75683558811212,
        38.5609063391439
      ],
      [
        -122.49152130676613,
        37.68966703465996
      ],
      [
        -122.49160648951155,
        37.689766017028376
      ],
      [
        -122.49243149005103,
        37.690496683550165
      ],
      [
        -122.49254160288511,
        37.690562198858025
      ],
      [
        -122.49248410901588,
        37.69051885871133
      ],
      [
        -122.4924341056922,
        37.69018187403155
      ],
      [
        -122.49035564749884,
        37.68791198954828
      ],
      [
        -122.48917672173185,
        37.68498908611535
      ],
      [
        -122.48925492205306,
        37.6838174111455
      ],
      [
        -122.48924726253529,
        37.68395531021556
      ],
      [
        -122.48925333934253,
        37.68388413402692
      ],
      [
        -122.48928368280716,
        37.68376615216733
      ],
      [
        -122.48970560685817,
        37.68203607527427
      ],
      [
        -122.49023357033434,
        37.67932212593967
      ],
      [
        -122.48998221376573,
        37.67597826782027
      ],
      [
        -122.48838288225969,
        37.67293062066753
      ],
      [
        -122.4866402574559,
        37.66991062989504
      ],
      [
        -122.48426010293927,
        37.66761171028588
      ],
      [
        -122.48465933975731,
        37.66788034946273
      ],
      [
        -122.48249662992345,
        37.6701311948725
      ],
      [
        -122.47750636722184,
        37.67075113681977
      ],
      [
        -122.47382954863822,
        37.67373754095786
      ],
      [
        -122.47194843525483,
        37.67611405306754
      ],
      [
        -122.46948993685798,
        37.67474711541713
      ],
      [
        -122.46794894062067,
        37.672913093307095
      ],
      [
        -122.4663161359538,
        37.6703039287016
      ],
      [
        -122.4658440787581,
        37.66651080555851
      ],
      [
        -122.46576989759812,
        37.66302718030033
      ],
      [
        -122.46435082507556,
        37.66003081534634
      ],
      [
        -122.46171452381806,
        37.65786039601599
      ],
      [
        -122.45867879748609,
        37.6555126605026
      ],
      [
        -122.45554755597179,
        37.65307407946826
      ],
      [
        -122.4527887991208,
        37.65013800314812
      ],
      [
        -122.45038516963375,
        37.64635746748283
      ],
      [
        -122.44688326150538,
        37.64340490708809
      ],
      [
        -122.44315652514577,
        37.64071278628866
      ],
      [
        -122.43994698017764,
        37.63725646163899
      ],
      [
        -122.43760543271686,
        37.632906133481455
      ],
      [
        -122.43355835109524,
        37.62944334978894
      ],
      [
        -122.42967193389241,
        37.625989410369094
      ],
      [
        -122.42679027596476,
        37.6218284142647
      ],
      [
        -122.42441089089627,
        37.61747647943874
      ],
      [
        -122.42537212702354,
        37.613199862852916
      ],
      [
        -122.42779077069109,
        37.60924848925742
      ],
      [
        -122.42811844194826,
        37.604893752267145
      ],
      [
        -122.42548004649768,
        37.60095208964158
      ],
      [
        -122.42153020426912,
        37.59776582979328
      ],
      [
        -122.41779171113248,
        37.5945319450125
      ],
      [
        -122.41437062584964,
        37.59114717045594
      ],
      [
        -122.41092666159014,
        37.587547246263014
      ],
      [
        -122.40691184908931,
        37.58422535176971
      ],
      [
        -122.4038806935635,
        37.58008409345731
      ],
      [
        -122.40138858994769,
        37.5759252792786
      ],
      [
        -122.39841569925692,
        37.572031487554234
      ],
      [
        -122.39468729573049,
        37.5684437227167
      ],
      [
        -122.39018008310197,
        37.56615579112438
      ],
      [
        -122.38616758626951,
        37.56339420898001
      ],
      [
        -122.38258402428264,
        37.55973267140957
      ],
      [
        -122.3797367059301,
        37.55589217326095
      ],
      [
        -122.37704737100076,
        37.55209556639722
      ],
      [
        -122.37367650537692,
        37.54849801314921
      ],
      [
        -122.37019654591386,
        37.54491932258915
      ],
      [
        -122.36680853878434,
        37.54111777208867
      ],
      [
        -122.36403418868548,
        37.536962825251116
      ],
      [
        -122.36151625318152,
        37.5327884620115
      ],
      [
        -122.35977263550942,
        37.528465312598236
      ],
      [
        -122.35715388376858,
        37.52452798914673
      ],
      [
        -122.35474605645882,
        37.52056505991693
      ],
      [
        -122.35175111198309,
        37.51698644637621
      ],
      [
        -122.34789459507189,
        37.51340836992394
      ],
      [
        -122.34390695493455,
        37.510143117279455
      ],
      [
        -122.33942814330777,
        37.507377390852604
      ],
      [
        -122.33471540401693,
        37.504496633938246
      ],
      [
        -122.33008384847072,
        37.50151871590701
      ],
      [
        -122.32442314682113,
        37.500429062084386
      ],
      [
        -122.31864949655417,
        37.49966540871086
      ],
      [
        -122.3136224068415,
        37.49719391521687
      ],
      [
        -122.30831214743286,
        37.495279487488034
      ],
      [
        -122.30294931384284,
        37.49354991567101
      ],
      [
        -122.29931018451794,
        37.48988170618455
      ],
      [
        -122.29859837952375,
        37.485435327624906
      ],
      [
        -122.29939273553444,
        37.48069141964653
      ],
      [
        -122.29899151502926,
        37.47607020699794
      ],
      [
        -122.29589140418038,
        37.47222293560148
      ],
      [
        -122.2923627783098,
        37.46850082599634
      ],
      [
        -122.29085835980048,
        37.463976471711895
      ],
      [
        -122.29015588732535,
        37.459294172067295
      ],
      [
        -122.28677825396328,
        37.455600462594475
      ],
      [
        -122.2823722486285,
        37.45266867936053
      ],
      [
        -122.27774848829249,
        37.44967462860305
      ],
      [
        -122.27335917189231,
        37.44659585452888
      ],
      [
        -122.26856529207782,
        37.44414384199316
      ],
      [
        -122.2626983172274,
        37.44371131778629
      ],
      [
        -122.25682034870262,
        37.44401076993091
      ],
      [
        -122.25166838673763,
        37.44202764756484
      ],
      [
        -122.24736212192994,
        37.43882280118338
      ],
      [
        -122.2432578737586,
        37.43542511131997
      ],
      [
        -122.23928918121393,
        37.43206518277955
      ],
      [
        -122.23511156053968,
        37.42886353878827
      ],
      [
        -122.23073986699349,
        37.425662305910926
      ],
      [
        -122.22650576251408,
        37.42262354292198
      ],
      [
        -122.2221748129041,
        37.41976047586327
      ],
      [
        -122.21670150176746,
        37.41853420474306
      ],
      [
        -122.21169724882698,
        37.41664100122757
      ],
      [
        -122.20806271725947,
        37.41346510461442
      ],
      [
        -122.20285840405798,
        37.411512020389836
      ],
      [
        -122.19630101997049,
        37.40957317901435
      ],
      [
        -122.19105071760427,
        37.40759730033376
      ],
      [
        -122.18744543040447,
        37.4045130307257
      ],
      [
        -122.18420174637619,
        37.40117037201704
      ],
      [
        -122.18065304197177,
        37.397666279936765
      ],
      [
        -122.17690130157554,
        37.394126994850815
      ],
      [
        -122.17197856373974,
        37.39210800503158
      ],
      [
        -122.16708700199015,
        37.391371666211384
      ],
      [
        -122.1648969299193,
        37.389631494117964
      ],
      [
        -122.16417131712038,
        37.388362988598466
      ],
      [
        -122.1637639832728,
        37.38829675714648
      ],
      [
        -122.16325692029403,
        37.39048198206873
      ],
      [
        -122.16209955303646,
        37.393418707661404
      ],
      [
        -122.16034574909163,
        37.395988380798855
      ],
      [
        -122.15770732947665,
        37.397259621966796
      ],
      [
        -122.15498704548973,
        37.39670923383011
      ],
      [
        -122.15132784672069,
        37.39603450792108
      ],
      [
        -122.14900253773868,
        37.39435170519769
      ],
      [
        -122.14803979162183,
        37.392803351148956
      ],
      [
        -122.14596937149324,
        37.39345977162704
      ],
      [
        -122.14331944057874,
        37.39446330279777
      ],
      [
        -122.1414604815528,
        37.39543784773132
      ],
      [
        -122.13864985637476,
        37.396862041114304
      ],
      [
        -122.13615936225462,
        37.398113311386275
      ],
      [
        -122.13475953541676,
        37.39869815185177
      ],
      [
        -122.13283434559666,
        37.399472875163646
      ],
      [
        -122.12993807541721,
        37.400748038994294
      ],
      [
        -122.12827873209275,
        37.40316529955161
      ],
      [
        -121.7611633492562,
        38.56210388272733
      ],
      [
        -121.7611634623823,
        38.56210360795803
      ],
      [
        -121.7611638616334,
        38.56210417953331
      ],
      [
        -121.76116560124935,
        38.56210477499736
      ],
      [
        -121.76116566654783,
        38.56210512091304
      ],
      [
        -121.76117880032064,
        38.56209314541522
      ],
      [
        -121.76216369944461,
        38.56213537151758
      ],
      [
        -121.76371131563371,
        38.561799860087014
      ],
      [
        -121.7639699532488,
        38.5610763498816
      ],
      [
        -121.76550980850583,
        38.560915766719916
      ],
      [
        -121.76758910858922,
        38.560931426450935
      ],
      [
        -121.76878885218608,
        38.560926761854155
      ],
      [
        -121.7684713984299,
        38.55940619476292
      ],
      [
        -121.76812150453839,
        38.55650349163977
      ],
      [
        -121.76806779424265,
        38.55308582623469
      ],
      [
        -121.76809483608018,
        38.54907710743056
      ],
      [
        -121.76830270597371,
        38.54492599835836
      ],
      [
        -121.76850719499647,
        38.540982589174064
      ],
      [
        -121.76862575630209,
        38.53707061064847
      ],
      [
        -121.76871940230868,
        38.5334176309106
      ],
      [
        -121.7688117812847,
        38.5299049149711
      ],
      [
        -121.76894533008266,
        38.52635290156719
      ],
      [
        -121.7691641843195,
        38.522883081869274
      ],
      [
        -121.77096098405765,
        38.5196220511125
      ],
      [
        -121.773710565132,
        38.516914820780656
      ],
      [
        -121.77684636843287,
        38.51395825165004
      ],
      [
        -121.78009364194091,
        38.51090184804319
      ],
      [
        -121.78191272038384,
        38.509211874827535
      ],
      [
        -121.78368342213903,
        38.50754130022205
      ],
      [
        -121.78496033690787,
        38.50635659928613
      ],
      [
        -121.78623403669656,
        38.50516301793367
      ],
      [
        -121.78687871609293,
        38.50457193002483
      ],
      [
        -121.78761894224425,
        38.503868666052604
      ],
      [
        -121.78812046326195,
        38.50339622454754
      ],
      [
        -121.78892683986234,
        38.50264596023562
      ],
      [
        -121.78969955737895,
        38.50194255609422
      ],
      [
        -121.7903005989035,
        38.501398373033574
      ],
      [
        -121.79081656756567,
        38.5008813070778
      ],
      [
        -121.79124689600873,
        38.50049605679201
      ],
      [
        -121.79171962534244,
        38.50005545267209
      ],
      [
        -121.79250429130619,
        38.499326880281046
      ],
      [
        -121.79299486829342,
        38.49880250901172
      ],
      [
        -121.79380570941846,
        38.49803569159144
      ],
      [
        -121.79510188081268,
        38.49679708730425
      ],
      [
        -121.79667556649902,
        38.49531345752015
      ],
      [
        -121.79854032485878,
        38.493550984947355
      ],
      [
        -121.8004027618325,
        38.49182893781964
      ],
      [
        -121.80218536263638,
        38.4902462226965
      ],
      [
        -121.80451910824378,
        38.48838561018567
      ],
      [
        -121.80702897353224,
        38.4863791685896
      ],
      [
        -121.80962149171413,
        38.48433849494727
      ],
      [
        -121.81142479209345,
        38.48292165975989
      ],
      [
        -121.81360851011732,
        38.48118787886078
      ],
      [
        -121.81613892289691,
        38.47922157478436
      ],
      [
        -121.81861216356212,
        38.47726942811983
      ],
      [
        -121.82185504124901,
        38.47472158395125
      ],
      [
        -121.824824456881,
        38.47240049166575
      ],
      [
        -121.82688872216444,
        38.47079343683178
      ],
      [
        -121.8288340439788,
        38.46927903031232
      ],
      [
        -121.83117128502238,
        38.46746090041123
      ],
      [
        -121.8341905261277,
        38.46512644404913
      ],
      [
        -121.837621419831,
        38.462477069543176
      ],
      [
        -121.84120229840282,
        38.45967537374828
      ],
      [
        -121.84443378926784,
        38.45714744449071
      ],
      [
        -121.8468701223199,
        38.4552016043103
      ],
      [
        -121.84828261958314,
        38.45409628667823
      ],
      [
        -121.8485792445261,
        38.45388211185242
      ],
      [
        -121.85018537501551,
        38.45263975511827
      ],
      [
        -121.85271851966881,
        38.45065860849349
      ],
      [
        -121.85507364891613,
        38.44881485577671
      ],
      [
        -121.85739821052887,
        38.447011655385836
      ],
      [
        -121.85869176622235,
        38.44600561627246
      ],
      [
        -121.85897918840914,
        38.4458086008029
      ],
      [
        -121.85932828041643,
        38.44553168562628
      ],
      [
        -121.85996359611619,
        38.44501552811877
      ],
      [
        -121.86080049143996,
        38.44436551324829
      ],
      [
        -121.86189061336502,
        38.44350423474367
      ],
      [
        -121.86379917086091,
        38.44200997664449
      ],
      [
        -121.86645851090009,
        38.439942165882684
      ],
      [
        -121.86956870275309,
        38.43757771520756
      ],
      [
        -121.87250594593168,
        38.43534602207018
      ],
      [
        -121.8744894171204,
        38.4338541056798
      ],
      [
        -121.87605955987569,
        38.43264901060653
      ],
      [
        -121.87803507165052,
        38.431135089176955
      ],
      [
        -121.87977651825098,
        38.42981693396847
      ],
      [
        -121.88133341962197,
        38.42862198561183
      ],
      [
        -121.88263751394193,
        38.427645324109356
      ],
      [
        -121.883348597041,
        38.427098180252905
      ],
      [
        -121.8843566925577,
        38.426315287539445
      ],
      [
        -121.88588699937644,
        38.42514503291495
      ],
      [
        -121.88820735073833,
        38.423393866420795
      ],
      [
        -121.89118076648239,
        38.42112807645434
      ],
      [
        -121.89470271835884,
        38.41844754664997
      ],
      [
        -121.8985117810532,
        38.41556064762644
      ],
      [
        -121.90202062587417,
        38.41289443140463
      ],
      [
        -121.9054892180353,
        38.410233879721645
      ],
      [
        -121.90916073723976,
        38.4074466748107
      ],
      [
        -121.91329611933719,
        38.404316822633106
      ],
      [
        -121.91743522950505,
        38.401143160139554
      ],
      [
        -121.92151847419541,
        38.39793690624044
      ],
      [
        -121.92561226913634,
        38.39474396282827
      ],
      [
        -121.92971509193225,
        38.39154203880415
      ],
      [
        -121.93380654011494,
        38.388354151892976
      ],
      [
        -121.93791464291546,
        38.38515724686833
      ],
      [
        -121.94212890816954,
        38.38223848393515
      ],
      [
        -121.94615757437705,
        38.3792067912129
      ],
      [
        -121.95015506423766,
        38.37614689591157
      ],
      [
        -121.95399863319409,
        38.373029093439136
      ],
      [
        -121.9576550656102,
        38.36985704728904
      ],
      [
        -121.9614842415288,
        38.36691743315614
      ],
      [
        -121.96532914491631,
        38.364109463444606
      ],
      [
        -121.96953249965092,
        38.36154277703929
      ],
      [
        -121.97371397117217,
        38.3589589025549
      ],
      [
        -121.97695400665982,
        38.3560397281357
      ],
      [
        -121.98016738597296,
        38.35330249834899
      ],
      [
        -121.98293621787276,
        38.35204279112931
      ],
      [
        -121.98573755495389,
        38.35094491150688
      ],
      [
        -121.98950885830611,
        38.34949255690181
      ],
      [
        -121.99360852484125,
        38.3478775671094
      ],
      [
        -121.99599759774269,
        38.34694717022347
      ],
      [
        -121.99790779640912,
        38.34619735261716
      ],
      [
        -122.0009485425214,
        38.3450360963186
      ],
      [
        -122.00469844086355,
        38.34362880539357
      ],
      [
        -122.00875280438257,
        38.3424509484696
      ],
      [
        -122.01272542954607,
        38.34074555009025
      ],
      [
        -122.01592472966199,
        38.33796528274355
      ],
      [
        -122.01829083033935,
        38.334357811542915
      ],
      [
        -122.02069774544184,
        38.3305862652838
      ],
      [
        -122.02306699355131,
        38.32686008392705
      ],
      [
        -122.02552381590085,
        38.32315934790761
      ],
      [
        -122.02858935005474,
        38.31966071540603
      ],
      [
        -122.03169426534623,
        38.31608040754438
      ],
      [
        -122.03322498380746,
        38.31180139609354
      ],
      [
        -122.03387911708815,
        38.3075771777723
      ],
      [
        -122.03400284970195,
        38.303534997097316
      ],
      [
        -122.03406311185364,
        38.299213172649225
      ],
      [
        -122.0341996558159,
        38.294790082232105
      ],
      [
        -122.03530957733233,
        38.29062878217991
      ],
      [
        -122.03817440246128,
        38.28719936738114
      ],
      [
        -122.04108246426914,
        38.283800048876216
      ],
      [
        -122.04411993588045,
        38.28019485940582
      ],
      [
        -122.04716751618903,
        38.276595205724384
      ],
      [
        -122.05002343636797,
        38.27324056951662
      ],
      [
        -122.05293252532188,
        38.26980345069438
      ],
      [
        -122.05607539338905,
        38.266092256025914
      ],
      [
        -122.05892853199191,
        38.26272440158804
      ],
      [
        -122.06171278056642,
        38.25944523075074
      ],
      [
        -122.06439357541232,
        38.256282646664275
      ],
      [
        -122.06696114001289,
        38.253243552166616
      ],
      [
        -122.06946646612855,
        38.25026049769465
      ],
      [
        -122.07323378972309,
        38.247834668656
      ],
      [
        -122.0778588314412,
        38.24638170986519
      ],
      [
        -122.08215294849529,
        38.24450086523701
      ],
      [
        -122.0864614711563,
        38.242617408812634
      ],
      [
        -122.09119320804058,
        38.24055170453472
      ],
      [
        -122.09566764967039,
        38.23859856404913
      ],
      [
        -122.10022779947393,
        38.23662658770422
      ],
      [
        -122.10465068595511,
        38.234704572974465
      ],
      [
        -122.10900165262889,
        38.23279392526464
      ],
      [
        -122.11356968793218,
        38.23080574705611
      ],
      [
        -122.11815989481684,
        38.22881972883634
      ],
      [
        -122.12265840815863,
        38.22666600594522
      ],
      [
        -122.12688187487325,
        38.22427169146693
      ],
      [
        -122.13090782510496,
        38.221643512936964
      ],
      [
        -122.1348323782784,
        38.21890696629632
      ],
      [
        -122.13864081431001,
        38.21641554488523
      ],
      [
        -122.14269240017506,
        38.21377528107355
      ],
      [
        -122.14637042274302,
        38.211197742755026
      ],
      [
        -122.1500791640806,
        38.20835866311369
      ],
      [
        -122.15356179128763,
        38.2053546758985
      ],
      [
        -122.15689987849262,
        38.202474381155696
      ],
      [
        -122.16006559963705,
        38.19970252081578
      ],
      [
        -122.16360000736412,
        38.196616033901215
      ],
      [
        -122.16680950969605,
        38.193256992823954
      ],
      [
        -122.17002846492072,
        38.19004878030296
      ],
      [
        -122.17457534849342,
        38.187563323691535
      ],
      [
        -122.17936853234787,
        38.18608137733224
      ],
      [
        -122.18359278256888,
        38.183382499793154
      ],
      [
        -122.18724069085707,
        38.1805123450229
      ],
      [
        -122.19094269497973,
        38.17759067064192
      ],
      [
        -122.19380824074071,
        38.174147625163435
      ],
      [
        -122.19753996394783,
        38.171410099075395
      ],
      [
        -122.2013630561242,
        38.16871699412351
      ],
      [
        -122.20532620613108,
        38.16590785661025
      ],
      [
        -122.20931989693833,
        38.16280543703588
      ],
      [
        -122.21217095972702,
        38.1588912020235
      ],
      [
        -122.21491210992069,
        38.155023951119425
      ],
      [
        -122.2168728660094,
        38.15075126438847
      ],
      [
        -122.21686274247524,
        38.14621169783001
      ],
      [
        -122.21843098155442,
        38.141865561307675
      ],
      [
        -122.22104347500841,
        38.137809833688415
      ],
      [
        -122.22362286384161,
        38.13375830994242
      ],
      [
        -122.22577105821148,
        38.1303861641982
      ],
      [
        -122.22771174482602,
        38.12733656941419
      ],
      [
        -122.2297114943865,
        38.12403785969042
      ],
      [
        -122.23051225806226,
        38.120419505406325
      ],
      [
        -122.23021884079735,
        38.11649926596557
      ],
      [
        -122.22988667297189,
        38.11242831072214
      ],
      [
        -122.22976010311784,
        38.108364100741255
      ],
      [
        -122.22980250715592,
        38.104159186232266
      ],
      [
        -122.22987892152622,
        38.099993392081004
      ],
      [
        -122.2299146686248,
        38.09622262601629
      ],
      [
        -122.23027910014567,
        38.09263577336173
      ],
      [
        -122.23158122782979,
        38.088928856426435
      ],
      [
        -122.23305233400579,
        38.08519411265349
      ],
      [
        -122.23345698487631,
        38.08139431961658
      ],
      [
        -122.23268470548602,
        38.0777656693399
      ],
      [
        -122.23076337269583,
        38.07448822990897
      ],
      [
        -122.22845340601972,
        38.07128632730333
      ],
      [
        -122.22697785009046,
        38.06797053139585
      ],
      [
        -122.22662542197298,
        38.064343232758794
      ],
      [
        -122.22635729042116,
        38.06050333477417
      ],
      [
        -122.22608820045926,
        38.056489125665635
      ],
      [
        -122.22770255975853,
        38.052999436480825
      ],
      [
        -122.23114898926087,
        38.05037499934376
      ],
      [
        -122.23455348254849,
        38.04785642822427
      ],
      [
        -122.23813086323084,
        38.04535162095114
      ],
      [
        -122.24207314931293,
        38.04258163239794
      ],
      [
        -122.24604139787098,
        38.039754694287986
      ],
      [
        -122.24952739919254,
        38.03658506955598
      ],
      [
        -122.2527098452542,
        38.033171302423625
      ],
      [
        -122.25590625482012,
        38.029723741030274
      ],
      [
        -122.25903528734582,
        38.02630498804009
      ],
      [
        -122.26222777153578,
        38.02288465236276
      ],
      [
        -122.26538938929349,
        38.0195045895149
      ],
      [
        -122.26856111531099,
        38.01608193689247
      ],
      [
        -122.27176601031796,
        38.01266136294697
      ],
      [
        -122.27495173174256,
        38.00925754574583
      ],
      [
        -122.2780087880481,
        38.00597718648723
      ],
      [
        -122.28088245369983,
        38.00291417068271
      ],
      [
        -122.2834915552768,
        38.000049488893474
      ],
      [
        -122.28630188436274,
        37.99717831473817
      ],
      [
        -122.2901865583124,
        37.995216382745745
      ],
      [
        -122.29465007470465,
        37.99448935248178
      ],
      [
        -122.29917462091348,
        37.99386961050053
      ],
      [
        -122.30401761317837,
        37.99319705924096
      ],
      [
        -122.30876076392026,
        37.99168481980073
      ],
      [
        -122.3128170072915,
        37.98907726471155
      ],
      [
        -122.31557748826084,
        37.98556684148902
      ],
      [
        -122.31679396267884,
        37.98151674846065
      ],
      [
        -122.31810111643385,
        37.97749610852484
      ],
      [
        -122.3194725877071,
        37.97342200029612
      ],
      [
        -122.32083739985511,
        37.96935113120522
      ],
      [
        -122.3233204089667,
        37.965751108416725
      ],
      [
        -122.32768288955161,
        37.96344392456671
      ],
      [
        -122.33058267515544,
        37.9601193288802
      ],
      [
        -122.33006755557602,
        37.95607788544853
      ],
      [
        -122.32788158751796,
        37.95218990660897
      ],
      [
        -122.32604716231113,
        37.948316045695485
      ],
      [
        -122.32419010704763,
        37.94445386864641
      ],
      [
        -122.32461416963115,
        37.94045927019732
      ],
      [
        -122.3265950402534,
        37.93658605280849
      ],
      [
        -122.32610258021847,
        37.93266316333636
      ],
      [
        -122.32352476256317,
        37.92896713146643
      ],
      [
        -122.3210074531004,
        37.92531711893931
      ],
      [
        -122.31837299454693,
        37.92173296565881
      ],
      [
        -122.31753330785658,
        37.91772867049856
      ],
      [
        -122.31750173181226,
        37.91402732521386
      ],
      [
        -122.31716752773379,
        37.91039259207383
      ],
      [
        -122.31489760648694,
        37.906759585402085
      ],
      [
        -122.31264318407032,
        37.90343369902525
      ],
      [
        -122.31033827458995,
        37.9000451393275
      ],
      [
        -122.30883675580762,
        37.89666184164844
      ],
      [
        -122.30769560105189,
        37.89361158206833
      ],
      [
        -122.30830363101715,
        37.890294650778785
      ],
      [
        -122.30929579768288,
        37.88728699728087
      ],
      [
        -122.30899096496516,
        37.885114856786956
      ],
      [
        -122.3086066429912,
        37.883227435109355
      ],
      [
        -122.30839903429981,
        37.88214042804875
      ],
      [
        -122.30816053045076,
        37.881161938776344
      ],
      [
        -122.30796653706153,
        37.8802836390782
      ],
      [
        -122.30779858366404,
        37.87963815694568
      ],
      [
        -122.30751777021592,
        37.87845675023279
      ],
      [
        -122.30726409942724,
        37.87753875518216
      ],
      [
        -122.3070412734759,
        37.876718302676906
      ],
      [
        -122.30667400896868,
        37.875493051591796
      ],
      [
        -122.30620908628718,
        37.87410590591967
      ],
      [
        -122.30588792321949,
        37.872989258592966
      ],
      [
        -122.30537436245736,
        37.871371432913435
      ],
      [
        -122.30486737269443,
        37.86972241588116
      ],
      [
        -122.30414865637468,
        37.86749751547539
      ],
      [
        -122.3035529609139,
        37.86548271626464
      ],
      [
        -122.30317993711725,
        37.86410837304543
      ],
      [
        -122.30281046509694,
        37.86282867256081
      ],
      [
        -122.30231641559773,
        37.860965465406075
      ],
      [
        -122.3017516779374,
        37.85904277001268
      ],
      [
        -122.30123308741418,
        37.857123993146246
      ],
      [
        -122.30080262682866,
        37.855555391651606
      ],
      [
        -122.30041535569424,
        37.85418633477218
      ],
      [
        -122.30001132044275,
        37.85278831783009
      ],
      [
        -122.2994377409387,
        37.850446245987875
      ],
      [
        -122.29887434608732,
        37.848109547610356
      ],
      [
        -122.29837204154623,
        37.845892605880515
      ],
      [
        -122.29799466047872,
        37.844056965117055
      ],
      [
        -122.29769217429786,
        37.842645029930665
      ],
      [
        -122.29737196544002,
        37.841227721272105
      ],
      [
        -122.29709070994473,
        37.83969526485047
      ],
      [
        -122.29693924965868,
        37.838627695766746
      ],
      [
        -122.29686613240048,
        37.83816002527454
      ],
      [
        -122.29654791187733,
        37.837051635345865
      ],
      [
        -122.29561705731835,
        37.83499815692771
      ],
      [
        -122.29456446208373,
        37.83274086489872
      ],
      [
        -122.29419168174529,
        37.829570133516626
      ],
      [
        -122.29735137410822,
        37.82726614860548
      ],
      [
        -122.30159255592369,
        37.82616894388871
      ],
      [
        -122.30589989287687,
        37.8253051569184
      ],
      [
        -122.30994709265487,
        37.82491818614502
      ],
      [
        -122.31335021970882,
        37.824695364733515
      ],
      [
        -122.31471958467957,
        37.82446997026893
      ],
      [
        -122.31832827530384,
        37.823785729759464
      ],
      [
        -122.32054475844305,
        37.823084427851114
      ],
      [
        -122.32264842677058,
        37.822636938437164
      ],
      [
        -122.32595896885498,
        37.822309466063224
      ],
      [
        -122.32976708566594,
        37.82200761249987
      ],
      [
        -122.33381972569765,
        37.8215183298672
      ],
      [
        -122.33810367016517,
        37.82087946190811
      ],
      [
        -122.34237792835407,
        37.82026336881497
      ],
      [
        -122.34676332678794,
        37.81962520783669
      ],
      [
        -122.35111260611296,
        37.81893418434832
      ],
      [
        -122.35360103958803,
        37.818161481440654
      ],
      [
        -122.35510760439693,
        37.81739786683839
      ],
      [
        -122.35769432103011,
        37.815932196447726
      ],
      [
        -122.36059123412711,
        37.81426231379378
      ],
      [
        -122.3621007166897,
        37.81309665527279
      ],
      [
        -122.36370402904491,
        37.81137278781171
      ],
      [
        -122.36588853742224,
        37.80930901114766
      ],
      [
        -122.36747655116602,
        37.80782430942082
      ],
      [
        -122.3688812576463,
        37.80650674316823
      ],
      [
        -122.37048645808176,
        37.805033218475415
      ],
      [
        -122.3717282451569,
        37.80385763957329
      ],
      [
        -122.37245939052721,
        37.803163329654915
      ],
      [
        -122.37393021415676,
        37.80180549055466
      ],
      [
        -122.37467773994088,
        37.80109872085148
      ],
      [
        -122.37591718056426,
        37.79996164312883
      ],
      [
        -122.37746943730326,
        37.79852607694051
      ],
      [
        -122.37914821003162,
        37.7969374500192
      ],
      [
        -122.38043904003236,
        37.79575840401608
      ],
      [
        -122.38182992488895,
        37.794422949751436
      ],
      [
        -122.38318502757625,
        37.79318022328639
      ],
      [
        -122.38448717303959,
        37.79196087726003
      ],
      [
        -122.38524492961405,
        37.79124670299737
      ],
      [
        -122.38598540535662,
        37.79057975112691
      ],
      [
        -122.38724225757136,
        37.789391821600624
      ],
      [
        -122.38869318857125,
        37.78806175006322
      ],
      [
        -122.38992190378754,
        37.78687611213204
      ],
      [
        -122.39083677582104,
        37.78603164882368
      ],
      [
        -122.39267504270822,
        37.7850239082147
      ],
      [
        -122.3939548356913,
        37.78422701861988
      ],
      [
        -122.39518352759296,
        37.783273911020075
      ],
      [
        -122.39644289656592,
        37.782309082993336
      ],
      [
        -122.39767499248566,
        37.78140276991451
      ],
      [
        -122.39875981317468,
        37.78055764055223
      ],
      [
        -122.39971246048609,
        37.77981435330231
      ],
      [
        -122.40096387268893,
        37.778846545433076
      ],
      [
        -122.40239319950811,
        37.77775625828229
      ],
      [
        -122.4044675844496,
        37.77644602852742
      ],
      [
        -122.40661793077051,
        37.774476913180365
      ],
      [
        -122.40645774045582,
        37.771773573536386
      ],
      [
        -122.40554873738628,
        37.768831561656214
      ],
      [
        -122.40530058326665,
        37.766116318305315
      ],
      [
        -122.40516549849418,
        37.76400973718485
      ],
      [
        -122.40620521563542,
        37.761633807001544
      ],
      [
        -122.4059548550021,
        37.75898758957077
      ],
      [
        -122.40350123360106,
        37.75662207839653
      ],
      [
        -122.40299737580885,
        37.75323234149765
      ],
      [
        -122.4036714688083,
        37.74987168617439
      ],
      [
        -122.40479689852721,
        37.74643290577729
      ],
      [
        -122.40606059715653,
        37.74375059516352
      ],
      [
        -122.4079076680074,
        37.741077333127244
      ],
      [
        -122.40820721228187,
        37.73777389234101
      ],
      [
        -122.40965520180949,
        37.73492698361156
      ],
      [
        -122.41319870196492,
        37.73307892061968
      ],
      [
        -122.41720120882268,
        37.7321122765049
      ],
      [
        -122.421559828628,
        37.731919825487715
      ],
      [
        -122.42597724407831,
        37.73170838096027
      ],
      [
        -122.4297527135863,
        37.73237937096977
      ],
      [
        -122.4313219196322,
        37.73242777316998
      ],
      [
        -122.43196767420385,
        37.73237955490173
      ],
      [
        -122.43221663156564,
        37.73236991170145
      ],
      [
        -122.43248957463206,
        37.7323080038324
      ],
      [
        -122.43266372935821,
        37.732283381126855
      ],
      [
        -122.4332922104996,
        37.73215330516865
      ],
      [
        -122.43346634991161,
        37.73210702840685
      ],
      [
        -122.43349655119455,
        37.7320972396232
      ],
      [
        -122.43400130365504,
        37.73196118432244
      ],
      [
        -122.43521542577326,
        37.7316820863578
      ],
      [
        -122.435383303436,
        37.731671711365884
      ],
      [
        -122.43538964394129,
        37.73167370078826
      ],
      [
        -122.43565199311625,
        37.73165401315349
      ],
      [
        -122.43620324118,
        37.731623008524274
      ],
      [
        -122.4362717337614,
        37.73161053416418
      ],
      [
        -122.43630258,
        37.73161699877451
      ],
      [
        -122.43630458017454,
        37.731627463517995
      ],
      [
        -122.43630434199835,
        37.73162349
      ],
      [
        -122.43630416713502,
        37.73161416605858
      ],
      [
        -122.4363757341252,
        37.73161930241939
      ],
      [
        -122.43827712633747,
        37.731650798507324
      ],
      [
        -122.43965864225996,
        37.73164739146695
      ],
      [
        -122.44149070455394,
        37.731636557397124
      ],
      [
        -122.44289644833266,
        37.731650254308065
      ],
      [
        -122.44537837224449,
        37.731608063862765
      ],
      [
        -122.44671057279449,
        37.73164280234462
      ],
      [
        -122.44835893694314,
        37.7316530694319
      ],
      [
        -122.44875788294256,
        37.73166130039709
      ],
      [
        -122.45019054103088,
        37.731639981410886
      ],
      [
        -122.45098687362227,
        37.7316434325368
      ],
      [
        -122.45274541977038,
        37.73163424329881
      ],
      [
        -122.45409848886005,
        37.73161113399623
      ],
      [
        -122.4562710981848,
        37.731385437463544
      ],
      [
        -122.45743381366907,
        37.731129336936895
      ],
      [
        -122.45761853184823,
        37.73150408399267
      ],
      [
        -122.45828991082406,
        37.732590818329754
      ],
      [
        -122.45884587538036,
        37.7331956356135
      ],
      [
        -122.45979686335892,
        37.73454810102687
      ],
      [
        -122.4610036001112,
        37.73561348900716
      ],
      [
        -122.46196472433756,
        37.73629777052241
      ],
      [
        -122.44926429030707,
        37.78215765460777
      ],
      [
        -122.44678519559365,
        37.78237828356783
      ],
      [
        -122.44433678019519,
        37.782609510182894
      ],
      [
        -122.4426965393959,
        37.78258287493692
      ],
      [
        -122.44184999214855,
        37.782224311524494
      ],
      [
        -122.44227558640699,
        37.78247715360092
      ],
      [
        -122.44274583473431,
        37.78268633423451
      ]
    ]
  },
  "properties": {}
}