{
  "type": "Feature",
  "geometry": {
    "type": "LineString",
    "coordinates": [
      [
        -121.7585962477824,
        38.56114544289309
      ],
      [
        -121.7585962477824,
        38.56114544289309
      ],
      [
        -121.7587019776415,
        38.56047706948667
      ],
      [
        -121.7588233296962,
        38.56050909500435
      ],
      [
        -121.7588442006351,
        38.56051487851754
      ],
      [
        -121.7588418537022,
        38.56052925348148
      ],
      [
        -121.7588418537022,
        38.56052925348148
      ],
      [
        -121.7588418537022,
        38.56052925348148
      ],
      [
        -121.7587746786936,
        38.560887526833284
      ],
      [
        -121.76132794133174,
        38.56087003469556
      ],
      [
        -121.76350184071283,
        38.56089630960948
      ],
      [
        -121.76370947480095,
        38.56091932568686
      ],
      [
        -121.76419401085627,
        38.560921431588305
      ],
      [
        -121.76705497101442,
        38.56096450087472
      ],
      [
        -121.76880725927164,
        38.56094258637575
      ],
      [
        -121.76839794433435,
        38.559239841999926
      ],
      [
        -121.7881549497876,
        38.503378865428495
      ],
      [
        -121.78881265752919,
        38.502770608270815
      ],
      [
        -121.78941430350919,
        38.50223283437785
      ],
      [
        -121.79017411579115,
        38.50151471114632
      ],
      [
        -121.79065388797501,
        38.501072660002315
      ],
      [
        -121.79126364315775,
        38.500496147065405
      ],
      [
        -121.7918972320319,
        38.49989929318076
      ],
      [
        -121.79258442539317,
        38.49922072437804
      ],
      [
        -121.79322940056582,
        38.49859374933844
      ],
      [
        -121.79385377293987,
        38.4979811725072
      ],
      [
        -121.79472399772307,
        38.49711009736559
      ],
      [
        -121.795891442959,
        38.4960535233057
      ],
      [
        -121.79744892527484,
        38.494624341211775
      ],
      [
        -121.79913023663151,
        38.49302224618117
      ],
      [
        -121.80134563924251,
        38.49095571090616
      ],
      [
        -121.80411582715665,
        38.488695382922074
      ],
      [
        -121.80717328777177,
        38.48630160768445
      ],
      [
        -121.81058951536428,
        38.48359859572145
      ],
      [
        -121.8139298368485,
        38.480976195555066
      ],
      [
        -121.81719742877281,
        38.47838696681557
      ],
      [
        -121.82079192954338,
        38.47554872085758
      ],
      [
        -121.82442709101466,
        38.472725562750306
      ],
      [
        -121.82818067535302,
        38.46979520781934
      ],
      [
        -121.8319641194858,
        38.46685390994319
      ],
      [
        -121.83577445769893,
        38.463883144655995
      ],
      [
        -121.83962522694902,
        38.46089015558167
      ],
      [
        -121.84330254538368,
        38.45798632204164
      ],
      [
        -121.84734222510018,
        38.45483439995598
      ],
      [
        -121.85121422176529,
        38.45183201723963
      ],
      [
        -121.85516715870092,
        38.44874478556949
      ],
      [
        -121.8590887550741,
        38.445701429956046
      ],
      [
        -121.86288534844567,
        38.44278308146531
      ],
      [
        -121.86669546591804,
        38.43983395726575
      ],
      [
        -121.87056201223875,
        38.436858384812865
      ],
      [
        -121.87418745511735,
        38.434079978448445
      ],
      [
        -121.87740944177612,
        38.43163698895298
      ],
      [
        -121.8805116528538,
        38.42928815037621
      ],
      [
        -121.88382516940483,
        38.426774209009075
      ],
      [
        -121.8871010785503,
        38.42427032911867
      ],
      [
        -121.89032691142569,
        38.421827910759454
      ],
      [
        -121.89340949745477,
        38.41950572006422
      ],
      [
        -121.89621438434807,
        38.41734136112138
      ],
      [
        -121.89820123226227,
        38.415830975051634
      ],
      [
        -121.89955471973036,
        38.41480232780841
      ],
      [
        -121.90103879632709,
        38.41366371001234
      ],
      [
        -121.90295806434796,
        38.41218146042527
      ],
      [
        -121.90518103281181,
        38.41051858090969
      ],
      [
        -121.90771733331128,
        38.40859795398108
      ],
      [
        -121.91049376963161,
        38.406496563627506
      ],
      [
        -121.91370831744302,
        38.40403972013746
      ],
      [
        -121.91677246365482,
        38.40168136058186
      ],
      [
        -121.91969441940941,
        38.3993557190776
      ],
      [
        -121.92309372001202,
        38.39674204936934
      ],
      [
        -121.92665515862576,
        38.39398539131326
      ],
      [
        -121.9301041029499,
        38.391261944682576
      ],
      [
        -121.93346466088751,
        38.38863835122232
      ],
      [
        -121.93676832385673,
        38.3860746234968
      ],
      [
        -121.93973249047666,
        38.38391590308584
      ],
      [
        -121.94228866543573,
        38.382187986335765
      ],
      [
        -121.94444795344269,
        38.38057324975278
      ],
      [
        -121.94604617910224,
        38.37935382883803
      ],
      [
        -121.9473398960764,
        38.37835457901539
      ],
      [
        -121.94829409979624,
        38.37760114097621
      ],
      [
        -121.94945044345278,
        38.37671927046403
      ],
      [
        -121.95097128538434,
        38.37552214024758
      ],
      [
        -121.95252425177569,
        38.37430117719698
      ],
      [
        -121.95371120919262,
        38.37330658974823
      ],
      [
        -121.95496284211791,
        38.37220372131151
      ],
      [
        -121.95621711387439,
        38.371055196334105
      ],
      [
        -121.9575416101119,
        38.3699716365746
      ],
      [
        -121.95859880349748,
        38.36917867929392
      ],
      [
        -121.95952557029338,
        38.36845310579635
      ],
      [
        -122.23013603703055,
        38.122668464290086
      ],
      [
        -122.23036016408145,
        38.11912639295655
      ],
      [
        -122.23012124987721,
        38.11593745241745
      ],
      [
        -122.22982515813794,
        38.11240260951168
      ],
      [
        -122.22971802059176,
        38.10804675481884
      ],
      [
        -122.22978470510687,
        38.10375780281718
      ],
      [
        -122.22983961340778,
        38.09923492446815
      ],
      [
        -122.22998339631869,
        38.094474328622375
      ],
      [
        -122.23111059545084,
        38.089933614456946
      ],
      [
        -122.23277119231636,
        38.08597295179111
      ],
      [
        -122.23340916478635,
        38.08201732336048
      ],
      [
        -122.23263181139373,
        38.07778964476928
      ],
      [
        -122.23065905426274,
        38.0743536232476
      ],
      [
        -122.22806931008283,
        38.07055213298635
      ],
      [
        -122.22673005940955,
        38.066851120802966
      ],
      [
        -122.22644457828045,
        38.06247778348103
      ],
      [
        -122.2261845220773,
        38.05845333811201
      ],
      [
        -122.2264287837409,
        38.05415232294131
      ],
      [
        -122.22984879718726,
        38.051268367756954
      ],
      [
        -122.23371535643871,
        38.04836130972791
      ],
      [
        -122.2377230993111,
        38.04554308351194
      ],
      [
        -122.24151931430234,
        38.04287350985062
      ],
      [
        -122.24549910968247,
        38.04007085066015
      ],
      [
        -122.24927069184322,
        38.03679450791668
      ],
      [
        -122.25278457056932,
        38.03300568795416
      ],
      [
        -122.25646201314119,
        38.029046340541086
      ],
      [
        -122.25979804571621,
        38.02545632430483
      ],
      [
        -122.26323529838992,
        38.02171233688091
      ],
      [
        -122.26675785491013,
        38.01790443283344
      ],
      [
        -122.27016325315506,
        38.01423415906181
      ],
      [
        -122.27351140127132,
        38.01062422193495
      ],
      [
        -122.27695855097654,
        38.00689628361772
      ],
      [
        -122.28029660819585,
        38.00329695379374
      ],
      [
        -122.28372413642884,
        37.99961715356603
      ],
      [
        -122.28748810391687,
        37.99625304739901
      ],
      [
        -122.29253095050692,
        37.994721821658906
      ],
      [
        -122.29785929725409,
        37.993989541109286
      ],
      [
        -122.30351928394188,
        37.993213115503806
      ],
      [
        -122.30886907222514,
        37.99157746185778
      ],
      [
        -122.31322215525981,
        37.98864115233035
      ],
      [
        -122.31599533837033,
        37.98451059683485
      ],
      [
        -122.31719462589415,
        37.98006907767321
      ],
      [
        -122.31871174525052,
        37.975593063028406
      ],
      [
        -122.3201830106265,
        37.97108945752996
      ],
      [
        -122.32197235051301,
        37.96684134744108
      ],
      [
        -122.32644265880174,
        37.96403372991831
      ],
      [
        -122.33019950057196,
        37.96092858535005
      ],
      [
        -122.33037172231661,
        37.956722781631704
      ],
      [
        -122.32810034813643,
        37.95271803850065
      ],
      [
        -122.3261028408867,
        37.94872132007857
      ],
      [
        -122.32420691689003,
        37.9446709538338
      ],
      [
        -122.32450459707924,
        37.94058907619365
      ],
      [
        -122.32650869931742,
        37.9366927296427
      ],
      [
        -122.32614707108102,
        37.93275725841491
      ],
      [
        -122.32358706288032,
        37.929133941094086
      ],
      [
        -122.32089343621982,
        37.925292785749214
      ],
      [
        -122.31808499858647,
        37.92129659781363
      ],
      [
        -122.31748970048879,
        37.91691144816191
      ],
      [
        -122.31748904600873,
        37.91239615794186
      ],
      [
        -122.31581501315246,
        37.90812386934975
      ],
      [
        -122.30647603206471,
        37.874823502739034
      ],
      [
        -122.30595389912361,
        37.873117353899715
      ],
      [
        -122.30549204610654,
        37.87158913799098
      ],
      [
        -122.30490477710741,
        37.869749997138065
      ],
      [
        -122.30428861040772,
        37.867811695050946
      ],
      [
        -122.30364789726538,
        37.86579548717236
      ],
      [
        -122.30308108116552,
        37.863836401009024
      ],
      [
        -122.3025400117862,
        37.86182641780762
      ],
      [
        -122.30199943145148,
        37.85994502932943
      ],
      [
        -122.3015637918293,
        37.85833920315518
      ],
      [
        -122.30119632569857,
        37.85699149994843
      ],
      [
        -122.30072341827895,
        37.85532145352942
      ],
      [
        -122.30014023922301,
        37.85325608856426
      ],
      [
        -122.29950869049021,
        37.85080223376714
      ],
      [
        -122.29905896469187,
        37.848911761340915
      ],
      [
        -122.29862753967234,
        37.84702991626388
      ],
      [
        -122.29824597687659,
        37.84529143326383
      ],
      [
        -122.29808469059141,
        37.84452843315269
      ],
      [
        -122.29790926393603,
        37.84371888722689
      ],
      [
        -122.297750705008,
        37.84285850119106
      ],
      [
        -122.29742039615286,
        37.84156333029697
      ],
      [
        -122.29724301318453,
        37.84052798875746
      ],
      [
        -122.29703351846635,
        37.83928523405762
      ],
      [
        -122.29674848834661,
        37.83784462024218
      ],
      [
        -122.29624076068814,
        37.83649797016282
      ],
      [
        -122.29520790353054,
        37.83423056196929
      ],
      [
        -122.29417244458438,
        37.83135066375671
      ],
      [
        -122.29502335172683,
        37.82821145538309
      ],
      [
        -122.2988975163009,
        37.82679131975914
      ],
      [
        -122.30318826474908,
        37.82585042231451
      ],
      [
        -122.30750733518032,
        37.82519474053238
      ],
      [
        -122.31160198626155,
        37.825039367298935
      ],
      [
        -122.31350649837087,
        37.824960739353926
      ],
      [
        -122.31368835679993,
        37.82493385472411
      ],
      [
        -122.31382702071913,
        37.82492304457248
      ],
      [
        -122.31646697044253,
        37.82439166155363
      ],
      [
        -122.3191378623631,
        37.82367071764149
      ],
      [
        -122.32029898254518,
        37.823208012136966
      ],
      [
        -122.32092023972939,
        37.8229808164785
      ],
      [
        -122.32196234156599,
        37.82274345147168
      ],
      [
        -122.32312822258216,
        37.822562180984335
      ],
      [
        -122.32474789479188,
        37.82241707850829
      ],
      [
        -122.32697157012534,
        37.8222474088766
      ],
      [
        -122.32969779881788,
        37.822028648631424
      ],
      [
        -122.33189861248552,
        37.82177585966269
      ],
      [
        -122.33420958999412,
        37.821463352244095
      ],
      [
        -122.33732717228054,
        37.821011312146304
      ],
      [
        -122.33989232461634,
        37.820619741937165
      ],
      [
        -122.34259859492953,
        37.820234014107506
      ],
      [
        -122.34496457143794,
        37.819896129415476
      ],
      [
        -122.38395903536558,
        37.792466973066816
      ],
      [
        -122.38493512332887,
        37.7915754115498
      ],
      [
        -122.38598498979124,
        37.790619721581194
      ],
      [
        -122.38725559485958,
        37.78941415453072
      ],
      [
        -122.38845753559002,
        37.788284868426175
      ],
      [
        -122.38983096880368,
        37.78698515888029
      ],
      [
        -122.39116039414672,
        37.78585001984777
      ],
      [
        -122.39242965521738,
        37.7851576981795
      ],
      [
        -122.39341285448846,
        37.784633316519574
      ],
      [
        -122.39464593272129,
        37.783718708826235
      ],
      [
        -122.39583627557533,
        37.782800225963484
      ],
      [
        -122.44911839845574,
        38.24500970128189
      ],
      [
        -122.44950706725807,
        38.24693727488386
      ],
      [
        -122.44994171558186,
        38.24958554932358
      ],
      [
        -122.45154179695221,
        38.251825786555834
      ],
      [
        -122.452636262335,
        38.25420518462445
      ],
      [
        -122.45393238260117,
        38.25650567209815
      ],
      [
        -122.45547953256266,
        38.25895315510202
      ],
      [
        -122.45694299727866,
        38.2613807537497
      ],
      [
        -122.45984382526127,
        38.26205992593663
      ],
      [
        -122.46229589138703,
        38.26280528742046
      ],
      [
        -122.46199562216337,
        38.265088170233064
      ],
      [
        -122.46228087596418,
        38.26545118000275
      ],
      [
        -122.464620368589,
        38.265629848238774
      ],
      [
        -122.46722549251359,
        38.26578642228122
      ],
      [
        -122.4697032248974,
        38.26505630295125
      ],
      [
        -122.47248937834624,
        38.26416882609216
      ],
      [
        -122.4754361146673,
        38.26321889252918
      ],
      [
        -122.65670096666666,
        38.26697085
      ],
      [
        -122.65670096666666,
        38.26697085
      ],
      [
        -122.65670096666666,
        38.26697085
      ],
      [
        -122.65670096666666,
        38.26697085
      ],
      [
        -122.65670096666666,
        38.26697085
      ],
      [
        -122.65719257122883,
        38.266440211003264
      ],
      [
        -122.65846421990334,
        38.264760876570364
      ],
      [
        -122.65967589121665,
        38.26314716835596
      ],
      [
        -122.66009306233289,
        38.26128897500882
      ],
      [
        -122.66032998527018,
        38.260340145394316
      ],
      [
        -122.66040629874905,
        38.26023156533591
      ],
      [
        -122.66143735013947,
        38.25904017397499
      ],
      [
        -122.66339773616977,
        38.2576954983898
      ],
      [
        -122.66564929993918,
        38.25623876344515
      ],
      [
        -122.66724644061037,
        38.25597305686526
      ],
      [
        -122.66793542517611,
        38.2559852541757
      ],
      [
        -122.67048127464439,
        38.256014460006725
      ],
      [
        -122.67343761366963,
        38.25605212721704
      ],
      [
        -122.67680383687104,
        38.25602585329564
      ],
      [
        -122.68009883242614,
        38.25605715488662
      ],
      [
        -122.68299803595244,
        38.25605844341149
      ],
      [
        -122.68606569766104,
        38.256066695664046
      ],
      [
        -122.68902023365453,
        38.2560798635475
      ],
      [
        -122.69176410178542,
        38.256113467160155
      ],
      [
        -122.69473123930791,
        38.25613199478389
      ],
      [
        -122.69776088324295,
        38.256251759041554
      ],
      [
        -122.70048877001278,
        38.2562906516518
      ],
      [
        -122.7017563987924,
        38.25620589055281
      ],
      [
        -122.70338410613329,
        38.25579129969308
      ],
      [
        -122.70336181666667,
        38.2546386
      ],
      [
        -122.70439459631704,
        38.25508069448172
      ],
      [
        -122.70720748492911,
        38.25684314846977
      ],
      [
        -122.71017023584326,
        38.25870356046547
      ],
      [
        -122.71309788796835,
        38.26034722595012
      ],
      [
        -122.71627496752858,
        38.26185189355429
      ],
      [
        -122.71992705880342,
        38.263364427495716
      ],
      [
        -122.72429540230031,
        38.263671272230994
      ],
      [
        -122.72835882742908,
        38.264189211899044
      ],
      [
        -122.73224170681458,
        38.26491383130261
      ],
      [
        -122.73608401882802,
        38.26525781009881
      ],
      [
        -122.73989968674263,
        38.26497055809405
      ],
      [
        -122.74419785833503,
        38.26416422407833
      ],
      [
        -122.74813949760349,
        38.26232788573353
      ],
      [
        -122.75187315972491,
        38.26035022987029
      ],
      [
        -122.75597094126672,
        38.25930027378575
      ],
      [
        -122.75946565812087,
        38.2584702782417
      ],
      [
        -122.76321227892414,
        38.257890552965215
      ],
      [
        -122.76764178646737,
        38.257681030027705
      ],
      [
        -122.77174147305891,
        38.25775410089884
      ],
      [
        -122.775797804484,
        38.25768657958055
      ],
      [
        -122.77922543910032,
        38.25771570888845
      ],
      [
        -122.7815680083413,
        38.25848658629734
      ],
      [
        -122.78434694007197,
        38.26059265399945
      ],
      [
        -122.78767569442313,
        38.26278390058348
      ],
      [
        -122.79143556873969,
        38.265363424991094
      ],
      [
        -122.79523587539263,
        38.26790025956706
      ],
      [
        -122.79804381581854,
        38.27105484003545
      ],
      [
        -122.79916786924642,
        38.27520314740742
      ],
      [
        -122.80006406759213,
        38.27942683730177
      ],
      [
        -122.80065685184941,
        38.28343786453962
      ],
      [
        -122.80089537084714,
        38.287086664012
      ],
      [
        -122.80337568594484,
        38.29032587430561
      ],
      [
        -122.80628689273597,
        38.293179730868495
      ],
      [
        -122.8103298848253,
        38.295158565037596
      ],
      [
        -122.81467280005361,
        38.29664591495894
      ],
      [
        -122.81899233183867,
        38.29775458429085
      ],
      [
        -122.8246245989504,
        38.2992147424231
      ],
      [
        -122.82954510538359,
        38.3008183844486
      ],
      [
        -122.83388396333858,
        38.30274395515761
      ],
      [
        -122.83773785584954,
        38.30448779158086
      ],
      [
        -122.84151750805044,
        38.3061933017021
      ],
      [
        -122.84541823678477,
        38.308053819107606
      ],
      [
        -122.84943343725391,
        38.30987870560687
      ],
      [
        -122.85366553372259,
        38.310425625932936
      ],
      [
        -122.85834003056794,
        38.310701594181275
      ],
      [
        -122.86269386009681,
        38.31181045969925
      ],
      [
        -122.86698099638727,
        38.313417826042134
      ],
      [
        -122.87153291055884,
        38.31341950984978
      ],
      [
        -122.87624858802798,
        38.31338418988344
      ],
      [
        -122.88125280215102,
        38.31336002971098
      ],
      [
        -122.88619813019518,
        38.31334446319608
      ],
      [
        -122.89069275365613,
        38.31416501640974
      ],
      [
        -122.89519287015943,
        38.31587399735033
      ],
      [
        -122.89943681410857,
        38.31781491501219
      ],
      [
        -122.90415403652561,
        38.31950579209465
      ],
      [
        -122.90839387437816,
        38.32101173316154
      ],
      [
        -122.91281512978804,
        38.3214691452736
      ],
      [
        -122.91702151244972,
        38.320880982557334
      ],
      [
        -122.91956368232167,
        38.3186240244267
      ],
      [
        -122.92253674300612,
        38.31729148722159
      ],
      [
        -122.92412608721038,
        38.31791307225891
      ],
      [
        -122.92587671645404,
        38.31838944652488
      ],
      [
        -122.92789107649736,
        38.32073380818165
      ],
      [
        -122.92788545887576,
        38.323800694702776
      ],
      [
        -122.93132490767248,
        38.3250560443575
      ],
      [
        -122.93606928380791,
        38.32542850181622
      ],
      [
        -122.9407920896645,
        38.32584962067929
      ],
      [
        -122.94482171537274,
        38.32568990929363
      ],
      [
        -122.94941668768017,
        38.32647488573391
      ],
      [
        -122.95438384942584,
        38.32761216022642
      ],
      [
        -122.95827256991635,
        38.329192414310405
      ],
      [
        -122.96282258901046,
        38.330904796404255
      ],
      [
        -122.96702203338427,
        38.33248386118171
      ],
      [
        -122.97109211907625,
        38.33371986778875
      ],
      [
        -122.97421682829035,
        38.33584188191077
      ],
      [
        -122.97805239454567,
        38.3372394800109
      ],
      [
        -122.9824629930887,
        38.33727164981044
      ],
      [
        -122.98735188603503,
        38.33688083852054
      ],
      [
        -122.99115104878751,
        38.33528046474478
      ],
      [
        -122.99421825907386,
        38.33326612188995
      ],
      [
        -122.99624927778038,
        38.3300755998004
      ],
      [
        -122.99949966396962,
        38.32772931863675
      ],
      [
        -123.00393998094597,
        38.32665289631822
      ],
      [
        -123.00783605808498,
        38.32641159648325
      ],
      [
        -123.01081408905284,
        38.32454603433873
      ],
      [
        -123.01315892446227,
        38.32228968715605
      ],
      [
        -123.01409474345937,
        38.3195916785589
      ],
      [
        -123.01706647599957,
        38.318309338349444
      ],
      [
        -123.02065365930866,
        38.318711537130895
      ],
      [
        -123.02499925357897,
        38.31868866091308
      ],
      [
        -123.0282575156922,
        38.317572127024995
      ],
      [
        -123.03161591067895,
        38.31824879484569
      ],
      [
        -123.03459551826978,
        38.32045076824858
      ],
      [
        -123.03704800291968,
        38.32297613360963
      ],
      [
        -123.03907398870224,
        38.325128972049264
      ],
      [
        -123.04181416489683,
        38.32706073806209
      ],
      [
        -123.04348861519784,
        38.328735574274155
      ],
      [
        -123.0451759811106,
        38.329692471740145
      ],
      [
        -123.0469851133745,
        38.331280314126076
      ],
      [
        -123.04767151929154,
        38.33248559134367
      ],
      [
        -123.04811964778327,
        38.33332664863929
      ],
      [
        -123.04879196926403,
        38.33489537098539
      ],
      [
        -123.04682966131071,
        38.33527731211345
      ],
      [
        -123.04577473927058,
        38.33589836286409
      ],
      [
        -123.04731207869598,
        38.33678636245329
      ],
      [
        -123.04773296811226,
        38.33812520492253
      ],
      [
        -123.04673913864804,
        38.339285208097834
      ],
      [
        -123.04743152381481,
        38.340283741054286
      ],
      [
        -123.04970956618837,
        38.34161679377371
      ],
      [
        -123.05144082510903,
        38.343453788686176
      ],
      [
        -123.05271992869105,
        38.34596363445024
      ],
      [
        -123.05533285532002,
        38.3478757872633
      ],
      [
        -123.05897475586922,
        38.34938585185486
      ],
      [
        -123.06060449651147,
        38.35144715259498
      ],
      [
        -123.06242730393954,
        38.35319244073464
      ],
      [
        -123.06535621081342,
        38.355168242719266
      ],
      [
        -123.06710063147356,
        38.357199062157996
      ],
      [
        -123.06778734537508,
        38.35911488987366
      ],
      [
        -123.06885293707283,
        38.36143953078879
      ],
      [
        -123.06987640182452,
        38.36346737294669
      ],
      [
        -123.07114967099854,
        38.36587885682328
      ],
      [
        -123.07237697324013,
        38.36800143643746
      ],
      [
        -123.0729200772004,
        38.37021061456949
      ],
      [
        -123.07438590293653,
        38.370297039637485
      ],
      [
        -123.07594271706986,
        38.372272029370656
      ],
      [
        -123.07744802571321,
        38.37423567463031
      ],
      [
        -123.07781828701407,
        38.37630004038194
      ],
      [
        -123.07930479267846,
        38.37756953408824
      ],
      [
        -123.07995681997781,
        38.37932238243186
      ],
      [
        -123.08047629083448,
        38.381506926255646
      ],
      [
        -123.08205008022752,
        38.38335593431136
      ],
      [
        -123.08247364145149,
        38.384724278200366
      ],
      [
        -123.08394231630983,
        38.386717496082085
      ],
      [
        -123.0839669107794,
        38.38808530175171
      ],
      [
        -123.08453818188939,
        38.39041462133829
      ],
      [
        -123.0866110257089,
        38.3916785314713
      ],
      [
        -123.08849837303309,
        38.3931168432421
      ],
      [
        -123.08867812785964,
        38.39494861096005
      ],
      [
        -123.09057239668329,
        38.394209478689525
      ],
      [
        -123.0926773345344,
        38.395524493949665
      ],
      [
        -123.09338206439607,
        38.39774558020867
      ],
      [
        -123.09329039819873,
        38.39997966069314
      ],
      [
        -123.09310127533126,
        38.40096452878024
      ],
      [
        -123.09478896442015,
        38.40204377586866
      ],
      [
        -123.09507308060014,
        38.40444353969681
      ],
      [
        -123.0954543779678,
        38.4068784737712
      ],
      [
        -123.09665548779144,
        38.409138020341544
      ],
      [
        -123.09819296464529,
        38.410802498476606
      ],
      [
        -123.09893557579215,
        38.41325193721525
      ],
      [
        -123.09839187153271,
        38.41538002913617
      ],
      [
        -123.10002668455503,
        38.41556340005546
      ],
      [
        -123.10098952571666,
        38.41722528491669
      ],
      [
        -123.10243969848368,
        38.41962864190614
      ],
      [
        -123.10406747369717,
        38.42218961906822
      ],
      [
        -123.1053298044908,
        38.424774421803676
      ],
      [
        -123.10624411531641,
        38.426532453159105
      ],
      [
        -123.10821658520749,
        38.42903318477212
      ],
      [
        -123.10869561476161,
        38.43128208420668
      ],
      [
        -123.10692290234101,
        38.43188536040275
      ],
      [
        -123.10497226940869,
        38.43239981349272
      ],
      [
        -123.10310127564337,
        38.43180763566591
      ],
      [
        -123.10065246176536,
        38.432035250150214
      ],
      [
        -123.10097124238979,
        38.43375119539047
      ],
      [
        -123.10266057495447,
        38.435786082437076
      ],
      [
        -123.10414855191034,
        38.437048500491315
      ],
      [
        -123.10574148283811,
        38.437258572800665
      ],
      [
        -123.10744113019337,
        38.439074313337336
      ],
      [
        -123.10910841519117,
        38.44164020063928
      ],
      [
        -123.1107576915484,
        38.44425910577849
      ],
      [
        -123.1125970451736,
        38.44656091263952
      ],
      [
        -123.11438954562541,
        38.44840511358939
      ],
      [
        -123.11547644115274,
        38.44988308637527
      ],
      [
        -123.11793936181813,
        38.450369620987814
      ],
      [
        -123.1207592996565,
        38.45084015378845
      ],
      [
        -123.1234002552869,
        38.45033493755063
      ],
      [
        -123.12491715686896,
        38.451146063307135
      ],
      [
        -123.1265231686844,
        38.451732783133686
      ],
      [
        -123.12867328476686,
        38.452887532063414
      ],
      [
        -123.13129315719057,
        38.4533684713209
      ],
      [
        -123.13291223628106,
        38.45466375261309
      ],
      [
        -123.13374768900503,
        38.45515407523626
      ],
      [
        -123.1360111665931,
        38.45581465144825
      ],
      [
        -123.13659671686416,
        38.457220776886864
      ],
      [
        -123.13550276384359,
        38.458979596074336
      ],
      [
        -123.13690027477357,
        38.4593378092685
      ],
      [
        -123.13864761262076,
        38.45809714387523
      ],
      [
        -123.14086223573337,
        38.45768450905059
      ],
      [
        -123.14288666037426,
        38.459458512454916
      ],
      [
        -123.14541700331019,
        38.46155297206412
      ],
      [
        -123.14800625136299,
        38.46283477633977
      ],
      [
        -123.15096660952169,
        38.46458764760337
      ],
      [
        -123.15342277306927,
        38.46576587021064
      ],
      [
        -123.15360742072093,
        38.46780678532595
      ],
      [
        -123.15333707680996,
        38.469975857313784
      ],
      [
        -123.15474978656438,
        38.47162073655739
      ],
      [
        -123.15546808061931,
        38.47324939484729
      ],
      [
        -123.15428670761784,
        38.47458544839441
      ],
      [
        -123.15407059319841,
        38.47595017918098
      ],
      [
        -123.15498585777925,
        38.47480862047727
      ],
      [
        -123.156129042407,
        38.474863595578945
      ],
      [
        -123.15619945,
        38.47478591666667
      ],
      [
        -123.15619945,
        38.47478591666667
      ],
      [
        -123.15619945,
        38.47478591666667
      ],
      [
        -123.15619945,
        38.47478591666667
      ],
      [
        -123.15624341666667,
        38.47475636666667
      ],
      [
        -123.15642860197353,
        38.47451311242598
      ],
      [
        -123.15709991198631,
        38.47348934878418
      ],
      [
        -123.15667845260063,
        38.4720472468246
      ],
      [
        -123.15843262356597,
        38.47168605796185
      ],
      [
        -123.15909858122993,
        38.471455987248405
      ],
      [
        -123.15759638329943,
        38.47215843245611
      ],
      [
        -123.15854225267765,
        38.47299263229806
      ],
      [
        -123.15847695906064,
        38.4745259662496
      ],
      [
        -123.1578396809196,
        38.47633077919902
      ],
      [
        -123.159142331584,
        38.477783650707615
      ],
      [
        -123.16134978838632,
        38.478077335632435
      ],
      [
        -123.16326856215133,
        38.47899397316463
      ],
      [
        -123.16579769892742,
        38.47911716293548
      ],
      [
        -123.16803102705443,
        38.47977984855827
      ],
      [
        -123.16966545070316,
        38.48121096451254
      ],
      [
        -123.17185803082815,
        38.48249577320283
      ],
      [
        -123.17411115022196,
        38.48285691486971
      ],
      [
        -123.17603288726056,
        38.48373663312286
      ],
      [
        -123.17754110424204,
        38.48457451641262
      ],
      [
        -123.17966922028765,
        38.4848118786872
      ],
      [
        -123.18094043941889,
        38.48585558068069
      ],
      [
        -123.18223551108906,
        38.486996967794404
      ],
      [
        -123.18398049920135,
        38.48726057408277
      ],
      [
        -123.18542744251488,
        38.48836886378429
      ],
      [
        -123.18760365664663,
        38.48880188706086
      ],
      [
        -123.18974180244405,
        38.48961265896543
      ],
      [
        -123.19068666585235,
        38.49107765530493
      ],
      [
        -123.1930394139525,
        38.49131859920868
      ],
      [
        -123.19454112258168,
        38.49170262806659
      ],
      [
        -123.19513658394001,
        38.49246470816368
      ],
      [
        -123.19656207204224,
        38.49295614065544
      ],
      [
        -123.1981943474348,
        38.494447636798064
      ],
      [
        -123.19923028687917,
        38.49564289015772
      ],
      [
        -123.20052602424113,
        38.49560372088382
      ],
      [
        -123.20214930495483,
        38.497327658845634
      ],
      [
        -123.2041651579785,
        38.497676669582205
      ],
      [
        -123.2066051488866,
        38.49819012896399
      ],
      [
        -123.20865517626818,
        38.49880925965152
      ],
      [
        -123.20799821121227,
        38.500182781144616
      ],
      [
        -123.20861398391214,
        38.50117447088168
      ],
      [
        -123.21030910841124,
        38.50025189992647
      ],
      [
        -123.21253103775251,
        38.500803791876535
      ],
      [
        -123.21333941666667,
        38.50131438333333
      ],
      [
        -123.21330505908239,
        38.50128564362956
      ],
      [
        -123.21327601666667,
        38.50126135
      ],
      [
        -123.21327601666667,
        38.50126135
      ],
      [
        -123.21327601666667,
        38.50126135
      ],
      [
        -123.21327601666667,
        38.50126135
      ],
      [
        -123.21327601666667,
        38.50126135
      ],
      [
        -123.21327601666667,
        38.50126135
      ],
      [
        -123.21359164284014,
        38.50140327177665
      ],
      [
        -123.21481371333655,
        38.50102569770566
      ],
      [
        -123.21645762856946,
        38.50083862956529
      ],
      [
        -123.21811548352828,
        38.501197381927476
      ],
      [
        -123.21946483245587,
        38.50247309167894
      ],
      [
        -123.22077862805111,
        38.5041989867589
      ],
      [
        -123.2225639602637,
        38.50555704300726
      ],
      [
        -123.22469941638009,
        38.50653606496791
      ],
      [
        -123.22656657209393,
        38.50759698403057
      ],
      [
        -123.22844446545407,
        38.50893952250686
      ],
      [
        -123.22980431096727,
        38.51034111351746
      ],
      [
        -123.23119618504971,
        38.51173182950976
      ],
      [
        -123.23223084614813,
        38.51270278159441
      ],
      [
        -123.23384784334353,
        38.513202783333334
      ],
      [
        -123.23558572132274,
        38.51364240881964
      ],
      [
        -123.23793049103837,
        38.51478064762447
      ],
      [
        -123.24040909913617,
        38.514981639950115
      ],
      [
        -123.24098841807678,
        38.51665583084683
      ],
      [
        -123.24169420371271,
        38.51748193379284
      ],
      [
        -123.24183249295133,
        38.516299874672264
      ],
      [
        -123.2431383702608,
        38.51526503548029
      ],
      [
        -123.24346888153936,
        38.51664609073767
      ],
      [
        -123.24472115734368,
        38.51810886466113
      ],
      [
        -123.24812471300613,
        38.51870824689089
      ],
      [
        -123.2519660765822,
        38.51932489256533
      ],
      [
        -123.25486034968935,
        38.5207302862425
      ],
      [
        -123.25781466764865,
        38.5217365182906
      ],
      [
        -123.26120194807999,
        38.52236691715546
      ],
      [
        -123.26334805921321,
        38.52283576758044
      ],
      [
        -123.2635670308886,
        38.52483695778277
      ],
      [
        -123.26347887762981,
        38.52564087975333
      ],
      [
        -123.26454978041669,
        38.52470081572238
      ],
      [
        -123.26495259227936,
        38.525195841780814
      ],
      [
        -123.26315192944061,
        38.526580838113134
      ],
      [
        -123.26427837709073,
        38.528291781821686
      ],
      [
        -123.26682786846607,
        38.52980990492781
      ],
      [
        -123.26920917982753,
        38.5311042201611
      ],
      [
        -123.27151802756,
        38.5327443939544
      ],
      [
        -123.27460962682125,
        38.53368001655531
      ],
      [
        -123.2769339975133,
        38.534088306011704
      ],
      [
        -123.27820002721164,
        38.536306601059195
      ],
      [
        -123.28047593747732,
        38.53803787466294
      ],
      [
        -123.28273825783513,
        38.53961814710989
      ],
      [
        -123.28542451253462,
        38.54076758693506
      ],
      [
        -123.28805147204578,
        38.54183490881739
      ],
      [
        -123.29026979737343,
        38.542462748964695
      ],
      [
        -123.29173087796225,
        38.54285021645774
      ],
      [
        -123.29276609720378,
        38.54428693052249
      ],
      [
        -123.2940665359995,
        38.54506816704861
      ],
      [
        -123.29683056213615,
        38.54620524309847
      ],
      [
        -123.29621628060204,
        38.547516560495865
      ],
      [
        -123.29698538996183,
        38.54786204038882
      ],
      [
        -123.29872965097684,
        38.547349088131156
      ],
      [
        -123.30088320095554,
        38.54849408844349
      ],
      [
        -123.30180915922064,
        38.55036323403415
      ],
      [
        -123.30123028853681,
        38.55221361940424
      ],
      [
        -123.30082533763635,
        38.55411885292084
      ],
      [
        -123.30071720857615,
        38.555075336416266
      ],
      [
        -123.30190787812295,
        38.55533042774659
      ],
      [
        -123.30357536616506,
        38.55589137811524
      ],
      [
        -123.30574015412685,
        38.55697797125616
      ],
      [
        -123.30805057583406,
        38.556831935469106
      ],
      [
        -123.309387002323,
        38.5574708763546
      ],
      [
        -123.31017059378529,
        38.55886739609258
      ],
      [
        -123.31175185267948,
        38.56024606094096
      ],
      [
        -123.31189370870293,
        38.56208142701521
      ],
      [
        -123.31372579035796,
        38.56303557658384
      ],
      [
        -123.31560806225446,
        38.563926132843434
      ],
      [
        -123.3181454164646,
        38.564872154209674
      ],
      [
        -123.31956510618748,
        38.56647495608393
      ],
      [
        -123.31977026105486,
        38.568450323606434
      ],
      [
        -123.32250349337534,
        38.56972951420166
      ],
      [
        -123.32552450849197,
        38.57110334621306
      ],
      [
        -123.32663842102953,
        38.57254848942452
      ],
      [
        -123.3297000012027,
        38.57305437268135
      ],
      [
        -123.33287926605588,
        38.57389922930339
      ],
      [
        -123.33422279737478,
        38.57594270634873
      ],
      [
        -123.33467297042009,
        38.57804054579481
      ],
      [
        -123.3324221349876,
        38.57758527879683
      ],
      [
        -123.33213932862147,
        38.57818408608572
      ],
      [
        -123.33343549603953,
        38.5790377859516
      ],
      [
        -123.33250602094367,
        38.58058022008694
      ],
      [
        -123.33308672694027,
        38.58217236985199
      ],
      [
        -123.33519601189009,
        38.58340357368825
      ],
      [
        -123.33757201867091,
        38.58411830660746
      ],
      [
        -123.33666241531829,
        38.58576394474229
      ],
      [
        -123.33893829347916,
        38.586255371829544
      ],
      [
        -123.3407899112588,
        38.587663201277124
      ],
      [
        -123.3411210519285,
        38.58984253988893
      ],
      [
        -123.34242636068764,
        38.591978245339334
      ],
      [
        -123.34446540569286,
        38.59408120328186
      ],
      [
        -123.34644422158757,
        38.59585511437095
      ],
      [
        -123.34797769779262,
        38.59752873708751
      ],
      [
        -123.34990065267972,
        38.599291397050095
      ],
      [
        -123.35083930222687,
        38.60090377573086
      ],
      [
        -123.35317606290903,
        38.60229629861998
      ],
      [
        -123.35596523969242,
        38.603198602920244
      ],
      [
        -123.35856307019023,
        38.604602463320674
      ],
      [
        -123.36130316273692,
        38.606143017704724
      ],
      [
        -123.36290924360988,
        38.60808313337331
      ],
      [
        -123.36390864831351,
        38.61081893403047
      ],
      [
        -123.36524429878921,
        38.613438776012764
      ],
      [
        -123.36834871504827,
        38.61518135047976
      ],
      [
        -123.37145807336506,
        38.61656727499941
      ],
      [
        -123.37439337191483,
        38.61793710626111
      ],
      [
        -123.3767875060231,
        38.620292933678655
      ],
      [
        -123.37942997657206,
        38.6226696369766
      ],
      [
        -123.38136938113664,
        38.625277694371114
      ],
      [
        -123.38352204263585,
        38.62778812992524
      ],
      [
        -123.38558725942181,
        38.63009853878704
      ],
      [
        -123.38706595112767,
        38.63305673476845
      ],
      [
        -123.38817608309564,
        38.6360037866515
      ],
      [
        -123.38930322259156,
        38.6389783875024
      ],
      [
        -123.39228722469991,
        38.64091912548673
      ],
      [
        -123.39478700756935,
        38.64320305878742
      ],
      [
        -123.39666269566081,
        38.645660848627905
      ],
      [
        -123.39742006785832,
        38.64850698266216
      ],
      [
        -123.39842058133146,
        38.65120174626878
      ],
      [
        -123.40067778756722,
        38.653185083498975
      ],
      [
        -123.40165997760015,
        38.655687643518974
      ],
      [
        -123.40341595962319,
        38.658148227684315
      ],
      [
        -123.40468786286388,
        38.66000922613653
      ],
      [
        -123.40513997256166,
        38.662262756186905
      ],
      [
        -123.40748036084481,
        38.664365607929184
      ],
      [
        -123.40999007080148,
        38.66676274842809
      ],
      [
        -123.41194127675365,
        38.66917021742161
      ],
      [
        -123.41447887266087,
        38.670851423535034
      ],
      [
        -123.41663222585935,
        38.672801807976036
      ],
      [
        -123.41885034793107,
        38.675017057419375
      ],
      [
        -123.42192600632018,
        38.67654246950616
      ],
      [
        -123.4250816774834,
        38.677932064379526
      ],
      [
        -123.42769109401999,
        38.67970800134684
      ],
      [
        -123.42839798063733,
        38.68185339978199
      ],
      [
        -123.42669977047332,
        38.68400709147809
      ],
      [
        -123.42578928047602,
        38.68592084813002
      ],
      [
        -123.42632298826275,
        38.68790352958153
      ],
      [
        -123.42652072926586,
        38.69010610894942
      ],
      [
        -123.42797192825338,
        38.69202087971001
      ],
      [
        -123.4294403577827,
        38.693966798328134
      ],
      [
        -123.43111858862854,
        38.695783638082716
      ],
      [
        -123.43366610854673,
        38.69726369426449
      ],
      [
        -123.43533630653089,
        38.69922774105914
      ],
      [
        -123.43763842297781,
        38.70078537767086
      ],
      [
        -123.4385271230235,
        38.7010187399559
      ],
      [
        -123.43977648179181,
        38.70063809075811
      ],
      [
        -123.44065861666667,
        38.7011035
      ],
      [
        -123.44076411466254,
        38.70116508223555
      ],
      [
        -123.44062573333333,
        38.70151381666667
      ],
      [
        -123.44052245,
        38.70164008333333
      ],
      [
        -123.44052245,
        38.70164008333333
      ],
      [
        -123.4406468,
        38.70130648333333
      ],
      [
        -123.44079675027754,
        38.70119540983642
      ],
      [
        -123.440658095532,
        38.70161546431502
      ],
      [
        -123.4407171,
        38.70175283333333
      ],
      [
        -123.4407171,
        38.70175283333333
      ],
      [
        -122.46574879689076,
        37.73858865988673
      ],
      [
        -122.4659782691243,
        37.73891334087427
      ],
      [
        -122.4660291272092,
        37.73902238375748
      ],
      [
        -122.46604422265466,
        37.73900472587627
      ],
      [
        -122.4660447,
        37.739004731464334
      ],
      [
        -122.46608599988579,
        37.73906893229616
      ],
      [
        -122.46638967110424,
        37.739123361988305
      ],
      [
        -122.46785360910488,
        37.73784573585671
      ],
      [
        -122.46808829787012,
        37.73763138932691
      ],
      [
        -122.46815150839912,
        37.737603956695544
      ],
      [
        -122.46974669199253,
        37.73634025449973
      ],
      [
        -122.47071014800812,
        37.735612961691835
      ],
      [
        -122.47068292156004,
        37.735597338015225
      ],
      [
        -122.47068245847893,
        37.73559649
      ],
      [
        -122.47068232758927,
        37.73559599758928
      ],
      [
        -122.47068213708059,
        37.7355955514597
      ],
      [
        -122.47068186044571,
        37.73559523596897
      ],
      [
        -122.47070083920073,
        37.73557745381682
      ],
      [
        -122.47158166034585,
        37.73471583579575
      ],
      [
        -122.47186336741106,
        37.733118678584574
      ],
      [
        -122.4719147757261,
        37.731781795138595
      ],
      [
        -122.47194707309725,
        37.73045059913138
      ],
      [
        -122.47210566069711,
        37.728045703299514
      ],
      [
        -122.47220298829569,
        37.72708325953139
      ],
      [
        -122.47217595829855,
        37.7270580622963
      ],
      [
        -122.47215963205308,
        37.72705859412496
      ],
      [
        -122.47212407978597,
        37.72664825650602
      ],
      [
        -122.47231509161446,
        37.723640494874545
      ],
      [
        -122.47234744518295,
        37.721678142480165
      ],
      [
        -122.47244516677785,
        37.72178610415034
      ],
      [
        -122.47245681627797,
        37.721808643911864
      ],
      [
        -122.47245583,
        37.721807891531455
      ],
      [
        -122.47255307496683,
        37.72046151777737
      ],
      [
        -122.47267065980637,
        37.71858991529368
      ],
      [
        -122.47274655598305,
        37.71838872477559
      ],
      [
        -122.47267624717777,
        37.71831319332534
      ],
      [
        -122.47263624925945,
        37.71832475724865
      ],
      [
        -122.472638590486,
        37.71830081503452
      ],
      [
        -122.47270578166653,
        37.717589339755406
      ],
      [
        -122.47268173842726,
        37.71754681041018
      ],
      [
        -122.47268599924708,
        37.71754983151729
      ],
      [
        -122.47268408234889,
        37.71754896693956
      ],
      [
        -122.47268253460587,
        37.71754839
      ],
      [
        -122.47268161597916,
        37.7175479529053
      ],
      [
        -122.47268101222532,
        37.71754762611266
      ],
      [
        -122.47267950898012,
        37.717309563912984
      ],
      [
        -122.47187201239294,
        37.714525063505306
      ],
      [
        -122.47128669735488,
        37.711136103835514
      ],
      [
        -122.471436625682,
        37.70764517980081
      ],
      [
        -122.47182957013811,
        37.70402602385543
      ],
      [
        -122.47176848936662,
        37.70029614706458
      ],
      [
        -122.47116142185763,
        37.69664223785613
      ],
      [
        -122.47064966531362,
        37.69264904356028
      ],
      [
        -122.47081814259398,
        37.68877488401297
      ],
      [
        -122.47163350145932,
        37.6849106050171
      ],
      [
        -122.47189410354775,
        37.68104423774061
      ],
      [
        -122.4712029146106,
        37.67707703639629
      ],
      [
        -122.4684485214462,
        37.67364449793521
      ],
      [
        -122.46626000576875,
        37.66978672090241
      ],
      [
        -122.46600158920094,
        37.66611714612557
      ],
      [
        -122.46569958985829,
        37.66229969318223
      ],
      [
        -122.46297626781892,
        37.65891837850382
      ],
      [
        -122.45917215088306,
        37.655951379372915
      ],
      [
        -122.45547064506984,
        37.65309222700035
      ],
      [
        -122.45238564270048,
        37.64971835118556
      ],
      [
        -122.45019112374504,
        37.645970302852014
      ],
      [
        -122.44643088226385,
        37.64317099915121
      ],
      [
        -122.44286625149417,
        37.64035023716757
      ],
      [
        -122.43989511641601,
        37.63688655020678
      ],
      [
        -122.43790603785322,
        37.63302725377497
      ],
      [
        -122.43458736661141,
        37.629997932470296
      ],
      [
        -122.43103006868492,
        37.627269570162305
      ],
      [
        -122.42973357846854,
        37.6259051623672
      ],
      [
        -122.42940636769669,
        37.62561295229879
      ],
      [
        -122.42897576340972,
        37.62499824959734
      ],
      [
        -122.42860203577787,
        37.62447340978911
      ],
      [
        -122.42838008415953,
        37.62405651525624
      ],
      [
        -122.42806114645664,
        37.62358555857845
      ],
      [
        -122.42787082874639,
        37.62324173013836
      ],
      [
        -122.42759149658633,
        37.622858124428994
      ],
      [
        -122.4272491915589,
        37.62232586901824
      ],
      [
        -122.42690002542786,
        37.621836251777864
      ],
      [
        -122.42656606354498,
        37.62129991473239
      ],
      [
        -122.42626708137807,
        37.62078259456061
      ],
      [
        -122.4257287214214,
        37.61997312907422
      ],
      [
        -122.42544826755234,
        37.61958070626904
      ],
      [
        -122.4251849264821,
        37.61918463547606
      ],
      [
        -122.42479540907684,
        37.61848423262822
      ],
      [
        -122.42461612013433,
        37.61784333507982
      ],
      [
        -122.42444353652157,
        37.61730776162657
      ],
      [
        -122.42434521912115,
        37.61664636377622
      ],
      [
        -122.42430083329883,
        37.61613033012078
      ],
      [
        -122.42443551106888,
        37.6157384387564
      ],
      [
        -122.42465469570203,
        37.61483491826455
      ],
      [
        -122.42497737116003,
        37.61403299112717
      ],
      [
        -122.42551458241336,
        37.61325165423049
      ],
      [
        -122.42579857811047,
        37.61289733394776
      ],
      [
        -122.42605255047816,
        37.61238437264559
      ],
      [
        -122.42630503233987,
        37.61205617797269
      ],
      [
        -122.42687912983992,
        37.61112346551853
      ],
      [
        -122.42726345866737,
        37.61049141079619
      ],
      [
        -122.42760295203041,
        37.6098075366808
      ],
      [
        -122.42787283309035,
        37.609290812741
      ],
      [
        -122.42797356467439,
        37.60902300887038
      ],
      [
        -122.42807811159733,
        37.608610453367305
      ],
      [
        -122.42814804805995,
        37.60823076555691
      ],
      [
        -122.42838312636871,
        37.60766575002672
      ],
      [
        -122.42847732351412,
        37.60723018867908
      ],
      [
        -122.42848759281726,
        37.60676251914407
      ],
      [
        -122.42844687550385,
        37.60628696556152
      ],
      [
        -122.42841408271312,
        37.605721199456426
      ],
      [
        -122.4282798193941,
        37.60517274695308
      ],
      [
        -122.42826445211867,
        37.60497159895014
      ],
      [
        -122.42831252569023,
        37.60494303956
      ],
      [
        -122.42817495722176,
        37.60425474784966
      ],
      [
        -122.42802768902308,
        37.60398778317986
      ],
      [
        -122.42793843921928,
        37.60391364277748
      ],
      [
        -122.42795251709101,
        37.6038392414609
      ],
      [
        -122.42740975958893,
        37.602816442491935
      ],
      [
        -122.42451214745941,
        37.600170404314014
      ],
      [
        -122.4215971379632,
        37.59770570111649
      ],
      [
        -122.41976976179862,
        37.59583671973101
      ],
      [
        -122.41847766628794,
        37.5959920213679
      ],
      [
        -122.41650896508995,
        37.59380962128552
      ],
      [
        -122.41484996920066,
        37.592017254317355
      ],
      [
        -122.41399500573054,
        37.59127786692193
      ],
      [
        -122.41251151791059,
        37.59000566490194
      ],
      [
        -122.41176544036544,
        37.589721776784764
      ],
      [
        -122.40984992690561,
        37.590373562095785
      ],
      [
        -122.40778245725737,
        37.590989058225325
      ],
      [
        -122.40704022180607,
        37.59190194062908
      ],
      [
        -122.40614293677922,
        37.59321525878012
      ],
      [
        -122.40526873965567,
        37.59386361250614
      ],
      [
        -122.40441273675735,
        37.5942647123185
      ],
      [
        -122.40439833394132,
        37.59424046394131
      ],
      [
        -122.40439733723278,
        37.59424086607098
      ],
      [
        -122.40439621524432,
        37.594241394755684
      ],
      [
        -122.40432481411713,
        37.59424489168795
      ],
      [
        -122.40283210374538,
        37.59446351107037
      ],
      [
        -122.40172848329416,
        37.59433278872428
      ],
      [
        -122.40038225709341,
        37.594246236519254
      ],
      [
        -122.39830846986347,
        37.59544183319176
      ],
      [
        -122.39775795717708,
        37.5958630400062
      ],
      [
        -122.39692081646378,
        37.59691323946485
      ],
      [
        -122.39617348887991,
        37.59799035744762
      ]
    ]
  },
  "properties": {}
}