{
  "type": "Feature",
  "geometry": {
    "type": "LineString",
    "coordinates": [
      [
        -121.76847011327591,
        38.559443654866634
      ],
      [
        -121.76809521052739,
        38.556172605045816
      ],
      [
        -121.7681561895591,
        38.552437664834386
      ],
      [
        -121.76820433126562,
        38.54867886457282
      ],
      [
        -121.79321592180963,
        38.49862743180598
      ],
      [
        -121.79434311586695,
        38.49755769772327
      ],
      [
        -121.79581141570391,
        38.49617247939465
      ],
      [
        -121.79767654813821,
        38.494406883307526
      ],
      [
        -121.79961837370959,
        38.49259256883425
      ],
      [
        -121.80176624093424,
        38.49061225665483
      ],
      [
        -121.80414150308336,
        38.488693414689145
      ],
      [
        -121.80681303561445,
        38.486589789699686
      ],
      [
        -121.80966272898071,
        38.48432563595733
      ],
      [
        -121.8127388223132,
        38.481815518596235
      ],
      [
        -121.81607000415576,
        38.47920332792682
      ],
      [
        -121.81936009771661,
        38.476637814150024
      ],
      [
        -121.82269954554924,
        38.47400138810817
      ],
      [
        -121.82604158964087,
        38.47141834573821
      ],
      [
        -121.82959942404553,
        38.468616996779055
      ],
      [
        -121.83307402292579,
        38.46592354816722
      ],
      [
        -121.8363650080827,
        38.46336327569502
      ],
      [
        -121.83974334216356,
        38.46074250728673
      ],
      [
        -121.84304231937539,
        38.45818335416451
      ],
      [
        -121.84652773907206,
        38.455458186878836
      ],
      [
        -121.84987435375791,
        38.45285855071508
      ],
      [
        -121.8535613864697,
        38.450029845533116
      ],
      [
        -121.85707107318512,
        38.447265220617915
      ],
      [
        -121.86068283041337,
        38.44444337701218
      ],
      [
        -121.86424656258318,
        38.44168463799179
      ],
      [
        -121.8678327247031,
        38.43889736453978
      ],
      [
        -121.87141319190678,
        38.43617688225411
      ],
      [
        -121.87493436159768,
        38.433501070148466
      ],
      [
        -121.87851537770177,
        38.43078460743994
      ],
      [
        -121.88210956041999,
        38.42805074832853
      ],
      [
        -121.88559454210936,
        38.42540156883302
      ],
      [
        -121.88925965858255,
        38.4225918203517
      ],
      [
        -121.89289862722366,
        38.41982636298633
      ],
      [
        -121.89639770832189,
        38.41717350732387
      ],
      [
        -121.89983889287447,
        38.4145571230979
      ],
      [
        -121.90329971983486,
        38.41189602600689
      ],
      [
        -121.90681119460346,
        38.40923013297078
      ],
      [
        -121.91032567369344,
        38.40655113923488
      ],
      [
        -121.91399016798981,
        38.40377164421479
      ],
      [
        -121.91746702259984,
        38.40105857165551
      ],
      [
        -121.92098155695257,
        38.398345085473125
      ],
      [
        -121.92463774357799,
        38.395490175450774
      ],
      [
        -121.92837623087472,
        38.39258269620863
      ],
      [
        -121.93191598100137,
        38.38983068669436
      ],
      [
        -121.93537668639884,
        38.3871289373472
      ],
      [
        -121.93897569123482,
        38.38441195136612
      ],
      [
        -121.9426103802127,
        38.38193975330296
      ],
      [
        -121.94629259743863,
        38.379134258815085
      ],
      [
        -121.94991634720971,
        38.37631613361652
      ],
      [
        -121.95350188850749,
        38.37344442004358
      ],
      [
        -121.95680455555166,
        38.370517656478825
      ],
      [
        -121.96033638936449,
        38.36779719623236
      ],
      [
        -121.96389252757146,
        38.36508571566015
      ],
      [
        -121.96760866674776,
        38.362737261508954
      ],
      [
        -121.97139597927608,
        38.36042187996027
      ],
      [
        -121.97509289967505,
        38.35780021280419
      ],
      [
        -121.9782718267036,
        38.35483654609969
      ],
      [
        -121.98177007524606,
        38.35248789627669
      ],
      [
        -121.98575415994385,
        38.35093236723931
      ],
      [
        -121.99001556082332,
        38.349286913610655
      ],
      [
        -121.99412005135018,
        38.347671510473106
      ],
      [
        -121.99783254003773,
        38.3462308211329
      ],
      [
        -122.00164314230236,
        38.34478828151253
      ],
      [
        -122.005642994324,
        38.34338040245322
      ],
      [
        -122.00992977571663,
        38.34209512350191
      ],
      [
        -122.01404686852466,
        38.33984531629305
      ],
      [
        -122.01685785199894,
        38.33673172833223
      ],
      [
        -122.01914780908514,
        38.333157302592745
      ],
      [
        -122.02128229236942,
        38.329750693829766
      ],
      [
        -122.02359405768051,
        38.32610262509476
      ],
      [
        -122.02602799855171,
        38.322525389513565
      ],
      [
        -122.0289770244117,
        38.319282796356276
      ],
      [
        -122.03180835290863,
        38.31592567293786
      ],
      [
        -122.03320416094255,
        38.31211788407205
      ],
      [
        -122.0338380193627,
        38.30814392686348
      ],
      [
        -122.0340624554463,
        38.30382461356955
      ],
      [
        -122.03413898931092,
        38.29980287537973
      ],
      [
        -122.03420824493739,
        38.295918919329466
      ],
      [
        -122.0345542515483,
        38.29213587749842
      ],
      [
        -122.03671091323932,
        38.28897384293049
      ],
      [
        -122.03951009431037,
        38.28571395192813
      ],
      [
        -122.04212859553888,
        38.28260139295714
      ],
      [
        -122.04480385006202,
        38.27944722425878
      ],
      [
        -122.04759920522136,
        38.27614560668534
      ],
      [
        -122.05031439069235,
        38.272923825218435
      ],
      [
        -122.05306528429989,
        38.269669158405335
      ],
      [
        -122.05579561420812,
        38.26647975892017
      ],
      [
        -122.05853738859211,
        38.263227776587755
      ],
      [
        -122.06131410012198,
        38.25993829557369
      ],
      [
        -122.06398318814873,
        38.25677462367629
      ],
      [
        -122.0666749995669,
        38.25360839352522
      ],
      [
        -122.0693036609342,
        38.25048296477293
      ],
      [
        -122.07256921004772,
        38.248102733660666
      ],
      [
        -122.07686549802543,
        38.246795696658246
      ],
      [
        -122.0807943223261,
        38.245155499507355
      ],
      [
        -122.08465580012721,
        38.24345978118071
      ],
      [
        -122.08835643055988,
        38.2418526103655
      ],
      [
        -122.09243405872546,
        38.24004070184299
      ],
      [
        -122.09654081040165,
        38.23826923062072
      ],
      [
        -122.10046798745996,
        38.236549780788486
      ],
      [
        -122.10403980237645,
        38.234986406631116
      ],
      [
        -122.10746413140754,
        38.233463121071644
      ],
      [
        -122.11106689690918,
        38.231901403922386
      ],
      [
        -122.11451388729076,
        38.23042251762471
      ],
      [
        -122.11798129130587,
        38.22894774296617
      ],
      [
        -122.12143437812051,
        38.22730668330286
      ],
      [
        -122.12462795780644,
        38.22563082464419
      ],
      [
        -122.12773812588377,
        38.2237511098187
      ],
      [
        -122.13070913023506,
        38.22179277123906
      ],
      [
        -122.13386223233603,
        38.219628023891445
      ],
      [
        -122.13707741480832,
        38.217459775794936
      ],
      [
        -122.1403715197365,
        38.21521026186746
      ],
      [
        -122.14332082399848,
        38.21317505765261
      ],
      [
        -122.14618475194345,
        38.21119701493239
      ],
      [
        -122.14904899341718,
        38.209226017233874
      ],
      [
        -122.15187719943069,
        38.20684006548426
      ],
      [
        -122.1545825587283,
        38.20451086885451
      ],
      [
        -122.15732595977136,
        38.20209698361773
      ],
      [
        -122.16011188931144,
        38.199649507958945
      ],
      [
        -122.16257571856274,
        38.19753150709235
      ],
      [
        -122.16455884788871,
        38.195801521564896
      ],
      [
        -122.16645721569675,
        38.19373972525939
      ],
      [
        -122.16850325852336,
        38.191476638347474
      ],
      [
        -122.17119337451093,
        38.18919789497759
      ],
      [
        -122.17467251070718,
        38.18756040422769
      ],
      [
        -122.17860689784854,
        38.186362284817626
      ],
      [
        -122.18204119065771,
        38.18471365656759
      ],
      [
        -122.18491580324934,
        38.182126045042644
      ],
      [
        -122.18866516475863,
        38.17969159321984
      ],
      [
        -122.19178208528295,
        38.176592302224435
      ],
      [
        -122.19459509820413,
        38.17351713555499
      ],
      [
        -122.1982868438848,
        38.17094556228717
      ],
      [
        -122.20192328131219,
        38.1683706219354
      ],
      [
        -122.20536055715796,
        38.16598718640346
      ],
      [
        -122.2087425330887,
        38.16353322281816
      ],
      [
        -122.21114181418956,
        38.16046359815343
      ],
      [
        -122.21337102487492,
        38.157296748491504
      ],
      [
        -122.21562509247558,
        38.154078793824745
      ],
      [
        -122.21700219494745,
        38.15022119889389
      ],
      [
        -122.2169120165567,
        38.14645028277194
      ],
      [
        -122.21808427375959,
        38.14316818060974
      ],
      [
        -122.2217422425985,
        38.14150891690759
      ],
      [
        -122.22591381878362,
        38.14149798772729
      ],
      [
        -122.23036790287563,
        38.14151142138641
      ],
      [
        -122.23474566680592,
        38.141481280216276
      ],
      [
        -122.23975687094251,
        38.1416666132845
      ],
      [
        -122.24430581053167,
        38.14212232904255
      ],
      [
        -122.24931262657711,
        38.14263505517569
      ],
      [
        -122.25408515691107,
        38.14156021336863
      ],
      [
        -122.2573047557509,
        38.13855844414117
      ],
      [
        -122.25957926294433,
        38.13521646968415
      ],
      [
        -122.26220131451565,
        38.132292206330774
      ],
      [
        -122.26516251730095,
        38.12968377505695
      ],
      [
        -122.26788016641335,
        38.12724754898167
      ],
      [
        -122.27076470658487,
        38.12467557321826
      ],
      [
        -122.27408122811649,
        38.12284631864367
      ],
      [
        -122.27744787999104,
        38.121565009108224
      ],
      [
        -122.28096684771272,
        38.12024688959402
      ],
      [
        -122.28435148722419,
        38.11899197653425
      ],
      [
        -122.28781883166515,
        38.11779952948676
      ],
      [
        -122.29204487157006,
        38.117516231064954
      ],
      [
        -122.29609686491168,
        38.117461968864845
      ],
      [
        -122.29945319361903,
        38.1174736056484
      ],
      [
        -122.30259206665485,
        38.117790809845424
      ],
      [
        -122.3054568157206,
        38.118552610763324
      ],
      [
        -122.30873079471229,
        38.11997331751702
      ],
      [
        -122.31186948477209,
        38.12151231121615
      ],
      [
        -122.31494522336772,
        38.12288983112609
      ],
      [
        -122.31818277829034,
        38.12431934697613
      ],
      [
        -122.32192737589652,
        38.125915216678386
      ],
      [
        -122.32566797536983,
        38.12751093657606
      ],
      [
        -122.32951187358275,
        38.129006845952254
      ],
      [
        -122.3332928654067,
        38.1304788138145
      ],
      [
        -122.33722096039962,
        38.132140553133354
      ],
      [
        -122.34126335810909,
        38.13358031016458
      ],
      [
        -122.34496460073778,
        38.134854026720234
      ],
      [
        -122.34873652948045,
        38.13612736803102
      ],
      [
        -122.35206504536951,
        38.1374934197998
      ],
      [
        -122.3553038330276,
        38.13900915348761
      ],
      [
        -122.35890964755751,
        38.1402389495716
      ],
      [
        -122.36239138062051,
        38.141395331858234
      ],
      [
        -122.365885695027,
        38.14266566552448
      ],
      [
        -122.36921526213823,
        38.14409465778037
      ],
      [
        -122.37293079641223,
        38.14513858835018
      ],
      [
        -122.37631554638635,
        38.14656617747838
      ],
      [
        -122.37962711174006,
        38.14826995573708
      ],
      [
        -122.38290923159168,
        38.1499378695577
      ],
      [
        -122.38633883291388,
        38.15138862518732
      ],
      [
        -122.38985079265014,
        38.15228815764794
      ],
      [
        -122.3935481493359,
        38.15313981173481
      ],
      [
        -122.39746304209339,
        38.153907443186554
      ],
      [
        -122.40140468776885,
        38.15503715072583
      ],
      [
        -122.40576857236509,
        38.15563899937593
      ],
      [
        -122.41015003502311,
        38.15588526730709
      ],
      [
        -122.41395245056285,
        38.15567245845177
      ],
      [
        -122.41764655653172,
        38.155303595830055
      ],
      [
        -122.42159820142219,
        38.15495822794732
      ],
      [
        -122.425349356352,
        38.15457246784731
      ],
      [
        -122.42852775640509,
        38.154270404318105
      ],
      [
        -122.43195770751119,
        38.15391484079872
      ],
      [
        -122.43491850427965,
        38.15366362930019
      ],
      [
        -122.43733619340186,
        38.15341413362832
      ],
      [
        -122.44016481066652,
        38.15313735893788
      ],
      [
        -122.44363131379752,
        38.152804509426275
      ],
      [
        -122.44630969757507,
        38.15198071901072
      ],
      [
        -122.44858649152006,
        38.15121368990885
      ],
      [
        -122.45105260688358,
        38.15000371499514
      ],
      [
        -122.45357444655791,
        38.148138441459075
      ],
      [
        -122.4558958109963,
        38.14645155152731
      ],
      [
        -122.4583917369187,
        38.144941256427416
      ],
      [
        -122.46107236778919,
        38.14340829927113
      ],
      [
        -122.46435598356373,
        38.14142767821156
      ],
      [
        -122.46754227123368,
        38.13953497918147
      ],
      [
        -122.47090624361928,
        38.13749514314724
      ],
      [
        -122.47422088507354,
        38.13549660386924
      ],
      [
        -122.47745126634011,
        38.13355264591973
      ],
      [
        -122.48129688260956,
        38.13124059484813
      ],
      [
        -122.48520549532547,
        38.12886920560137
      ],
      [
        -122.4891442005232,
        38.12648108675018
      ],
      [
        -122.4930645307576,
        38.12410662134595
      ],
      [
        -122.49703788205862,
        38.12169733436438
      ],
      [
        -122.5010524251219,
        38.119101825887505
      ],
      [
        -122.50412715281672,
        38.11673698377536
      ],
      [
        -122.50711870183532,
        38.114429962418754
      ],
      [
        -122.5084228076976,
        38.11140471432768
      ],
      [
        -122.50905090134519,
        38.10808076017123
      ],
      [
        -122.51150038353985,
        38.10573069781465
      ],
      [
        -122.51415432239406,
        38.103427623263634
      ],
      [
        -122.5172530975604,
        38.100974906191844
      ],
      [
        -122.52008145140535,
        38.09876040341202
      ],
      [
        -122.52319920797422,
        38.09637957641552
      ],
      [
        -122.5262765782213,
        38.09397127913076
      ],
      [
        -122.52931989860355,
        38.09163071256791
      ],
      [
        -122.53242442084569,
        38.089241564112484
      ],
      [
        -122.53531394898592,
        38.08697893714742
      ],
      [
        -122.53851151219698,
        38.08456363172589
      ],
      [
        -122.54201805285842,
        38.08263315415546
      ],
      [
        -122.54538028598257,
        38.08078886903492
      ],
      [
        -122.54626934523365,
        38.07815435287864
      ],
      [
        -122.54354432831677,
        38.076349448874964
      ],
      [
        -122.54142901584696,
        38.07413754224718
      ],
      [
        -122.54003643576954,
        38.0716210572711
      ],
      [
        -122.53883600176125,
        38.06899846217428
      ],
      [
        -122.53750094172167,
        38.066101123462815
      ],
      [
        -122.53533238037019,
        38.06366413622021
      ],
      [
        -122.53322132454046,
        38.0612910398023
      ],
      [
        -122.53152535894999,
        38.05886405759785
      ],
      [
        -122.53083462232195,
        38.05605845830867
      ],
      [
        -122.5310829050088,
        38.053073165007866
      ],
      [
        -122.53183155039395,
        38.04982856628815
      ],
      [
        -122.5333165052102,
        38.04681677420725
      ],
      [
        -122.5351999385326,
        38.04406369274128
      ],
      [
        -122.53690659225397,
        38.041438279704266
      ],
      [
        -122.53691562294675,
        38.0384174019006
      ],
      [
        -122.53703414775094,
        38.03542747325393
      ],
      [
        -122.5374510327347,
        38.032313539650474
      ],
      [
        -122.53776208169928,
        38.029398360966525
      ],
      [
        -122.53824099970804,
        38.0261686035441
      ],
      [
        -122.53885476552936,
        38.02317385244944
      ],
      [
        -122.53970879365609,
        38.020183729887
      ],
      [
        -122.5408913729813,
        38.017197631505816
      ],
      [
        -122.54194869365769,
        38.014418665298315
      ],
      [
        -122.54217504346292,
        38.011616394701235
      ],
      [
        -122.54213559883314,
        38.008678579065936
      ],
      [
        -122.54064026292131,
        38.00546569782181
      ],
      [
        -122.53867870473286,
        38.00280830564523
      ],
      [
        -122.53685037768601,
        38.000278138065674
      ],
      [
        -122.53480399911633,
        37.997499133247615
      ],
      [
        -122.53284755687967,
        37.99483078901846
      ],
      [
        -122.53081574470563,
        37.99210589918632
      ],
      [
        -122.52865757914648,
        37.98979977124135
      ],
      [
        -122.52664688319457,
        37.987782376411474
      ],
      [
        -122.52440255076674,
        37.985417912137805
      ],
      [
        -122.5226386438479,
        37.98277287917712
      ],
      [
        -122.52143070994407,
        37.9803518347174
      ],
      [
        -122.52075269979377,
        37.97737657021049
      ],
      [
        -122.52127020051394,
        37.97515077730586
      ],
      [
        -122.52151671697548,
        37.9742240698019
      ],
      [
        -122.52233221931552,
        37.97414847330493
      ],
      [
        -122.5243885825852,
        37.974496542804644
      ],
      [
        -122.52621145925308,
        37.97462446255096
      ],
      [
        -122.52718178713288,
        37.97409972767312
      ],
      [
        -122.52790098691155,
        37.974169102753514
      ],
      [
        -122.52790063671425,
        37.97416906897297
      ],
      [
        -122.52895449769939,
        37.97428417605457
      ],
      [
        -122.52918556614026,
        37.97431059223378
      ],
      [
        -122.52923119089581,
        37.97431580814173
      ],
      [
        -121.76854006290813,
        38.55956285428991
      ],
      [
        -121.76809719497903,
        38.55638610523565
      ],
      [
        -121.76806738932416,
        38.55251534615071
      ],
      [
        -121.7681590490583,
        38.547884994947516
      ],
      [
        -121.76840497549733,
        38.54321480284268
      ],
      [
        -121.76857038967425,
        38.53843944422136
      ],
      [
        -121.76863746103032,
        38.53388038936928
      ],
      [
        -121.76878726042771,
        38.52908933292247
      ],
      [
        -121.76892490491848,
        38.524173318594165
      ],
      [
        -121.77076123057057,
        38.51976496088426
      ],
      [
        -121.77408014173731,
        38.516456102497365
      ],
      [
        -121.7776270100842,
        38.513158791766685
      ],
      [
        -121.7812906762573,
        38.50971810685829
      ],
      [
        -121.78484155051915,
        38.50637789040272
      ],
      [
        -121.78833876752982,
        38.503121085222766
      ],
      [
        -121.79168919508543,
        38.49998894123335
      ],
      [
        -121.79505648852174,
        38.49679570477542
      ],
      [
        -121.79839835363325,
        38.493678262339884
      ],
      [
        -121.80166519706252,
        38.49063928335138
      ],
      [
        -121.8049883394036,
        38.4879776890375
      ],
      [
        -121.8081329706802,
        38.48553552797806
      ],
      [
        -121.81135626211372,
        38.482965129673524
      ],
      [
        -121.81455341224576,
        38.48043722125234
      ],
      [
        -121.81782151271523,
        38.477867410155106
      ],
      [
        -121.82147136509361,
        38.47498609111536
      ],
      [
        -121.82506622520451,
        38.47217941086134
      ],
      [
        -121.82861146424705,
        38.469422768285796
      ],
      [
        -121.83212820944082,
        38.46669790126927
      ],
      [
        -121.83561101214711,
        38.46398524814765
      ],
      [
        -121.83928708933159,
        38.46114816955962
      ],
      [
        -121.8429987827408,
        38.45823363337141
      ],
      [
        -121.84649326092496,
        38.45551656890291
      ],
      [
        -121.84954418917857,
        38.45314560885546
      ],
      [
        -121.8522783861366,
        38.45102100142726
      ],
      [
        -121.85456214219741,
        38.4491992103097
      ],
      [
        -121.85657399512098,
        38.44765292548566
      ],
      [
        -121.8583247925364,
        38.44629885311705
      ],
      [
        -121.860579537913,
        38.44454440097824
      ],
      [
        -121.86294182506948,
        38.4426898069442
      ],
      [
        -121.8645098274979,
        38.441459706693635
      ],
      [
        -121.86596506910158,
        38.440348938047194
      ],
      [
        -121.86789478231671,
        38.438857053252754
      ],
      [
        -121.86999853380004,
        38.437233465100256
      ],
      [
        -121.87240064363792,
        38.435396679216566
      ],
      [
        -121.87484921861234,
        38.4335534107326
      ],
      [
        -121.87678931264291,
        38.43209566912349
      ],
      [
        -121.87759215502523,
        38.43147788673132
      ],
      [
        -121.87902678154245,
        38.430406586635634
      ],
      [
        -121.88057551622585,
        38.42921373128401
      ],
      [
        -121.88147077200541,
        38.42851897355968
      ],
      [
        -121.88253930793148,
        38.42769361778363
      ],
      [
        -121.88393727021007,
        38.42664364499046
      ],
      [
        -121.88515620242595,
        38.42572663247416
      ],
      [
        -121.88601570727523,
        38.42506391787819
      ],
      [
        -121.88711982298506,
        38.42421826068394
      ],
      [
        -121.88855916389934,
        38.423126697616986
      ],
      [
        -121.89069218221442,
        38.42150795072333
      ],
      [
        -121.89327394425105,
        38.41953178558852
      ],
      [
        -121.8963936439617,
        38.417168674300974
      ],
      [
        -121.89963951300486,
        38.41467450262575
      ],
      [
        -121.90290012872498,
        38.41219332917986
      ],
      [
        -121.90616083027487,
        38.40973774261056
      ],
      [
        -121.90935413546717,
        38.40728030511938
      ],
      [
        -121.91277629511465,
        38.40467869914879
      ],
      [
        -121.91646262158932,
        38.40185693658455
      ],
      [
        -121.9200714225911,
        38.39905679109691
      ],
      [
        -121.9236083466515,
        38.39630867967589
      ],
      [
        -121.92740235591714,
        38.393346020242255
      ],
      [
        -121.93095506205175,
        38.39057787345773
      ],
      [
        -121.93438226461151,
        38.38791768190501
      ],
      [
        -121.93796609937446,
        38.38512467665679
      ],
      [
        -121.94174472506687,
        38.382538491287306
      ],
      [
        -121.94532231680108,
        38.37990128162499
      ],
      [
        -121.94885724542773,
        38.377156591248315
      ],
      [
        -121.95237619000184,
        38.374377240955816
      ],
      [
        -121.9556427687053,
        38.3715389612711
      ],
      [
        -121.95910587966299,
        38.368753686612976
      ],
      [
        -121.96254138425546,
        38.36610544925691
      ],
      [
        -121.96586285965331,
        38.36378152949456
      ],
      [
        -121.96951038564231,
        38.361556400505044
      ],
      [
        -121.97319147396851,
        38.359291788942166
      ],
      [
        -121.97610331081363,
        38.35683578096743
      ],
      [
        -121.97858085905116,
        38.35453533349021
      ],
      [
        -121.98055461780282,
        38.35308610206926
      ],
      [
        -121.98301759585756,
        38.352002429012984
      ],
      [
        -121.9858722945988,
        38.35088311057311
      ],
      [
        -121.98915762716581,
        38.349624537858055
      ],
      [
        -121.9924140784327,
        38.34834991991
      ],
      [
        -121.99531686329482,
        38.34720892884199
      ],
      [
        -121.99877155916698,
        38.345847643377596
      ],
      [
        -122.00236663489274,
        38.344459594463736
      ],
      [
        -122.00639215401075,
        38.34308922992096
      ],
      [
        -122.01061134419993,
        38.34176522375149
      ],
      [
        -122.0144045570499,
        38.33948485492725
      ],
      [
        -122.01697810609883,
        38.336412344447325
      ],
      [
        -122.01910006474229,
        38.33307769000818
      ],
      [
        -122.0212851136295,
        38.329672117962915
      ],
      [
        -122.0234717289319,
        38.32620821749479
      ],
      [
        -122.0255684726115,
        38.32304786334674
      ],
      [
        -122.02793303975008,
        38.3203690582382
      ],
      [
        -122.03018751606551,
        38.31785033249045
      ],
      [
        -122.03244207664021,
        38.314780852227564
      ],
      [
        -122.03336152883908,
        38.31109789068403
      ],
      [
        -122.03389809072591,
        38.30733958282236
      ],
      [
        -122.03404619453708,
        38.30355608940861
      ],
      [
        -122.03413005780044,
        38.299614306153124
      ],
      [
        -122.03419206370087,
        38.29567130388949
      ],
      [
        -122.0345841234545,
        38.29197109141888
      ],
      [
        -122.03683797955603,
        38.2887513993118
      ],
      [
        -122.03947838437573,
        38.2856484461081
      ],
      [
        -122.04214111767816,
        38.28250770711452
      ],
      [
        -122.04496385629223,
        38.27916514331391
      ],
      [
        -122.04780568488486,
        38.275821223956704
      ],
      [
        -122.05029891011313,
        38.27290513474421
      ],
      [
        -122.0527901971467,
        38.26996142109401
      ],
      [
        -122.05536046699358,
        38.266882285660245
      ],
      [
        -122.05801449745472,
        38.26380447061818
      ],
      [
        -122.06072144843017,
        38.26059408751511
      ],
      [
        -122.06329945163554,
        38.25753692905695
      ],
      [
        -122.06592604351825,
        38.2544444305023
      ],
      [
        -122.06866061770396,
        38.25121107610421
      ],
      [
        -122.07162323443248,
        38.248540856853396
      ],
      [
        -122.07592461808672,
        38.247085465843675
      ],
      [
        -122.080302726345,
        38.24530391088349
      ],
      [
        -122.08446571219207,
        38.2435100027572
      ],
      [
        -122.08867576559149,
        38.24166423107906
      ],
      [
        -122.09288434178286,
        38.23984998984886
      ],
      [
        -122.09710978406527,
        38.237981799006654
      ],
      [
        -122.1016041068617,
        38.23604407793282
      ],
      [
        -122.10590598022338,
        38.234147868630956
      ],
      [
        -122.11021758792886,
        38.232261006970155
      ],
      [
        -122.11430728082831,
        38.23051088055726
      ],
      [
        -122.11851251221371,
        38.22867883694889
      ],
      [
        -122.12306394257753,
        38.22646402792267
      ],
      [
        -122.12753450820807,
        38.2238748614302
      ],
      [
        -122.1317195457466,
        38.221049785386086
      ],
      [
        -122.13571037324047,
        38.21828975809562
      ],
      [
        -122.1396597300175,
        38.21584692432296
      ],
      [
        -122.14348392039541,
        38.21322438590381
      ],
      [
        -122.1472156134626,
        38.21059248597971
      ],
      [
        -122.15060811964315,
        38.20792574398026
      ],
      [
        -122.15386747423072,
        38.20508729899013
      ],
      [
        -122.1570788114035,
        38.20227168935117
      ],
      [
        -122.16030673842238,
        38.19945657312223
      ],
      [
        -122.16367876461467,
        38.19652260117684
      ],
      [
        -122.16670516962424,
        38.193423739442366
      ],
      [
        -122.16984982412707,
        38.19020156687548
      ],
      [
        -122.17348740802103,
        38.18794688740232
      ],
      [
        -122.17774746828803,
        38.18659645159407
      ],
      [
        -122.18173419956763,
        38.18487192864863
      ],
      [
        -122.18488393366128,
        38.182133391638786
      ],
      [
        -122.1884213837233,
        38.17981532458529
      ],
      [
        -122.19146550757081,
        38.177023461693345
      ],
      [
        -122.19420476503893,
        38.173832134447125
      ],
      [
        -122.1978302513117,
        38.17125621448667
      ],
      [
        -122.20124203471646,
        38.168838211483255
      ],
      [
        -122.20476185388529,
        38.16635699603611
      ],
      [
        -122.20838803939832,
        38.16385389920299
      ],
      [
        -122.21132429542267,
        38.160225633248885
      ],
      [
        -122.21396903699477,
        38.15650585454085
      ],
      [
        -122.21617640168303,
        38.153157604699246
      ],
      [
        -122.21704039779733,
        38.14934463029342
      ],
      [
        -122.21714011521807,
        38.14544758974195
      ],
      [
        -121.99688883350841,
        38.34660820358955
      ],
      [
        -121.9997408798682,
        38.34552584141561
      ],
      [
        -122.00262043558484,
        38.34440017707829
      ],
      [
        -122.00492119585907,
        38.34357181676577
      ],
      [
        -122.00661075808443,
        38.3430775319451
      ],
      [
        -122.00933735085769,
        38.342267333485594
      ],
      [
        -122.01252532865142,
        38.34085132372931
      ],
      [
        -122.01516539442964,
        38.33882972183794
      ],
      [
        -122.01680021612107,
        38.33677055462012
      ],
      [
        -122.01768821942811,
        38.33536835400256
      ],
      [
        -122.01837714127134,
        38.33425907195564
      ],
      [
        -122.01959956997293,
        38.33231829062888
      ],
      [
        -122.02079183539811,
        38.330477817382764
      ],
      [
        -122.02193427895257,
        38.32868494271416
      ],
      [
        -122.02324351355526,
        38.32660791082995
      ],
      [
        -122.02466099764449,
        38.324362980068784
      ],
      [
        -122.02577757218396,
        38.3227570873408
      ],
      [
        -122.02753743355072,
        38.32080688905917
      ],
      [
        -122.02974631636646,
        38.318368334201104
      ],
      [
        -122.03189846280365,
        38.31579337346946
      ],
      [
        -122.03306038576267,
        38.31275100275347
      ],
      [
        -122.03363221202763,
        38.30928805860835
      ],
      [
        -122.03399030861797,
        38.305647385885095
      ],
      [
        -122.03403349442503,
        38.30188635992137
      ],
      [
        -122.29880656506285,
        37.84783131294502
      ],
      [
        -122.29837607182974,
        37.845982560387675
      ],
      [
        -122.29794537531176,
        37.84387094809743
      ],
      [
        -122.29751194331234,
        37.84192519682243
      ],
      [
        -122.29733298616935,
        37.84093694547792
      ],
      [
        -122.2971961726681,
        37.84013284002683
      ],
      [
        -122.29704122077995,
        37.839110001244464
      ],
      [
        -122.29683280138845,
        37.83813104578613
      ],
      [
        -122.29652269390485,
        37.83714267387057
      ],
      [
        -122.29589867750462,
        37.83574755152673
      ],
      [
        -122.29473946137209,
        37.83312585623479
      ],
      [
        -122.29413719997791,
        37.82949504811752
      ],
      [
        -122.29769052752934,
        37.82712598966558
      ],
      [
        -122.36504304923399,
        37.81005640772755
      ],
      [
        -122.36824517908065,
        37.80708787724449
      ],
      [
        -122.37123822295032,
        37.80426163364914
      ],
      [
        -122.37421834752922,
        37.80145563867709
      ],
      [
        -122.37708310688964,
        37.798817533187226
      ],
      [
        -122.37972222101902,
        37.796346266429644
      ],
      [
        -122.3824721692669,
        37.7937667862665
      ],
      [
        -122.38427160931734,
        37.79208543176933
      ],
      [
        -122.42727259015017,
        37.731913711128854
      ],
      [
        -122.43132347871993,
        37.732421483017184
      ],
      [
        -122.43448272991165,
        37.73184191547446
      ],
      [
        -122.43574958687543,
        37.73160555248189
      ],
      [
        -122.4360775855579,
        37.73159976586488
      ],
      [
        -122.4360775855579,
        37.73159976586488
      ],
      [
        -122.4360775855579,
        37.73159976586488
      ],
      [
        -122.4360775855579,
        37.73159976586488
      ],
      [
        -122.43716407309176,
        37.731685386573794
      ],
      [
        -122.43929856553783,
        37.73160910444395
      ],
      [
        -122.44098977307183,
        37.73162446167044
      ],
      [
        -122.44236092048214,
        37.73163795069443
      ],
      [
        -122.44467031756066,
        37.731631434191954
      ],
      [
        -122.44655424313618,
        37.731620531543385
      ],
      [
        -122.44860062715983,
        37.731594629221604
      ],
      [
        -122.45063660587087,
        37.73159308521789
      ],
      [
        -122.45163589304276,
        37.73158213931241
      ],
      [
        -122.4532455488502,
        37.731548361636406
      ],
      [
        -122.454475338902,
        37.731542902580706
      ],
      [
        -122.45628706445902,
        37.73130733436915
      ],
      [
        -122.45752702429607,
        37.73120620199172
      ],
      [
        -122.4579549782574,
        37.73242771818804
      ],
      [
        -122.45885704531287,
        37.73323280800829
      ],
      [
        -122.4598441527577,
        37.73464603842712
      ],
      [
        -122.46122467490501,
        37.73579119082246
      ],
      [
        -121.74106761909106,
        38.54745173738598
      ],
      [
        -121.74158342787948,
        38.548970122323745
      ],
      [
        -121.7419411600225,
        38.55052814843058
      ],
      [
        -121.74198570408275,
        38.550906954454824
      ],
      [
        -121.74198574647525,
        38.55090720987382
      ],
      [
        -121.74199468472801,
        38.55092434310721
      ],
      [
        -121.74199272297817,
        38.5509492440131
      ],
      [
        -121.74198640329871,
        38.55097058791517
      ],
      [
        -121.74202195406676,
        38.55130103803741
      ],
      [
        -121.74231732140301,
        38.55285608154595
      ],
      [
        -121.74261550467408,
        38.554664092377244
      ],
      [
        -121.74320581383887,
        38.55656882536211
      ],
      [
        -121.74403570687434,
        38.558337537209944
      ],
      [
        -121.74480700689179,
        38.5598939349232
      ],
      [
        -121.74481205478125,
        38.560421353055546
      ],
      [
        -121.74483077685723,
        38.560542986328656
      ],
      [
        -121.7467613998592,
        38.56082429386606
      ],
      [
        -121.74950450119046,
        38.56083890903647
      ],
      [
        -121.75168708194356,
        38.560848789819275
      ],
      [
        -121.7519451187426,
        38.56084529753808
      ],
      [
        -121.7537784855219,
        38.560894401829565
      ],
      [
        -121.75651104806435,
        38.56090371736754
      ],
      [
        -121.75841799584562,
        38.561193088478795
      ],
      [
        -121.75839397808936,
        38.56216839242203
      ],
      [
        -121.76001574599672,
        38.562104815900135
      ],
      [
        -121.76123955035565,
        38.56212766465226
      ],
      [
        -121.76140558551086,
        38.56189871704561
      ],
      [
        -122.170145387448,
        37.444131533672525
      ],
      [
        -122.17005312222807,
        37.44443924501016
      ],
      [
        -122.16954656867856,
        37.4448915003828
      ],
      [
        -122.1686740356177,
        37.44439325491228
      ],
      [
        -122.16762592109613,
        37.44356941221859
      ],
      [
        -122.16585122009903,
        37.442207958187176
      ],
      [
        -122.16359604605901,
        37.44023308848806
      ],
      [
        -122.16291119178395,
        37.43962603145041
      ],
      [
        -122.16289699368575,
        37.43961361126089
      ],
      [
        -122.1628755358013,
        37.439610328185424
      ],
      [
        -122.16287552647559,
        37.43961839360954
      ],
      [
        -122.16287494555986,
        37.439617882779935
      ],
      [
        -122.16183630965253,
        37.438628555744984
      ],
      [
        -122.1603944898394,
        37.43741211392702
      ],
      [
        -122.16037764224289,
        37.437410009429975
      ],
      [
        -122.16037779,
        37.43740999
      ],
      [
        -122.16037787,
        37.4374099363781
      ],
      [
        -122.16035328937595,
        37.43738204437498
      ],
      [
        -122.15856588808856,
        37.43584567976337
      ],
      [
        -122.15626603581259,
        37.43380376412245
      ],
      [
        -122.15388884190817,
        37.431750976277776
      ],
      [
        -122.15126976959773,
        37.429510427278494
      ],
      [
        -122.14939302947292,
        37.42784810837165
      ],
      [
        -122.14943818367009,
        37.427895799802656
      ],
      [
        -122.1494262108059,
        37.42789457199017
      ],
      [
        -122.1485661897493,
        37.42710440232427
      ],
      [
        -122.1471705719876,
        37.42586091002676
      ],
      [
        -122.14675622733289,
        37.42552627816698
      ],
      [
        -122.14630104586453,
        37.4252627766424
      ],
      [
        -122.14628840008989,
        37.42526053229732
      ],
      [
        -122.14628411995737,
        37.42525889209693
      ],
      [
        -122.1449192183603,
        37.42459193973386
      ],
      [
        -122.14290868608147,
        37.42345910154098
      ],
      [
        -122.14238187301419,
        37.42321352281031
      ],
      [
        -122.14209892001368,
        37.42304570662163
      ],
      [
        -122.13990787306402,
        37.42189031952732
      ],
      [
        -122.13763594827257,
        37.420684212197514
      ],
      [
        -122.13532679893164,
        37.41948304007588
      ],
      [
        -122.13271442925107,
        37.41811774344182
      ],
      [
        -122.1301256960226,
        37.41677900708373
      ],
      [
        -122.12791456003208,
        37.41549390315246
      ]
    ]
  },
  "properties": {}
}