{
  "type": "Feature",
  "geometry": {
    "type": "LineString",
    "coordinates": [
      [
        -122.45998545880715,
        37.73478609870886
      ],
      [
        -122.45935271313449,
        37.73409451968426
      ],
      [
        -122.45887981859907,
        37.73328381218101
      ],
      [
        -122.45823903912367,
        37.732531203921035
      ],
      [
        -122.45756250387917,
        37.73140444920243
      ],
      [
        -122.45703444989509,
        37.73103949356659
      ],
      [
        -122.45502594773855,
        37.731408852534855
      ],
      [
        -122.45339994435611,
        37.73149451959628
      ],
      [
        -122.45126393325803,
        37.73153653351784
      ],
      [
        -122.44911372975992,
        37.73151310933782
      ],
      [
        -122.44729104614113,
        37.73152672905406
      ],
      [
        -122.44662276829939,
        37.7315405723328
      ],
      [
        -122.44442887373333,
        37.73157708768465
      ],
      [
        -122.4424548649229,
        37.731553530148034
      ],
      [
        -122.44145501258188,
        37.73158296441945
      ],
      [
        -122.43996209685245,
        37.73157326972878
      ],
      [
        -122.43831825370614,
        37.731608418675144
      ],
      [
        -122.4371020217635,
        37.73157009392765
      ],
      [
        -122.4371020217635,
        37.73157009392765
      ],
      [
        -122.43702470350824,
        37.73157228831383
      ],
      [
        -122.43534354011517,
        37.731188212632766
      ],
      [
        -122.4319065707346,
        37.732034330198665
      ],
      [
        -122.42726108820672,
        37.73165287556378
      ],
      [
        -122.42190641517521,
        37.73160472659281
      ],
      [
        -122.41719222384006,
        37.732055584806105
      ],
      [
        -122.4147417964587,
        37.73437442986708
      ],
      [
        -122.41229136907732,
        37.73669327492805
      ],
      [
        -122.40984094169595,
        37.73901211998903
      ],
      [
        -122.40749044828961,
        37.74136230365607
      ],
      [
        -122.40540495635791,
        37.74414169578397
      ],
      [
        -122.40412320494686,
        37.74762375584219
      ],
      [
        -122.40300623354472,
        37.7512479802597
      ],
      [
        -122.40290729930942,
        37.75408034655215
      ],
      [
        -122.40320610239633,
        37.75637780297933
      ],
      [
        -122.40527646634852,
        37.75859746351074
      ],
      [
        -122.40607190190045,
        37.761360668427365
      ],
      [
        -122.40517155494985,
        37.76301302529501
      ],
      [
        -122.40490840640923,
        37.76399846170115
      ],
      [
        -122.40482620362839,
        37.765262341293514
      ],
      [
        -122.40488166562028,
        37.766072523915426
      ],
      [
        -122.40497088062043,
        37.76691150237121
      ],
      [
        -122.40504815598206,
        37.76744822209766
      ],
      [
        -122.40511898247043,
        37.768171431079054
      ],
      [
        -122.40520501748777,
        37.768954705235416
      ],
      [
        -122.40531541184725,
        37.76992702366032
      ],
      [
        -122.4054794615131,
        37.77041397573162
      ],
      [
        -122.40565186008185,
        37.77073697617165
      ],
      [
        -122.40584012521845,
        37.7710357388631
      ],
      [
        -122.40639200986514,
        37.77185069511586
      ],
      [
        -122.4066221085338,
        37.7725820816534
      ],
      [
        -122.4066009448944,
        37.7733428914818
      ],
      [
        -122.4063498499629,
        37.77404789949939
      ],
      [
        -122.40597371513654,
        37.77474123348705
      ],
      [
        -122.40563300834116,
        37.77514131677952
      ],
      [
        -122.40548877169881,
        37.775323252664094
      ],
      [
        -122.40532555768587,
        37.77550994412066
      ],
      [
        -122.40510693920027,
        37.77571749139225
      ],
      [
        -122.40472976816868,
        37.776031934832204
      ],
      [
        -122.40442113629545,
        37.7762654787318
      ],
      [
        -122.40417860350962,
        37.77644767317713
      ],
      [
        -122.40359206071838,
        37.77681213345778
      ],
      [
        -122.40294196806195,
        37.77717243946407
      ],
      [
        -122.40232748114168,
        37.77746505061839
      ],
      [
        -122.40176350750089,
        37.77776097853663
      ],
      [
        -122.4008948446756,
        37.778293295889505
      ],
      [
        -122.40000969171474,
        37.77903126629294
      ],
      [
        -122.3991245387539,
        37.77976923669637
      ],
      [
        -122.39823938579303,
        37.780507207099795
      ],
      [
        -122.39737687907017,
        37.78123226448113
      ],
      [
        -122.39675846838558,
        37.78174166005771
      ],
      [
        -122.39606006381089,
        37.78234594887312
      ],
      [
        -122.3951271754997,
        37.78313906149085
      ],
      [
        -122.39397245000997,
        37.78399476156912
      ],
      [
        -122.39288939895545,
        37.78476898432357
      ],
      [
        -122.39144349554745,
        37.785712458305795
      ],
      [
        -122.39008562840701,
        37.78690755714592
      ],
      [
        -122.38832912140366,
        37.78855199461647
      ],
      [
        -122.38635317812526,
        37.79021238697723
      ],
      [
        -122.3837176000884,
        37.792682482847916
      ],
      [
        -122.38126289236692,
        37.79492807241383
      ],
      [
        -122.37898953306241,
        37.7970057302568
      ],
      [
        -122.37676661466486,
        37.79909371509017
      ],
      [
        -122.37444069230655,
        37.80128935700727
      ],
      [
        -122.37211194516487,
        37.803434788923354
      ],
      [
        -122.3697498791896,
        37.805658596191655
      ],
      [
        -122.36737155657389,
        37.80790115954835
      ],
      [
        -122.3648356728386,
        37.81004946072717
      ],
      [
        -122.36183213377558,
        37.812977299346365
      ]
    ]
  },
  "properties": {}
}