{
  "type": "Feature",
  "geometry": {
    "type": "LineString",
    "coordinates": [
      [
        -122.47289815096417,
        37.7394322576433
      ],
      [
        -122.47413603085391,
        37.7393785873474
      ],
      [
        -122.4750914219373,
        37.739340784260506
      ],
      [
        -122.47516819945196,
        37.73933775253158
      ],
      [
        -122.4751676804438,
        37.73933777302576
      ],
      [
        -122.47516822943555,
        37.73933775134761
      ],
      [
        -122.47535240871622,
        37.73933752310914
      ],
      [
        -122.47545288120736,
        37.74081462762415
      ],
      [
        -122.47546892715638,
        37.741045806023244
      ],
      [
        -122.47551007214523,
        37.74182408853735
      ],
      [
        -122.47561979839391,
        37.74383394658322
      ],
      [
        -122.47577655869007,
        37.74562024207004
      ],
      [
        -122.47590604602021,
        37.747464306116434
      ],
      [
        -122.47604908236079,
        37.74921617066853
      ],
      [
        -122.47619690786982,
        37.75113479086773
      ],
      [
        -122.4762324338057,
        37.7521582274118
      ],
      [
        -122.4762306874087,
        37.752185366625035
      ],
      [
        -122.47631344496658,
        37.75360458918074
      ],
      [
        -122.47645496036016,
        37.75545172331872
      ],
      [
        -122.47660032907494,
        37.75727289615233
      ],
      [
        -122.47670674695658,
        37.758994791848096
      ],
      [
        -122.47687153201808,
        37.76089853665044
      ],
      [
        -122.4770734955235,
        37.76274306372483
      ],
      [
        -122.47720247996511,
        37.76464690560382
      ],
      [
        -122.4772413634904,
        37.76521832220048
      ],
      [
        -122.4772334006824,
        37.76521819647193
      ],
      [
        -122.47724160424887,
        37.76563011705915
      ],
      [
        -122.4781532035824,
        37.76789578233048
      ],
      [
        -122.47907278047538,
        37.77059550660814
      ],
      [
        -122.47794204961215,
        37.77228592410198
      ],
      [
        -122.47398312847073,
        37.77241976660559
      ],
      [
        -122.47171075922651,
        37.77290885861241
      ],
      [
        -122.4717168511101,
        37.77298625096471
      ],
      [
        -122.4717168511101,
        37.77298625096471
      ],
      [
        -122.47173390828874,
        37.773559174872965
      ],
      [
        -122.47189416320167,
        37.776057541118035
      ],
      [
        -122.47204350615146,
        37.778191621510224
      ],
      [
        -122.47216963286667,
        37.779842369293114
      ],
      [
        -122.4723026664735,
        37.78183963041089
      ],
      [
        -122.47243725053717,
        37.78373130190752
      ],
      [
        -122.47251453340726,
        37.784838899542926
      ],
      [
        -122.47246874357317,
        37.78674225798072
      ],
      [
        -122.47144216720287,
        37.78879807968019
      ],
      [
        -122.46995377052707,
        37.790903199976995
      ],
      [
        -122.46954897736836,
        37.793054735742935
      ],
      [
        -122.46949474146538,
        37.79499730592047
      ],
      [
        -122.46946030164696,
        37.79792398466885
      ],
      [
        -122.46939107598756,
        37.80070345571709
      ],
      [
        -122.46955380309193,
        37.80350345667392
      ],
      [
        -122.4720824712825,
        37.80451063166423
      ],
      [
        -122.47439522560605,
        37.80633895606051
      ],
      [
        -122.4765099689543,
        37.80819032451293
      ],
      [
        -122.4773603159895,
        37.81045198727448
      ],
      [
        -122.47772178320875,
        37.813273351520024
      ],
      [
        -122.47808908735107,
        37.81640747416343
      ],
      [
        -122.47846447555791,
        37.81957831653121
      ],
      [
        -122.47884055100963,
        37.82271826404288
      ],
      [
        -122.47921372547513,
        37.82584273966169
      ],
      [
        -122.47960223614938,
        37.8290918078129
      ],
      [
        -122.4809459411027,
        37.83245500602751
      ],
      [
        -122.48437074924816,
        37.83510956464255
      ],
      [
        -122.48663276629121,
        37.83881771909013
      ],
      [
        -122.48555774716243,
        37.8420721699777
      ],
      [
        -122.48608508668353,
        37.84513615143651
      ],
      [
        -122.48832905841405,
        37.84794084054478
      ],
      [
        -122.49014522220848,
        37.85101412912014
      ],
      [
        -122.49297807353948,
        37.85374259642366
      ],
      [
        -122.49597070842833,
        37.85673046289789
      ],
      [
        -122.50004764404518,
        37.85882573193101
      ],
      [
        -122.50391473941117,
        37.86129923970768
      ],
      [
        -122.5068300563716,
        37.86452919916385
      ],
      [
        -122.50707222418853,
        37.868605524245645
      ],
      [
        -122.50749017024218,
        37.87270858959129
      ],
      [
        -122.51034980828399,
        37.87569695303004
      ],
      [
        -122.51398389653491,
        37.8780718908013
      ],
      [
        -122.51648890376639,
        37.881203497501296
      ],
      [
        -122.51661302952839,
        37.88481987373548
      ],
      [
        -122.51665194526112,
        37.889097804123146
      ],
      [
        -122.51639028499532,
        37.89310646990176
      ],
      [
        -122.5160534698619,
        37.89712877212902
      ],
      [
        -122.51572598557495,
        37.90126449190479
      ],
      [
        -122.51524758423238,
        37.905575297119256
      ],
      [
        -122.51359359985635,
        37.909572852937735
      ],
      [
        -122.51212339222285,
        37.91350532292957
      ],
      [
        -122.5110697291135,
        37.917641116714094
      ],
      [
        -122.51212810499061,
        37.92148324199533
      ],
      [
        -122.51396073614168,
        37.924861521616414
      ],
      [
        -122.51529170591938,
        37.92837507022161
      ],
      [
        -122.5159788093787,
        37.932057522266426
      ],
      [
        -122.51670645155737,
        37.93589531221757
      ],
      [
        -122.5159723724923,
        37.940066792053585
      ],
      [
        -122.51492416693235,
        37.943947875534285
      ],
      [
        -122.51306470169007,
        37.947688631459044
      ],
      [
        -122.51044571721275,
        37.95109892086672
      ],
      [
        -122.50829968536917,
        37.9541539655563
      ],
      [
        -122.50887863208463,
        37.95756036939523
      ],
      [
        -122.50955093214151,
        37.96122394724524
      ],
      [
        -122.5120895908886,
        37.96385664413452
      ],
      [
        -122.51579202287809,
        37.96594068942972
      ],
      [
        -122.51945796993255,
        37.96814378353943
      ],
      [
        -122.52124163750644,
        37.970245895630306
      ],
      [
        -122.5210180320987,
        37.97113616023024
      ],
      [
        -122.5210180320987,
        37.97113616023024
      ],
      [
        -122.52170984954438,
        37.97135240299181
      ],
      [
        -122.52199279610387,
        37.971406750569344
      ],
      [
        -122.52201038456462,
        37.97140946255601
      ],
      [
        -122.5240238647764,
        37.971692473132435
      ],
      [
        -122.52648444248673,
        37.97201104396681
      ],
      [
        -122.52821835951163,
        37.972164885159074
      ],
      [
        -122.52836991654077,
        37.97217355872303
      ],
      [
        -122.53058132592092,
        37.97241961877803
      ],
      [
        -122.12295708417624,
        37.4105887463458
      ],
      [
        -122.12304340941694,
        37.4101298072204
      ],
      [
        -122.12187494167705,
        37.40865616583803
      ],
      [
        -122.120493518389,
        37.40681199586047
      ],
      [
        -122.1201191667849,
        37.40632843198574
      ],
      [
        -122.1185334327693,
        37.40480963613702
      ],
      [
        -122.11745818087677,
        37.40389280353575
      ],
      [
        -122.11732433622107,
        37.4038079103567
      ],
      [
        -122.08172273346361,
        37.3973100061003
      ],
      [
        -122.08062201089267,
        37.39785942204409
      ],
      [
        -122.08150001961849,
        37.397302414100345
      ],
      [
        -122.08440289288838,
        37.3983464308269
      ],
      [
        -122.08808328823928,
        37.39966005055051
      ],
      [
        -122.09140376563818,
        37.40096114283316
      ],
      [
        -122.09459634081884,
        37.402340921418634
      ],
      [
        -122.09789246554514,
        37.40346414460477
      ],
      [
        -122.10096700593265,
        37.404721602887605
      ],
      [
        -122.1040123201611,
        37.405963352346696
      ],
      [
        -122.106702177252,
        37.40763654517839
      ],
      [
        -122.1086272842162,
        37.40882392220321
      ],
      [
        -122.10869903760734,
        37.40884278356163
      ],
      [
        -122.11073381660347,
        37.41000012226107
      ],
      [
        -122.11334265726117,
        37.41166392052831
      ],
      [
        -122.11595312345223,
        37.41332018668084
      ],
      [
        -122.11812000859707,
        37.414639387167355
      ],
      [
        -122.11821285580578,
        37.414646356844884
      ],
      [
        -122.118247192731,
        37.41464897935172
      ],
      [
        -122.38027371502889,
        37.79593580155433
      ],
      [
        -122.3776687441989,
        37.79828996665008
      ],
      [
        -122.37492901579235,
        37.80091353039325
      ],
      [
        -122.3719611921905,
        37.80370548867517
      ],
      [
        -122.36886371278636,
        37.80656712077923
      ],
      [
        -122.36595762060205,
        37.809272487089245
      ],
      [
        -122.36341593631727,
        37.81161464317856
      ],
      [
        -122.36042477221524,
        37.813951731850224
      ],
      [
        -122.35690623462249,
        37.8159494418967
      ],
      [
        -122.35319671082569,
        37.81793536480259
      ],
      [
        -122.34868600725548,
        37.81899453752596
      ],
      [
        -122.34422305538982,
        37.81963429752594
      ],
      [
        -122.34005202344323,
        37.820203854255276
      ],
      [
        -122.33559333550828,
        37.82087883064855
      ],
      [
        -122.33081777504086,
        37.82154160319969
      ],
      [
        -122.32603562705336,
        37.821948280560584
      ],
      [
        -122.3216293929577,
        37.82242902808938
      ],
      [
        -122.31734804261747,
        37.82321657711715
      ],
      [
        -122.31260728490058,
        37.82403651597583
      ],
      [
        -122.30773718974892,
        37.824677538314866
      ],
      [
        -122.30292207312965,
        37.82551238552096
      ],
      [
        -122.2981425041311,
        37.826571152173216
      ],
      [
        -122.29408057641136,
        37.82834878440702
      ],
      [
        -122.29340092373256,
        37.831744535100434
      ],
      [
        -122.29499146786678,
        37.83515189785052
      ],
      [
        -122.29656377365585,
        37.83880187792452
      ],
      [
        -122.29728730058629,
        37.84265660022609
      ],
      [
        -122.29813639328009,
        37.846486871299895
      ],
      [
        -122.29900488736622,
        37.8503265681931
      ],
      [
        -122.29971581690236,
        37.85301057306031
      ],
      [
        -122.30066752282335,
        37.85632818503974
      ],
      [
        -122.30170343672125,
        37.860083361502575
      ],
      [
        -122.29021529989825,
        37.869311613058805
      ],
      [
        -122.2883625625557,
        37.869584975093375
      ],
      [
        -122.2876756067575,
        37.86966676057904
      ],
      [
        -122.28673176194441,
        37.869774130443794
      ],
      [
        -122.28675503811397,
        37.869782962008216
      ],
      [
        -122.28512500331203,
        37.869984457685725
      ],
      [
        -122.2828849605938,
        37.870361766413495
      ],
      [
        -122.28078240683858,
        37.870551872289624
      ],
      [
        -122.27863939058368,
        37.87081436492453
      ]
    ]
  },
  "properties": {}
}