{
  "type": "Feature",
  "geometry": {
    "type": "LineString",
    "coordinates": [
      [
        -122.51602117013815,
        37.89977683756599
      ],
      [
        -122.5163570659549,
        37.8953926008008
      ],
      [
        -122.51666382695065,
        37.891292918308075
      ],
      [
        -122.51679821575014,
        37.88692555635965
      ],
      [
        -122.51672759478616,
        37.882744721877025
      ],
      [
        -122.51551076664917,
        37.87907675980596
      ],
      [
        -122.5114541827018,
        37.87652637100193
      ],
      [
        -122.50795944877748,
        37.87340419266895
      ],
      [
        -122.50721933371445,
        37.86941001090831
      ],
      [
        -122.50715734846493,
        37.86530793729749
      ],
      [
        -122.50513635618579,
        37.86194757704757
      ],
      [
        -122.50106301656952,
        37.859655888407595
      ],
      [
        -122.49771218332285,
        37.85696340605839
      ],
      [
        -122.49374795979347,
        37.855244240455306
      ],
      [
        -122.49158852621038,
        37.85210907035385
      ],
      [
        -122.48951887727411,
        37.84908372564341
      ],
      [
        -122.48663185624652,
        37.8461752128175
      ],
      [
        -122.48576988851771,
        37.8427149794898
      ],
      [
        -122.48692930139566,
        37.83980790078304
      ],
      [
        -122.48545424979699,
        37.83676382089483
      ],
      [
        -122.48323233619033,
        37.833764833465274
      ],
      [
        -122.4802008746912,
        37.83159389075181
      ],
      [
        -122.47966831464035,
        37.82882200191954
      ],
      [
        -122.47931950414412,
        37.82586951984864
      ],
      [
        -122.47897736644622,
        37.822988085022054
      ],
      [
        -122.47863225142787,
        37.81998884973855
      ],
      [
        -122.47830407208174,
        37.81703956052385
      ],
      [
        -122.47796742647421,
        37.814227381281476
      ],
      [
        -122.47761217964643,
        37.81111083177341
      ],
      [
        -122.47699690923012,
        37.80860742344208
      ],
      [
        -122.47549481409683,
        37.80698999253704
      ],
      [
        -122.47317859240067,
        37.80492842083921
      ],
      [
        -122.46964906795318,
        37.802682830889154
      ],
      [
        -122.4695209139941,
        37.799015558053
      ],
      [
        -122.46961150565248,
        37.79557731485358
      ],
      [
        -122.46959224062878,
        37.79264531274718
      ],
      [
        -122.47088645986351,
        37.78973034636522
      ],
      [
        -122.47246546336582,
        37.787253503127715
      ],
      [
        -122.47269740661508,
        37.78518908647863
      ],
      [
        -122.47264328333333,
        37.7847656
      ],
      [
        -122.47264328333333,
        37.7847656
      ],
      [
        -122.47264328333333,
        37.7847656
      ],
      [
        -122.47257836539771,
        37.783654802222
      ],
      [
        -122.47253345,
        37.782885633333336
      ],
      [
        -122.47251273255509,
        37.782544975491405
      ],
      [
        -122.47240426771951,
        37.78085786485743
      ],
      [
        -122.47223448887466,
        37.77863541376711
      ],
      [
        -122.47215532473774,
        37.777559984879964
      ],
      [
        -122.47206333447483,
        37.776260945708955
      ],
      [
        -122.4719262357551,
        37.77425621611183
      ],
      [
        -122.47185463944297,
        37.77344050854459
      ],
      [
        -122.47185463333334,
        37.77344046666666
      ],
      [
        -122.47183461145309,
        37.77312459556053
      ],
      [
        -122.4735716481465,
        37.772454966072644
      ],
      [
        -122.47670409790508,
        37.77242393467959
      ],
      [
        -122.47938060896311,
        37.77189365385878
      ],
      [
        -122.47919207419562,
        37.7706800442563
      ],
      [
        -122.47835612756622,
        37.76834122667569
      ],
      [
        -122.4775091776112,
        37.766420191545514
      ],
      [
        -122.47734028014663,
        37.76496169295727
      ],
      [
        -122.4772057249177,
        37.763141424752334
      ],
      [
        -122.47701246933171,
        37.761225577490166
      ],
      [
        -122.4768109704196,
        37.75904114139831
      ],
      [
        -122.47673106578142,
        37.75691383388588
      ],
      [
        -122.47667933800439,
        37.756250073327465
      ],
      [
        -122.4765884837249,
        37.75494415745337
      ],
      [
        -122.4765110492753,
        37.75353747823796
      ],
      [
        -122.476401020651,
        37.75209124859317
      ],
      [
        -122.47629383866678,
        37.75060697363232
      ],
      [
        -122.47621869014472,
        37.74917712173751
      ],
      [
        -122.47610570088052,
        37.747673761057925
      ],
      [
        -122.47606598333333,
        37.74737941666667
      ],
      [
        -122.47606527380533,
        37.747256783116136
      ],
      [
        -122.47594689770393,
        37.7460868541983
      ],
      [
        -122.47585987155169,
        37.744950470334366
      ],
      [
        -122.47571770098163,
        37.74328231635745
      ],
      [
        -122.47564567334688,
        37.74178433105477
      ],
      [
        -122.47565176666667,
        37.74157683333333
      ],
      [
        -122.47565637999742,
        37.7415646577614
      ],
      [
        -122.476450454413,
        37.74119896395887
      ],
      [
        -122.47666948935438,
        37.74082538829025
      ],
      [
        -122.4765734,
        37.73943403333333
      ],
      [
        -122.47582413333333,
        37.739325183333335
      ],
      [
        -122.47464261504996,
        37.73937847062265
      ],
      [
        -122.47348910058427,
        37.739418106454515
      ],
      [
        -122.47226697381862,
        37.73947464808315
      ],
      [
        -122.47098606823879,
        37.73954434707508
      ],
      [
        -119.03874077315386,
        35.368386992519135
      ],
      [
        -119.03874057470287,
        35.36838750214601
      ],
      [
        -119.03874087473997,
        35.368392291753345
      ],
      [
        -119.03874105532252,
        35.368394160645046
      ],
      [
        -119.03872546067682,
        35.36841376040793
      ],
      [
        -119.03872559823687,
        35.368415739394585
      ],
      [
        -119.03875540677032,
        35.36855352601356
      ],
      [
        -119.04051649037747,
        35.36867472230967
      ],
      [
        -119.0425881792012,
        35.368255440312765
      ],
      [
        -119.04280505831903,
        35.36821117322376
      ],
      [
        -119.04280556647184,
        35.36820827647184
      ],
      [
        -119.04282951511023,
        35.36819074150876
      ],
      [
        -119.04422340997294,
        35.3677854746219
      ],
      [
        -119.04674515079216,
        35.3674819367765
      ],
      [
        -119.04762650494223,
        35.36747114229584
      ],
      [
        -119.04763255633812,
        35.36747659412956
      ],
      [
        -119.04769869560805,
        35.36748343224541
      ],
      [
        -119.04990198921156,
        35.36736778715986
      ],
      [
        -119.05260592896809,
        35.36636108628784
      ],
      [
        -119.0550001273853,
        35.3650851118955
      ],
      [
        -119.05780690787219,
        35.36355223218137
      ],
      [
        -119.05994075850914,
        35.361657364096
      ],
      [
        -119.06168500131685,
        35.36192872078121
      ],
      [
        -119.06435521384309,
        35.363512556017916
      ],
      [
        -119.06533757593255,
        35.36502593630046
      ],
      [
        -119.06533665761918,
        35.36507109384766
      ],
      [
        -119.06573625337015,
        35.36610704570464
      ],
      [
        -119.06585034448847,
        35.36900277102427
      ],
      [
        -119.06577393073734,
        35.37210143246754
      ],
      [
        -119.06469366436234,
        35.37224031413845
      ],
      [
        -119.06793931024183,
        35.371357420263976
      ],
      [
        -119.07252009473882,
        35.36944685111694
      ],
      [
        -119.07753888268601,
        35.36759892170494
      ],
      [
        -119.08288757352499,
        35.367847300517475
      ],
      [
        -119.08827046918861,
        35.368528729900184
      ],
      [
        -119.09298412749554,
        35.366505623919444
      ],
      [
        -119.09647414867644,
        35.36309816232392
      ],
      [
        -119.10172349161225,
        35.36201524785504
      ],
      [
        -119.10725165391857,
        35.3620090561175
      ],
      [
        -119.11280146105065,
        35.36204651903485
      ],
      [
        -119.11834573395731,
        35.36205246237459
      ],
      [
        -119.12383442962752,
        35.362058681211664
      ],
      [
        -119.12936205051075,
        35.362067225901
      ],
      [
        -119.13492199900531,
        35.362071141459516
      ],
      [
        -119.14044909316796,
        35.36203733179423
      ],
      [
        -119.14576289388403,
        35.36115607055271
      ],
      [
        -119.15100884861114,
        35.36011061529144
      ],
      [
        -119.15587048027642,
        35.359753318597335
      ],
      [
        -119.1606413398941,
        35.35975986129505
      ],
      [
        -119.16556667121256,
        35.35953356428984
      ],
      [
        -119.17021946287382,
        35.35830919236586
      ],
      [
        -119.17405338421345,
        35.35636085344338
      ],
      [
        -119.17512234300251,
        35.355708433086555
      ],
      [
        -119.17512147158494,
        35.35570463270477
      ],
      [
        -119.17660545890233,
        35.35502687723811
      ],
      [
        -119.17980531696074,
        35.35452596730893
      ],
      [
        -119.18311906309226,
        35.35448570394749
      ],
      [
        -119.18741836604757,
        35.35445756875881
      ],
      [
        -119.19207536821762,
        35.35444388451754
      ],
      [
        -119.19697840264932,
        35.35443789533792
      ],
      [
        -119.20074839637694,
        35.35439819413447
      ],
      [
        -119.20507991248121,
        35.35437738683992
      ],
      [
        -119.20941229069089,
        35.35436527628342
      ],
      [
        -119.2137550391872,
        35.35440107107222
      ],
      [
        -119.21827554009056,
        35.35439065681088
      ],
      [
        -119.2227637770545,
        35.35435086365449
      ],
      [
        -119.22723606325815,
        35.3543151180245
      ],
      [
        -119.231619303021,
        35.35435456814879
      ],
      [
        -119.235888511742,
        35.354355059657536
      ],
      [
        -119.24019127378587,
        35.35433756892999
      ],
      [
        -119.24452821656728,
        35.354392147583866
      ],
      [
        -119.24867304797692,
        35.35434785934692
      ],
      [
        -119.25139646362005,
        35.35438519540763
      ],
      [
        -119.25192452057851,
        35.354378691096855
      ],
      [
        -119.25201729913505,
        35.354437821780806
      ],
      [
        -119.25319304158636,
        35.354412184390455
      ],
      [
        -119.25735719862323,
        35.35445914122478
      ],
      [
        -119.26191639515544,
        35.35446536194737
      ],
      [
        -119.2664955066408,
        35.35450373413212
      ],
      [
        -119.2711798813773,
        35.35453523764933
      ],
      [
        -119.27650471413045,
        35.354537903296325
      ],
      [
        -119.28192089296763,
        35.35454976575892
      ],
      [
        -119.28731010345153,
        35.354608730651165
      ],
      [
        -119.29250685995568,
        35.3546511588376
      ],
      [
        -119.29744157664634,
        35.354671889087925
      ],
      [
        -119.30228540597436,
        35.35470351901332
      ],
      [
        -119.30715735456982,
        35.354738360390776
      ],
      [
        -119.31187123248161,
        35.35475962502626
      ],
      [
        -119.31641124580854,
        35.35480349369068
      ],
      [
        -119.32070634433295,
        35.354818524629465
      ],
      [
        -119.32467725160996,
        35.354847974961736
      ],
      [
        -119.32847503415084,
        35.3548571586184
      ],
      [
        -119.33083976816744,
        35.354873962948396
      ],
      [
        -119.33387327756253,
        35.355174201320025
      ],
      [
        -119.33706250230394,
        35.356140641716806
      ],
      [
        -119.33978609927344,
        35.357851227408325
      ],
      [
        -119.34302952205343,
        35.36011326620214
      ],
      [
        -119.34657913646853,
        35.362656338346824
      ],
      [
        -119.35013772626873,
        35.365149995986584
      ],
      [
        -119.35367797400606,
        35.36766931758091
      ],
      [
        -119.35707609757034,
        35.37007136248622
      ],
      [
        -119.36044533332117,
        35.37249664339119
      ],
      [
        -119.36383957117017,
        35.37486003097985
      ],
      [
        -119.3671898980845,
        35.37726711236488
      ],
      [
        -119.37076877554115,
        35.37980220006655
      ],
      [
        -119.37476749924808,
        35.382709026199315
      ],
      [
        -119.379164450833,
        35.38588511997304
      ],
      [
        -119.38351355664356,
        35.38902113819898
      ],
      [
        -119.38784643270021,
        35.39213408320379
      ],
      [
        -119.39215833140246,
        35.395269941164905
      ],
      [
        -119.39618224318404,
        35.39820609998618
      ],
      [
        -119.39858017901392,
        35.39997115419086
      ],
      [
        -119.40103444572267,
        35.40179184076115
      ],
      [
        -119.40397679998694,
        35.40393767608792
      ],
      [
        -119.40751342099422,
        35.40648430132748
      ],
      [
        -119.41131131200473,
        35.409307580831296
      ],
      [
        -119.41502050253052,
        35.41201976335449
      ],
      [
        -119.41881791409818,
        35.414793174097085
      ],
      [
        -119.4225764239622,
        35.417530427742676
      ],
      [
        -119.42645623334533,
        35.42035685703601
      ],
      [
        -119.43042527399322,
        35.42327663648264
      ],
      [
        -119.4346341410322,
        35.42638121399258
      ],
      [
        -119.43868029513128,
        35.42929976901654
      ],
      [
        -119.44258740066888,
        35.43214546092182
      ],
      [
        -119.44615400335255,
        35.434722616091456
      ],
      [
        -119.4498743973005,
        35.437423374018735
      ],
      [
        -119.45343944382581,
        35.43999671903818
      ],
      [
        -119.45685097602708,
        35.4425078411127
      ],
      [
        -119.46037405190818,
        35.44506387388091
      ],
      [
        -119.46368364272676,
        35.44744938195212
      ],
      [
        -119.46708285717887,
        35.44992630569404
      ],
      [
        -119.47089100534885,
        35.4526978641424
      ],
      [
        -119.47463160734472,
        35.45544367130103
      ],
      [
        -119.47856049558527,
        35.45826828625272
      ],
      [
        -119.48259702997454,
        35.461154893090516
      ],
      [
        -119.48668729851524,
        35.464147770975266
      ],
      [
        -119.49068957745463,
        35.46708573938444
      ],
      [
        -119.49488554690974,
        35.47014260596297
      ],
      [
        -119.49905392119406,
        35.47317191672817
      ],
      [
        -119.50315625259275,
        35.476116970513
      ],
      [
        -119.50742996771895,
        35.479207662033716
      ],
      [
        -119.51173935567644,
        35.48238394576452
      ],
      [
        -119.51611859819893,
        35.48557156883111
      ],
      [
        -119.52056609902144,
        35.48877724499603
      ],
      [
        -119.52510449105749,
        35.492056103863185
      ],
      [
        -119.5294132018042,
        35.49532216056649
      ],
      [
        -119.53331667522741,
        35.49883143797755
      ],
      [
        -119.53711373886684,
        35.502307029208
      ],
      [
        -119.5403660755164,
        35.50527583763655
      ],
      [
        -119.54321496084812,
        35.50789621824168
      ],
      [
        -119.5457416881773,
        35.51021592919784
      ],
      [
        -119.54881313623738,
        35.51305751961396
      ],
      [
        -119.55186959330767,
        35.51587248967539
      ],
      [
        -119.55513520718354,
        35.51889969725707
      ],
      [
        -119.55864159856718,
        35.52208814598613
      ],
      [
        -119.56212224657418,
        35.52530857593761
      ],
      [
        -119.56545412163192,
        35.528336955498695
      ],
      [
        -119.56896652521445,
        35.531587746265465
      ],
      [
        -119.57255799002276,
        35.534871803129164
      ],
      [
        -119.57595592239979,
        35.53804468436091
      ],
      [
        -119.57926252797331,
        35.54106935789415
      ],
      [
        -119.58283808812202,
        35.54434909549577
      ],
      [
        -119.58665479767258,
        35.54783881061186
      ],
      [
        -119.59024467916579,
        35.55112770788153
      ],
      [
        -119.59374830752922,
        35.554283440290085
      ],
      [
        -119.59716389673225,
        35.55744230696062
      ],
      [
        -119.60031705541181,
        35.560395753278016
      ],
      [
        -119.60389714171353,
        35.56371017279714
      ],
      [
        -119.60770146092608,
        35.56712168448343
      ],
      [
        -119.60991904290482,
        35.56917628975576
      ],
      [
        -119.61118101426614,
        35.570381291679226
      ],
      [
        -119.61315600462072,
        35.57232488216764
      ],
      [
        -119.61543730264259,
        35.57472887250739
      ],
      [
        -119.61836870542184,
        35.577769152609946
      ],
      [
        -119.62138651504284,
        35.58090960728599
      ],
      [
        -119.62461505342957,
        35.5842531325078
      ],
      [
        -119.6278282650823,
        35.58761511480291
      ],
      [
        -119.63100225249457,
        35.59094215727049
      ],
      [
        -119.63408337995116,
        35.594169476395926
      ],
      [
        -119.63709832544427,
        35.597288905838965
      ],
      [
        -119.64017145309795,
        35.600506082031856
      ],
      [
        -119.64329143600581,
        35.603763727614506
      ],
      [
        -119.64618030521088,
        35.60696010480836
      ],
      [
        -119.64802214290941,
        35.609425165151706
      ],
      [
        -119.64986610328734,
        35.6119069700771
      ],
      [
        -119.65178832044543,
        35.614486763995394
      ],
      [
        -119.65395986419726,
        35.61746199179718
      ],
      [
        -119.656429199656,
        35.62070105229427
      ],
      [
        -119.65902456923216,
        35.624219915507524
      ],
      [
        -119.66186851765983,
        35.62803144491418
      ],
      [
        -119.66463125677575,
        35.63179152660753
      ],
      [
        -119.66735646394098,
        35.63546431134473
      ],
      [
        -119.66996513937875,
        35.638942595881964
      ],
      [
        -119.6724226044071,
        35.64230522051053
      ],
      [
        -119.67485615932276,
        35.6455835622445
      ],
      [
        -119.67748465357052,
        35.649110754505536
      ],
      [
        -119.68014092514716,
        35.6527884904769
      ],
      [
        -119.6830504869579,
        35.656637267955176
      ],
      [
        -119.68575878778948,
        35.6603160227183
      ],
      [
        -119.68820846295264,
        35.6634740829119
      ],
      [
        -119.6905978761845,
        35.66672232004658
      ],
      [
        -119.69314063020373,
        35.670168378975475
      ],
      [
        -119.69568157180926,
        35.67368922771857
      ],
      [
        -119.6982700410853,
        35.67710709061592
      ],
      [
        -119.70101556911342,
        35.680765911753284
      ],
      [
        -119.70391761052097,
        35.68465395919099
      ],
      [
        -119.70674257072267,
        35.68838942572022
      ],
      [
        -119.70958640879088,
        35.692236598141605
      ],
      [
        -119.71246208794231,
        35.69609432109394
      ],
      [
        -119.71548839053219,
        35.700172183185245
      ],
      [
        -119.71852824154969,
        35.70431773118007
      ],
      [
        -119.72160627159401,
        35.70837581279179
      ],
      [
        -119.72461729054845,
        35.712427871860505
      ],
      [
        -119.72768307216839,
        35.716533233287585
      ],
      [
        -119.73068227621778,
        35.72055748599351
      ],
      [
        -119.73368717665025,
        35.72465621821409
      ],
      [
        -119.73672868672853,
        35.72873618940346
      ],
      [
        -119.7398409238981,
        35.73287213891821
      ],
      [
        -119.74285628536485,
        35.73688454611474
      ],
      [
        -119.74568957855958,
        35.74067723586268
      ],
      [
        -119.74837461572955,
        35.744283346244494
      ],
      [
        -119.75112515626252,
        35.74796869252226
      ],
      [
        -119.75385888382729,
        35.751637050301326
      ],
      [
        -119.7564839228066,
        35.755205689676586
      ],
      [
        -119.7592107882908,
        35.75882266262865
      ],
      [
        -119.76189336199702,
        35.76242441011226
      ],
      [
        -119.76462401743838,
        35.76607504856004
      ],
      [
        -119.76747347276464,
        35.769932480260174
      ],
      [
        -119.7703633893293,
        35.773795885271
      ],
      [
        -119.77329566600322,
        35.7776805399562
      ],
      [
        -119.77632064665461,
        35.78121950068287
      ],
      [
        -119.77938796704572,
        35.78447435202064
      ],
      [
        -119.78245528743683,
        35.787729203358396
      ],
      [
        -119.78552260782794,
        35.79098405469616
      ],
      [
        -119.78858992821905,
        35.79423890603392
      ],
      [
        -119.79165724861015,
        35.797493757371676
      ],
      [
        -119.79472456900126,
        35.80074860870944
      ],
      [
        -119.79779188939237,
        35.8040034600472
      ],
      [
        -119.80085920978348,
        35.80725831138496
      ],
      [
        -119.80392653017459,
        35.81051316272272
      ],
      [
        -119.8069938505657,
        35.813768014060486
      ],
      [
        -119.81006117095681,
        35.81702286539824
      ],
      [
        -119.81312849134792,
        35.82027771673601
      ],
      [
        -119.81619581173904,
        35.823532568073766
      ],
      [
        -119.81926313213013,
        35.82678741941153
      ],
      [
        -119.82233045252124,
        35.83004227074929
      ],
      [
        -119.82539777291235,
        35.833297122087046
      ],
      [
        -119.82846509330346,
        35.83655197342481
      ],
      [
        -119.83153241369457,
        35.83980682476257
      ],
      [
        -119.83459973408569,
        35.843061676100334
      ],
      [
        -119.8376670544768,
        35.84631652743809
      ],
      [
        -119.8407343748679,
        35.849571378775856
      ],
      [
        -119.84380169525902,
        35.852826230113614
      ],
      [
        -119.84686901565011,
        35.85608108145138
      ],
      [
        -119.84993633604122,
        35.859335932789136
      ],
      [
        -119.85300365643234,
        35.8625907841269
      ],
      [
        -119.85607097682345,
        35.86584563546466
      ],
      [
        -119.85913829721456,
        35.869100486802424
      ],
      [
        -119.86220561760567,
        35.87235533814018
      ],
      [
        -119.86527293799678,
        35.87561018947794
      ],
      [
        -119.86834025838789,
        35.878865040815704
      ],
      [
        -119.871407578779,
        35.88211989215346
      ],
      [
        -119.8744748991701,
        35.88537474349123
      ],
      [
        -119.8775422195612,
        35.888629594828984
      ],
      [
        -119.88060953995232,
        35.89188444616675
      ],
      [
        -119.88367686034343,
        35.89513929750451
      ],
      [
        -119.88674418073454,
        35.89839414884227
      ],
      [
        -119.88981150112565,
        35.90164900018003
      ],
      [
        -119.89287882151676,
        35.904903851517794
      ],
      [
        -119.89594614190787,
        35.90815870285555
      ],
      [
        -119.89901346229898,
        35.91141355419331
      ],
      [
        -119.90208078269008,
        35.914668405531074
      ],
      [
        -119.90514810308119,
        35.91792325686883
      ],
      [
        -119.9082154234723,
        35.9211781082066
      ],
      [
        -119.91128274386341,
        35.924432959544355
      ],
      [
        -119.91435006425452,
        35.92768781088212
      ],
      [
        -119.91741738464563,
        35.93094266221988
      ],
      [
        -119.92048470503674,
        35.93419751355764
      ],
      [
        -119.92355202542785,
        35.9374523648954
      ],
      [
        -119.92661934581896,
        35.940707216233164
      ],
      [
        -119.92968666621006,
        35.94396206757092
      ],
      [
        -119.93275398660117,
        35.94721691890868
      ],
      [
        -119.93582130699228,
        35.950471770246445
      ],
      [
        -119.93888862738339,
        35.9537266215842
      ],
      [
        -119.9419559477745,
        35.95698147292197
      ],
      [
        -119.94502326816561,
        35.960236324259725
      ],
      [
        -119.94809058855672,
        35.96349117559749
      ],
      [
        -119.95115790894783,
        35.96674602693525
      ],
      [
        -119.95422522933895,
        35.97000087827301
      ],
      [
        -119.95729254973004,
        35.97325572961077
      ],
      [
        -119.96035987012115,
        35.976510580948535
      ],
      [
        -119.96342719051226,
        35.97976543228629
      ],
      [
        -119.96649451090337,
        35.98302028362406
      ],
      [
        -119.96956183129448,
        35.986275134961815
      ],
      [
        -119.9726291516856,
        35.98952998629957
      ],
      [
        -119.9756964720767,
        35.99278483763734
      ],
      [
        -119.97876379246782,
        35.996039688975095
      ],
      [
        -119.98183111285893,
        35.99929454031286
      ],
      [
        -119.98489843325002,
        36.00254939165062
      ],
      [
        -119.98796575364113,
        36.00580424298838
      ],
      [
        -119.99103307403225,
        36.00905909432614
      ],
      [
        -119.99410039442336,
        36.012313945663905
      ],
      [
        -119.99716771481447,
        36.01556879700166
      ],
      [
        -120.00023503520558,
        36.01882364833943
      ],
      [
        -120.00330235559669,
        36.022078499677185
      ],
      [
        -120.0063696759878,
        36.02533335101494
      ],
      [
        -120.00943699637891,
        36.02858820235271
      ],
      [
        -120.01250431677002,
        36.031843053690466
      ],
      [
        -120.01557163716112,
        36.03509790502823
      ],
      [
        -120.01863895755223,
        36.03835275636599
      ],
      [
        -120.02170627794334,
        36.04160760770375
      ],
      [
        -120.02477359833445,
        36.04486245904151
      ],
      [
        -120.02784091872556,
        36.048117310379276
      ],
      [
        -120.03090823911667,
        36.05137216171703
      ],
      [
        -120.03397555950778,
        36.0546270130548
      ],
      [
        -120.03704287989889,
        36.057881864392556
      ],
      [
        -120.04011020029,
        36.06113671573031
      ],
      [
        -120.0431775206811,
        36.06439156706808
      ],
      [
        -120.04624484107221,
        36.067646418405836
      ],
      [
        -120.04931216146332,
        36.0709012697436
      ],
      [
        -120.05237948185443,
        36.07415612108136
      ],
      [
        -120.05544680224554,
        36.07741097241912
      ],
      [
        -120.05851412263665,
        36.08066582375688
      ],
      [
        -120.06158144302776,
        36.083920675094646
      ],
      [
        -120.06464876341887,
        36.087175526432404
      ],
      [
        -120.06771608380998,
        36.09043037777017
      ],
      [
        -120.07078340420108,
        36.093685229107926
      ],
      [
        -120.07385072459219,
        36.09694008044569
      ],
      [
        -120.0769180449833,
        36.10019493178345
      ],
      [
        -120.07998536537441,
        36.10344978312121
      ],
      [
        -120.08305268576552,
        36.10670463445897
      ],
      [
        -120.08612000615663,
        36.10995948579673
      ],
      [
        -120.08918732654774,
        36.113214337134494
      ],
      [
        -120.09225464693885,
        36.11646918847225
      ],
      [
        -120.09532196732997,
        36.119724039810016
      ],
      [
        -120.09838928772106,
        36.122978891147774
      ],
      [
        -120.10145660811217,
        36.12623374248554
      ],
      [
        -120.10452392850328,
        36.1294885938233
      ],
      [
        -120.1075912488944,
        36.13274344516106
      ],
      [
        -120.1106585692855,
        36.13599829649882
      ],
      [
        -120.11372588967662,
        36.13925314783658
      ],
      [
        -120.11679321006773,
        36.14250799917434
      ],
      [
        -120.11986053045884,
        36.1457628505121
      ],
      [
        -120.12292785084995,
        36.149017701849864
      ],
      [
        -120.12599517124104,
        36.15227255318762
      ],
      [
        -120.12906249163215,
        36.15552740452539
      ],
      [
        -120.13212981202327,
        36.158782255863144
      ],
      [
        -120.13519713241438,
        36.16203710720091
      ],
      [
        -120.13826445280549,
        36.16529195853867
      ],
      [
        -120.1413317731966,
        36.16854680987643
      ],
      [
        -120.14439909358771,
        36.17180166121419
      ],
      [
        -120.14746641397882,
        36.17505651255195
      ],
      [
        -120.15053373436993,
        36.17831136388971
      ],
      [
        -120.15360105476103,
        36.18156621522747
      ],
      [
        -120.15666837515214,
        36.184821066565235
      ],
      [
        -120.15973569554325,
        36.18807591790299
      ],
      [
        -120.16280301593436,
        36.19133076924076
      ],
      [
        -120.16587033632547,
        36.194585620578515
      ],
      [
        -120.16893765671658,
        36.19784047191628
      ],
      [
        -120.17200497710769,
        36.20109532325404
      ],
      [
        -120.1750722974988,
        36.2043501745918
      ],
      [
        -120.17813961788991,
        36.20760502592956
      ],
      [
        -120.18120693828101,
        36.210859877267325
      ],
      [
        -120.18427425867212,
        36.21411472860508
      ],
      [
        -120.18734157906323,
        36.21736957994284
      ],
      [
        -120.19040889945434,
        36.220624431280605
      ],
      [
        -120.19347621984545,
        36.22387928261836
      ],
      [
        -120.19654354023656,
        36.22713413395613
      ],
      [
        -120.19961086062767,
        36.230388985293885
      ],
      [
        -120.20267818101878,
        36.23364383663165
      ],
      [
        -120.2057455014099,
        36.23689868796941
      ],
      [
        -120.20881282180099,
        36.24015353930717
      ],
      [
        -120.2118801421921,
        36.24340839064493
      ],
      [
        -120.21494746258321,
        36.246663241982695
      ],
      [
        -120.21801478297432,
        36.24991809332045
      ],
      [
        -120.22108210336543,
        36.25317294465821
      ],
      [
        -120.22414942375654,
        36.256427795995975
      ],
      [
        -120.22721674414765,
        36.25968264733373
      ],
      [
        -120.23028406453876,
        36.2629374986715
      ],
      [
        -120.23335138492988,
        36.266192350009256
      ],
      [
        -120.23641870532099,
        36.26944720134702
      ],
      [
        -120.23948602571208,
        36.27270205268478
      ],
      [
        -120.2425533461032,
        36.27595690402254
      ],
      [
        -120.2456206664943,
        36.2792117553603
      ],
      [
        -120.24868798688541,
        36.282466606698065
      ],
      [
        -120.25175530727653,
        36.28572145803582
      ],
      [
        -120.25482262766764,
        36.28897630937359
      ],
      [
        -120.25788994805875,
        36.292231160711346
      ],
      [
        -120.26095726844986,
        36.2954860120491
      ],
      [
        -120.26402458884097,
        36.29874086338687
      ],
      [
        -120.26709190923206,
        36.301995714724626
      ],
      [
        -120.27015922962318,
        36.30525056606239
      ],
      [
        -120.27322655001429,
        36.30850541740015
      ],
      [
        -120.2762938704054,
        36.31176026873791
      ],
      [
        -120.27936119079651,
        36.31501512007567
      ],
      [
        -120.28242851118762,
        36.318269971413436
      ],
      [
        -120.28549583157873,
        36.32152482275119
      ],
      [
        -120.28856315196984,
        36.32477967408896
      ],
      [
        -120.29163047236095,
        36.328034525426716
      ],
      [
        -120.29469779275205,
        36.331289376764474
      ],
      [
        -120.29776511314316,
        36.33454422810224
      ],
      [
        -120.30083243353427,
        36.337799079439996
      ],
      [
        -120.30389975392538,
        36.34105393077776
      ],
      [
        -120.30696707431649,
        36.34430878211552
      ],
      [
        -120.3100343947076,
        36.347563633453284
      ],
      [
        -120.31310171509871,
        36.35081848479104
      ],
      [
        -120.31616903548982,
        36.354073336128806
      ],
      [
        -120.31923635588093,
        36.357328187466564
      ],
      [
        -120.32230367627203,
        36.36058303880433
      ],
      [
        -120.32537099666314,
        36.36383789014209
      ],
      [
        -120.32843831705425,
        36.367092741479844
      ],
      [
        -120.33150563744536,
        36.37034759281761
      ],
      [
        -120.33457295783647,
        36.37360244415537
      ],
      [
        -120.33764027822758,
        36.37685729549313
      ],
      [
        -120.34070759861869,
        36.38011214683089
      ],
      [
        -120.3437749190098,
        36.383366998168654
      ],
      [
        -120.34684223940091,
        36.38662184950641
      ],
      [
        -120.34990955979201,
        36.38987670084418
      ],
      [
        -120.35297688018312,
        36.393131552181934
      ],
      [
        -120.35604420057423,
        36.3963864035197
      ],
      [
        -120.35911152096534,
        36.39964125485746
      ],
      [
        -120.36217884135645,
        36.40289610619522
      ],
      [
        -120.36524616174756,
        36.40615095753298
      ],
      [
        -120.36831348213867,
        36.40940580887074
      ],
      [
        -120.37138080252979,
        36.4126606602085
      ],
      [
        -120.3744481229209,
        36.41591551154626
      ],
      [
        -120.37751544331199,
        36.419170362884024
      ],
      [
        -120.3805827637031,
        36.42242521422178
      ],
      [
        -120.38365008409421,
        36.42568006555955
      ],
      [
        -120.38671740448532,
        36.428934916897305
      ],
      [
        -120.38978472487644,
        36.43218976823507
      ],
      [
        -120.39285204526755,
        36.43544461957283
      ],
      [
        -120.39591936565866,
        36.43869947091059
      ],
      [
        -120.39898668604977,
        36.44195432224835
      ],
      [
        -120.40205400644088,
        36.44520917358611
      ],
      [
        -120.40512132683197,
        36.44846402492387
      ],
      [
        -120.40818864722308,
        36.45171887626163
      ],
      [
        -120.4112559676142,
        36.454973727599395
      ],
      [
        -120.4143232880053,
        36.45822857893715
      ],
      [
        -120.41739060839642,
        36.46148343027492
      ],
      [
        -120.42045792878753,
        36.464738281612675
      ],
      [
        -120.42352524917864,
        36.46799313295044
      ],
      [
        -120.42659256956975,
        36.4712479842882
      ],
      [
        -120.42965988996086,
        36.47450283562596
      ],
      [
        -120.43272721035196,
        36.47775768696372
      ],
      [
        -120.43579453074307,
        36.48101253830148
      ],
      [
        -120.43886185113418,
        36.48426738963924
      ],
      [
        -120.44192917152529,
        36.487522240977
      ],
      [
        -120.4449964919164,
        36.490777092314765
      ],
      [
        -120.44806381230751,
        36.49403194365252
      ],
      [
        -120.45113113269862,
        36.49728679499029
      ],
      [
        -120.45419845308973,
        36.500541646328045
      ],
      [
        -120.45726577348084,
        36.50379649766581
      ],
      [
        -120.46033309387195,
        36.50705134900357
      ],
      [
        -120.46340041426305,
        36.51030620034133
      ],
      [
        -120.46646773465416,
        36.51356105167909
      ],
      [
        -120.46953505504527,
        36.516815903016855
      ],
      [
        -120.47260237543638,
        36.52007075435461
      ],
      [
        -120.47566969582749,
        36.52332560569237
      ],
      [
        -120.4787370162186,
        36.526580457030136
      ],
      [
        -120.48180433660971,
        36.52983530836789
      ],
      [
        -120.48487165700082,
        36.53309015970566
      ],
      [
        -120.48793897739193,
        36.536345011043416
      ],
      [
        -120.49100629778303,
        36.53959986238118
      ],
      [
        -120.49407361817414,
        36.54285471371894
      ],
      [
        -120.49714093856525,
        36.5461095650567
      ],
      [
        -120.50020825895636,
        36.54936441639446
      ],
      [
        -120.50327557934747,
        36.552619267732226
      ],
      [
        -120.50634289973858,
        36.55587411906998
      ],
      [
        -120.5094102201297,
        36.55912897040774
      ],
      [
        -120.5124775405208,
        36.562383821745506
      ],
      [
        -120.51554486091192,
        36.565638673083264
      ],
      [
        -120.51861218130301,
        36.56889352442103
      ],
      [
        -120.52167950169412,
        36.572148375758786
      ],
      [
        -120.52474682208523,
        36.57540322709655
      ],
      [
        -120.52781414247634,
        36.57865807843431
      ],
      [
        -120.53088146286746,
        36.58191292977207
      ],
      [
        -120.53394878325857,
        36.58516778110983
      ],
      [
        -120.53701610364968,
        36.588422632447596
      ],
      [
        -120.54008342404079,
        36.591677483785354
      ],
      [
        -120.5431507444319,
        36.59493233512312
      ],
      [
        -120.546218064823,
        36.598187186460876
      ],
      [
        -120.5492853852141,
        36.601442037798634
      ],
      [
        -120.55235270560522,
        36.6046968891364
      ],
      [
        -120.55542002599633,
        36.60795174047416
      ],
      [
        -120.55848734638744,
        36.61120659181192
      ],
      [
        -120.56155466677855,
        36.61446144314968
      ],
      [
        -120.56462198716966,
        36.617716294487444
      ],
      [
        -120.56768930756077,
        36.6209711458252
      ],
      [
        -120.57075662795188,
        36.62422599716297
      ],
      [
        -120.57382394834298,
        36.627480848500724
      ],
      [
        -120.57689126873409,
        36.63073569983849
      ],
      [
        -120.5799585891252,
        36.63399055117625
      ],
      [
        -120.58302590951631,
        36.637245402514004
      ],
      [
        -120.58609322990742,
        36.64050025385177
      ],
      [
        -120.58916055029853,
        36.64375510518953
      ],
      [
        -120.59222787068964,
        36.64700995652729
      ],
      [
        -120.59529519108075,
        36.65026480786505
      ],
      [
        -120.59836251147186,
        36.653519659202814
      ],
      [
        -120.60142983186296,
        36.65677451054057
      ],
      [
        -120.60449715225407,
        36.66002936187834
      ],
      [
        -120.60756447264518,
        36.663284213216095
      ],
      [
        -120.61063179303629,
        36.66653906455386
      ],
      [
        -120.6136991134274,
        36.66979391589162
      ],
      [
        -120.61676643381851,
        36.673048767229375
      ],
      [
        -120.61983375420962,
        36.67630361856714
      ],
      [
        -120.62290107460073,
        36.6795584699049
      ],
      [
        -120.62596839499184,
        36.68281332124266
      ],
      [
        -120.62903571538294,
        36.68606817258042
      ],
      [
        -120.63210303577405,
        36.689323023918185
      ],
      [
        -120.63517035616516,
        36.69257787525594
      ],
      [
        -120.63823767655627,
        36.69583272659371
      ],
      [
        -120.64130499694738,
        36.699087577931465
      ],
      [
        -120.6443723173385,
        36.70234242926923
      ],
      [
        -120.6474396377296,
        36.70559728060699
      ],
      [
        -120.65050695812072,
        36.70885213194475
      ],
      [
        -120.65357427851183,
        36.71210698328251
      ],
      [
        -120.65664159890292,
        36.71536183462027
      ],
      [
        -120.65970891929403,
        36.71861668595803
      ],
      [
        -120.66277623968514,
        36.72187153729579
      ],
      [
        -120.66584356007625,
        36.725126388633555
      ],
      [
        -120.66891088046737,
        36.72838123997131
      ],
      [
        -120.67197820085848,
        36.73163609130908
      ],
      [
        -120.67504552124959,
        36.734890942646835
      ],
      [
        -120.6781128416407,
        36.7381457939846
      ],
      [
        -120.68118016203181,
        36.74140064532236
      ],
      [
        -120.6842474824229,
        36.74465549666012
      ],
      [
        -120.68731480281402,
        36.74791034799788
      ],
      [
        -120.69038212320513,
        36.75116519933564
      ],
      [
        -120.69344944359624,
        36.7544200506734
      ],
      [
        -120.69651676398735,
        36.75767490201116
      ],
      [
        -120.69958408437846,
        36.760929753348925
      ],
      [
        -120.70265140476957,
        36.76418460468668
      ],
      [
        -120.70571872516068,
        36.76743945602445
      ],
      [
        -120.70878604555179,
        36.770694307362206
      ],
      [
        -120.7118533659429,
        36.77394915869997
      ],
      [
        -120.714920686334,
        36.77720401003773
      ],
      [
        -120.71798800672511,
        36.78045886137549
      ],
      [
        -120.72105532711622,
        36.78371371271325
      ],
      [
        -120.72412264750733,
        36.78696856405101
      ],
      [
        -120.72718996789844,
        36.79022341538877
      ],
      [
        -120.73025728828955,
        36.79347826672653
      ],
      [
        -120.73332460868066,
        36.796733118064296
      ],
      [
        -120.73639192907177,
        36.79998796940205
      ],
      [
        -120.73945924946288,
        36.80324282073982
      ],
      [
        -120.74252656985398,
        36.806497672077576
      ],
      [
        -120.74559389024509,
        36.80975252341534
      ],
      [
        -120.7486612106362,
        36.8130073747531
      ],
      [
        -120.75172853102731,
        36.81626222609086
      ],
      [
        -120.75479585141842,
        36.81951707742862
      ],
      [
        -120.75786317180953,
        36.822771928766386
      ],
      [
        -120.76093049220064,
        36.826026780104144
      ],
      [
        -120.76399781259175,
        36.8292816314419
      ],
      [
        -120.76706513298286,
        36.832536482779666
      ],
      [
        -120.77013245337396,
        36.835791334117424
      ],
      [
        -120.77319977376507,
        36.83904618545519
      ],
      [
        -120.77626709415618,
        36.842301036792946
      ],
      [
        -120.7793344145473,
        36.84555588813071
      ],
      [
        -120.7824017349384,
        36.84881073946847
      ],
      [
        -120.78546905532951,
        36.852065590806234
      ],
      [
        -120.78853637572062,
        36.85532044214399
      ],
      [
        -120.79160369611174,
        36.858575293481756
      ],
      [
        -120.79467101650285,
        36.861830144819514
      ],
      [
        -120.79773833689394,
        36.86508499615727
      ],
      [
        -120.80080565728505,
        36.86833984749504
      ],
      [
        -120.80387297767616,
        36.871594698832794
      ],
      [
        -120.80694029806727,
        36.87484955017056
      ],
      [
        -120.81000761845839,
        36.87810440150832
      ],
      [
        -120.8130749388495,
        36.88135925284608
      ],
      [
        -120.8161422592406,
        36.88461410418384
      ],
      [
        -120.81920957963172,
        36.887868955521604
      ],
      [
        -120.82227690002283,
        36.89112380685936
      ],
      [
        -120.82534422041392,
        36.89437865819713
      ],
      [
        -120.82841154080504,
        36.897633509534884
      ],
      [
        -120.83147886119615,
        36.90088836087264
      ],
      [
        -120.83454618158726,
        36.90414321221041
      ],
      [
        -120.83761350197837,
        36.907398063548165
      ],
      [
        -120.84068082236948,
        36.91065291488593
      ],
      [
        -120.84374814276059,
        36.91390776622369
      ],
      [
        -120.8468154631517,
        36.91716261756145
      ],
      [
        -120.84988278354281,
        36.92041746889921
      ],
      [
        -120.8529501039339,
        36.923672320236975
      ],
      [
        -120.85601742432502,
        36.92692717157473
      ],
      [
        -120.85908474471613,
        36.9301820229125
      ],
      [
        -120.86215206510724,
        36.933436874250255
      ],
      [
        -120.86521938549835,
        36.93669172558802
      ],
      [
        -120.86828670588946,
        36.93994657692578
      ],
      [
        -120.87135402628057,
        36.943201428263535
      ],
      [
        -120.87442134667168,
        36.9464562796013
      ],
      [
        -120.87748866706279,
        36.94971113093906
      ],
      [
        -120.88055598745389,
        36.95296598227682
      ],
      [
        -120.883623307845,
        36.95622083361458
      ],
      [
        -120.88669062823611,
        36.959475684952345
      ],
      [
        -120.88975794862722,
        36.9627305362901
      ],
      [
        -120.89282526901833,
        36.96598538762787
      ],
      [
        -120.89589258940944,
        36.969240238965625
      ],
      [
        -120.89895990980055,
        36.97249509030339
      ],
      [
        -120.90202723019166,
        36.97574994164115
      ],
      [
        -120.90509455058277,
        36.979004792978905
      ],
      [
        -120.90816187097388,
        36.98225964431667
      ],
      [
        -120.91122919136498,
        36.98551449565443
      ],
      [
        -120.91429651175609,
        36.98876934699219
      ],
      [
        -120.9173638321472,
        36.99202419832995
      ],
      [
        -120.92043115253831,
        36.995279049667715
      ],
      [
        -120.92349847292942,
        36.99853390100547
      ],
      [
        -120.92656579332053,
        37.00178875234324
      ],
      [
        -120.92963311371165,
        37.005043603680996
      ],
      [
        -120.93270043410276,
        37.00829845501876
      ],
      [
        -120.93576775449387,
        37.01155330635652
      ],
      [
        -120.93883507488496,
        37.014808157694276
      ],
      [
        -120.94190239527607,
        37.01806300903204
      ],
      [
        -120.94496971566718,
        37.0213178603698
      ],
      [
        -120.9480370360583,
        37.02457271170756
      ],
      [
        -120.9511043564494,
        37.02782756304532
      ],
      [
        -120.95417167684052,
        37.031082414383086
      ],
      [
        -120.95723899723163,
        37.03433726572084
      ],
      [
        -120.96030631762274,
        37.03759211705861
      ],
      [
        -120.96337363801385,
        37.040846968396366
      ],
      [
        -120.96644095840495,
        37.04410181973413
      ],
      [
        -120.96950827879606,
        37.04735667107189
      ],
      [
        -120.97257559918717,
        37.05061152240965
      ],
      [
        -120.97564291957828,
        37.05386637374741
      ],
      [
        -120.97898997579205,
        37.05693447955924
      ],
      [
        -120.98334295280263,
        37.056880443791584
      ],
      [
        -120.98777057096873,
        37.05690457451624
      ],
      [
        -120.99236120448802,
        37.05693930619872
      ],
      [
        -120.99703050861018,
        37.05694577707527
      ],
      [
        -121.00164758214416,
        37.05699762883327
      ],
      [
        -121.00638783204214,
        37.05700656046838
      ],
      [
        -121.01095254951177,
        37.056999888054584
      ],
      [
        -121.0154612420939,
        37.057003533631544
      ],
      [
        -121.0199668534785,
        37.057009667106854
      ],
      [
        -121.02445757425302,
        37.05702569544481
      ],
      [
        -121.02863312150158,
        37.05701549304056
      ],
      [
        -121.03254075472353,
        37.057024703603226
      ],
      [
        -121.03674174543917,
        37.057013644184245
      ],
      [
        -121.04094083994494,
        37.05709651544109
      ],
      [
        -121.04509617493194,
        37.05758944605224
      ],
      [
        -121.04927616829971,
        37.058155239926364
      ],
      [
        -121.05345852986225,
        37.05902634137599
      ],
      [
        -121.0571929397155,
        37.060845136728226
      ],
      [
        -121.06112200352048,
        37.06317553351324
      ],
      [
        -121.0650320224426,
        37.0654423842278
      ],
      [
        -121.0689684242082,
        37.067769901358666
      ],
      [
        -121.07278869967118,
        37.06998400059528
      ],
      [
        -121.07625364021322,
        37.07201301003338
      ],
      [
        -121.07995936274615,
        37.0741336396927
      ],
      [
        -121.08376089524948,
        37.07638177087545
      ],
      [
        -121.08769461578918,
        37.07869811159415
      ],
      [
        -121.09175003255898,
        37.08104619249229
      ],
      [
        -121.09568863525476,
        37.082850986416624
      ],
      [
        -121.09982114497247,
        37.08348840997592
      ],
      [
        -121.1041085239264,
        37.08455236340843
      ],
      [
        -121.10862769302932,
        37.08574400560525
      ],
      [
        -121.11249394537332,
        37.087468606266754
      ],
      [
        -121.11619200102756,
        37.08988008933835
      ],
      [
        -121.11903073990372,
        37.09380370896442
      ],
      [
        -121.12117782978419,
        37.09779842459623
      ],
      [
        -121.122888986991,
        37.10155153954503
      ],
      [
        -121.12676584628306,
        37.103858706350096
      ],
      [
        -121.13150696494988,
        37.10478495556283
      ],
      [
        -121.13625244643906,
        37.10304715432082
      ],
      [
        -121.14084797800298,
        37.10131931911095
      ],
      [
        -121.14505885849029,
        37.09965297901968
      ],
      [
        -121.1490293874689,
        37.09817851573565
      ],
      [
        -121.15282024896705,
        37.09655302565548
      ],
      [
        -121.15552462006805,
        37.093339950910206
      ],
      [
        -121.15812720135523,
        37.090163744891846
      ],
      [
        -121.16103198516642,
        37.087703451588574
      ],
      [
        -121.16492895959706,
        37.08666299125504
      ],
      [
        -121.1688454589559,
        37.0869657594541
      ],
      [
        -121.17283828559042,
        37.087278565893406
      ],
      [
        -121.17632489390873,
        37.0865738510995
      ],
      [
        -121.1795205435061,
        37.085683375043956
      ],
      [
        -121.18284442387956,
        37.08484352157045
      ],
      [
        -121.1864623733542,
        37.08488431736278
      ],
      [
        -121.19019392644012,
        37.08481211248713
      ],
      [
        -121.19328500204729,
        37.08304244681373
      ],
      [
        -121.19566993478796,
        37.080517218305495
      ],
      [
        -121.19822371224099,
        37.07827936313988
      ],
      [
        -121.20183978394113,
        37.07733805265636
      ],
      [
        -121.20550370783592,
        37.07703515497829
      ],
      [
        -121.20866586022989,
        37.076099102707126
      ],
      [
        -121.21045993286675,
        37.07350263484687
      ],
      [
        -121.21167607164062,
        37.07028589226061
      ],
      [
        -121.21396504052764,
        37.06786546119548
      ],
      [
        -121.2178302437274,
        37.066945113090924
      ],
      [
        -121.22222644542292,
        37.06585971814913
      ],
      [
        -121.22688942662919,
        37.06447600494553
      ],
      [
        -121.23138248976046,
        37.06241781171166
      ],
      [
        -121.23590910748358,
        37.06034783342647
      ],
      [
        -121.24050795363323,
        37.05818901158768
      ],
      [
        -121.24533421386248,
        37.05558019843331
      ],
      [
        -121.25055632950928,
        37.05332143181858
      ],
      [
        -121.25572690487486,
        37.05127462502933
      ],
      [
        -121.25870222698481,
        37.04777672104413
      ],
      [
        -121.2617719740901,
        37.044617619736016
      ],
      [
        -121.26663596836573,
        37.04525017565166
      ],
      [
        -121.27099079827974,
        37.04508853166624
      ],
      [
        -121.27553120106842,
        37.04602589621942
      ],
      [
        -121.28025920645767,
        37.04688879782294
      ],
      [
        -121.28540643544464,
        37.04671254598814
      ],
      [
        -121.28972702875386,
        37.04404664266565
      ],
      [
        -121.29242257569132,
        37.04013502920987
      ],
      [
        -121.29647916480876,
        37.038233090960944
      ],
      [
        -121.30155556305719,
        37.03855121459543
      ],
      [
        -121.307075388447,
        37.03749768021323
      ],
      [
        -121.31167526224299,
        37.03620015371345
      ],
      [
        -121.31591500713363,
        37.03492220559341
      ],
      [
        -121.32016839583773,
        37.033831062715244
      ],
      [
        -121.32419722557034,
        37.03211008986142
      ],
      [
        -121.32689233836714,
        37.02898920951436
      ],
      [
        -121.32804276568723,
        37.02513960676152
      ],
      [
        -121.33050631920995,
        37.02182726975161
      ],
      [
        -121.33408982564005,
        37.01904083439992
      ],
      [
        -121.33787446418806,
        37.016047060850376
      ],
      [
        -121.34246669859652,
        37.01324237953174
      ],
      [
        -121.34827021022798,
        37.01231367157835
      ],
      [
        -121.35352681883188,
        37.01098556915436
      ],
      [
        -121.35822031707413,
        37.00965491158812
      ],
      [
        -121.36270874827227,
        37.00796660550246
      ],
      [
        -121.36701402075434,
        37.00595502610826
      ],
      [
        -121.37062074160282,
        37.003313872588
      ],
      [
        -121.3737958955802,
        37.00004936219341
      ],
      [
        -121.3774658566708,
        36.997165721699176
      ],
      [
        -121.3801501792064,
        36.99430880169423
      ],
      [
        -121.3828707296378,
        36.99109428757453
      ],
      [
        -121.38472018273731,
        36.98741016957796
      ],
      [
        -121.38373538752855,
        36.98316968249089
      ],
      [
        -121.38143170171554,
        36.97918772179434
      ],
      [
        -121.38160923545998,
        36.97535731695936
      ],
      [
        -121.38255962822376,
        36.97165713398136
      ],
      [
        -121.3837761542386,
        36.96862387911994
      ],
      [
        -121.38745360017656,
        36.967156753366446
      ],
      [
        -121.39174294713526,
        36.96558418522479
      ],
      [
        -121.39568438689763,
        36.96355576418607
      ],
      [
        -121.39925487860559,
        36.96130794385222
      ],
      [
        -121.40358937700921,
        36.961400134823094
      ],
      [
        -121.40735612113366,
        36.96365590939298
      ],
      [
        -121.40976712382518,
        36.965706146365164
      ],
      [
        -121.41142457236697,
        36.967240005650616
      ],
      [
        -121.4120420065916,
        36.96778709002005
      ],
      [
        -121.4125181817819,
        36.96820324990279
      ],
      [
        -121.41334129858816,
        36.96878406634677
      ],
      [
        -121.41460626074483,
        36.96943657457233
      ],
      [
        -121.41650790582949,
        36.97022690803637
      ],
      [
        -121.41957019254853,
        36.97135874360262
      ],
      [
        -121.42035835081967,
        36.971573622449
      ],
      [
        -121.42038447385765,
        36.97154902657029
      ],
      [
        -121.4222403489575,
        36.97202008958203
      ],
      [
        -121.42391969856398,
        36.97260212257837
      ],
      [
        -121.42491358177325,
        36.97294187064456
      ],
      [
        -121.4268957268287,
        36.973002350257374
      ],
      [
        -121.42872833089028,
        36.972616804319124
      ],
      [
        -121.42963512330533,
        36.97239860631363
      ],
      [
        -121.43096932031261,
        36.97237201816863
      ],
      [
        -121.4322605356197,
        36.97265456429771
      ],
      [
        -121.43389194218784,
        36.973515331660145
      ],
      [
        -121.43465979834714,
        36.97427638421048
      ],
      [
        -121.4351939723501,
        36.97514068417699
      ],
      [
        -121.43540766683194,
        36.97548257297376
      ],
      [
        -121.435988328727,
        36.97664056383575
      ],
      [
        -121.4375050456693,
        36.978357930582966
      ],
      [
        -121.43830669827167,
        36.98011296057315
      ],
      [
        -121.43865015291466,
        36.981203191664086
      ],
      [
        -121.43902283909911,
        36.982170390631914
      ],
      [
        -121.44002264626975,
        36.98346934381934
      ],
      [
        -121.4413993020167,
        36.984791511762424
      ],
      [
        -121.44250009583513,
        36.98541924802182
      ],
      [
        -121.4443594259738,
        36.98640152100364
      ],
      [
        -121.4472995413276,
        36.98797415460742
      ],
      [
        -121.45108427385017,
        36.98913316257435
      ],
      [
        -121.45505797032881,
        36.98775706877722
      ],
      [
        -121.45930924450163,
        36.987244518212684
      ],
      [
        -121.46276343856815,
        36.985536138092435
      ],
      [
        -121.46551812432193,
        36.98353475351413
      ],
      [
        -121.46897746134879,
        36.98334559921157
      ],
      [
        -121.47271456234657,
        36.98380713325524
      ],
      [
        -121.47703847940501,
        36.98450125852304
      ],
      [
        -121.48094284203525,
        36.98515576128399
      ],
      [
        -121.48480248528337,
        36.98614759173768
      ],
      [
        -121.48740854736077,
        36.98721123210206
      ],
      [
        -121.49024112877422,
        36.98843014116209
      ],
      [
        -121.49257156975236,
        36.98942038103808
      ],
      [
        -121.49468204102193,
        36.990602361201915
      ],
      [
        -121.497200961402,
        36.99293900990074
      ],
      [
        -121.49913090308421,
        36.99472455340714
      ],
      [
        -121.50077429022627,
        36.99627548366142
      ],
      [
        -121.50255546320413,
        36.99812777871913
      ],
      [
        -121.5031821995699,
        36.99877562772464
      ],
      [
        -121.50436029672267,
        36.9998576904873
      ],
      [
        -121.50609590516612,
        37.00138416738283
      ],
      [
        -121.50806965144538,
        37.00323348116196
      ],
      [
        -121.51022545945911,
        37.00536415455352
      ],
      [
        -121.512277164452,
        37.00721971982499
      ],
      [
        -121.51443888513363,
        37.009220157451786
      ],
      [
        -121.51675821755207,
        37.00936989771027
      ],
      [
        -121.5182337551919,
        37.00719693055171
      ],
      [
        -121.51983586698289,
        37.004854134990396
      ],
      [
        -121.52136902460497,
        37.00261313696646
      ],
      [
        -121.52270691392066,
        37.000823127532534
      ],
      [
        -121.52442187118741,
        36.99938567460848
      ],
      [
        -121.52493208967013,
        36.99929004266428
      ],
      [
        -121.52494742684863,
        36.99929767810752
      ],
      [
        -121.52653247071717,
        36.99964607418397
      ],
      [
        -121.52810284283709,
        37.00048122959472
      ],
      [
        -121.52965120508671,
        37.00104812001773
      ],
      [
        -121.53218989792087,
        37.00201285798441
      ],
      [
        -121.53518668508205,
        37.002954043800536
      ],
      [
        -121.53911098065826,
        37.00324683450996
      ],
      [
        -121.54371288386145,
        37.00357692040592
      ],
      [
        -121.54574410379264,
        37.003887922056585
      ],
      [
        -121.54595096971731,
        37.003930182855854
      ],
      [
        -121.54655092465786,
        37.00398924335689
      ],
      [
        -121.54746594968641,
        37.004062325744734
      ],
      [
        -121.54895946987449,
        37.00419403565411
      ],
      [
        -121.55018054596623,
        37.00429796145109
      ],
      [
        -121.5503619264196,
        37.004315781316194
      ],
      [
        -121.5506082027332,
        37.00437648826266
      ],
      [
        -121.55133377716692,
        37.005658796134824
      ],
      [
        -121.5516379176684,
        37.00597603170857
      ],
      [
        -121.55164518381237,
        37.00597558381237
      ],
      [
        -121.55164391715289,
        37.0059753052314
      ],
      [
        -121.5515855087549,
        37.005749779319636
      ],
      [
        -121.55110497367494,
        37.004352262346686
      ],
      [
        -121.55106930948297,
        37.004493787820216
      ],
      [
        -121.55213096631783,
        37.004406589618796
      ],
      [
        -121.55319757786948,
        37.0042029032088
      ],
      [
        -121.55500877532381,
        37.00369692058581
      ],
      [
        -121.55703744344298,
        37.00533551032624
      ],
      [
        -121.558816076762,
        37.0084646719707
      ],
      [
        -121.56085695809777,
        37.012061834574276
      ],
      [
        -121.56299951035396,
        37.01599107253205
      ],
      [
        -121.56507631360084,
        37.01988154090013
      ],
      [
        -121.56687524218236,
        37.023193077475874
      ],
      [
        -121.56792509384638,
        37.025099032421984
      ],
      [
        -121.5689390723608,
        37.02699010703453
      ],
      [
        -121.56973947101812,
        37.028467976179186
      ],
      [
        -121.5706005902223,
        37.03000481552686
      ],
      [
        -121.57092487374564,
        37.030580287050505
      ],
      [
        -121.57143365087688,
        37.03153378085814
      ],
      [
        -121.57218665091334,
        37.032989817809245
      ],
      [
        -121.57305420463204,
        37.03451730638788
      ],
      [
        -121.57403949574699,
        37.036379125195445
      ],
      [
        -121.57521275586436,
        37.03855082002296
      ],
      [
        -121.57667612787269,
        37.04159572632303
      ],
      [
        -121.57819436896581,
        37.0450475824885
      ],
      [
        -121.57943604770054,
        37.04780908928464
      ],
      [
        -121.58033178801668,
        37.04998539732465
      ],
      [
        -121.58154797673897,
        37.05282552611195
      ],
      [
        -121.58292211918742,
        37.05601791539979
      ],
      [
        -121.58450416579029,
        37.059597040300005
      ],
      [
        -121.58608940442168,
        37.063270130068425
      ],
      [
        -121.58775851422895,
        37.06699449415791
      ],
      [
        -121.58895293535737,
        37.06978547066222
      ],
      [
        -121.58978665616623,
        37.07158214882464
      ],
      [
        -121.59093898362497,
        37.07383074006666
      ],
      [
        -121.59251213201934,
        37.076659490662045
      ],
      [
        -121.59403349322277,
        37.07944291744104
      ],
      [
        -121.59533886757231,
        37.08177958761407
      ],
      [
        -121.5964583699912,
        37.08377884214569
      ],
      [
        -121.59786383426754,
        37.08638272154963
      ],
      [
        -121.5996760410327,
        37.089625402378154
      ],
      [
        -121.60139493975832,
        37.09278193684059
      ],
      [
        -121.60255075477818,
        37.09488232859213
      ],
      [
        -121.60326701535962,
        37.096218547101245
      ],
      [
        -121.6041084381395,
        37.0977306020443
      ],
      [
        -121.6048817222314,
        37.098846991306665
      ],
      [
        -121.60573733780107,
        37.09990279864948
      ],
      [
        -121.60694446060018,
        37.101088847932786
      ],
      [
        -121.60815532616945,
        37.102147189164256
      ],
      [
        -121.60975786648626,
        37.10341960623792
      ],
      [
        -121.6123718936529,
        37.10552791055329
      ],
      [
        -121.61425674104508,
        37.10697831932636
      ],
      [
        -121.61613272785179,
        37.10842674749417
      ],
      [
        -121.61775363753972,
        37.109716491021196
      ],
      [
        -121.61984269461698,
        37.111349196027206
      ],
      [
        -121.62141531625902,
        37.1126803781312
      ],
      [
        -121.62249703866951,
        37.11374494418506
      ],
      [
        -121.62370201085643,
        37.11538649080457
      ],
      [
        -121.62506883174359,
        37.11755990937233
      ],
      [
        -121.62624799919074,
        37.11959354553003
      ],
      [
        -121.62667798475363,
        37.12029245329294
      ],
      [
        -121.62713896532264,
        37.1210007253886
      ],
      [
        -121.62797090780232,
        37.1223739273944
      ],
      [
        -121.62916169420252,
        37.124432184518284
      ],
      [
        -121.63037738911062,
        37.12645875393227
      ],
      [
        -121.63159337330333,
        37.12852305763489
      ],
      [
        -121.6322948903705,
        37.129718558603
      ],
      [
        -121.6330240074535,
        37.13097602657883
      ],
      [
        -121.63431051176161,
        37.1331330256775
      ],
      [
        -121.63571581357678,
        37.135481917816485
      ],
      [
        -121.63771533174544,
        37.138040733076274
      ],
      [
        -121.64050601904816,
        37.14085007769047
      ],
      [
        -121.6433463916454,
        37.143802560493256
      ],
      [
        -121.6458388413712,
        37.14635902687976
      ],
      [
        -121.64828024403391,
        37.1489128172983
      ],
      [
        -121.65065738237001,
        37.151312169325614
      ],
      [
        -121.65337287689948,
        37.154147730536174
      ],
      [
        -121.65645174588893,
        37.15726718620513
      ],
      [
        -121.66010945025238,
        37.160432938939174
      ],
      [
        -121.66386531610762,
        37.16337547676616
      ],
      [
        -121.6671447108128,
        37.16715131735156
      ],
      [
        -121.67044276250326,
        37.1707543814193
      ],
      [
        -121.67430680117317,
        37.174118487657786
      ],
      [
        -121.67829928165894,
        37.17750423014075
      ],
      [
        -121.68164772262213,
        37.18111802226984
      ],
      [
        -121.68503733172282,
        37.18492921157726
      ],
      [
        -121.68922709150536,
        37.18817599705321
      ],
      [
        -121.6935431129708,
        37.1912015164414
      ],
      [
        -121.69787965686123,
        37.194221757756736
      ],
      [
        -121.70227255587771,
        37.197315607751754
      ],
      [
        -121.70676029023215,
        37.20019511497615
      ],
      [
        -121.71149903215046,
        37.20292873618784
      ],
      [
        -121.71623759886937,
        37.20562459436562
      ],
      [
        -121.7208474438046,
        37.208255367235324
      ],
      [
        -121.72467743274501,
        37.211486926353864
      ],
      [
        -121.72802431329431,
        37.21494854712211
      ],
      [
        -121.73174759282703,
        37.218353126273854
      ],
      [
        -121.73583596614684,
        37.22153997947853
      ],
      [
        -121.73999866010085,
        37.22486659681799
      ],
      [
        -121.7441209090901,
        37.227857180068305
      ],
      [
        -121.74873761020392,
        37.23055412823648
      ],
      [
        -121.75327327849949,
        37.23315282837556
      ],
      [
        -121.75771558256943,
        37.23570046009957
      ],
      [
        -121.76216365645958,
        37.238244652043946
      ],
      [
        -121.7666297559792,
        37.24083118751538
      ],
      [
        -121.77119886228472,
        37.243362546991385
      ],
      [
        -121.77576781130317,
        37.245936993065925
      ],
      [
        -121.7805222316108,
        37.24858363608378
      ],
      [
        -121.78529385483543,
        37.25116125857466
      ],
      [
        -121.79007506032659,
        37.25374690739354
      ],
      [
        -121.79483386410963,
        37.25633096296465
      ],
      [
        -121.79881197376632,
        37.25991147116209
      ],
      [
        -121.80100613003538,
        37.264178021943884
      ],
      [
        -121.80243843941133,
        37.268611944159915
      ],
      [
        -121.80385040976272,
        37.27306729480532
      ],
      [
        -121.80567640326831,
        37.27762291196771
      ],
      [
        -121.80828237744855,
        37.281721655543336
      ],
      [
        -121.80937402732287,
        37.2861677080484
      ],
      [
        -121.80968211741127,
        37.29084609676333
      ],
      [
        -121.81018566408837,
        37.2954761975542
      ],
      [
        -121.81306160444916,
        37.2995593706511
      ],
      [
        -121.81662578519388,
        37.30321053407324
      ],
      [
        -121.82014088323176,
        37.306894838496426
      ],
      [
        -121.82361683779712,
        37.3104688183233
      ],
      [
        -121.82696126663585,
        37.313936100540325
      ],
      [
        -121.83030232557101,
        37.31734072836223
      ],
      [
        -121.83357271613043,
        37.32072214740722
      ],
      [
        -121.8368318060592,
        37.32410224013738
      ],
      [
        -121.84006559068992,
        37.32749889030467
      ],
      [
        -121.84322177131335,
        37.33088295907256
      ],
      [
        -121.84648431229319,
        37.33411316086346
      ],
      [
        -121.849648073075,
        37.33729872957632
      ],
      [
        -121.85278778928594,
        37.34056101926791
      ],
      [
        -121.85584370327652,
        37.343755866460484
      ],
      [
        -121.8589593679481,
        37.347007119361685
      ],
      [
        -121.86199037258197,
        37.35043629861061
      ],
      [
        -121.865176466718,
        37.35344673888617
      ],
      [
        -121.86844246564664,
        37.35636335052705
      ],
      [
        -121.87209952286486,
        37.35909384307428
      ],
      [
        -121.8763673068568,
        37.360977148506365
      ],
      [
        -121.88128511379024,
        37.36205559987457
      ],
      [
        -121.88667217229167,
        37.36265182368198
      ],
      [
        -121.89192823415175,
        37.363180378264204
      ],
      [
        -121.89694159405072,
        37.36358297636646
      ],
      [
        -121.90171494392008,
        37.36424022235611
      ],
      [
        -121.90584974337509,
        37.36637788166025
      ],
      [
        -121.9096378454556,
        37.36933387541854
      ],
      [
        -121.91459907695727,
        37.37131486983726
      ],
      [
        -121.9196915462357,
        37.37233965220829
      ],
      [
        -121.92519359403278,
        37.37322024823538
      ],
      [
        -121.93063532389259,
        37.37454044666337
      ],
      [
        -121.93599133730326,
        37.37572850103711
      ],
      [
        -121.9412434912402,
        37.37676188203394
      ],
      [
        -121.94601231156382,
        37.37768924159432
      ],
      [
        -121.9509481345658,
        37.37867649747127
      ],
      [
        -121.95577543206286,
        37.37974276418594
      ],
      [
        -121.96060262231916,
        37.3811923242121
      ],
      [
        -121.96552433606816,
        37.38260229535185
      ],
      [
        -121.97047321359169,
        37.38410860219353
      ],
      [
        -121.97559560815232,
        37.38545998109944
      ],
      [
        -121.98071773337215,
        37.386981151315034
      ],
      [
        -121.9861556479993,
        37.38850343262908
      ],
      [
        -121.99182909952634,
        37.39005965049687
      ],
      [
        -121.99728711327134,
        37.391760271100146
      ],
      [
        -122.00219377675641,
        37.39315315538677
      ],
      [
        -122.00683209155495,
        37.39438078551951
      ],
      [
        -122.01183105420647,
        37.39564759365798
      ],
      [
        -122.01701319281922,
        37.396745681832726
      ],
      [
        -122.02235931916319,
        37.39787340512517
      ],
      [
        -122.02757842679364,
        37.39898064585988
      ],
      [
        -122.03290187559435,
        37.4002182070133
      ],
      [
        -122.03840189102597,
        37.40146173767093
      ],
      [
        -122.04358959824512,
        37.4025433359813
      ],
      [
        -122.0491870858063,
        37.403785112054045
      ],
      [
        -122.05482881602775,
        37.40530056520802
      ],
      [
        -122.06048664597712,
        37.40656890223944
      ],
      [
        -122.0657800002883,
        37.407740200349295
      ],
      [
        -122.07033574185886,
        37.40911361910262
      ],
      [
        -122.07471820729913,
        37.41087074265063
      ],
      [
        -122.07906061966781,
        37.4126409430606
      ],
      [
        -122.0829639320796,
        37.41461896162416
      ],
      [
        -122.08673391746314,
        37.41422637857056
      ],
      [
        -122.0899356393926,
        37.41445027708523
      ],
      [
        -122.09222511812315,
        37.4145317381006
      ],
      [
        -122.0926747770776,
        37.4141118233578
      ],
      [
        -122.09231545860395,
        37.41238800478609
      ],
      [
        -122.09240713261826,
        37.41183331373581
      ],
      [
        -122.14170564567262,
        37.42299244731234
      ],
      [
        -122.14373558745123,
        37.42400788050847
      ],
      [
        -122.14536429496499,
        37.424828633328374
      ],
      [
        -122.14536066131132,
        37.4248196860517
      ],
      [
        -122.1453851030959,
        37.424854099785534
      ],
      [
        -122.14634381700301,
        37.42538019274873
      ],
      [
        -122.14811098913012,
        37.42678911661265
      ],
      [
        -122.14981992481175,
        37.42834981475893
      ],
      [
        -122.15152364571207,
        37.42979476640296
      ],
      [
        -122.15164814115772,
        37.429894057954584
      ],
      [
        -122.15165478732007,
        37.42989204071969
      ],
      [
        -122.15168925832172,
        37.42987914319849
      ],
      [
        -122.15168265890343,
        37.42988617852918
      ],
      [
        -122.15168272,
        37.42988608483444
      ],
      [
        -122.15168273772836,
        37.42988632803286
      ],
      [
        -122.15168282740288,
        37.42988687480577
      ],
      [
        -122.15168303932818,
        37.429886988087844
      ],
      [
        -122.15266208678132,
        37.4296763281743
      ],
      [
        -122.4667647359861,
        37.727391124315346
      ],
      [
        -122.46759364708751,
        37.72817890003497
      ],
      [
        -122.46759226047277,
        37.72819591737093
      ],
      [
        -122.46815510514138,
        37.729141625929195
      ],
      [
        -122.46912493358677,
        37.72998270644871
      ],
      [
        -122.46991400004141,
        37.730276448424036
      ],
      [
        -122.47157376761025,
        37.73102277478412
      ],
      [
        -122.471538097256,
        37.73271382053784
      ],
      [
        -122.4714498566248,
        37.73428812202287
      ],
      [
        -122.4713873971799,
        37.734564755483085
      ],
      [
        -122.47141625677627,
        37.73455569613941
      ],
      [
        -122.4714094036388,
        37.734560807486844
      ],
      [
        -122.47140941607323,
        37.73457191010387
      ],
      [
        -122.47029321349115,
        37.735810877313234
      ]
    ]
  },
  "properties": {}
}