{
  "type": "Feature",
  "geometry": {
    "type": "LineString",
    "coordinates": [
      [
        -122.47565579306091,
        37.74438963137948
      ],
      [
        -122.47580781773613,
        37.74648179045887
      ],
      [
        -122.4759647018908,
        37.74863470048715
      ],
      [
        -122.47609681891873,
        37.75051682110701
      ],
      [
        -122.4761438370892,
        37.75042614903091
      ],
      [
        -122.4761438370892,
        37.75042614903091
      ],
      [
        -122.47621445916064,
        37.752106372136836
      ],
      [
        -122.47638763603668,
        37.754694431876
      ],
      [
        -122.47657058824899,
        37.75732679846015
      ],
      [
        -122.47675590118135,
        37.759839139735995
      ],
      [
        -122.4769622461148,
        37.76145849380433
      ],
      [
        -122.4769622461148,
        37.76145849380433
      ],
      [
        -122.47700971338696,
        37.76199958980806
      ],
      [
        -122.47717196277081,
        37.7638805157867
      ],
      [
        -122.47730109454989,
        37.76563479423934
      ],
      [
        -122.47815480610953,
        37.76768955624312
      ],
      [
        -122.47872285822648,
        37.76989043571705
      ],
      [
        -122.47940547333661,
        37.77112092659713
      ],
      [
        -122.47784300977268,
        37.772303116831424
      ],
      [
        -122.47467034184531,
        37.77250489938247
      ],
      [
        -122.4720415374242,
        37.77246098598014
      ],
      [
        -122.47190402693258,
        37.7725509945824
      ],
      [
        -122.4717330988142,
        37.7732002106182
      ],
      [
        -122.47185160238728,
        37.774779239720715
      ],
      [
        -122.47197514022879,
        37.776479370686445
      ],
      [
        -122.471988927687,
        37.77662056036086
      ],
      [
        -122.47198604061889,
        37.776632811893634
      ],
      [
        -122.4720431534685,
        37.77753703974298
      ],
      [
        -122.47211968362564,
        37.77850131807285
      ],
      [
        -122.47213223388283,
        37.77859547683287
      ],
      [
        -122.47224054660592,
        37.78047343919384
      ],
      [
        -122.47241303187717,
        37.78259994248357
      ],
      [
        -122.47251815458442,
        37.784098873530205
      ],
      [
        -122.4725779524788,
        37.784729643376174
      ],
      [
        -122.4725448793119,
        37.78664162451298
      ],
      [
        -122.47124230239676,
        37.78915023948279
      ],
      [
        -122.46962312754101,
        37.79190039420289
      ],
      [
        -122.46949983101027,
        37.79470344716394
      ],
      [
        -122.46946380568316,
        37.79760547798959
      ],
      [
        -122.46939758423636,
        37.80098419758201
      ],
      [
        -122.47020195099068,
        37.80410590682104
      ],
      [
        -122.47325239940196,
        37.80528510124331
      ],
      [
        -122.47568541448904,
        37.80753907561018
      ],
      [
        -122.47730652395941,
        37.80959515247324
      ],
      [
        -122.47765673076852,
        37.812450927786934
      ],
      [
        -122.47803559712392,
        37.81571878132061
      ],
      [
        -122.47842584385329,
        37.81894472612901
      ],
      [
        -122.47882837116944,
        37.822396543665356
      ],
      [
        -122.47921135657523,
        37.82583316099323
      ],
      [
        -122.47962559496503,
        37.82935840878459
      ],
      [
        -122.48105432591039,
        37.83257957756418
      ],
      [
        -122.48430005133527,
        37.83504063100072
      ],
      [
        -122.48616778730627,
        37.83801864957941
      ],
      [
        -122.48623240095912,
        37.84097795569756
      ],
      [
        -122.48569048371748,
        37.84366881310353
      ],
      [
        -122.48620064428906,
        37.84580782417737
      ],
      [
        -122.48777951253335,
        37.847686617802154
      ],
      [
        -122.48935591187386,
        37.8490846966948
      ],
      [
        -122.48993402993256,
        37.85067417246249
      ],
      [
        -122.49223937382841,
        37.85271831432897
      ],
      [
        -122.49416321269214,
        37.8558713853623
      ],
      [
        -122.49810768862271,
        37.85729992384397
      ],
      [
        -122.50102807598759,
        37.85984086863482
      ],
      [
        -122.50479582854749,
        37.861931391837366
      ],
      [
        -122.50691532262803,
        37.864814453411164
      ],
      [
        -122.50707690792164,
        37.8682990073526
      ],
      [
        -122.50715986111909,
        37.87175734651763
      ],
      [
        -122.50927801640817,
        37.87492942935396
      ],
      [
        -122.51248602512752,
        37.877292485559416
      ],
      [
        -122.51623539504617,
        37.880250331408924
      ],
      [
        -122.51664930153726,
        37.88429580133318
      ],
      [
        -122.51668808909643,
        37.88826772111846
      ],
      [
        -122.51647364151457,
        37.89219743346765
      ],
      [
        -122.51614027858253,
        37.896174952588
      ],
      [
        -122.51580567815382,
        37.90035478403631
      ],
      [
        -122.51548080367732,
        37.90440728753397
      ],
      [
        -122.51417940427206,
        37.90816900908588
      ],
      [
        -122.51276544405115,
        37.91168623089889
      ],
      [
        -122.51143129159443,
        37.91570960590864
      ],
      [
        -122.51133253246977,
        37.91978391682955
      ],
      [
        -122.51318491025211,
        37.92347013179216
      ],
      [
        -122.51495201031491,
        37.92704404836684
      ],
      [
        -122.51567572342036,
        37.930301486666814
      ],
      [
        -122.51636106546478,
        37.93373201528143
      ],
      [
        -122.51675231758418,
        37.937233862851876
      ],
      [
        -122.5158949518146,
        37.94066035775096
      ],
      [
        -122.51509812530342,
        37.943586330998215
      ],
      [
        -122.5139705275799,
        37.946386855243425
      ],
      [
        -122.512156075352,
        37.94932359412125
      ],
      [
        -122.50948480906499,
        37.951983415767714
      ],
      [
        -122.50835403381063,
        37.954767857620006
      ],
      [
        -122.5090034358283,
        37.95794150502576
      ],
      [
        -122.50967499324008,
        37.96141378715685
      ],
      [
        -122.5123542679608,
        37.96403381744905
      ],
      [
        -122.51603944582634,
        37.96608365882541
      ],
      [
        -122.51958354555988,
        37.96821274333376
      ],
      [
        -122.52130125632227,
        37.970161678528584
      ],
      [
        -122.52105818724066,
        37.97119568746667
      ],
      [
        -122.52188127192264,
        37.97139034525363
      ],
      [
        -122.52304045828033,
        37.97157354359837
      ],
      [
        -122.52465891627594,
        37.97178006336548
      ],
      [
        -122.52708290798091,
        37.972082489324215
      ],
      [
        -122.52825418729766,
        37.97219612568834
      ],
      [
        -122.46896634747401,
        37.739906622946826
      ],
      [
        -122.4699842446113,
        37.73957746986832
      ],
      [
        -122.47146492442195,
        37.73950267288646
      ],
      [
        -122.47245348213792,
        37.739454901295424
      ],
      [
        -122.47328985942437,
        37.739412310865866
      ],
      [
        -122.47424544975304,
        37.73937422821466
      ],
      [
        -122.4750883878418,
        37.73938500325916
      ],
      [
        -122.4750907347747,
        37.73937360387085
      ],
      [
        -122.4750907347747,
        37.73937360387085
      ],
      [
        -122.4750907347747,
        37.73937360387085
      ],
      [
        -122.47540955724622,
        37.73976860217111
      ],
      [
        -122.47550009174805,
        37.74104436536229
      ],
      [
        -122.47548587009268,
        37.741145019925426
      ],
      [
        -122.47558938115948,
        37.74292066018558
      ],
      [
        -122.47571357060178,
        37.745040400082274
      ],
      [
        -122.47585711626395,
        37.74719392917103
      ],
      [
        -122.47599913100699,
        37.749121699195946
      ],
      [
        -122.47608404839076,
        37.75033443985722
      ],
      [
        -122.476084056653,
        37.75033455785378
      ],
      [
        -122.47608736244311,
        37.750381769224305
      ],
      [
        -122.47620134247255,
        37.75193054390775
      ],
      [
        -122.47632583990307,
        37.75377523611522
      ],
      [
        -122.47646351176233,
        37.75577304287388
      ],
      [
        -122.47659652852813,
        37.75770555489006
      ],
      [
        -122.47672153552031,
        37.75938443749299
      ],
      [
        -122.4767390839983,
        37.75961662660443
      ],
      [
        -122.47679036007516,
        37.760184063368385
      ],
      [
        -122.47698358405596,
        37.76193784036229
      ],
      [
        -122.47714910837273,
        37.764146178684456
      ],
      [
        -122.4772757292934,
        37.76527573823721
      ],
      [
        -122.4772822671779,
        37.76528881400615
      ],
      [
        -122.4772822671779,
        37.76528881400615
      ],
      [
        -122.47731540056526,
        37.765948516874786
      ],
      [
        -122.47830605265833,
        37.768233561042116
      ],
      [
        -122.47936324745503,
        37.77063715046035
      ],
      [
        -122.47768410334287,
        37.77229279281502
      ],
      [
        -122.4742213040938,
        37.77246452799418
      ],
      [
        -122.47182817443586,
        37.77263855493948
      ],
      [
        -122.47179753791447,
        37.77268604969162
      ],
      [
        -122.47176148632154,
        37.7738041516748
      ],
      [
        -122.47189491398547,
        37.7756894842114
      ],
      [
        -122.47205000404281,
        37.77782831364389
      ],
      [
        -122.47219759731962,
        37.77993510964619
      ],
      [
        -122.47232880914507,
        37.78176524747476
      ],
      [
        -122.4723734588753,
        37.78234291994366
      ],
      [
        -122.4723728471675,
        37.78233500574593
      ],
      [
        -122.47240004645609,
        37.78270056782991
      ],
      [
        -122.47250357714178,
        37.784197012964015
      ],
      [
        -122.47250596672062,
        37.78423155222724
      ],
      [
        -122.4725994474887,
        37.785569318644605
      ],
      [
        -122.47230113302332,
        37.78737849301392
      ],
      [
        -122.47103101342431,
        37.78940691307961
      ],
      [
        -122.4696495132783,
        37.79181544448252
      ],
      [
        -122.46951918455046,
        37.79364224031178
      ],
      [
        -122.46948065006082,
        37.79587448870405
      ],
      [
        -122.46944245755805,
        37.79920087826845
      ],
      [
        -122.46933111349902,
        37.80234523908997
      ],
      [
        -122.47101832378928,
        37.80430049425301
      ],
      [
        -122.47373547131647,
        37.80581381813041
      ],
      [
        -122.47557842286318,
        37.80749871005176
      ],
      [
        -122.47711607616016,
        37.80914641748909
      ],
      [
        -122.47754878781464,
        37.81160661656576
      ],
      [
        -122.47788072207015,
        37.81430607898008
      ],
      [
        -122.47823692260505,
        37.81729698293468
      ],
      [
        -122.47859028264038,
        37.82024146401674
      ],
      [
        -122.47891114103084,
        37.8231202435327
      ],
      [
        -122.47924306151516,
        37.82601671657965
      ],
      [
        -122.4795469630369,
        37.82883043653651
      ],
      [
        -122.48008036362017,
        37.83156922440486
      ],
      [
        -122.48266710409665,
        37.833470259673284
      ],
      [
        -122.48465961796857,
        37.835604853001996
      ],
      [
        -122.48628098277378,
        37.83824274534984
      ],
      [
        -122.48606201777771,
        37.84110518033364
      ],
      [
        -122.4856502078706,
        37.843844936390205
      ],
      [
        -122.48680803548673,
        37.84690431762728
      ],
      [
        -122.48925753367429,
        37.84894090174622
      ],
      [
        -122.49057219225956,
        37.85157582562037
      ],
      [
        -122.49282940508543,
        37.85358400793504
      ],
      [
        -122.49461190318198,
        37.85622622465676
      ],
      [
        -122.49812233467978,
        37.85732096288558
      ],
      [
        -122.50067115980164,
        37.859577135250525
      ],
      [
        -122.50373928738361,
        37.86131892208649
      ],
      [
        -122.50621035362545,
        37.8634304436681
      ],
      [
        -122.50701409112185,
        37.86644443156077
      ],
      [
        -122.50703875354777,
        37.869614058639755
      ],
      [
        -122.47608533333333,
        37.750351716666664
      ],
      [
        -122.47608533333333,
        37.750351716666664
      ],
      [
        -122.47615132865121,
        37.75111406226652
      ],
      [
        -122.4762547346374,
        37.75292503769336
      ],
      [
        -122.476401137325,
        37.754846048123774
      ],
      [
        -122.4765372960657,
        37.75688408071873
      ],
      [
        -122.47667523768379,
        37.75871538237622
      ],
      [
        -122.47674203333334,
        37.759594283333335
      ],
      [
        -122.47675215827513,
        37.759640710474315
      ],
      [
        -122.4769230443035,
        37.76112641251857
      ],
      [
        -122.47708814039548,
        37.76312735743068
      ],
      [
        -122.47722689011675,
        37.76515256016977
      ],
      [
        -122.477225,
        37.76530468333333
      ],
      [
        -122.477225,
        37.76530468333333
      ],
      [
        -122.47722659870293,
        37.76534218359214
      ],
      [
        -122.47778535813313,
        37.76712657038334
      ],
      [
        -122.47854642961813,
        37.76973588992052
      ],
      [
        -122.4790646134371,
        37.772133770300066
      ],
      [
        -122.47572377868872,
        37.77242613786211
      ],
      [
        -122.47239753911174,
        37.77231548668233
      ],
      [
        -122.47175585,
        37.77277805
      ],
      [
        -122.47171940123246,
        37.77314138607985
      ],
      [
        -122.47184720940837,
        37.774926054834054
      ],
      [
        -122.47201893016035,
        37.776983316134114
      ],
      [
        -122.47216255630518,
        37.778966516883266
      ],
      [
        -122.47230238019128,
        37.781039369749436
      ],
      [
        -122.47238359969337,
        37.78234792209068
      ],
      [
        -122.47238483333334,
        37.78235601666667
      ],
      [
        -122.47238483333334,
        37.78235601666667
      ],
      [
        -122.47247106832783,
        37.783651904164024
      ],
      [
        -122.47252205,
        37.78419121666667
      ],
      [
        -122.47252465345277,
        37.784439211154435
      ],
      [
        -122.47256312890362,
        37.78640259685956
      ],
      [
        -122.47179756939927,
        37.78841237852029
      ],
      [
        -122.47007679395293,
        37.790680151042025
      ],
      [
        -122.46952566333513,
        37.79329419472166
      ],
      [
        -122.46949794935934,
        37.79592629717589
      ],
      [
        -122.46941316858852,
        37.798476449407275
      ],
      [
        -122.46937065704246,
        37.80098501302292
      ],
      [
        -122.46968813662782,
        37.803849870791936
      ],
      [
        -122.47272706583,
        37.80490476749483
      ],
      [
        -122.47487385801293,
        37.806823111204096
      ],
      [
        -122.4765863806272,
        37.80829483070256
      ],
      [
        -122.47739556670486,
        37.81048506648413
      ],
      [
        -122.47772414897088,
        37.81311157659919
      ],
      [
        -122.4780639997409,
        37.81595391634465
      ],
      [
        -122.47841980639187,
        37.81895900183742
      ],
      [
        -122.47875505535337,
        37.82185327545381
      ],
      [
        -122.47909655013578,
        37.82481286065979
      ],
      [
        -122.47940978839205,
        37.827532534988464
      ],
      [
        -122.47974667789421,
        37.83039669454916
      ],
      [
        -122.48131395260299,
        37.8327893800325
      ],
      [
        -122.48396322330619,
        37.83464442017062
      ],
      [
        -122.48553609400383,
        37.83711549278072
      ],
      [
        -122.48667552292225,
        37.83991156228782
      ],
      [
        -122.4853922084376,
        37.84260272989504
      ],
      [
        -122.48624316631644,
        37.84560072223265
      ],
      [
        -122.48830897172618,
        37.84804978396311
      ],
      [
        -122.48973916494666,
        37.850452533243704
      ],
      [
        -122.49204788756775,
        37.85259169414971
      ],
      [
        -122.49358033589598,
        37.85513450142759
      ],
      [
        -122.4965789129401,
        37.85689586117822
      ],
      [
        -122.49970188981123,
        37.85849121699857
      ],
      [
        -122.50235421788587,
        37.86072836849275
      ],
      [
        -122.50538277902116,
        37.8623953511305
      ],
      [
        -122.50692441836894,
        37.8650904854389
      ],
      [
        -122.50705721226392,
        37.86823815205259
      ],
      [
        -122.50713082558079,
        37.87138971145981
      ],
      [
        -122.50838297133802,
        37.87423961025444
      ],
      [
        -122.51111544656725,
        37.87643363705689
      ],
      [
        -122.51445377315648,
        37.87846102828811
      ],
      [
        -122.51644591943845,
        37.88112933356578
      ],
      [
        -122.51656447301929,
        37.88448197740138
      ],
      [
        -122.51662884652035,
        37.88807890134661
      ],
      [
        -122.5164594978656,
        37.89153119072072
      ],
      [
        -122.516189172137,
        37.89491265887276
      ],
      [
        -122.5159251320989,
        37.89831716604235
      ],
      [
        -122.5156759295938,
        37.90153464612481
      ],
      [
        -122.5153905115486,
        37.90461525168662
      ],
      [
        -122.51428633127054,
        37.90786265913729
      ],
      [
        -122.5129427917655,
        37.9110196933601
      ],
      [
        -122.51188350898533,
        37.91419223774285
      ],
      [
        -122.51105757864983,
        37.91746771196554
      ],
      [
        -122.51167760374743,
        37.92084749348283
      ],
      [
        -122.51344946000462,
        37.9241201304475
      ],
      [
        -122.51495727776931,
        37.9273014409834
      ],
      [
        -122.51564773982895,
        37.93056154694504
      ],
      [
        -122.51628505769786,
        37.93378454610777
      ],
      [
        -122.51671070320803,
        37.93679709173511
      ],
      [
        -122.51602631271214,
        37.939837866136685
      ],
      [
        -122.51528901374938,
        37.94259346171283
      ],
      [
        -122.51443027405692,
        37.94540295015186
      ],
      [
        -122.51273096897832,
        37.94826387262258
      ],
      [
        -122.51083916141575,
        37.9507822486628
      ],
      [
        -122.50860984769825,
        37.95299209064912
      ],
      [
        -122.50860951046052,
        37.9559644400309
      ],
      [
        -122.5092030606922,
        37.95901504492132
      ],
      [
        -122.50982696173226,
        37.962043660132785
      ],
      [
        -122.51265808373834,
        37.96419840967988
      ],
      [
        -122.5158809885051,
        37.96600876471406
      ],
      [
        -122.51908277059418,
        37.96788819729489
      ],
      [
        -122.52105570070752,
        37.96959709256342
      ],
      [
        -122.52106169921971,
        37.97094730746725
      ],
      [
        -122.52099388333333,
        37.971175716666664
      ],
      [
        -122.52099388333333,
        37.971175716666664
      ],
      [
        -122.52177984184628,
        37.97136964062391
      ],
      [
        -122.52210615,
        37.9714195
      ],
      [
        -122.52210615,
        37.9714195
      ],
      [
        -122.52379596701734,
        37.971651193058456
      ],
      [
        -122.5255492630056,
        37.971894010079794
      ],
      [
        -122.52699433091345,
        37.97206986755145
      ],
      [
        -122.52788675566426,
        37.97216950369208
      ],
      [
        -122.5278912,
        37.9721702
      ],
      [
        -122.52894746749836,
        37.972275418316926
      ],
      [
        -122.47175508605079,
        37.772778309767354
      ],
      [
        -122.47175256948694,
        37.773854637594894
      ],
      [
        -122.47186268592264,
        37.77576400254358
      ],
      [
        -122.47203238630644,
        37.777798439036964
      ],
      [
        -122.47218942312396,
        37.77984592207766
      ],
      [
        -122.47232812736488,
        37.781695872690555
      ],
      [
        -122.4724056312289,
        37.78232371385776
      ],
      [
        -122.4723830741874,
        37.78235214869986
      ],
      [
        -122.47238631552658,
        37.782569937782014
      ],
      [
        -122.47249717161,
        37.784161544243204
      ],
      [
        -122.47249390618268,
        37.78417366817039
      ],
      [
        -122.47254036820733,
        37.785194461142495
      ],
      [
        -122.29716798987863,
        37.868008937566145
      ],
      [
        -122.29540695596326,
        37.868389163043084
      ],
      [
        -122.2951207963026,
        37.86843081474105
      ],
      [
        -122.29453121152093,
        37.868550541778866
      ],
      [
        -122.29359962351745,
        37.868755596312546
      ],
      [
        -122.29287219882167,
        37.86891169188619
      ],
      [
        -122.2928122525311,
        37.86891759376774
      ],
      [
        -122.2928122525311,
        37.86891759376774
      ],
      [
        -122.2928122525311,
        37.86891759376774
      ],
      [
        -122.2928122525311,
        37.86891759376774
      ],
      [
        -122.29243780019198,
        37.86901325978964
      ],
      [
        -122.29097514549758,
        37.869217954760536
      ],
      [
        -122.28905802258198,
        37.869426080323564
      ],
      [
        -122.28795522305404,
        37.86957099413082
      ],
      [
        -122.28685242352611,
        37.86971590793807
      ],
      [
        -122.28574962399819,
        37.86986082174533
      ],
      [
        -122.28464682447024,
        37.870005735552574
      ],
      [
        -122.28354402494232,
        37.87015064935983
      ],
      [
        -122.28244122541439,
        37.87029556316708
      ],
      [
        -122.28133842588645,
        37.87044047697434
      ],
      [
        -122.28023562635852,
        37.87058539078159
      ],
      [
        -122.2796912115388,
        37.87065220084522
      ],
      [
        -122.27782151908195,
        37.87085928285495
      ],
      [
        -122.27593840921736,
        37.87111692165161
      ],
      [
        -122.27520438608072,
        37.87057821596244
      ],
      [
        -122.27517736932683,
        37.870259655091516
      ],
      [
        -122.32600600654082,
        37.82197705612827
      ],
      [
        -122.32173409269846,
        37.822632988912375
      ],
      [
        -122.31746217885612,
        37.82328892169648
      ],
      [
        -122.31319026501376,
        37.82394485448059
      ],
      [
        -122.28027318720271,
        37.85323947419122
      ],
      [
        -122.2793347389645,
        37.85324896689304
      ],
      [
        -122.27933188000233,
        37.85325048101444
      ],
      [
        -122.27911122028664,
        37.853843692195035
      ],
      [
        -122.27948509980274,
        37.85583683171364
      ],
      [
        -122.27989620564118,
        37.85790497449946
      ],
      [
        -122.28026988414821,
        37.85973564132688
      ],
      [
        -122.28079748689213,
        37.86162426520383
      ],
      [
        -122.28114893915517,
        37.862736129522084
      ],
      [
        -122.28063563062115,
        37.863137084742995
      ],
      [
        -122.28012232208712,
        37.86353803996391
      ],
      [
        -122.2796090135531,
        37.863938995184824
      ],
      [
        -122.27909570501907,
        37.864339950405736
      ],
      [
        -122.4902012853324,
        37.67683671703948
      ],
      [
        -122.48906836990005,
        37.67415684771015
      ],
      [
        -122.48729332473327,
        37.670850753556316
      ],
      [
        -122.48418157544867,
        37.667784172627506
      ],
      [
        -122.48081832700339,
        37.66547098177699
      ],
      [
        -122.47771848176747,
        37.6627352159654
      ],
      [
        -122.47608241789034,
        37.660877490592284
      ],
      [
        -122.47604237723924,
        37.66082118136266
      ],
      [
        -122.47605361023192,
        37.66082140906644
      ],
      [
        -122.47576727406603,
        37.66056398794892
      ],
      [
        -122.47549530731524,
        37.66223286214289
      ],
      [
        -122.47553569655125,
        37.664618744217734
      ],
      [
        -122.47493282644798,
        37.665215869273204
      ],
      [
        -122.47475081679366,
        37.66535793309758
      ],
      [
        -122.47509852360595,
        37.667108034184146
      ],
      [
        -122.47539773979845,
        37.669155603227864
      ],
      [
        -122.47645762320019,
        37.669472488636224
      ],
      [
        -122.47781327892582,
        37.66979178000456
      ],
      [
        -122.47590224761521,
        37.67147552081398
      ],
      [
        -122.47331286253568,
        37.674770304596606
      ],
      [
        -122.47133460456425,
        37.6783207840928
      ],
      [
        -122.47128083363388,
        37.68277734020939
      ],
      [
        -122.47089049906067,
        37.68734313973172
      ],
      [
        -122.47026556106594,
        37.6914521611394
      ],
      [
        -122.4704909849844,
        37.69572175777363
      ],
      [
        -122.4712279739293,
        37.699680623790755
      ],
      [
        -122.47122824980467,
        37.70363671597032
      ],
      [
        -122.46968225278654,
        37.70715823976023
      ],
      [
        -122.46624206588076,
        37.70993074143463
      ],
      [
        -122.46122535660199,
        37.71048956618603
      ],
      [
        -122.45626085794176,
        37.71076147163144
      ],
      [
        -122.45242063992485,
        37.71311284318397
      ],
      [
        -122.44924227109541,
        37.71603268449019
      ],
      [
        -122.44823546722849,
        37.71984021417283
      ],
      [
        -122.44746190304554,
        37.72385189994444
      ],
      [
        -122.44516794058936,
        37.72706353259011
      ],
      [
        -122.44164509405705,
        37.72916169294651
      ],
      [
        -122.43705511768744,
        37.73085199894305
      ],
      [
        -122.43200728536736,
        37.732172340102444
      ],
      [
        -122.42666499962077,
        37.731640742918465
      ],
      [
        -122.42146476292437,
        37.73175107412198
      ],
      [
        -122.41619276049022,
        37.73196878495885
      ],
      [
        -122.41138687998642,
        37.733651921069665
      ],
      [
        -122.40776260099395,
        37.73608431689803
      ],
      [
        -122.40789070132982,
        37.739887308061164
      ],
      [
        -122.40592405369918,
        37.743563599013804
      ],
      [
        -122.40451817659282,
        37.74659194238281
      ],
      [
        -122.40350759623394,
        37.74973365050694
      ],
      [
        -122.40279500172215,
        37.75289347323237
      ],
      [
        -122.40303710704771,
        37.75580587293641
      ],
      [
        -122.4047727880983,
        37.758339261121726
      ],
      [
        -122.40611709916499,
        37.760967245430386
      ],
      [
        -122.4048827480098,
        37.76366758337724
      ],
      [
        -122.40500054580545,
        37.766213657466025
      ],
      [
        -122.40667389774356,
        37.76891977658218
      ],
      [
        -122.4093602996999,
        37.769681032034214
      ],
      [
        -122.4122088690874,
        37.76961069519853
      ],
      [
        -122.41605881529898,
        37.76970010374708
      ],
      [
        -122.41988090935519,
        37.770165958355086
      ],
      [
        -122.42262874821898,
        37.7709908711411
      ],
      [
        -122.4229316680088,
        37.77125433306344
      ],
      [
        -122.42325359591118,
        37.77179211266218
      ],
      [
        -122.42376989088382,
        37.773060685753954
      ],
      [
        -122.42403935190866,
        37.77436213005014
      ],
      [
        -122.42426931665388,
        37.775501320544564
      ],
      [
        -122.42541527201391,
        37.77570939899354
      ],
      [
        -122.42743119105887,
        37.775476145456196
      ],
      [
        -122.42919010324376,
        37.77523658144831
      ],
      [
        -122.42957829067545,
        37.77622659796974
      ],
      [
        -122.42956927909398,
        37.77615461543609
      ],
      [
        -122.42961456492235,
        37.77640111989319
      ],
      [
        -122.42980222562278,
        37.77775937743395
      ],
      [
        -122.42986646101932,
        37.77803707758819
      ],
      [
        -122.43004626526088,
        37.77898687633701
      ],
      [
        -122.43002708939046,
        37.77895374785536
      ],
      [
        -122.4300296305175,
        37.77897227087449
      ],
      [
        -122.43029544310424,
        37.78027672240988
      ],
      [
        -122.43062172079424,
        37.78192793799788
      ],
      [
        -122.43059450476026,
        37.78182380766963
      ],
      [
        -122.43082283132209,
        37.78271541368756
      ],
      [
        -122.43093671346038,
        37.78346095227496
      ],
      [
        -122.43109570213524,
        37.7841473000474
      ],
      [
        -122.43263156777523,
        37.7844903941214
      ],
      [
        -122.43444011979045,
        37.784246311160906
      ],
      [
        -122.43447488897561,
        37.78428912297536
      ],
      [
        -122.43453240604154,
        37.78426300673472
      ],
      [
        -122.43693091799376,
        37.783955360197176
      ],
      [
        -122.43970571548827,
        37.78344104473604
      ],
      [
        -122.44122579455905,
        37.783520988881065
      ],
      [
        -122.44131981724293,
        37.784190511273266
      ],
      [
        -122.44133503336185,
        37.78414470002378
      ],
      [
        -122.44144396484245,
        37.7847978738135
      ],
      [
        -122.44157503135929,
        37.78526556132478
      ],
      [
        -122.44168932234633,
        37.78579982212711
      ],
      [
        -122.44173887165726,
        37.78609080074379
      ],
      [
        -122.44184998852008,
        37.7866746214865
      ],
      [
        -122.44191103646554,
        37.78670768305663
      ],
      [
        -122.4419197456722,
        37.786612877307405
      ],
      [
        -122.44193944993097,
        37.786578761840964
      ],
      [
        -122.44194727626785,
        37.78666895168313
      ],
      [
        -122.44191872075666,
        37.78660774856599
      ],
      [
        -122.44190116777713,
        37.78660733683343
      ],
      [
        -122.44190150213034,
        37.7866188246092
      ],
      [
        -122.44186883649161,
        37.78663863371992
      ],
      [
        -122.44186146301827,
        37.78663150864504
      ],
      [
        -122.44185184924241,
        37.78663197712122
      ],
      [
        -122.44184967812662,
        37.78663187
      ],
      [
        -122.44184749313135,
        37.78663150291808
      ],
      [
        -122.44184766592744,
        37.78663142
      ],
      [
        -122.44183473366947,
        37.786553451120426
      ],
      [
        -122.44186198739887,
        37.786091121873916
      ],
      [
        -122.44155944800606,
        37.785429965685246
      ],
      [
        -122.44184606693648,
        37.785058817185885
      ],
      [
        -122.44311625873821,
        37.78491578778328
      ],
      [
        -122.4433212780951,
        37.78542593973843
      ],
      [
        -122.44335901775888,
        37.78580391893843
      ],
      [
        -122.44271242825633,
        37.7859102139883
      ],
      [
        -122.44173799992139,
        37.78604217829077
      ],
      [
        -122.44088282580749,
        37.786197948594626
      ],
      [
        -122.44043122337528,
        37.786240191453466
      ],
      [
        -122.44041212592907,
        37.78624702749194
      ],
      [
        -122.4400590179813,
        37.78635110062693
      ],
      [
        -122.44021623560428,
        37.78709432355081
      ],
      [
        -122.44021980594847,
        37.78708407839492
      ],
      [
        -122.44024748876656,
        37.78713454171336
      ],
      [
        -122.4407255425164,
        37.7871899973601
      ],
      [
        -122.44169121029054,
        37.786936806096364
      ],
      [
        -122.44180503954749,
        37.786926991518115
      ],
      [
        -122.44286306256659,
        37.78676124882372
      ],
      [
        -122.44360363510346,
        37.78657261324021
      ],
      [
        -122.04006219894217,
        38.28452620434938
      ],
      [
        -122.03734695237323,
        38.28773671150896
      ],
      [
        -122.03474940192616,
        38.29093122384155
      ],
      [
        -122.03390582711347,
        38.294619152917505
      ],
      [
        -122.03382763726208,
        38.298434180167945
      ],
      [
        -122.03374259010727,
        38.30225242257662
      ],
      [
        -122.03368713784376,
        38.30607439961829
      ],
      [
        -122.03323058233897,
        38.30989198631256
      ],
      [
        -122.03250726861724,
        38.31366972465648
      ],
      [
        -122.03041836017064,
        38.317127006909224
      ],
      [
        -122.02762994471878,
        38.32026261461018
      ],
      [
        -122.02495021266957,
        38.32343766042668
      ],
      [
        -122.02271950140901,
        38.32685093941994
      ],
      [
        -122.02052708355092,
        38.330268262228465
      ],
      [
        -122.018354211185,
        38.33369514609154
      ],
      [
        -122.01612971595162,
        38.33711167841449
      ],
      [
        -122.01314351434044,
        38.34011200979751
      ],
      [
        -122.00900151698602,
        38.342073966986256
      ]
    ]
  },
  "properties": {}
}