{
  "type": "FeatureCollection",
  "features": [
    {
      "type": "Feature",
      "geometry": {
        "type": "Point",
        "coordinates": [
          -122.46525287419949,
          37.73896967330487
        ]
      },
      "properties": {
        "speed": 0
      }
    },
    {
      "type": "Feature",
      "geometry": {
        "type": "Point",
        "coordinates": [
          -122.46571909767518,
          37.73890739723807
        ]
      },
      "properties": {
        "speed": 4.806156508569267
      }
    },
    {
      "type": "Feature",
      "geometry": {
        "type": "Point",
        "coordinates": [
          -122.46456544900802,
          37.73985806507208
        ]
      },
      "properties": {
        "speed": 11.573563570382566
      }
    },
    {
      "type": "Feature",
      "geometry": {
        "type": "Point",
        "coordinates": [
          -122.4530787641841,
          37.74476300224549
        ]
      },
      "properties": {
        "speed": 12.03836717894098
      }
    },
    {
      "type": "Feature",
      "geometry": {
        "type": "Point",
        "coordinates": [
          -122.44324360374522,
          37.75040326290783
        ]
      },
      "properties": {
        "speed": 15.314404214113123
      }
    },
    {
      "type": "Feature",
      "geometry": {
        "type": "Point",
        "coordinates": [
          -122.44354112629483,
          37.758132803648785
        ]
      },
      "properties": {
        "speed": 5.9799026808119065
      }
    },
    {
      "type": "Feature",
      "geometry": {
        "type": "Point",
        "coordinates": [
          -122.43492340366039,
          37.76280269124808
        ]
      },
      "properties": {
        "speed": 10.489223473652673
      }
    },
    {
      "type": "Feature",
      "geometry": {
        "type": "Point",
        "coordinates": [
          -122.43497164185483,
          37.764164331733035
        ]
      },
      "properties": {
        "speed": 7.952203308778326
      }
    },
    {
      "type": "Feature",
      "geometry": {
        "type": "Point",
        "coordinates": [
          -122.4369937955056,
          37.77118173039946
        ]
      },
      "properties": {
        "speed": 0
      }
    },
    {
      "type": "Feature",
      "geometry": {
        "type": "Point",
        "coordinates": [
          -122.44061858713401,
          37.771814043463856
        ]
      },
      "properties": {
        "speed": 4.874204323090913
      }
    }
  ]
}