{
  "type": "FeatureCollection",
  "features": [
    {
      "type": "Feature",
      "geometry": {
        "type": "Point",
        "coordinates": [
          -122.5168616654905,
          37.88990531689521
        ]
      },
      "properties": {
        "speed": 28.143620423797778
      }
    },
    {
      "type": "Feature",
      "geometry": {
        "type": "Point",
        "coordinates": [
          -122.50718578890898,
          37.86875320887753
        ]
      },
      "properties": {
        "speed": 25.275950754913683
      }
    },
    {
      "type": "Feature",
      "geometry": {
        "type": "Point",
        "coordinates": [
          -123.65458739167259,
          38.87074300973898
        ]
      },
      "properties": {
        "speed": 20.089331509082864
      }
    },
    {
      "type": "Feature",
      "geometry": {
        "type": "Point",
        "coordinates": [
          -123.67338244822557,
          38.88264308167644
        ]
      },
      "properties": {
        "speed": 23.32087487137301
      }
    },
    {
      "type": "Feature",
      "geometry": {
        "type": "Point",
        "coordinates": [
          -123.68836437360618,
          38.89933051863152
        ]
      },
      "properties": {
        "speed": 22.70779278892431
      }
    },
    {
      "type": "Feature",
      "geometry": {
        "type": "Point",
        "coordinates": [
          -123.6944596971365,
          38.912047311850934
        ]
      },
      "properties": {
        "speed": 17.140385351950712
      }
    },
    {
      "type": "Feature",
      "geometry": {
        "type": "Point",
        "coordinates": [
          -123.70788123975706,
          38.92502119744462
        ]
      },
      "properties": {
        "speed": 24.603884994888787
      }
    },
    {
      "type": "Feature",
      "geometry": {
        "type": "Point",
        "coordinates": [
          -122.3972878940552,
          37.76982739190183
        ]
      },
      "properties": {
        "speed": 4.227768769057733
      }
    },
    {
      "type": "Feature",
      "geometry": {
        "type": "Point",
        "coordinates": [
          -122.39787144568525,
          37.772164961423336
        ]
      },
      "properties": {
        "speed": 3.1537270471370547
      }
    },
    {
      "type": "Feature",
      "geometry": {
        "type": "Point",
        "coordinates": [
          -122.39948893314212,
          37.77350154810233
        ]
      },
      "properties": {
        "speed": 2.3753273148818557
      }
    },
    {
      "type": "Feature",
      "geometry": {
        "type": "Point",
        "coordinates": [
          -122.39932121033156,
          37.7760923839846
        ]
      },
      "properties": {
        "speed": 6.326966746518342
      }
    },
    {
      "type": "Feature",
      "geometry": {
        "type": "Point",
        "coordinates": [
          -122.39669950717052,
          37.77811956046989
        ]
      },
      "properties": {
        "speed": 4.193180353063629
      }
    },
    {
      "type": "Feature",
      "geometry": {
        "type": "Point",
        "coordinates": [
          -122.39544698402293,
          37.78105123255103
        ]
      },
      "properties": {
        "speed": 5.107335671708865
      }
    },
    {
      "type": "Feature",
      "geometry": {
        "type": "Point",
        "coordinates": [
          -122.39393927162538,
          37.78336109555753
        ]
      },
      "properties": {
        "speed": 8.161073061229393
      }
    },
    {
      "type": "Feature",
      "geometry": {
        "type": "Point",
        "coordinates": [
          -122.38778609700906,
          37.789014207814745
        ]
      },
      "properties": {
        "speed": 10.61746575017762
      }
    },
    {
      "type": "Feature",
      "geometry": {
        "type": "Point",
        "coordinates": [
          -122.37445197597525,
          37.801450163620615
        ]
      },
      "properties": {
        "speed": 22.2754252
      }
    },
    {
      "type": "Feature",
      "geometry": {
        "type": "Point",
        "coordinates": [
          -122.35507386931441,
          37.81709330121021
        ]
      },
      "properties": {
        "speed": 29.03179406027052
      }
    },
    {
      "type": "Feature",
      "geometry": {
        "type": "Point",
        "coordinates": [
          -122.3238388054403,
          37.82222396614734
        ]
      },
      "properties": {
        "speed": 31.33998717018022
      }
    },
    {
      "type": "Feature",
      "geometry": {
        "type": "Point",
        "coordinates": [
          -122.2933802127432,
          37.83050617921307
        ]
      },
      "properties": {
        "speed": 22.54114924661937
      }
    },
    {
      "type": "Feature",
      "geometry": {
        "type": "Point",
        "coordinates": [
          -122.2984769642447,
          37.84791094225297
        ]
      },
      "properties": {
        "speed": 20.986792637760985
      }
    },
    {
      "type": "Feature",
      "geometry": {
        "type": "Point",
        "coordinates": [
          -122.30244483466849,
          37.86284584249313
        ]
      },
      "properties": {
        "speed": 21.548632884380247
      }
    },
    {
      "type": "Feature",
      "geometry": {
        "type": "Point",
        "coordinates": [
          -122.29779180535475,
          37.86789827617051
        ]
      },
      "properties": {
        "speed": 8.964474143394742
      }
    },
    {
      "type": "Feature",
      "geometry": {
        "type": "Point",
        "coordinates": [
          -122.28733600910068,
          37.86969609893679
        ]
      },
      "properties": {
        "speed": 8.529041546881354
      }
    },
    {
      "type": "Feature",
      "geometry": {
        "type": "Point",
        "coordinates": [
          -122.27455982375541,
          37.87134243337778
        ]
      },
      "properties": {
        "speed": 11.135566108716485
      }
    },
    {
      "type": "Feature",
      "geometry": {
        "type": "Point",
        "coordinates": [
          -122.27179977733206,
          37.87170941846431
        ]
      },
      "properties": {
        "speed": 2.127444773278111
      }
    },
    {
      "type": "Feature",
      "geometry": {
        "type": "Point",
        "coordinates": [
          -122.26841419351386,
          37.872746184857725
        ]
      },
      "properties": {
        "speed": 4.041698725812495
      }
    },
    {
      "type": "Feature",
      "geometry": {
        "type": "Point",
        "coordinates": [
          -122.38248238816217,
          37.5597088979487
        ]
      },
      "properties": {
        "speed": 37.7696139347548
      }
    },
    {
      "type": "Feature",
      "geometry": {
        "type": "Point",
        "coordinates": [
          -122.40421906798268,
          37.58168840967506
        ]
      },
      "properties": {
        "speed": 31.655565805293733
      }
    },
    {
      "type": "Feature",
      "geometry": {
        "type": "Point",
        "coordinates": [
          -122.42796568622998,
          37.60512424884358
        ]
      },
      "properties": {
        "speed": 35.644165957707365
      }
    },
    {
      "type": "Feature",
      "geometry": {
        "type": "Point",
        "coordinates": [
          -122.43630915638379,
          37.63154444496814
        ]
      },
      "properties": {
        "speed": 34.930747600000004
      }
    },
    {
      "type": "Feature",
      "geometry": {
        "type": "Point",
        "coordinates": [
          -122.45604200263818,
          37.653876471390674
        ]
      },
      "properties": {
        "speed": 32.56858913808079
      }
    },
    {
      "type": "Feature",
      "geometry": {
        "type": "Point",
        "coordinates": [
          -122.47163560275682,
          37.68008445175445
        ]
      },
      "properties": {
        "speed": 36.921092439418715
      }
    },
    {
      "type": "Feature",
      "geometry": {
        "type": "Point",
        "coordinates": [
          -122.47104831680203,
          37.71040906670749
        ]
      },
      "properties": {
        "speed": 24.559849046000497
      }
    },
    {
      "type": "Feature",
      "geometry": {
        "type": "Point",
        "coordinates": [
          -122.47209847803816,
          37.725165293556714
        ]
      },
      "properties": {
        "speed": 10.334541390486727
      }
    },
    {
      "type": "Feature",
      "geometry": {
        "type": "Point",
        "coordinates": [
          -122.4714949276792,
          37.732671243291925
        ]
      },
      "properties": {
        "speed": 14.508132556615063
      }
    },
    {
      "type": "Feature",
      "geometry": {
        "type": "Point",
        "coordinates": [
          -122.46709744457917,
          37.738380701232934
        ]
      },
      "properties": {
        "speed": 11.612822273325097
      }
    }
  ]
}