{
  "type": "FeatureCollection",
  "features": [
    {
      "type": "Feature",
      "geometry": {
        "type": "Point",
        "coordinates": [
          -122.46898939885634,
          37.73990756772751
        ]
      },
      "properties": {
        "speed": 10.959243885358916
      }
    },
    {
      "type": "Feature",
      "geometry": {
        "type": "Point",
        "coordinates": [
          -122.47553231192613,
          37.74227573368849
        ]
      },
      "properties": {
        "speed": 8.88425263043151
      }
    },
    {
      "type": "Feature",
      "geometry": {
        "type": "Point",
        "coordinates": [
          -122.47590948985663,
          37.74740971533796
        ]
      },
      "properties": {
        "speed": 12.626972428163475
      }
    },
    {
      "type": "Feature",
      "geometry": {
        "type": "Point",
        "coordinates": [
          -122.47675984341568,
          37.75961784424425
        ]
      },
      "properties": {
        "speed": 12.65251948196357
      }
    },
    {
      "type": "Feature",
      "geometry": {
        "type": "Point",
        "coordinates": [
          -122.47717301654085,
          37.76421586008619
        ]
      },
      "properties": {
        "speed": 13.836220908901112
      }
    },
    {
      "type": "Feature",
      "geometry": {
        "type": "Point",
        "coordinates": [
          -122.47176244691677,
          37.77276931927297
        ]
      },
      "properties": {
        "speed": 0.2278383525319286
      }
    },
    {
      "type": "Feature",
      "geometry": {
        "type": "Point",
        "coordinates": [
          -122.4725082529529,
          37.78366231801696
        ]
      },
      "properties": {
        "speed": 9.320374209717837
      }
    },
    {
      "type": "Feature",
      "geometry": {
        "type": "Point",
        "coordinates": [
          -122.4694593065894,
          37.79835661583629
        ]
      },
      "properties": {
        "speed": 20.513862211705394
      }
    },
    {
      "type": "Feature",
      "geometry": {
        "type": "Point",
        "coordinates": [
          -122.47773282949767,
          37.81301149944706
        ]
      },
      "properties": {
        "speed": 21.37760144356753
      }
    },
    {
      "type": "Feature",
      "geometry": {
        "type": "Point",
        "coordinates": [
          -122.48141556775462,
          37.83283125609589
        ]
      },
      "properties": {
        "speed": 21.538949123108623
      }
    },
    {
      "type": "Feature",
      "geometry": {
        "type": "Point",
        "coordinates": [
          -122.48960557064973,
          37.85009092568139
        ]
      },
      "properties": {
        "speed": 20.34512920810049
      }
    },
    {
      "type": "Feature",
      "geometry": {
        "type": "Point",
        "coordinates": [
          -122.50592412187528,
          37.8629343308022
        ]
      },
      "properties": {
        "speed": 24.80635360948745
      }
    },
    {
      "type": "Feature",
      "geometry": {
        "type": "Point",
        "coordinates": [
          -122.51654906846414,
          37.88187549317356
        ]
      },
      "properties": {
        "speed": 23.225864166043294
      }
    },
    {
      "type": "Feature",
      "geometry": {
        "type": "Point",
        "coordinates": [
          -122.51366885022244,
          37.90953490225641
        ]
      },
      "properties": {
        "speed": 27.78558966299872
      }
    },
    {
      "type": "Feature",
      "geometry": {
        "type": "Point",
        "coordinates": [
          -122.51677033778472,
          37.93605635101719
        ]
      },
      "properties": {
        "speed": 31.92218499727315
      }
    },
    {
      "type": "Feature",
      "geometry": {
        "type": "Point",
        "coordinates": [
          -122.5090875505771,
          37.95861186275486
        ]
      },
      "properties": {
        "speed": 25.59219628675693
      }
    },
    {
      "type": "Feature",
      "geometry": {
        "type": "Point",
        "coordinates": [
          -122.5212599338242,
          37.97037801708837
        ]
      },
      "properties": {
        "speed": 0
      }
    },
    {
      "type": "Feature",
      "geometry": {
        "type": "Point",
        "coordinates": [
          -122.52938257785789,
          37.97228421380345
        ]
      },
      "properties": {
        "speed": 15.291250056023012
      }
    },
    {
      "type": "Feature",
      "geometry": {
        "type": "Point",
        "coordinates": [
          -122.4728281170109,
          37.739435823947886
        ]
      },
      "properties": {
        "speed": 9.85880906025235
      }
    },
    {
      "type": "Feature",
      "geometry": {
        "type": "Point",
        "coordinates": [
          -122.47567618656595,
          37.74470250309963
        ]
      },
      "properties": {
        "speed": 1.348557536773269
      }
    },
    {
      "type": "Feature",
      "geometry": {
        "type": "Point",
        "coordinates": [
          -122.47616379408574,
          37.75142721057172
        ]
      },
      "properties": {
        "speed": 17.575540952957457
      }
    },
    {
      "type": "Feature",
      "geometry": {
        "type": "Point",
        "coordinates": [
          -122.47722325593813,
          37.764522583209605
        ]
      },
      "properties": {
        "speed": 16.356790105100327
      }
    },
    {
      "type": "Feature",
      "geometry": {
        "type": "Point",
        "coordinates": [
          -122.47178469310013,
          37.77264067227458
        ]
      },
      "properties": {
        "speed": 1.399960264928985
      }
    },
    {
      "type": "Feature",
      "geometry": {
        "type": "Point",
        "coordinates": [
          -122.4720389614066,
          37.77741819433277
        ]
      },
      "properties": {
        "speed": 12.309449907942941
      }
    },
    {
      "type": "Feature",
      "geometry": {
        "type": "Point",
        "coordinates": [
          -122.47239061322529,
          37.78716931837481
        ]
      },
      "properties": {
        "speed": 16.63529285399551
      }
    },
    {
      "type": "Feature",
      "geometry": {
        "type": "Point",
        "coordinates": [
          -122.47130846713996,
          37.80436184395168
        ]
      },
      "properties": {
        "speed": 16.22862298496991
      }
    },
    {
      "type": "Feature",
      "geometry": {
        "type": "Point",
        "coordinates": [
          -122.47872290759716,
          37.82171838656189
        ]
      },
      "properties": {
        "speed": 22.32547725266091
      }
    },
    {
      "type": "Feature",
      "geometry": {
        "type": "Point",
        "coordinates": [
          -122.48585891855416,
          37.841385427094664
        ]
      },
      "properties": {
        "speed": 20.444804013562454
      }
    },
    {
      "type": "Feature",
      "geometry": {
        "type": "Point",
        "coordinates": [
          -122.49835063222598,
          37.85743350714591
        ]
      },
      "properties": {
        "speed": 23.48245375424915
      }
    },
    {
      "type": "Feature",
      "geometry": {
        "type": "Point",
        "coordinates": [
          -122.50992505890196,
          37.875475376839724
        ]
      },
      "properties": {
        "speed": 28.63532030990197
      }
    },
    {
      "type": "Feature",
      "geometry": {
        "type": "Point",
        "coordinates": [
          -122.5158837041149,
          37.89958044025183
        ]
      },
      "properties": {
        "speed": 29.19620985722685
      }
    },
    {
      "type": "Feature",
      "geometry": {
        "type": "Point",
        "coordinates": [
          -122.51373951379901,
          37.92451527344153
        ]
      },
      "properties": {
        "speed": 28.792570026255945
      }
    },
    {
      "type": "Feature",
      "geometry": {
        "type": "Point",
        "coordinates": [
          -122.51305676998642,
          37.94766409957186
        ]
      },
      "properties": {
        "speed": 27.374102952428913
      }
    },
    {
      "type": "Feature",
      "geometry": {
        "type": "Point",
        "coordinates": [
          -122.518858928115,
          37.967734196641665
        ]
      },
      "properties": {
        "speed": 25.183762791611176
      }
    },
    {
      "type": "Feature",
      "geometry": {
        "type": "Point",
        "coordinates": [
          -122.52838303927723,
          37.972193746602045
        ]
      },
      "properties": {
        "speed": 5.448635730209497
      }
    },
    {
      "type": "Feature",
      "geometry": {
        "type": "Point",
        "coordinates": [
          -122.48305816338677,
          37.821213846351554
        ]
      },
      "properties": {
        "speed": 19.346023898428484
      }
    },
    {
      "type": "Feature",
      "geometry": {
        "type": "Point",
        "coordinates": [
          -122.49245731776166,
          37.84055447992634
        ]
      },
      "properties": {
        "speed": 18.44063326344234
      }
    },
    {
      "type": "Feature",
      "geometry": {
        "type": "Point",
        "coordinates": [
          -122.50185647213654,
          37.859895113501125
        ]
      },
      "properties": {
        "speed": 17.535242628456196
      }
    },
    {
      "type": "Feature",
      "geometry": {
        "type": "Point",
        "coordinates": [
          -122.51520490802274,
          37.89959094714506
        ]
      },
      "properties": {
        "speed": 3.313276325989602
      }
    },
    {
      "type": "Feature",
      "geometry": {
        "type": "Point",
        "coordinates": [
          -122.51373092626656,
          37.913967245465926
        ]
      },
      "properties": {
        "speed": 8.599384130122493
      }
    },
    {
      "type": "Feature",
      "geometry": {
        "type": "Point",
        "coordinates": [
          -122.51225694451038,
          37.92834354378679
        ]
      },
      "properties": {
        "speed": 13.885491934255384
      }
    },
    {
      "type": "Feature",
      "geometry": {
        "type": "Point",
        "coordinates": [
          -122.48658492656888,
          37.846589212260426
        ]
      },
      "properties": {
        "speed": 29.211332596178348
      }
    },
    {
      "type": "Feature",
      "geometry": {
        "type": "Point",
        "coordinates": [
          -122.50671053764465,
          37.86422043205081
        ]
      },
      "properties": {
        "speed": 28.950798193400487
      }
    },
    {
      "type": "Feature",
      "geometry": {
        "type": "Point",
        "coordinates": [
          -122.51668415871369,
          37.887155824916725
        ]
      },
      "properties": {
        "speed": 35.52989866314346
      }
    },
    {
      "type": "Feature",
      "geometry": {
        "type": "Point",
        "coordinates": [
          -122.51108359220082,
          37.91723494228676
        ]
      },
      "properties": {
        "speed": 32.85598551198129
      }
    },
    {
      "type": "Feature",
      "geometry": {
        "type": "Point",
        "coordinates": [
          -122.51543555019539,
          37.9412325516556
        ]
      },
      "properties": {
        "speed": 20.012249415610995
      }
    },
    {
      "type": "Feature",
      "geometry": {
        "type": "Point",
        "coordinates": [
          -122.47229581137711,
          37.73950371876772
        ]
      },
      "properties": {
        "speed": 6.664730708200394
      }
    },
    {
      "type": "Feature",
      "geometry": {
        "type": "Point",
        "coordinates": [
          -122.4757248257496,
          37.74458903357176
        ]
      },
      "properties": {
        "speed": 0
      }
    },
    {
      "type": "Feature",
      "geometry": {
        "type": "Point",
        "coordinates": [
          -122.47622603201661,
          37.75171983350804
        ]
      },
      "properties": {
        "speed": 15.427464150314966
      }
    },
    {
      "type": "Feature",
      "geometry": {
        "type": "Point",
        "coordinates": [
          -122.4769115719858,
          37.7611575833695
        ]
      },
      "properties": {
        "speed": 0.17217046612505085
      }
    },
    {
      "type": "Feature",
      "geometry": {
        "type": "Point",
        "coordinates": [
          -122.47769213031408,
          37.76681868834621
        ]
      },
      "properties": {
        "speed": 11.431592860338037
      }
    },
    {
      "type": "Feature",
      "geometry": {
        "type": "Point",
        "coordinates": [
          -122.47203739952721,
          37.77238990054552
        ]
      },
      "properties": {
        "speed": 5.2745386667534335
      }
    },
    {
      "type": "Feature",
      "geometry": {
        "type": "Point",
        "coordinates": [
          -122.47208108351009,
          37.778082202495575
        ]
      },
      "properties": {
        "speed": 0.625872098406514
      }
    },
    {
      "type": "Feature",
      "geometry": {
        "type": "Point",
        "coordinates": [
          -122.47250211269466,
          37.7838586492482
        ]
      },
      "properties": {
        "speed": 5.6819979988154845
      }
    },
    {
      "type": "Feature",
      "geometry": {
        "type": "Point",
        "coordinates": [
          -122.46944517567438,
          37.79356142628648
        ]
      },
      "properties": {
        "speed": -1
      }
    },
    {
      "type": "Feature",
      "geometry": {
        "type": "Point",
        "coordinates": [
          -122.47736520490623,
          37.81002017884183
        ]
      },
      "properties": {
        "speed": 18.38861314714589
      }
    },
    {
      "type": "Feature",
      "geometry": {
        "type": "Point",
        "coordinates": [
          -122.47969599581056,
          37.83026160509786
        ]
      },
      "properties": {
        "speed": 22.805216814609647
      }
    },
    {
      "type": "Feature",
      "geometry": {
        "type": "Point",
        "coordinates": [
          -122.48969619428982,
          37.85025574487999
        ]
      },
      "properties": {
        "speed": 24.089037813348764
      }
    },
    {
      "type": "Feature",
      "geometry": {
        "type": "Point",
        "coordinates": [
          -122.50706769779994,
          37.86705272130469
        ]
      },
      "properties": {
        "speed": 24.30467225575515
      }
    },
    {
      "type": "Feature",
      "geometry": {
        "type": "Point",
        "coordinates": [
          -122.5165712364076,
          37.88660952865794
        ]
      },
      "properties": {
        "speed": 23.85003391126499
      }
    },
    {
      "type": "Feature",
      "geometry": {
        "type": "Point",
        "coordinates": [
          -122.51375975636046,
          37.90893129987841
        ]
      },
      "properties": {
        "speed": 23.920000076293945
      }
    },
    {
      "type": "Feature",
      "geometry": {
        "type": "Point",
        "coordinates": [
          -122.51628646838236,
          37.93403490362354
        ]
      },
      "properties": {
        "speed": 28.746724919961775
      }
    },
    {
      "type": "Feature",
      "geometry": {
        "type": "Point",
        "coordinates": [
          -122.50882835310655,
          37.95715952119814
        ]
      },
      "properties": {
        "speed": 25.07534649536874
      }
    },
    {
      "type": "Feature",
      "geometry": {
        "type": "Point",
        "coordinates": [
          -122.521267309899,
          37.97031796075215
        ]
      },
      "properties": {
        "speed": 0
      }
    },
    {
      "type": "Feature",
      "geometry": {
        "type": "Point",
        "coordinates": [
          -122.52799084846771,
          37.972161121805605
        ]
      },
      "properties": {
        "speed": 8.319723955221491
      }
    },
    {
      "type": "Feature",
      "geometry": {
        "type": "Point",
        "coordinates": [
          -122.53593444488173,
          37.97393538454584
        ]
      },
      "properties": {
        "speed": 9.678444102293328
      }
    },
    {
      "type": "Feature",
      "geometry": {
        "type": "Point",
        "coordinates": [
          -122.536154491941,
          37.97472315378298
        ]
      },
      "properties": {
        "speed": 0
      }
    },
    {
      "type": "Feature",
      "geometry": {
        "type": "Point",
        "coordinates": [
          -122.1775692479722,
          37.42813195744159
        ]
      },
      "properties": {
        "speed": 6.819163986142282
      }
    },
    {
      "type": "Feature",
      "geometry": {
        "type": "Point",
        "coordinates": [
          -122.17331240899733,
          37.432309514934005
        ]
      },
      "properties": {
        "speed": 2.7517898156819887
      }
    },
    {
      "type": "Feature",
      "geometry": {
        "type": "Point",
        "coordinates": [
          -122.16452369251581,
          37.431605831833316
        ]
      },
      "properties": {
        "speed": 9.905207324028499
      }
    },
    {
      "type": "Feature",
      "geometry": {
        "type": "Point",
        "coordinates": [
          -122.15537702167434,
          37.432924878922584
        ]
      },
      "properties": {
        "speed": 17.365198531081155
      }
    },
    {
      "type": "Feature",
      "geometry": {
        "type": "Point",
        "coordinates": [
          -122.14321042738055,
          37.42345784875171
        ]
      },
      "properties": {
        "speed": 17.300974493063016
      }
    },
    {
      "type": "Feature",
      "geometry": {
        "type": "Point",
        "coordinates": [
          -122.12592080325402,
          37.41342039436399
        ]
      },
      "properties": {
        "speed": 21.217033059130927
      }
    },
    {
      "type": "Feature",
      "geometry": {
        "type": "Point",
        "coordinates": [
          -122.47234605426281,
          37.72176107443435
        ]
      },
      "properties": {
        "speed": 5.48388780973135
      }
    },
    {
      "type": "Feature",
      "geometry": {
        "type": "Point",
        "coordinates": [
          -122.47181189108339,
          37.73025268256679
        ]
      },
      "properties": {
        "speed": 1.4345538032732996
      }
    }
  ]
}