{
  "type": "FeatureCollection",
  "features": [
    {
      "type": "Feature",
      "geometry": {
        "type": "Point",
        "coordinates": [
          -122.53225324710361,
          37.97168093341492
        ]
      },
      "properties": {
        "speed": 2.829842119381983
      }
    },
    {
      "type": "Feature",
      "geometry": {
        "type": "Point",
        "coordinates": [
          -122.52601633232734,
          37.970949137712225
        ]
      },
      "properties": {
        "speed": 10.017216352049992
      }
    },
    {
      "type": "Feature",
      "geometry": {
        "type": "Point",
        "coordinates": [
          -122.50988352586002,
          37.96130700461888
        ]
      },
      "properties": {
        "speed": 26.813029047015977
      }
    },
    {
      "type": "Feature",
      "geometry": {
        "type": "Point",
        "coordinates": [
          -122.51632560597055,
          37.93977183068763
        ]
      },
      "properties": {
        "speed": 18.14592262918926
      }
    },
    {
      "type": "Feature",
      "geometry": {
        "type": "Point",
        "coordinates": [
          -122.51568751409218,
          37.92862839641066
        ]
      },
      "properties": {
        "speed": 16.05549577996101
      }
    },
    {
      "type": "Feature",
      "geometry": {
        "type": "Point",
        "coordinates": [
          -121.75869521147037,
          38.55226453917559
        ]
      },
      "properties": {
        "speed": 14.412067779466662
      }
    },
    {
      "type": "Feature",
      "geometry": {
        "type": "Point",
        "coordinates": [
          -121.74763384976748,
          38.55068248611281
        ]
      },
      "properties": {
        "speed": 14.949613080378102
      }
    },
    {
      "type": "Feature",
      "geometry": {
        "type": "Point",
        "coordinates": [
          -121.74371230856137,
          38.544192888622945
        ]
      },
      "properties": {
        "speed": 5.461302645717561
      }
    },
    {
      "type": "Feature",
      "geometry": {
        "type": "Point",
        "coordinates": [
          -121.7439583596976,
          38.54485811203583
        ]
      },
      "properties": {
        "speed": 0
      }
    },
    {
      "type": "Feature",
      "geometry": {
        "type": "Point",
        "coordinates": [
          -121.81498958026273,
          38.480082884357024
        ]
      },
      "properties": {
        "speed": 32.67986881339862
      }
    },
    {
      "type": "Feature",
      "geometry": {
        "type": "Point",
        "coordinates": [
          -121.83947543108133,
          38.46095199288462
        ]
      },
      "properties": {
        "speed": 32.98006848653578
      }
    },
    {
      "type": "Feature",
      "geometry": {
        "type": "Point",
        "coordinates": [
          -121.86626239665257,
          38.44011101910565
        ]
      },
      "properties": {
        "speed": 32.618579433897786
      }
    },
    {
      "type": "Feature",
      "geometry": {
        "type": "Point",
        "coordinates": [
          -121.89433381670777,
          38.41873240929578
        ]
      },
      "properties": {
        "speed": 31.1978501972199
      }
    },
    {
      "type": "Feature",
      "geometry": {
        "type": "Point",
        "coordinates": [
          -121.92032279065502,
          38.39886270451036
        ]
      },
      "properties": {
        "speed": 32.46773657067639
      }
    },
    {
      "type": "Feature",
      "geometry": {
        "type": "Point",
        "coordinates": [
          -121.94640243900953,
          38.379046625012606
        ]
      },
      "properties": {
        "speed": 33.06981955199882
      }
    },
    {
      "type": "Feature",
      "geometry": {
        "type": "Point",
        "coordinates": [
          -121.97435747473449,
          38.35845127083018
        ]
      },
      "properties": {
        "speed": 31.146535703249764
      }
    },
    {
      "type": "Feature",
      "geometry": {
        "type": "Point",
        "coordinates": [
          -122.00291380926528,
          38.34423406322488
        ]
      },
      "properties": {
        "speed": 29.806168272307435
      }
    },
    {
      "type": "Feature",
      "geometry": {
        "type": "Point",
        "coordinates": [
          -122.02380636386475,
          38.32567368642752
        ]
      },
      "properties": {
        "speed": 30.332092087616694
      }
    },
    {
      "type": "Feature",
      "geometry": {
        "type": "Point",
        "coordinates": [
          -122.03410871762203,
          38.30038173458434
        ]
      },
      "properties": {
        "speed": 31.501702971086537
      }
    },
    {
      "type": "Feature",
      "geometry": {
        "type": "Point",
        "coordinates": [
          -122.04815343854666,
          38.27539930199479
        ]
      },
      "properties": {
        "speed": 30.882038444752283
      }
    },
    {
      "type": "Feature",
      "geometry": {
        "type": "Point",
        "coordinates": [
          -122.06800913718476,
          38.25188766256285
        ]
      },
      "properties": {
        "speed": 32.39465322695646
      }
    },
    {
      "type": "Feature",
      "geometry": {
        "type": "Point",
        "coordinates": [
          -122.09890866549871,
          38.2371595674861
        ]
      },
      "properties": {
        "speed": 32.911861118090904
      }
    },
    {
      "type": "Feature",
      "geometry": {
        "type": "Point",
        "coordinates": [
          -122.13101125175841,
          38.22151534931652
        ]
      },
      "properties": {
        "speed": 33.63691291272162
      }
    },
    {
      "type": "Feature",
      "geometry": {
        "type": "Point",
        "coordinates": [
          -122.15826630102436,
          38.201144439708564
        ]
      },
      "properties": {
        "speed": 33.248821367391024
      }
    },
    {
      "type": "Feature",
      "geometry": {
        "type": "Point",
        "coordinates": [
          -122.18738855481803,
          38.18033420316405
        ]
      },
      "properties": {
        "speed": 34.29733342507801
      }
    },
    {
      "type": "Feature",
      "geometry": {
        "type": "Point",
        "coordinates": [
          -122.21327367814908,
          38.157217461639
        ]
      },
      "properties": {
        "speed": 33.487680354563516
      }
    },
    {
      "type": "Feature",
      "geometry": {
        "type": "Point",
        "coordinates": [
          -122.22680046444526,
          38.128733200549526
        ]
      },
      "properties": {
        "speed": 32.3507750540178
      }
    },
    {
      "type": "Feature",
      "geometry": {
        "type": "Point",
        "coordinates": [
          -122.22981791500482,
          38.10185798333837
        ]
      },
      "properties": {
        "speed": 33.84570450920899
      }
    },
    {
      "type": "Feature",
      "geometry": {
        "type": "Point",
        "coordinates": [
          -122.22991514410113,
          38.07335904036148
        ]
      },
      "properties": {
        "speed": 32.61855870807158
      }
    },
    {
      "type": "Feature",
      "geometry": {
        "type": "Point",
        "coordinates": [
          -122.23437365689912,
          38.047919016707475
        ]
      },
      "properties": {
        "speed": 29.37093382056227
      }
    },
    {
      "type": "Feature",
      "geometry": {
        "type": "Point",
        "coordinates": [
          -122.25878439738273,
          38.02656162881829
        ]
      },
      "properties": {
        "speed": 28.583271090713016
      }
    },
    {
      "type": "Feature",
      "geometry": {
        "type": "Point",
        "coordinates": [
          -122.28092568520333,
          38.00265836006957
        ]
      },
      "properties": {
        "speed": 31.535417199999998
      }
    },
    {
      "type": "Feature",
      "geometry": {
        "type": "Point",
        "coordinates": [
          -122.30892424934889,
          37.99154182071844
        ]
      },
      "properties": {
        "speed": 28.034655075282785
      }
    },
    {
      "type": "Feature",
      "geometry": {
        "type": "Point",
        "coordinates": [
          -122.3208049490318,
          37.9691539072093
        ]
      },
      "properties": {
        "speed": 29.86184437425305
      }
    },
    {
      "type": "Feature",
      "geometry": {
        "type": "Point",
        "coordinates": [
          -122.32605077809458,
          37.948541656520504
        ]
      },
      "properties": {
        "speed": 31.195405172640786
      }
    },
    {
      "type": "Feature",
      "geometry": {
        "type": "Point",
        "coordinates": [
          -122.32123984016943,
          37.92570545984195
        ]
      },
      "properties": {
        "speed": 28.567720603386128
      }
    },
    {
      "type": "Feature",
      "geometry": {
        "type": "Point",
        "coordinates": [
          -122.31088017256367,
          37.900958418386885
        ]
      },
      "properties": {
        "speed": 25.067723652708064
      }
    },
    {
      "type": "Feature",
      "geometry": {
        "type": "Point",
        "coordinates": [
          -122.30901092347328,
          37.884956505295186
        ]
      },
      "properties": {
        "speed": 10.255497291096919
      }
    },
    {
      "type": "Feature",
      "geometry": {
        "type": "Point",
        "coordinates": [
          -122.51297181595865,
          37.96432776369034
        ]
      },
      "properties": {
        "speed": 27.15070837451321
      }
    },
    {
      "type": "Feature",
      "geometry": {
        "type": "Point",
        "coordinates": [
          -122.52149471455651,
          37.971341196177534
        ]
      },
      "properties": {
        "speed": 9.926477152889735
      }
    },
    {
      "type": "Feature",
      "geometry": {
        "type": "Point",
        "coordinates": [
          -122.52566018333333,
          37.97187518333333
        ]
      },
      "properties": {
        "speed": 0
      }
    },
    {
      "type": "Feature",
      "geometry": {
        "type": "Point",
        "coordinates": [
          -121.88334801810879,
          38.42674481282717
        ]
      },
      "properties": {
        "speed": 29.721526713023948
      }
    },
    {
      "type": "Feature",
      "geometry": {
        "type": "Point",
        "coordinates": [
          -121.86031236646585,
          38.44442129760102
        ]
      },
      "properties": {
        "speed": 28.648351836605894
      }
    },
    {
      "type": "Feature",
      "geometry": {
        "type": "Point",
        "coordinates": [
          -122.27561145266444,
          37.86319413103723
        ]
      },
      "properties": {
        "speed": 9.32966393951329
      }
    },
    {
      "type": "Feature",
      "geometry": {
        "type": "Point",
        "coordinates": [
          -122.28055260561655,
          37.86005480557074
        ]
      },
      "properties": {
        "speed": 14.764988726314474
      }
    },
    {
      "type": "Feature",
      "geometry": {
        "type": "Point",
        "coordinates": [
          -122.28116329732636,
          37.85321482435542
        ]
      },
      "properties": {
        "speed": 14.552463872006665
      }
    },
    {
      "type": "Feature",
      "geometry": {
        "type": "Point",
        "coordinates": [
          -122.29008687732758,
          37.85150194204879
        ]
      },
      "properties": {
        "speed": 3.688581571472373
      }
    },
    {
      "type": "Feature",
      "geometry": {
        "type": "Point",
        "coordinates": [
          -122.29323610195551,
          37.85017054479542
        ]
      },
      "properties": {
        "speed": 16.654358179065643
      }
    },
    {
      "type": "Feature",
      "geometry": {
        "type": "Point",
        "coordinates": [
          -122.2974615891896,
          37.84162742506923
        ]
      },
      "properties": {
        "speed": 7.707419754159342
      }
    },
    {
      "type": "Feature",
      "geometry": {
        "type": "Point",
        "coordinates": [
          -122.29543598211085,
          37.82785330284674
        ]
      },
      "properties": {
        "speed": 22.77850310777247
      }
    },
    {
      "type": "Feature",
      "geometry": {
        "type": "Point",
        "coordinates": [
          -122.30499535289006,
          37.82557285157219
        ]
      },
      "properties": {
        "speed": 3.0160430389965405
      }
    },
    {
      "type": "Feature",
      "geometry": {
        "type": "Point",
        "coordinates": [
          -122.30826994114722,
          37.82516700850017
        ]
      },
      "properties": {
        "speed": 1.6022076843846709
      }
    },
    {
      "type": "Feature",
      "geometry": {
        "type": "Point",
        "coordinates": [
          -122.30990739687121,
          37.82506302983895
        ]
      },
      "properties": {
        "speed": 0.11612706075890147
      }
    },
    {
      "type": "Feature",
      "geometry": {
        "type": "Point",
        "coordinates": [
          -122.31081696114455,
          37.82501398227199
        ]
      },
      "properties": {
        "speed": 0.20579036682576543
      }
    },
    {
      "type": "Feature",
      "geometry": {
        "type": "Point",
        "coordinates": [
          -122.31174286794324,
          37.82506800972174
        ]
      },
      "properties": {
        "speed": 0.9660217583000865
      }
    },
    {
      "type": "Feature",
      "geometry": {
        "type": "Point",
        "coordinates": [
          -122.31213226526332,
          37.82507760329248
        ]
      },
      "properties": {
        "speed": 1.1690394375947004
      }
    },
    {
      "type": "Feature",
      "geometry": {
        "type": "Point",
        "coordinates": [
          -122.31303536916084,
          37.82510408881242
        ]
      },
      "properties": {
        "speed": 0.9640943636926835
      }
    },
    {
      "type": "Feature",
      "geometry": {
        "type": "Point",
        "coordinates": [
          -122.31385718677667,
          37.82496752833618
        ]
      },
      "properties": {
        "speed": 0.06997066997363662
      }
    },
    {
      "type": "Feature",
      "geometry": {
        "type": "Point",
        "coordinates": [
          -122.31446600804796,
          37.82488829686722
        ]
      },
      "properties": {
        "speed": 0
      }
    },
    {
      "type": "Feature",
      "geometry": {
        "type": "Point",
        "coordinates": [
          -122.31497648157288,
          37.82477144674173
        ]
      },
      "properties": {
        "speed": 0
      }
    },
    {
      "type": "Feature",
      "geometry": {
        "type": "Point",
        "coordinates": [
          -122.31571236538235,
          37.8245880926753
        ]
      },
      "properties": {
        "speed": 1.2558555693519509
      }
    },
    {
      "type": "Feature",
      "geometry": {
        "type": "Point",
        "coordinates": [
          -122.32096164790987,
          37.823049761113886
        ]
      },
      "properties": {
        "speed": 19.881886611040258
      }
    },
    {
      "type": "Feature",
      "geometry": {
        "type": "Point",
        "coordinates": [
          -122.34875053773482,
          37.819460255622985
        ]
      },
      "properties": {
        "speed": 25.47630579698981
      }
    },
    {
      "type": "Feature",
      "geometry": {
        "type": "Point",
        "coordinates": [
          -122.36935840421319,
          37.80614887027497
        ]
      },
      "properties": {
        "speed": 22.368012939521915
      }
    },
    {
      "type": "Feature",
      "geometry": {
        "type": "Point",
        "coordinates": [
          -122.38437714187721,
          37.79213529428406
        ]
      },
      "properties": {
        "speed": 17.181185274930385
      }
    },
    {
      "type": "Feature",
      "geometry": {
        "type": "Point",
        "coordinates": [
          -122.39337133617907,
          37.78469683889059
        ]
      },
      "properties": {
        "speed": 6.204986171035327
      }
    },
    {
      "type": "Feature",
      "geometry": {
        "type": "Point",
        "coordinates": [
          -122.40274613120523,
          37.77755371152406
        ]
      },
      "properties": {
        "speed": 18.190870412006245
      }
    },
    {
      "type": "Feature",
      "geometry": {
        "type": "Point",
        "coordinates": [
          -122.40563016921121,
          37.76968683463652
        ]
      },
      "properties": {
        "speed": 15.642699502436294
      }
    },
    {
      "type": "Feature",
      "geometry": {
        "type": "Point",
        "coordinates": [
          -122.40600877248224,
          37.75909327326928
        ]
      },
      "properties": {
        "speed": 21.308525929079217
      }
    },
    {
      "type": "Feature",
      "geometry": {
        "type": "Point",
        "coordinates": [
          -122.40831522633164,
          37.738759018115786
        ]
      },
      "properties": {
        "speed": 24.699956750563988
      }
    },
    {
      "type": "Feature",
      "geometry": {
        "type": "Point",
        "coordinates": [
          -122.4305637233594,
          37.732506747165615
        ]
      },
      "properties": {
        "speed": 23.17358325368681
      }
    },
    {
      "type": "Feature",
      "geometry": {
        "type": "Point",
        "coordinates": [
          -122.44944031822052,
          37.7230478640244
        ]
      },
      "properties": {
        "speed": 5.117822149202486
      }
    },
    {
      "type": "Feature",
      "geometry": {
        "type": "Point",
        "coordinates": [
          -122.45381059962716,
          37.72345945775354
        ]
      },
      "properties": {
        "speed": 2.1013184864592374
      }
    },
    {
      "type": "Feature",
      "geometry": {
        "type": "Point",
        "coordinates": [
          -122.45767740003396,
          37.72425334913155
        ]
      },
      "properties": {
        "speed": 3.8874842480939353
      }
    },
    {
      "type": "Feature",
      "geometry": {
        "type": "Point",
        "coordinates": [
          -122.46093570050732,
          37.72584968001216
        ]
      },
      "properties": {
        "speed": 3.2310808566678473
      }
    },
    {
      "type": "Feature",
      "geometry": {
        "type": "Point",
        "coordinates": [
          -122.43884538119461,
          37.78637206458058
        ]
      },
      "properties": {
        "speed": 8.187669298933464
      }
    },
    {
      "type": "Feature",
      "geometry": {
        "type": "Point",
        "coordinates": [
          -122.43301653594042,
          37.78715603200904
        ]
      },
      "properties": {
        "speed": 11.845439216972995
      }
    },
    {
      "type": "Feature",
      "geometry": {
        "type": "Point",
        "coordinates": [
          -122.42623751282112,
          37.78793253852915
        ]
      },
      "properties": {
        "speed": 0
      }
    },
    {
      "type": "Feature",
      "geometry": {
        "type": "Point",
        "coordinates": [
          -122.42446188265167,
          37.78402448473148
        ]
      },
      "properties": {
        "speed": 8.291709339188355
      }
    },
    {
      "type": "Feature",
      "geometry": {
        "type": "Point",
        "coordinates": [
          -122.42382701593483,
          37.780951548474725
        ]
      },
      "properties": {
        "speed": 5.766053354123536
      }
    },
    {
      "type": "Feature",
      "geometry": {
        "type": "Point",
        "coordinates": [
          -122.42182259859592,
          37.779946689168206
        ]
      },
      "properties": {
        "speed": 8.80299037485306
      }
    },
    {
      "type": "Feature",
      "geometry": {
        "type": "Point",
        "coordinates": [
          -122.41890935436926,
          37.78026518312688
        ]
      },
      "properties": {
        "speed": 3.6279943173729943
      }
    },
    {
      "type": "Feature",
      "geometry": {
        "type": "Point",
        "coordinates": [
          -122.4168048067997,
          37.77871138864006
        ]
      },
      "properties": {
        "speed": 0
      }
    },
    {
      "type": "Feature",
      "geometry": {
        "type": "Point",
        "coordinates": [
          -122.41698655346204,
          37.780356375756945
        ]
      },
      "properties": {
        "speed": 0.1444858918041258
      }
    },
    {
      "type": "Feature",
      "geometry": {
        "type": "Point",
        "coordinates": [
          -122.41733185896,
          37.78155904341883
        ]
      },
      "properties": {
        "speed": 0
      }
    },
    {
      "type": "Feature",
      "geometry": {
        "type": "Point",
        "coordinates": [
          -122.41758128727756,
          37.78323535907122
        ]
      },
      "properties": {
        "speed": 0.12653785722196198
      }
    },
    {
      "type": "Feature",
      "geometry": {
        "type": "Point",
        "coordinates": [
          -122.4193610044497,
          37.778349017929976
        ]
      },
      "properties": {
        "speed": 0.8201137565968505
      }
    },
    {
      "type": "Feature",
      "geometry": {
        "type": "Point",
        "coordinates": [
          -122.41915511426276,
          37.77539190671059
        ]
      },
      "properties": {
        "speed": 0
      }
    },
    {
      "type": "Feature",
      "geometry": {
        "type": "Point",
        "coordinates": [
          -122.42012146647971,
          37.77443736636436
        ]
      },
      "properties": {
        "speed": 0
      }
    },
    {
      "type": "Feature",
      "geometry": {
        "type": "Point",
        "coordinates": [
          -122.42326340688385,
          37.77213740268133
        ]
      },
      "properties": {
        "speed": 5.483749756686777
      }
    },
    {
      "type": "Feature",
      "geometry": {
        "type": "Point",
        "coordinates": [
          -122.42763082370973,
          37.768585143221785
        ]
      },
      "properties": {
        "speed": 10.873110102790116
      }
    },
    {
      "type": "Feature",
      "geometry": {
        "type": "Point",
        "coordinates": [
          -122.42960545255146,
          37.7670296799571
        ]
      },
      "properties": {
        "speed": 9.539300684749001
      }
    },
    {
      "type": "Feature",
      "geometry": {
        "type": "Point",
        "coordinates": [
          -122.43236839107445,
          37.764933940254146
        ]
      },
      "properties": {
        "speed": 12.847965884678999
      }
    },
    {
      "type": "Feature",
      "geometry": {
        "type": "Point",
        "coordinates": [
          -122.4423689673813,
          37.761134686898885
        ]
      },
      "properties": {
        "speed": 16.368865283050077
      }
    },
    {
      "type": "Feature",
      "geometry": {
        "type": "Point",
        "coordinates": [
          -122.44111760085079,
          37.755988759520754
        ]
      },
      "properties": {
        "speed": 12.353159464747488
      }
    },
    {
      "type": "Feature",
      "geometry": {
        "type": "Point",
        "coordinates": [
          -122.44472545033081,
          37.74707133407186
        ]
      },
      "properties": {
        "speed": 0
      }
    },
    {
      "type": "Feature",
      "geometry": {
        "type": "Point",
        "coordinates": [
          -122.46306088841992,
          37.74001257349631
        ]
      },
      "properties": {
        "speed": 14.773342055828982
      }
    },
    {
      "type": "Feature",
      "geometry": {
        "type": "Point",
        "coordinates": [
          -122.45382179504018,
          37.74434268057524
        ]
      },
      "properties": {
        "speed": 11.492003017774838
      }
    },
    {
      "type": "Feature",
      "geometry": {
        "type": "Point",
        "coordinates": [
          -122.4444175622705,
          37.74661153293444
        ]
      },
      "properties": {
        "speed": 8.274003798055357
      }
    },
    {
      "type": "Feature",
      "geometry": {
        "type": "Point",
        "coordinates": [
          -122.43629230225996,
          37.74952697689835
        ]
      },
      "properties": {
        "speed": 0.6208778638321378
      }
    },
    {
      "type": "Feature",
      "geometry": {
        "type": "Point",
        "coordinates": [
          -122.42832510044643,
          37.74989828407754
        ]
      },
      "properties": {
        "speed": 10.917503127856051
      }
    },
    {
      "type": "Feature",
      "geometry": {
        "type": "Point",
        "coordinates": [
          -122.42282952129382,
          37.750320402316696
        ]
      },
      "properties": {
        "speed": 0.4684881627564346
      }
    },
    {
      "type": "Feature",
      "geometry": {
        "type": "Point",
        "coordinates": [
          -122.42310342909535,
          37.755120261214614
        ]
      },
      "properties": {
        "speed": 10.662533568407929
      }
    },
    {
      "type": "Feature",
      "geometry": {
        "type": "Point",
        "coordinates": [
          -122.42354824486819,
          37.763285684063895
        ]
      },
      "properties": {
        "speed": 6.17599125749851
      }
    },
    {
      "type": "Feature",
      "geometry": {
        "type": "Point",
        "coordinates": [
          -122.4196446166009,
          37.76330597087974
        ]
      },
      "properties": {
        "speed": 0.47263188950149876
      }
    },
    {
      "type": "Feature",
      "geometry": {
        "type": "Point",
        "coordinates": [
          -122.41872846085384,
          37.76666635299584
        ]
      },
      "properties": {
        "speed": 1.0575898994699735
      }
    }
  ]
}