{
  "type": "FeatureCollection",
  "features": [
    {
      "type": "Feature",
      "geometry": {
        "type": "Point",
        "coordinates": [
          -122.51294562862307,
          37.926721423832134
        ]
      },
      "properties": {
        "speed": 1.8915594434890262
      }
    },
    {
      "type": "Feature",
      "geometry": {
        "type": "Point",
        "coordinates": [
          -122.51311404604988,
          37.911173376882374
        ]
      },
      "properties": {
        "speed": 33.01199852086935
      }
    },
    {
      "type": "Feature",
      "geometry": {
        "type": "Point",
        "coordinates": [
          -122.51671586950127,
          37.8821870381246
        ]
      },
      "properties": {
        "speed": 34.11531011025885
      }
    },
    {
      "type": "Feature",
      "geometry": {
        "type": "Point",
        "coordinates": [
          -122.50079643682692,
          37.85942236500016
        ]
      },
      "properties": {
        "speed": 28.94419879216624
      }
    },
    {
      "type": "Feature",
      "geometry": {
        "type": "Point",
        "coordinates": [
          -122.48641984171788,
          37.84086926240222
        ]
      },
      "properties": {
        "speed": 25.308138798535037
      }
    },
    {
      "type": "Feature",
      "geometry": {
        "type": "Point",
        "coordinates": [
          -122.47898417758316,
          37.82229538057944
        ]
      },
      "properties": {
        "speed": 21.806294069635303
      }
    },
    {
      "type": "Feature",
      "geometry": {
        "type": "Point",
        "coordinates": [
          -122.47520379714258,
          37.80667164871451
        ]
      },
      "properties": {
        "speed": 12.106938804365027
      }
    },
    {
      "type": "Feature",
      "geometry": {
        "type": "Point",
        "coordinates": [
          -122.470916747573,
          37.78973757856209
        ]
      },
      "properties": {
        "speed": 22.822115196328927
      }
    },
    {
      "type": "Feature",
      "geometry": {
        "type": "Point",
        "coordinates": [
          -122.47254705440957,
          37.78278122087855
        ]
      },
      "properties": {
        "speed": 0.012479264370000603
      }
    },
    {
      "type": "Feature",
      "geometry": {
        "type": "Point",
        "coordinates": [
          -122.4718121533491,
          37.7733255504051
        ]
      },
      "properties": {
        "speed": 0
      }
    },
    {
      "type": "Feature",
      "geometry": {
        "type": "Point",
        "coordinates": [
          -122.47836624248536,
          37.76843298533725
        ]
      },
      "properties": {
        "speed": 21.79101356571512
      }
    },
    {
      "type": "Feature",
      "geometry": {
        "type": "Point",
        "coordinates": [
          -122.47664117479391,
          37.75697156621892
        ]
      },
      "properties": {
        "speed": 11.799180278735967
      }
    },
    {
      "type": "Feature",
      "geometry": {
        "type": "Point",
        "coordinates": [
          -122.47609573751093,
          37.74903510138708
        ]
      },
      "properties": {
        "speed": 13.40618052540189
      }
    },
    {
      "type": "Feature",
      "geometry": {
        "type": "Point",
        "coordinates": [
          -122.47563309164315,
          37.742098889414585
        ]
      },
      "properties": {
        "speed": 15.217429678811374
      }
    },
    {
      "type": "Feature",
      "geometry": {
        "type": "Point",
        "coordinates": [
          -122.4751922396221,
          37.73520088292447
        ]
      },
      "properties": {
        "speed": 0
      }
    },
    {
      "type": "Feature",
      "geometry": {
        "type": "Point",
        "coordinates": [
          -122.4718845729925,
          37.73472236007241
        ]
      },
      "properties": {
        "speed": 0
      }
    },
    {
      "type": "Feature",
      "geometry": {
        "type": "Point",
        "coordinates": [
          -122.39401830947894,
          37.78421226763413
        ]
      },
      "properties": {
        "speed": 8.136172294692411
      }
    },
    {
      "type": "Feature",
      "geometry": {
        "type": "Point",
        "coordinates": [
          -122.40185434928159,
          37.77815536128157
        ]
      },
      "properties": {
        "speed": 15.91634777629288
      }
    },
    {
      "type": "Feature",
      "geometry": {
        "type": "Point",
        "coordinates": [
          -122.40646049361293,
          37.77175958723004
        ]
      },
      "properties": {
        "speed": 10.760925852985624
      }
    },
    {
      "type": "Feature",
      "geometry": {
        "type": "Point",
        "coordinates": [
          -122.40622119314503,
          37.761602387026755
        ]
      },
      "properties": {
        "speed": 19.823968084640214
      }
    },
    {
      "type": "Feature",
      "geometry": {
        "type": "Point",
        "coordinates": [
          -122.40645316889312,
          37.74328973999459
        ]
      },
      "properties": {
        "speed": 18.947829139601975
      }
    },
    {
      "type": "Feature",
      "geometry": {
        "type": "Point",
        "coordinates": [
          -122.4255019935238,
          37.73163426920652
        ]
      },
      "properties": {
        "speed": 24.287809769734682
      }
    },
    {
      "type": "Feature",
      "geometry": {
        "type": "Point",
        "coordinates": [
          -122.43618428127917,
          37.73159301542069
        ]
      },
      "properties": {
        "speed": 0.019067078908387845
      }
    },
    {
      "type": "Feature",
      "geometry": {
        "type": "Point",
        "coordinates": [
          -122.4429109894331,
          37.73162390508296
        ]
      },
      "properties": {
        "speed": 14.226551977588416
      }
    },
    {
      "type": "Feature",
      "geometry": {
        "type": "Point",
        "coordinates": [
          -122.45172562354507,
          37.7315476095116
        ]
      },
      "properties": {
        "speed": 14.196721032686163
      }
    },
    {
      "type": "Feature",
      "geometry": {
        "type": "Point",
        "coordinates": [
          -122.45916720071571,
          37.73381129503568
        ]
      },
      "properties": {
        "speed": 12.357560663863145
      }
    },
    {
      "type": "Feature",
      "geometry": {
        "type": "Point",
        "coordinates": [
          -122.45890639751124,
          37.74036849848581
        ]
      },
      "properties": {
        "speed": 2.1841217007552656
      }
    },
    {
      "type": "Feature",
      "geometry": {
        "type": "Point",
        "coordinates": [
          -122.46295914532955,
          37.73828049643678
        ]
      },
      "properties": {
        "speed": 8.124837774121033
      }
    },
    {
      "type": "Feature",
      "geometry": {
        "type": "Point",
        "coordinates": [
          -122.51675464838708,
          37.935447836286656
        ]
      },
      "properties": {
        "speed": 32.41705579920511
      }
    },
    {
      "type": "Feature",
      "geometry": {
        "type": "Point",
        "coordinates": [
          -122.51440691365218,
          37.90563220865306
        ]
      },
      "properties": {
        "speed": 34.44239948172529
      }
    },
    {
      "type": "Feature",
      "geometry": {
        "type": "Point",
        "coordinates": [
          -122.51407758529784,
          37.87807449827407
        ]
      },
      "properties": {
        "speed": 31.60000038146973
      }
    },
    {
      "type": "Feature",
      "geometry": {
        "type": "Point",
        "coordinates": [
          -122.49481487911108,
          37.856142151381086
        ]
      },
      "properties": {
        "speed": 29.36805370768587
      }
    },
    {
      "type": "Feature",
      "geometry": {
        "type": "Point",
        "coordinates": [
          -122.48315195929682,
          37.83366484384495
        ]
      },
      "properties": {
        "speed": 29.303741557206372
      }
    },
    {
      "type": "Feature",
      "geometry": {
        "type": "Point",
        "coordinates": [
          -122.47749044904572,
          37.814035635653774
        ]
      },
      "properties": {
        "speed": 17.959693866521405
      }
    },
    {
      "type": "Feature",
      "geometry": {
        "type": "Point",
        "coordinates": [
          -122.46957636471309,
          37.79958615858407
        ]
      },
      "properties": {
        "speed": 19.151215022861948
      }
    },
    {
      "type": "Feature",
      "geometry": {
        "type": "Point",
        "coordinates": [
          -122.47263287026084,
          37.78400895513121
        ]
      },
      "properties": {
        "speed": 15.517763291390217
      }
    },
    {
      "type": "Feature",
      "geometry": {
        "type": "Point",
        "coordinates": [
          -122.4721035921224,
          37.77712921615483
        ]
      },
      "properties": {
        "speed": 0.8324994097979012
      }
    },
    {
      "type": "Feature",
      "geometry": {
        "type": "Point",
        "coordinates": [
          -122.47812079606894,
          37.77237671338383
        ]
      },
      "properties": {
        "speed": 15.849606772160303
      }
    },
    {
      "type": "Feature",
      "geometry": {
        "type": "Point",
        "coordinates": [
          -122.47740098780233,
          37.76583710479168
        ]
      },
      "properties": {
        "speed": 9.025464618840942
      }
    },
    {
      "type": "Feature",
      "geometry": {
        "type": "Point",
        "coordinates": [
          -122.47523015234168,
          37.73521086173817
        ]
      },
      "properties": {
        "speed": 1.2729384758159261
      }
    },
    {
      "type": "Feature",
      "geometry": {
        "type": "Point",
        "coordinates": [
          -122.47346919458406,
          37.7346043923193
        ]
      },
      "properties": {
        "speed": 13.739509537925974
      }
    },
    {
      "type": "Feature",
      "geometry": {
        "type": "Point",
        "coordinates": [
          -122.30962274265639,
          37.99119905962634
        ]
      },
      "properties": {
        "speed": 30.581826379545294
      }
    },
    {
      "type": "Feature",
      "geometry": {
        "type": "Point",
        "coordinates": [
          -122.32557895777603,
          37.96448736135988
        ]
      },
      "properties": {
        "speed": 34.1233938916446
      }
    },
    {
      "type": "Feature",
      "geometry": {
        "type": "Point",
        "coordinates": [
          -122.32547888324302,
          37.938674035477966
        ]
      },
      "properties": {
        "speed": 32.10642141318653
      }
    },
    {
      "type": "Feature",
      "geometry": {
        "type": "Point",
        "coordinates": [
          -122.3174333279435,
          37.9115352018263
        ]
      },
      "properties": {
        "speed": 32.91169540157721
      }
    },
    {
      "type": "Feature",
      "geometry": {
        "type": "Point",
        "coordinates": [
          -122.30929463217383,
          37.88632538715053
        ]
      },
      "properties": {
        "speed": 24.788870831477087
      }
    },
    {
      "type": "Feature",
      "geometry": {
        "type": "Point",
        "coordinates": [
          -122.30363359443582,
          37.86568067204716
        ]
      },
      "properties": {
        "speed": 18.768381208650357
      }
    },
    {
      "type": "Feature",
      "geometry": {
        "type": "Point",
        "coordinates": [
          -122.29879040657939,
          37.847750746326334
        ]
      },
      "properties": {
        "speed": 20.58866646571531
      }
    },
    {
      "type": "Feature",
      "geometry": {
        "type": "Point",
        "coordinates": [
          -122.29493072397226,
          37.82834206433971
        ]
      },
      "properties": {
        "speed": 21.537684349505945
      }
    },
    {
      "type": "Feature",
      "geometry": {
        "type": "Point",
        "coordinates": [
          -122.31373556666667,
          37.82492641666666
        ]
      },
      "properties": {
        "speed": 0
      }
    },
    {
      "type": "Feature",
      "geometry": {
        "type": "Point",
        "coordinates": [
          -122.32696180029377,
          37.822233942417256
        ]
      },
      "properties": {
        "speed": 15.68576334320057
      }
    },
    {
      "type": "Feature",
      "geometry": {
        "type": "Point",
        "coordinates": [
          -122.34251297439478,
          37.82024399447044
        ]
      },
      "properties": {
        "speed": 11.419598164909756
      }
    },
    {
      "type": "Feature",
      "geometry": {
        "type": "Point",
        "coordinates": [
          -122.35400693382562,
          37.818000806152206
        ]
      },
      "properties": {
        "speed": 7.958761737754887
      }
    },
    {
      "type": "Feature",
      "geometry": {
        "type": "Point",
        "coordinates": [
          -122.36384211448818,
          37.81128610222208
        ]
      },
      "properties": {
        "speed": 6.744019569724786
      }
    },
    {
      "type": "Feature",
      "geometry": {
        "type": "Point",
        "coordinates": [
          -122.36903569162449,
          37.806410749205405
        ]
      },
      "properties": {
        "speed": 5.057187869077012
      }
    },
    {
      "type": "Feature",
      "geometry": {
        "type": "Point",
        "coordinates": [
          -122.37536249528513,
          37.80052039141988
        ]
      },
      "properties": {
        "speed": 9.14979977351302
      }
    },
    {
      "type": "Feature",
      "geometry": {
        "type": "Point",
        "coordinates": [
          -122.38358888046618,
          37.792827097287066
        ]
      },
      "properties": {
        "speed": 11.74143704814721
      }
    },
    {
      "type": "Feature",
      "geometry": {
        "type": "Point",
        "coordinates": [
          -122.39220057202633,
          37.78528003967352
        ]
      },
      "properties": {
        "speed": 17.372146106329943
      }
    },
    {
      "type": "Feature",
      "geometry": {
        "type": "Point",
        "coordinates": [
          -122.40652780693675,
          37.77463826394742
        ]
      },
      "properties": {
        "speed": 20.496654717467262
      }
    },
    {
      "type": "Feature",
      "geometry": {
        "type": "Point",
        "coordinates": [
          -122.40522127381968,
          37.763528346467055
        ]
      },
      "properties": {
        "speed": 16.694958510687098
      }
    },
    {
      "type": "Feature",
      "geometry": {
        "type": "Point",
        "coordinates": [
          -122.40517863731907,
          37.74539226899886
        ]
      },
      "properties": {
        "speed": 24.029262280561
      }
    },
    {
      "type": "Feature",
      "geometry": {
        "type": "Point",
        "coordinates": [
          -122.42246802023503,
          37.73173629967744
        ]
      },
      "properties": {
        "speed": 27.009276337114922
      }
    },
    {
      "type": "Feature",
      "geometry": {
        "type": "Point",
        "coordinates": [
          -122.43628923333333,
          37.73159745
        ]
      },
      "properties": {
        "speed": 0
      }
    },
    {
      "type": "Feature",
      "geometry": {
        "type": "Point",
        "coordinates": [
          -122.44574008549384,
          37.73164718151528
        ]
      },
      "properties": {
        "speed": 16.238953972062333
      }
    },
    {
      "type": "Feature",
      "geometry": {
        "type": "Point",
        "coordinates": [
          -122.45332894873688,
          37.73162389740941
        ]
      },
      "properties": {
        "speed": 4.920809145684833
      }
    },
    {
      "type": "Feature",
      "geometry": {
        "type": "Point",
        "coordinates": [
          -122.47213567328313,
          37.778294054122014
        ]
      },
      "properties": {
        "speed": 11.0277985570471
      }
    },
    {
      "type": "Feature",
      "geometry": {
        "type": "Point",
        "coordinates": [
          -122.47934668667024,
          37.77195506764036
        ]
      },
      "properties": {
        "speed": 3.2492444638421762
      }
    },
    {
      "type": "Feature",
      "geometry": {
        "type": "Point",
        "coordinates": [
          -122.47841925116762,
          37.76913098149427
        ]
      },
      "properties": {
        "speed": 2.762913630379353
      }
    },
    {
      "type": "Feature",
      "geometry": {
        "type": "Point",
        "coordinates": [
          -122.47780063333333,
          37.7669799
        ]
      },
      "properties": {
        "speed": 0
      }
    },
    {
      "type": "Feature",
      "geometry": {
        "type": "Point",
        "coordinates": [
          -122.47687503333333,
          37.7602672
        ]
      },
      "properties": {
        "speed": 0
      }
    },
    {
      "type": "Feature",
      "geometry": {
        "type": "Point",
        "coordinates": [
          -122.4764685,
          37.754601916666665
        ]
      },
      "properties": {
        "speed": 0
      }
    },
    {
      "type": "Feature",
      "geometry": {
        "type": "Point",
        "coordinates": [
          -122.47621125,
          37.75113111666667
        ]
      },
      "properties": {
        "speed": 0
      }
    },
    {
      "type": "Feature",
      "geometry": {
        "type": "Point",
        "coordinates": [
          -122.47579206666667,
          37.74354713333334
        ]
      },
      "properties": {
        "speed": 0
      }
    },
    {
      "type": "Feature",
      "geometry": {
        "type": "Point",
        "coordinates": [
          -122.47460504416233,
          37.739311496441104
        ]
      },
      "properties": {
        "speed": 3.266129916533418
      }
    },
    {
      "type": "Feature",
      "geometry": {
        "type": "Point",
        "coordinates": [
          -122.46788781543894,
          37.73999349379554
        ]
      },
      "properties": {
        "speed": 7.71324546737268
      }
    },
    {
      "type": "Feature",
      "geometry": {
        "type": "Point",
        "coordinates": [
          -122.53360876666666,
          37.97152208333333
        ]
      },
      "properties": {
        "speed": 0
      }
    },
    {
      "type": "Feature",
      "geometry": {
        "type": "Point",
        "coordinates": [
          -122.53566046724706,
          37.97389035318513
        ]
      },
      "properties": {
        "speed": 3.0992044149405427
      }
    },
    {
      "type": "Feature",
      "geometry": {
        "type": "Point",
        "coordinates": [
          -122.52330825,
          37.97337415
        ]
      },
      "properties": {
        "speed": 0
      }
    },
    {
      "type": "Feature",
      "geometry": {
        "type": "Point",
        "coordinates": [
          -122.52189125,
          37.9731419
        ]
      },
      "properties": {
        "speed": 0
      }
    },
    {
      "type": "Feature",
      "geometry": {
        "type": "Point",
        "coordinates": [
          -122.52112146824669,
          37.96866519343282
        ]
      },
      "properties": {
        "speed": 20.447333525578703
      }
    },
    {
      "type": "Feature",
      "geometry": {
        "type": "Point",
        "coordinates": [
          -122.49875455743057,
          37.95355913186597
        ]
      },
      "properties": {
        "speed": 28.140726990164968
      }
    },
    {
      "type": "Feature",
      "geometry": {
        "type": "Point",
        "coordinates": [
          -122.46951249478694,
          37.940894218190394
        ]
      },
      "properties": {
        "speed": 33.871140711696555
      }
    },
    {
      "type": "Feature",
      "geometry": {
        "type": "Point",
        "coordinates": [
          -122.4344712877543,
          37.93456902005216
        ]
      },
      "properties": {
        "speed": 30.791936418204156
      }
    },
    {
      "type": "Feature",
      "geometry": {
        "type": "Point",
        "coordinates": [
          -122.40402057638364,
          37.93215531865075
        ]
      },
      "properties": {
        "speed": 26.52393991695628
      }
    },
    {
      "type": "Feature",
      "geometry": {
        "type": "Point",
        "coordinates": [
          -122.37356596230927,
          37.92703273407268
        ]
      },
      "properties": {
        "speed": 30.39286309700362
      }
    },
    {
      "type": "Feature",
      "geometry": {
        "type": "Point",
        "coordinates": [
          -122.3410209845249,
          37.92151316585147
        ]
      },
      "properties": {
        "speed": 31.24810883065102
      }
    },
    {
      "type": "Feature",
      "geometry": {
        "type": "Point",
        "coordinates": [
          -122.31764027080307,
          37.904241488875904
        ]
      },
      "properties": {
        "speed": 27.476689665061738
      }
    },
    {
      "type": "Feature",
      "geometry": {
        "type": "Point",
        "coordinates": [
          -122.30890603346185,
          37.88422322335367
        ]
      },
      "properties": {
        "speed": 17.06639492191612
      }
    },
    {
      "type": "Feature",
      "geometry": {
        "type": "Point",
        "coordinates": [
          -122.30698813413358,
          37.87638533478195
        ]
      },
      "properties": {
        "speed": 14.489140460009258
      }
    },
    {
      "type": "Feature",
      "geometry": {
        "type": "Point",
        "coordinates": [
          -122.30437462285722,
          37.865741786614095
        ]
      },
      "properties": {
        "speed": 12.001129265087435
      }
    },
    {
      "type": "Feature",
      "geometry": {
        "type": "Point",
        "coordinates": [
          -122.29414991666667,
          37.868695216666666
        ]
      },
      "properties": {
        "speed": 0
      }
    },
    {
      "type": "Feature",
      "geometry": {
        "type": "Point",
        "coordinates": [
          -122.28724212323625,
          37.869678597287106
        ]
      },
      "properties": {
        "speed": 6.754984778161483
      }
    },
    {
      "type": "Feature",
      "geometry": {
        "type": "Point",
        "coordinates": [
          -122.28155478807624,
          37.87042086248865
        ]
      },
      "properties": {
        "speed": 9.244307727570925
      }
    },
    {
      "type": "Feature",
      "geometry": {
        "type": "Point",
        "coordinates": [
          -122.46342284366341,
          37.72580936422225
        ]
      },
      "properties": {
        "speed": 8.679669743437692
      }
    },
    {
      "type": "Feature",
      "geometry": {
        "type": "Point",
        "coordinates": [
          -122.46917589138447,
          37.72998738193417
        ]
      },
      "properties": {
        "speed": 8.537275993452875
      }
    },
    {
      "type": "Feature",
      "geometry": {
        "type": "Point",
        "coordinates": [
          -122.4714238649366,
          37.73455693699971
        ]
      },
      "properties": {
        "speed": 0
      }
    },
    {
      "type": "Feature",
      "geometry": {
        "type": "Point",
        "coordinates": [
          -122.08441702045124,
          37.392890127947936
        ]
      },
      "properties": {
        "speed": 8.7272826909557
      }
    },
    {
      "type": "Feature",
      "geometry": {
        "type": "Point",
        "coordinates": [
          -122.08618126110274,
          37.39107845400027
        ]
      },
      "properties": {
        "speed": 16.504687554784287
      }
    },
    {
      "type": "Feature",
      "geometry": {
        "type": "Point",
        "coordinates": [
          -122.08707688835351,
          37.38111034048256
        ]
      },
      "properties": {
        "speed": 17.410232221610755
      }
    },
    {
      "type": "Feature",
      "geometry": {
        "type": "Point",
        "coordinates": [
          -122.092056869888,
          37.37344757422238
        ]
      },
      "properties": {
        "speed": 16.546287968054433
      }
    },
    {
      "type": "Feature",
      "geometry": {
        "type": "Point",
        "coordinates": [
          -122.10529710293596,
          37.373761932559844
        ]
      },
      "properties": {
        "speed": 14.9334296063941
      }
    },
    {
      "type": "Feature",
      "geometry": {
        "type": "Point",
        "coordinates": [
          -122.11064516847635,
          37.37073060524697
        ]
      },
      "properties": {
        "speed": 0
      }
    },
    {
      "type": "Feature",
      "geometry": {
        "type": "Point",
        "coordinates": [
          -122.11233162842866,
          37.36898854267646
        ]
      },
      "properties": {
        "speed": 0
      }
    },
    {
      "type": "Feature",
      "geometry": {
        "type": "Point",
        "coordinates": [
          -122.12365668764868,
          37.3643586312136
        ]
      },
      "properties": {
        "speed": 32.896614611438864
      }
    },
    {
      "type": "Feature",
      "geometry": {
        "type": "Point",
        "coordinates": [
          -122.1510873236633,
          37.38041760225092
        ]
      },
      "properties": {
        "speed": 32.40925345816318
      }
    },
    {
      "type": "Feature",
      "geometry": {
        "type": "Point",
        "coordinates": [
          -122.17739998986173,
          37.39521039984148
        ]
      },
      "properties": {
        "speed": 29.179227260044346
      }
    },
    {
      "type": "Feature",
      "geometry": {
        "type": "Point",
        "coordinates": [
          -122.20432090616733,
          37.41238306731082
        ]
      },
      "properties": {
        "speed": 30.58657749983312
      }
    },
    {
      "type": "Feature",
      "geometry": {
        "type": "Point",
        "coordinates": [
          -122.23223872481901,
          37.427120108065374
        ]
      },
      "properties": {
        "speed": 25.758211590725743
      }
    },
    {
      "type": "Feature",
      "geometry": {
        "type": "Point",
        "coordinates": [
          -122.26011599896631,
          37.444220121829396
        ]
      },
      "properties": {
        "speed": 32.79475387537026
      }
    },
    {
      "type": "Feature",
      "geometry": {
        "type": "Point",
        "coordinates": [
          -122.2899366281301,
          37.45923798538761
        ]
      },
      "properties": {
        "speed": 32.78570766750417
      }
    },
    {
      "type": "Feature",
      "geometry": {
        "type": "Point",
        "coordinates": [
          -122.29806521466581,
          37.48633926157371
        ]
      },
      "properties": {
        "speed": 31.3254476482996
      }
    },
    {
      "type": "Feature",
      "geometry": {
        "type": "Point",
        "coordinates": [
          -122.32819086108012,
          37.50140677409566
        ]
      },
      "properties": {
        "speed": 33.0073470681436
      }
    },
    {
      "type": "Feature",
      "geometry": {
        "type": "Point",
        "coordinates": [
          -122.35376919001395,
          37.519619854946875
        ]
      },
      "properties": {
        "speed": 30.11284902861408
      }
    },
    {
      "type": "Feature",
      "geometry": {
        "type": "Point",
        "coordinates": [
          -122.36901741513373,
          37.54449801400056
        ]
      },
      "properties": {
        "speed": 31.34504409855909
      }
    },
    {
      "type": "Feature",
      "geometry": {
        "type": "Point",
        "coordinates": [
          -122.39116346486658,
          37.5666116058491
        ]
      },
      "properties": {
        "speed": 32.18301059713769
      }
    },
    {
      "type": "Feature",
      "geometry": {
        "type": "Point",
        "coordinates": [
          -122.41277186479263,
          37.589671688742364
        ]
      },
      "properties": {
        "speed": 31.849343327167325
      }
    },
    {
      "type": "Feature",
      "geometry": {
        "type": "Point",
        "coordinates": [
          -122.42476298317271,
          37.613601345124835
        ]
      },
      "properties": {
        "speed": 33.38543573221292
      }
    },
    {
      "type": "Feature",
      "geometry": {
        "type": "Point",
        "coordinates": [
          -122.44044908252876,
          37.63807265527635
        ]
      },
      "properties": {
        "speed": 27.889071454991857
      }
    },
    {
      "type": "Feature",
      "geometry": {
        "type": "Point",
        "coordinates": [
          -122.45679846509736,
          37.65457874823157
        ]
      },
      "properties": {
        "speed": 22.23135101089373
      }
    },
    {
      "type": "Feature",
      "geometry": {
        "type": "Point",
        "coordinates": [
          -122.46981949077697,
          37.67569112101889
        ]
      },
      "properties": {
        "speed": 30.368265938615966
      }
    },
    {
      "type": "Feature",
      "geometry": {
        "type": "Point",
        "coordinates": [
          -122.47141576597323,
          37.70240882206528
        ]
      },
      "properties": {
        "speed": 29.892387112702693
      }
    },
    {
      "type": "Feature",
      "geometry": {
        "type": "Point",
        "coordinates": [
          -122.47213303501147,
          37.715996039154795
        ]
      },
      "properties": {
        "speed": 6.990838994409936
      }
    },
    {
      "type": "Feature",
      "geometry": {
        "type": "Point",
        "coordinates": [
          -122.47226473195931,
          37.721052823968066
        ]
      },
      "properties": {
        "speed": 8.927630085431566
      }
    },
    {
      "type": "Feature",
      "geometry": {
        "type": "Point",
        "coordinates": [
          -122.47167975450468,
          37.73084105387046
        ]
      },
      "properties": {
        "speed": 0
      }
    },
    {
      "type": "Feature",
      "geometry": {
        "type": "Point",
        "coordinates": [
          -122.06949051535078,
          37.33449583512254
        ]
      },
      "properties": {
        "speed": 23.430015385531
      }
    },
    {
      "type": "Feature",
      "geometry": {
        "type": "Point",
        "coordinates": [
          -122.10006567164893,
          37.347037688969834
        ]
      },
      "properties": {
        "speed": 33.38131206943839
      }
    },
    {
      "type": "Feature",
      "geometry": {
        "type": "Point",
        "coordinates": [
          -122.12522131502854,
          37.36473479209288
        ]
      },
      "properties": {
        "speed": 32.51894023615582
      }
    },
    {
      "type": "Feature",
      "geometry": {
        "type": "Point",
        "coordinates": [
          -122.15160060903592,
          37.38199644330327
        ]
      },
      "properties": {
        "speed": 32.72339329084529
      }
    },
    {
      "type": "Feature",
      "geometry": {
        "type": "Point",
        "coordinates": [
          -122.17842451310852,
          37.39619608459158
        ]
      },
      "properties": {
        "speed": 30.34979845933283
      }
    },
    {
      "type": "Feature",
      "geometry": {
        "type": "Point",
        "coordinates": [
          -122.2047512003708,
          37.41245130364925
        ]
      },
      "properties": {
        "speed": 29.670000076293945
      }
    },
    {
      "type": "Feature",
      "geometry": {
        "type": "Point",
        "coordinates": [
          -122.0682778291242,
          37.33830927770398
        ]
      },
      "properties": {
        "speed": 0
      }
    },
    {
      "type": "Feature",
      "geometry": {
        "type": "Point",
        "coordinates": [
          -122.07183832027383,
          37.33401299051663
        ]
      },
      "properties": {
        "speed": 23.955360601064335
      }
    },
    {
      "type": "Feature",
      "geometry": {
        "type": "Point",
        "coordinates": [
          -122.09564317561988,
          37.34513669138086
        ]
      },
      "properties": {
        "speed": 31.267897357616977
      }
    },
    {
      "type": "Feature",
      "geometry": {
        "type": "Point",
        "coordinates": [
          -122.12116781940814,
          37.362684914478685
        ]
      },
      "properties": {
        "speed": 31.438032144485444
      }
    },
    {
      "type": "Feature",
      "geometry": {
        "type": "Point",
        "coordinates": [
          -122.1473996837564,
          37.37596181457981
        ]
      },
      "properties": {
        "speed": 30.82485412924516
      }
    },
    {
      "type": "Feature",
      "geometry": {
        "type": "Point",
        "coordinates": [
          -122.1715033259727,
          37.39232419707693
        ]
      },
      "properties": {
        "speed": 27.39549865185473
      }
    },
    {
      "type": "Feature",
      "geometry": {
        "type": "Point",
        "coordinates": [
          -122.19608640626903,
          37.409674251741514
        ]
      },
      "properties": {
        "speed": 30.623708651324666
      }
    },
    {
      "type": "Feature",
      "geometry": {
        "type": "Point",
        "coordinates": [
          -122.22477430366506,
          37.421603827603576
        ]
      },
      "properties": {
        "speed": 28.94488165716659
      }
    },
    {
      "type": "Feature",
      "geometry": {
        "type": "Point",
        "coordinates": [
          -122.25173704209564,
          37.44233041998693
        ]
      },
      "properties": {
        "speed": 34.437018836328306
      }
    },
    {
      "type": "Feature",
      "geometry": {
        "type": "Point",
        "coordinates": [
          -122.28492821951842,
          37.45451331188621
        ]
      },
      "properties": {
        "speed": 33.935464688584155
      }
    },
    {
      "type": "Feature",
      "geometry": {
        "type": "Point",
        "coordinates": [
          -122.29883415290381,
          37.48151690412685
        ]
      },
      "properties": {
        "speed": 34.02903745056204
      }
    },
    {
      "type": "Feature",
      "geometry": {
        "type": "Point",
        "coordinates": [
          -122.32179549056428,
          37.50073402383825
        ]
      },
      "properties": {
        "speed": 32.958415923573504
      }
    },
    {
      "type": "Feature",
      "geometry": {
        "type": "Point",
        "coordinates": [
          -122.35219747471741,
          37.51776272923144
        ]
      },
      "properties": {
        "speed": 32.826254942842866
      }
    },
    {
      "type": "Feature",
      "geometry": {
        "type": "Point",
        "coordinates": [
          -122.36749340192313,
          37.54294842792445
        ]
      },
      "properties": {
        "speed": 32.667021656120816
      }
    },
    {
      "type": "Feature",
      "geometry": {
        "type": "Point",
        "coordinates": [
          -122.39091644364343,
          37.566456512764425
        ]
      },
      "properties": {
        "speed": 32.813943833718184
      }
    },
    {
      "type": "Feature",
      "geometry": {
        "type": "Point",
        "coordinates": [
          -122.41311327329504,
          37.58996925666187
        ]
      },
      "properties": {
        "speed": 32.052940917939026
      }
    },
    {
      "type": "Feature",
      "geometry": {
        "type": "Point",
        "coordinates": [
          -122.42435539709165,
          37.61436520082628
        ]
      },
      "properties": {
        "speed": 31.238206232135006
      }
    },
    {
      "type": "Feature",
      "geometry": {
        "type": "Point",
        "coordinates": [
          -122.44112610781055,
          37.63879392675437
        ]
      },
      "properties": {
        "speed": 31.174255368092993
      }
    },
    {
      "type": "Feature",
      "geometry": {
        "type": "Point",
        "coordinates": [
          -122.4623659956224,
          37.658829595363834
        ]
      },
      "properties": {
        "speed": 29.04328392099384
      }
    },
    {
      "type": "Feature",
      "geometry": {
        "type": "Point",
        "coordinates": [
          -122.47138191046955,
          37.68396610755184
        ]
      },
      "properties": {
        "speed": 30.463233521163108
      }
    },
    {
      "type": "Feature",
      "geometry": {
        "type": "Point",
        "coordinates": [
          -122.47105178069519,
          37.708946792823745
        ]
      },
      "properties": {
        "speed": 21.961307289151776
      }
    },
    {
      "type": "Feature",
      "geometry": {
        "type": "Point",
        "coordinates": [
          -122.47132297420717,
          37.7133855597031
        ]
      },
      "properties": {
        "speed": 0
      }
    },
    {
      "type": "Feature",
      "geometry": {
        "type": "Point",
        "coordinates": [
          -122.47206660726108,
          37.715775209818304
        ]
      },
      "properties": {
        "speed": 6.220490085878378
      }
    },
    {
      "type": "Feature",
      "geometry": {
        "type": "Point",
        "coordinates": [
          -122.47207802758908,
          37.7239237535765
        ]
      },
      "properties": {
        "speed": 19.45658197545123
      }
    },
    {
      "type": "Feature",
      "geometry": {
        "type": "Point",
        "coordinates": [
          -122.47159376794386,
          37.73107164190721
        ]
      },
      "properties": {
        "speed": 10.40707587453732
      }
    }
  ]
}