{
  "type": "FeatureCollection",
  "features": [
    {
      "type": "Feature",
      "geometry": {
        "type": "Point",
        "coordinates": [
          -122.2062752806961,
          38.16508912643511
        ]
      },
      "properties": {
        "speed": 29.900519154377168
      }
    },
    {
      "type": "Feature",
      "geometry": {
        "type": "Point",
        "coordinates": [
          -122.18036172878347,
          38.18498746516024
        ]
      },
      "properties": {
        "speed": 30.935766768432103
      }
    },
    {
      "type": "Feature",
      "geometry": {
        "type": "Point",
        "coordinates": [
          -122.15306153427188,
          38.20533617415143
        ]
      },
      "properties": {
        "speed": 35.87579121560658
      }
    },
    {
      "type": "Feature",
      "geometry": {
        "type": "Point",
        "coordinates": [
          -122.12949099727963,
          38.22188777163774
        ]
      },
      "properties": {
        "speed": 19.371104459916292
      }
    },
    {
      "type": "Feature",
      "geometry": {
        "type": "Point",
        "coordinates": [
          -122.127996375898,
          38.22130030490293
        ]
      },
      "properties": {
        "speed": 0
      }
    },
    {
      "type": "Feature",
      "geometry": {
        "type": "Point",
        "coordinates": [
          -122.127996375898,
          38.22130030490293
        ]
      },
      "properties": {
        "speed": 0
      }
    },
    {
      "type": "Feature",
      "geometry": {
        "type": "Point",
        "coordinates": [
          -122.13028601045993,
          38.21894523352264
        ]
      },
      "properties": {
        "speed": 14.506655454903502
      }
    },
    {
      "type": "Feature",
      "geometry": {
        "type": "Point",
        "coordinates": [
          -122.12251918066359,
          38.2264469670462
        ]
      },
      "properties": {
        "speed": 29.458686497381258
      }
    },
    {
      "type": "Feature",
      "geometry": {
        "type": "Point",
        "coordinates": [
          -122.09000272995036,
          38.24089385099666
        ]
      },
      "properties": {
        "speed": 36.01539465173615
      }
    },
    {
      "type": "Feature",
      "geometry": {
        "type": "Point",
        "coordinates": [
          -122.06725493108351,
          38.2526463237553
        ]
      },
      "properties": {
        "speed": 14.654531479438216
      }
    },
    {
      "type": "Feature",
      "geometry": {
        "type": "Point",
        "coordinates": [
          -122.06215062051463,
          38.258624785834755
        ]
      },
      "properties": {
        "speed": 11.111384565116277
      }
    },
    {
      "type": "Feature",
      "geometry": {
        "type": "Point",
        "coordinates": [
          -122.05756720667291,
          38.26404936571141
        ]
      },
      "properties": {
        "speed": 5.241334439940833
      }
    },
    {
      "type": "Feature",
      "geometry": {
        "type": "Point",
        "coordinates": [
          -122.05271388597448,
          38.26980367067878
        ]
      },
      "properties": {
        "speed": 6.101946368381205
      }
    },
    {
      "type": "Feature",
      "geometry": {
        "type": "Point",
        "coordinates": [
          -122.04830783878823,
          38.27499430121848
        ]
      },
      "properties": {
        "speed": 10.18721641150568
      }
    },
    {
      "type": "Feature",
      "geometry": {
        "type": "Point",
        "coordinates": [
          -122.04269395947311,
          38.28162382477561
        ]
      },
      "properties": {
        "speed": 11.19343221552843
      }
    },
    {
      "type": "Feature",
      "geometry": {
        "type": "Point",
        "coordinates": [
          -122.03390052115512,
          38.29682776862671
        ]
      },
      "properties": {
        "speed": 29.368720464887367
      }
    },
    {
      "type": "Feature",
      "geometry": {
        "type": "Point",
        "coordinates": [
          -122.0312273262303,
          38.31629886615166
        ]
      },
      "properties": {
        "speed": 28.47996155367262
      }
    },
    {
      "type": "Feature",
      "geometry": {
        "type": "Point",
        "coordinates": [
          -122.01264979642107,
          38.34051111979803
        ]
      },
      "properties": {
        "speed": 30.081199848370083
      }
    },
    {
      "type": "Feature",
      "geometry": {
        "type": "Point",
        "coordinates": [
          -121.98156992294992,
          38.35235020396932
        ]
      },
      "properties": {
        "speed": 30.984830119353358
      }
    },
    {
      "type": "Feature",
      "geometry": {
        "type": "Point",
        "coordinates": [
          -121.95662224167988,
          38.36993040370232
        ]
      },
      "properties": {
        "speed": 22.159189827532543
      }
    },
    {
      "type": "Feature",
      "geometry": {
        "type": "Point",
        "coordinates": [
          -121.9485074884856,
          38.399099677312854
        ]
      },
      "properties": {
        "speed": 37.78111065540143
      }
    },
    {
      "type": "Feature",
      "geometry": {
        "type": "Point",
        "coordinates": [
          -121.942406984204,
          38.434410115830005
        ]
      },
      "properties": {
        "speed": 40.21614641918686
      }
    },
    {
      "type": "Feature",
      "geometry": {
        "type": "Point",
        "coordinates": [
          -121.94298847633543,
          38.467196129527885
        ]
      },
      "properties": {
        "speed": 33.46770784985922
      }
    },
    {
      "type": "Feature",
      "geometry": {
        "type": "Point",
        "coordinates": [
          -121.94998768295852,
          38.497632479160906
        ]
      },
      "properties": {
        "speed": 36.60478372382533
      }
    },
    {
      "type": "Feature",
      "geometry": {
        "type": "Point",
        "coordinates": [
          -121.95285187117223,
          38.52884652523341
        ]
      },
      "properties": {
        "speed": 33.3238843753258
      }
    },
    {
      "type": "Feature",
      "geometry": {
        "type": "Point",
        "coordinates": [
          -121.95298922412347,
          38.559056581464894
        ]
      },
      "properties": {
        "speed": 34.151527140363726
      }
    },
    {
      "type": "Feature",
      "geometry": {
        "type": "Point",
        "coordinates": [
          -121.95313603310146,
          38.59029242007218
        ]
      },
      "properties": {
        "speed": 36.79310277468257
      }
    },
    {
      "type": "Feature",
      "geometry": {
        "type": "Point",
        "coordinates": [
          -121.95320718989909,
          38.62336320253242
        ]
      },
      "properties": {
        "speed": 35.254092029493286
      }
    },
    {
      "type": "Feature",
      "geometry": {
        "type": "Point",
        "coordinates": [
          -121.95178305908513,
          38.657306819577656
        ]
      },
      "properties": {
        "speed": 39.79001182630914
      }
    },
    {
      "type": "Feature",
      "geometry": {
        "type": "Point",
        "coordinates": [
          -121.95419652207978,
          38.69475534185424
        ]
      },
      "properties": {
        "speed": 41.09176564169201
      }
    },
    {
      "type": "Feature",
      "geometry": {
        "type": "Point",
        "coordinates": [
          -121.95614922842967,
          38.732497125959995
        ]
      },
      "properties": {
        "speed": 44.278210922402415
      }
    },
    {
      "type": "Feature",
      "geometry": {
        "type": "Point",
        "coordinates": [
          -121.94759895807604,
          38.76970316903636
        ]
      },
      "properties": {
        "speed": 42.03675362697855
      }
    },
    {
      "type": "Feature",
      "geometry": {
        "type": "Point",
        "coordinates": [
          -121.94035731107408,
          38.80739577475451
        ]
      },
      "properties": {
        "speed": 43.98603774632352
      }
    },
    {
      "type": "Feature",
      "geometry": {
        "type": "Point",
        "coordinates": [
          -121.93977023298869,
          38.844937549784646
        ]
      },
      "properties": {
        "speed": 37.57313287852017
      }
    },
    {
      "type": "Feature",
      "geometry": {
        "type": "Point",
        "coordinates": [
          -121.9617717776264,
          38.86926142042393
        ]
      },
      "properties": {
        "speed": 33.27748106412905
      }
    },
    {
      "type": "Feature",
      "geometry": {
        "type": "Point",
        "coordinates": [
          -121.98071373585883,
          38.89618991327366
        ]
      },
      "properties": {
        "speed": 35.74714486880621
      }
    },
    {
      "type": "Feature",
      "geometry": {
        "type": "Point",
        "coordinates": [
          -121.99795597101371,
          38.922419941525696
        ]
      },
      "properties": {
        "speed": 32.20551238970651
      }
    },
    {
      "type": "Feature",
      "geometry": {
        "type": "Point",
        "coordinates": [
          -122.01372140646203,
          38.950114200139396
        ]
      },
      "properties": {
        "speed": 34.75907631828111
      }
    },
    {
      "type": "Feature",
      "geometry": {
        "type": "Point",
        "coordinates": [
          -122.03102643260809,
          38.977782770931235
        ]
      },
      "properties": {
        "speed": 35.17645584826271
      }
    },
    {
      "type": "Feature",
      "geometry": {
        "type": "Point",
        "coordinates": [
          -122.04985844493544,
          39.00634923266312
        ]
      },
      "properties": {
        "speed": 37.07153103628019
      }
    },
    {
      "type": "Feature",
      "geometry": {
        "type": "Point",
        "coordinates": [
          -122.0678154554706,
          39.033662409942735
        ]
      },
      "properties": {
        "speed": 35.82268759615198
      }
    },
    {
      "type": "Feature",
      "geometry": {
        "type": "Point",
        "coordinates": [
          -122.08826422154128,
          39.06143585564342
        ]
      },
      "properties": {
        "speed": 36.10503700414221
      }
    },
    {
      "type": "Feature",
      "geometry": {
        "type": "Point",
        "coordinates": [
          -122.10542572703469,
          39.09079429387453
        ]
      },
      "properties": {
        "speed": 33.46044798885166
      }
    },
    {
      "type": "Feature",
      "geometry": {
        "type": "Point",
        "coordinates": [
          -122.12333908824883,
          39.11765438760651
        ]
      },
      "properties": {
        "speed": 30.609189238434137
      }
    },
    {
      "type": "Feature",
      "geometry": {
        "type": "Point",
        "coordinates": [
          -122.1367998302265,
          39.144786162663145
        ]
      },
      "properties": {
        "speed": 35.310287641398595
      }
    },
    {
      "type": "Feature",
      "geometry": {
        "type": "Point",
        "coordinates": [
          -122.1548748293041,
          39.174373093532374
        ]
      },
      "properties": {
        "speed": 37.23905384021586
      }
    },
    {
      "type": "Feature",
      "geometry": {
        "type": "Point",
        "coordinates": [
          -122.17539989445463,
          39.2006956356957
        ]
      },
      "properties": {
        "speed": 29.836065655318713
      }
    },
    {
      "type": "Feature",
      "geometry": {
        "type": "Point",
        "coordinates": [
          -122.18148005307171,
          39.22644762797505
        ]
      },
      "properties": {
        "speed": 29.122610797277257
      }
    },
    {
      "type": "Feature",
      "geometry": {
        "type": "Point",
        "coordinates": [
          -122.18201971412607,
          39.25506899674435
        ]
      },
      "properties": {
        "speed": 28.939121233831518
      }
    },
    {
      "type": "Feature",
      "geometry": {
        "type": "Point",
        "coordinates": [
          -122.18330942588443,
          39.28302307631374
        ]
      },
      "properties": {
        "speed": 29.536503817997225
      }
    },
    {
      "type": "Feature",
      "geometry": {
        "type": "Point",
        "coordinates": [
          -122.18888503483004,
          39.30888341490879
        ]
      },
      "properties": {
        "speed": 28.544912940921517
      }
    },
    {
      "type": "Feature",
      "geometry": {
        "type": "Point",
        "coordinates": [
          -122.19471596298051,
          39.33850692375176
        ]
      },
      "properties": {
        "speed": 34.81363443844932
      }
    },
    {
      "type": "Feature",
      "geometry": {
        "type": "Point",
        "coordinates": [
          -122.19278190673967,
          39.37045731695321
        ]
      },
      "properties": {
        "speed": 38.00024911891377
      }
    },
    {
      "type": "Feature",
      "geometry": {
        "type": "Point",
        "coordinates": [
          -122.19527473769779,
          39.404405598368996
        ]
      },
      "properties": {
        "speed": 38.19785552278928
      }
    },
    {
      "type": "Feature",
      "geometry": {
        "type": "Point",
        "coordinates": [
          -122.1932730076744,
          39.43613508130372
        ]
      },
      "properties": {
        "speed": 37.63823345746965
      }
    },
    {
      "type": "Feature",
      "geometry": {
        "type": "Point",
        "coordinates": [
          -122.1956712002562,
          39.4678691733455
        ]
      },
      "properties": {
        "speed": 33.45569485406472
      }
    },
    {
      "type": "Feature",
      "geometry": {
        "type": "Point",
        "coordinates": [
          -122.19845574369106,
          39.498228041516235
        ]
      },
      "properties": {
        "speed": 36.631009851938536
      }
    },
    {
      "type": "Feature",
      "geometry": {
        "type": "Point",
        "coordinates": [
          -122.21403134627457,
          39.52326010459108
        ]
      },
      "properties": {
        "speed": 20.4715856357092
      }
    },
    {
      "type": "Feature",
      "geometry": {
        "type": "Point",
        "coordinates": [
          -122.2224358424252,
          39.52426932358669
        ]
      },
      "properties": {
        "speed": 27.2804181990797
      }
    },
    {
      "type": "Feature",
      "geometry": {
        "type": "Point",
        "coordinates": [
          -122.25952790629943,
          39.52415484436324
        ]
      },
      "properties": {
        "speed": 30.580268411405335
      }
    },
    {
      "type": "Feature",
      "geometry": {
        "type": "Point",
        "coordinates": [
          -122.29461672746027,
          39.524157335529885
        ]
      },
      "properties": {
        "speed": 29.957792428110725
      }
    },
    {
      "type": "Feature",
      "geometry": {
        "type": "Point",
        "coordinates": [
          -122.3255151319999,
          39.5311303100112
        ]
      },
      "properties": {
        "speed": 28.875665504913655
      }
    },
    {
      "type": "Feature",
      "geometry": {
        "type": "Point",
        "coordinates": [
          -122.3323457502968,
          39.5363377640392
        ]
      },
      "properties": {
        "speed": 0
      }
    }
  ]
}