{
  "type": "FeatureCollection",
  "features": [
    {
      "type": "Feature",
      "geometry": {
        "type": "Point",
        "coordinates": [
          -122.47214893142632,
          37.779370974019145
        ]
      },
      "properties": {
        "speed": 12.830476864594939
      }
    },
    {
      "type": "Feature",
      "geometry": {
        "type": "Point",
        "coordinates": [
          -122.46956741231138,
          37.79321799852094
        ]
      },
      "properties": {
        "speed": 23.09636361913366
      }
    },
    {
      "type": "Feature",
      "geometry": {
        "type": "Point",
        "coordinates": [
          -122.47741414807908,
          37.810067621697094
        ]
      },
      "properties": {
        "speed": 24.30549610664572
      }
    },
    {
      "type": "Feature",
      "geometry": {
        "type": "Point",
        "coordinates": [
          -122.47975328579228,
          37.83056280445763
        ]
      },
      "properties": {
        "speed": 19.766388624644296
      }
    },
    {
      "type": "Feature",
      "geometry": {
        "type": "Point",
        "coordinates": [
          -122.48782542055693,
          37.84769487132041
        ]
      },
      "properties": {
        "speed": 22.686980400000003
      }
    },
    {
      "type": "Feature",
      "geometry": {
        "type": "Point",
        "coordinates": [
          -122.50457118406639,
          37.86169169306773
        ]
      },
      "properties": {
        "speed": 22.245788002969537
      }
    },
    {
      "type": "Feature",
      "geometry": {
        "type": "Point",
        "coordinates": [
          -122.51653478507284,
          37.88195012406828
        ]
      },
      "properties": {
        "speed": 25.56154976309835
      }
    },
    {
      "type": "Feature",
      "geometry": {
        "type": "Point",
        "coordinates": [
          -122.51468315138759,
          37.90720838498999
        ]
      },
      "properties": {
        "speed": 25.982386250963103
      }
    },
    {
      "type": "Feature",
      "geometry": {
        "type": "Point",
        "coordinates": [
          -122.51567491536433,
          37.93050849012673
        ]
      },
      "properties": {
        "speed": 26.6481992
      }
    },
    {
      "type": "Feature",
      "geometry": {
        "type": "Point",
        "coordinates": [
          -122.50838279176752,
          37.95367222062899
        ]
      },
      "properties": {
        "speed": 27.695959624279126
      }
    },
    {
      "type": "Feature",
      "geometry": {
        "type": "Point",
        "coordinates": [
          -122.47156350827115,
          37.69821910179904
        ]
      },
      "properties": {
        "speed": 33.310001373291016
      }
    },
    {
      "type": "Feature",
      "geometry": {
        "type": "Point",
        "coordinates": [
          -122.46665469635839,
          37.67076457958496
        ]
      },
      "properties": {
        "speed": 33.57330013342825
      }
    },
    {
      "type": "Feature",
      "geometry": {
        "type": "Point",
        "coordinates": [
          -122.44970703663456,
          37.645426912231066
        ]
      },
      "properties": {
        "speed": 33.66119912331667
      }
    },
    {
      "type": "Feature",
      "geometry": {
        "type": "Point",
        "coordinates": [
          -122.47229220084611,
          37.7217348995525
        ]
      },
      "properties": {
        "speed": 0.5226906282808139
      }
    },
    {
      "type": "Feature",
      "geometry": {
        "type": "Point",
        "coordinates": [
          -122.47263467967994,
          37.71755217967994
        ]
      },
      "properties": {
        "speed": 0
      }
    },
    {
      "type": "Feature",
      "geometry": {
        "type": "Point",
        "coordinates": [
          -122.47158752204106,
          37.69918022862079
        ]
      },
      "properties": {
        "speed": 33.547705238904605
      }
    },
    {
      "type": "Feature",
      "geometry": {
        "type": "Point",
        "coordinates": [
          -122.46646923683372,
          37.670355394944174
        ]
      },
      "properties": {
        "speed": 34.33793166025614
      }
    },
    {
      "type": "Feature",
      "geometry": {
        "type": "Point",
        "coordinates": [
          -122.44912973254404,
          37.644872799132386
        ]
      },
      "properties": {
        "speed": 33.32950197589795
      }
    },
    {
      "type": "Feature",
      "geometry": {
        "type": "Point",
        "coordinates": [
          -122.42319419306045,
          37.63097703935584
        ]
      },
      "properties": {
        "speed": 43.117792755692015
      }
    },
    {
      "type": "Feature",
      "geometry": {
        "type": "Point",
        "coordinates": [
          -122.40014494384828,
          37.62128096751875
        ]
      },
      "properties": {
        "speed": 34.951004001058195
      }
    },
    {
      "type": "Feature",
      "geometry": {
        "type": "Point",
        "coordinates": [
          -122.37425404747887,
          37.598460634932145
        ]
      },
      "properties": {
        "speed": 32.750228313286954
      }
    },
    {
      "type": "Feature",
      "geometry": {
        "type": "Point",
        "coordinates": [
          -122.34191083921499,
          37.586897243219454
        ]
      },
      "properties": {
        "speed": 35.34908320090436
      }
    },
    {
      "type": "Feature",
      "geometry": {
        "type": "Point",
        "coordinates": [
          -122.3118602239887,
          37.5688615479007
        ]
      },
      "properties": {
        "speed": 35.17180584982756
      }
    },
    {
      "type": "Feature",
      "geometry": {
        "type": "Point",
        "coordinates": [
          -122.28739249820917,
          37.54379603562473
        ]
      },
      "properties": {
        "speed": 35.20641094207551
      }
    },
    {
      "type": "Feature",
      "geometry": {
        "type": "Point",
        "coordinates": [
          -122.26327104477733,
          37.52004730593057
        ]
      },
      "properties": {
        "speed": 31.601604508368464
      }
    },
    {
      "type": "Feature",
      "geometry": {
        "type": "Point",
        "coordinates": [
          -122.238040224574,
          37.49806718993162
        ]
      },
      "properties": {
        "speed": 29.321549828351884
      }
    },
    {
      "type": "Feature",
      "geometry": {
        "type": "Point",
        "coordinates": [
          -122.20722819358434,
          37.487628498809016
        ]
      },
      "properties": {
        "speed": 34.92023554892128
      }
    },
    {
      "type": "Feature",
      "geometry": {
        "type": "Point",
        "coordinates": [
          -122.17252839382667,
          37.47891873726351
        ]
      },
      "properties": {
        "speed": 31.895136421519577
      }
    },
    {
      "type": "Feature",
      "geometry": {
        "type": "Point",
        "coordinates": [
          -122.14069541558935,
          37.460267723947695
        ]
      },
      "properties": {
        "speed": 34.42497754582141
      }
    },
    {
      "type": "Feature",
      "geometry": {
        "type": "Point",
        "coordinates": [
          -122.11422934023399,
          37.44028019959581
        ]
      },
      "properties": {
        "speed": 34.74458615510512
      }
    },
    {
      "type": "Feature",
      "geometry": {
        "type": "Point",
        "coordinates": [
          -122.10230167437646,
          37.42194700571689
        ]
      },
      "properties": {
        "speed": 7.427606823858286
      }
    },
    {
      "type": "Feature",
      "geometry": {
        "type": "Point",
        "coordinates": [
          -122.4754163110257,
          37.73916672870974
        ]
      },
      "properties": {
        "speed": 11.4235997823388
      }
    },
    {
      "type": "Feature",
      "geometry": {
        "type": "Point",
        "coordinates": [
          -122.47930509407011,
          37.732654473117854
        ]
      },
      "properties": {
        "speed": 1.676042862258089
      }
    },
    {
      "type": "Feature",
      "geometry": {
        "type": "Point",
        "coordinates": [
          -122.47339778193454,
          37.71780381987826
        ]
      },
      "properties": {
        "speed": 2.7144965937186205
      }
    },
    {
      "type": "Feature",
      "geometry": {
        "type": "Point",
        "coordinates": [
          -122.47193106786031,
          37.712640207432884
        ]
      },
      "properties": {
        "speed": 4.8165112371155345
      }
    },
    {
      "type": "Feature",
      "geometry": {
        "type": "Point",
        "coordinates": [
          -122.46025801527442,
          37.71028721259471
        ]
      },
      "properties": {
        "speed": 14.92078460747691
      }
    },
    {
      "type": "Feature",
      "geometry": {
        "type": "Point",
        "coordinates": [
          -122.44808642185338,
          37.71994734282207
        ]
      },
      "properties": {
        "speed": 28.233403417763284
      }
    },
    {
      "type": "Feature",
      "geometry": {
        "type": "Point",
        "coordinates": [
          -122.44884820064895,
          37.73150654193922
        ]
      },
      "properties": {
        "speed": 8.537964980497707
      }
    },
    {
      "type": "Feature",
      "geometry": {
        "type": "Point",
        "coordinates": [
          -122.43635367891258,
          37.73148976167805
        ]
      },
      "properties": {
        "speed": 12.981804349066667
      }
    },
    {
      "type": "Feature",
      "geometry": {
        "type": "Point",
        "coordinates": [
          -122.40766277496624,
          37.7362790289279
        ]
      },
      "properties": {
        "speed": 28.156956627258698
      }
    },
    {
      "type": "Feature",
      "geometry": {
        "type": "Point",
        "coordinates": [
          -122.40482407143152,
          37.75831914754939
        ]
      },
      "properties": {
        "speed": 25.487493951772322
      }
    },
    {
      "type": "Feature",
      "geometry": {
        "type": "Point",
        "coordinates": [
          -122.39929105238816,
          37.779606187846014
        ]
      },
      "properties": {
        "speed": 29.144737918230543
      }
    },
    {
      "type": "Feature",
      "geometry": {
        "type": "Point",
        "coordinates": [
          -122.37935894464184,
          37.79685558185489
        ]
      },
      "properties": {
        "speed": 27.67979498435363
      }
    },
    {
      "type": "Feature",
      "geometry": {
        "type": "Point",
        "coordinates": [
          -122.35745606593535,
          37.81571486794484
        ]
      },
      "properties": {
        "speed": 28.50398493588653
      }
    },
    {
      "type": "Feature",
      "geometry": {
        "type": "Point",
        "coordinates": [
          -122.32672310239799,
          37.82198353732756
        ]
      },
      "properties": {
        "speed": 28.265201974219565
      }
    },
    {
      "type": "Feature",
      "geometry": {
        "type": "Point",
        "coordinates": [
          -122.29954890717293,
          37.828971234343754
        ]
      },
      "properties": {
        "speed": 28.423676774102955
      }
    },
    {
      "type": "Feature",
      "geometry": {
        "type": "Point",
        "coordinates": [
          -122.29894100322112,
          37.850017960347294
        ]
      },
      "properties": {
        "speed": 28.22037463397571
      }
    }
  ]
}