{
  "type": "FeatureCollection",
  "features": [
    {
      "type": "Feature",
      "geometry": {
        "type": "Point",
        "coordinates": [
          -121.75084684376087,
          38.54612104786139
        ]
      },
      "properties": {
        "speed": 11.672649623745086
      }
    },
    {
      "type": "Feature",
      "geometry": {
        "type": "Point",
        "coordinates": [
          -121.75198412711812,
          38.560861767921246
        ]
      },
      "properties": {
        "speed": 7.486256337394134
      }
    },
    {
      "type": "Feature",
      "geometry": {
        "type": "Point",
        "coordinates": [
          -121.7618861487776,
          38.5621555033243
        ]
      },
      "properties": {
        "speed": 5.367885098935858
      }
    },
    {
      "type": "Feature",
      "geometry": {
        "type": "Point",
        "coordinates": [
          -122.46255812589709,
          37.73665165820368
        ]
      },
      "properties": {
        "speed": 9.716615397554015
      }
    },
    {
      "type": "Feature",
      "geometry": {
        "type": "Point",
        "coordinates": [
          -122.45705094828766,
          37.73100014443772
        ]
      },
      "properties": {
        "speed": 12.91626993652425
      }
    },
    {
      "type": "Feature",
      "geometry": {
        "type": "Point",
        "coordinates": [
          -122.44868944095111,
          37.7316230215378
        ]
      },
      "properties": {
        "speed": 1.6993226123555583
      }
    },
    {
      "type": "Feature",
      "geometry": {
        "type": "Point",
        "coordinates": [
          -122.43709871419173,
          37.73158311167768
        ]
      },
      "properties": {
        "speed": 7.9936858584928965
      }
    },
    {
      "type": "Feature",
      "geometry": {
        "type": "Point",
        "coordinates": [
          -122.4160108147155,
          37.73192096681377
        ]
      },
      "properties": {
        "speed": 29.03838675500107
      }
    },
    {
      "type": "Feature",
      "geometry": {
        "type": "Point",
        "coordinates": [
          -122.40307341759184,
          37.75083567625496
        ]
      },
      "properties": {
        "speed": 25.739392681645775
      }
    },
    {
      "type": "Feature",
      "geometry": {
        "type": "Point",
        "coordinates": [
          -122.40524949957027,
          37.770144789753
        ]
      },
      "properties": {
        "speed": 20.82532844012345
      }
    },
    {
      "type": "Feature",
      "geometry": {
        "type": "Point",
        "coordinates": [
          -122.39222568807153,
          37.78513972843389
        ]
      },
      "properties": {
        "speed": 23.368250593470837
      }
    },
    {
      "type": "Feature",
      "geometry": {
        "type": "Point",
        "coordinates": [
          -122.37489968997308,
          37.800987732549075
        ]
      },
      "properties": {
        "speed": 23.269463443793104
      }
    },
    {
      "type": "Feature",
      "geometry": {
        "type": "Point",
        "coordinates": [
          -122.35372544453196,
          37.81761409663386
        ]
      },
      "properties": {
        "speed": 28.22754091590713
      }
    },
    {
      "type": "Feature",
      "geometry": {
        "type": "Point",
        "coordinates": [
          -122.32334965997991,
          37.822177806991824
        ]
      },
      "properties": {
        "speed": 27.801606838835838
      }
    },
    {
      "type": "Feature",
      "geometry": {
        "type": "Point",
        "coordinates": [
          -122.29505635451396,
          37.82747411157334
        ]
      },
      "properties": {
        "speed": 22.52760478220937
      }
    },
    {
      "type": "Feature",
      "geometry": {
        "type": "Point",
        "coordinates": [
          -122.29883256185633,
          37.84991332019053
        ]
      },
      "properties": {
        "speed": 28.97389633591215
      }
    },
    {
      "type": "Feature",
      "geometry": {
        "type": "Point",
        "coordinates": [
          -122.29776826984744,
          37.8679572800465
        ]
      },
      "properties": {
        "speed": 16.60950595180218
      }
    },
    {
      "type": "Feature",
      "geometry": {
        "type": "Point",
        "coordinates": [
          -122.28738967389621,
          37.869665968640305
        ]
      },
      "properties": {
        "speed": 10.733029104968944
      }
    },
    {
      "type": "Feature",
      "geometry": {
        "type": "Point",
        "coordinates": [
          -122.45821740026949,
          37.73249630929745
        ]
      },
      "properties": {
        "speed": 8.657286256288703
      }
    },
    {
      "type": "Feature",
      "geometry": {
        "type": "Point",
        "coordinates": [
          -122.44899539021685,
          37.731476691293544
        ]
      },
      "properties": {
        "speed": 1.7846236695661941
      }
    },
    {
      "type": "Feature",
      "geometry": {
        "type": "Point",
        "coordinates": [
          -122.43695821165889,
          37.731480037695704
        ]
      },
      "properties": {
        "speed": 0
      }
    },
    {
      "type": "Feature",
      "geometry": {
        "type": "Point",
        "coordinates": [
          -122.42390636306231,
          37.731400338241286
        ]
      },
      "properties": {
        "speed": 32.2556388
      }
    },
    {
      "type": "Feature",
      "geometry": {
        "type": "Point",
        "coordinates": [
          -122.40380848426541,
          37.74862149314162
        ]
      },
      "properties": {
        "speed": 28.7574196
      }
    },
    {
      "type": "Feature",
      "geometry": {
        "type": "Point",
        "coordinates": [
          -122.40569602665316,
          37.77093291341616
        ]
      },
      "properties": {
        "speed": 24.0908448438139
      }
    },
    {
      "type": "Feature",
      "geometry": {
        "type": "Point",
        "coordinates": [
          -122.38841802589056,
          37.78816777808939
        ]
      },
      "properties": {
        "speed": 29.44066290381244
      }
    },
    {
      "type": "Feature",
      "geometry": {
        "type": "Point",
        "coordinates": [
          -122.36709256076276,
          37.80813113055
        ]
      },
      "properties": {
        "speed": 31.5868616
      }
    },
    {
      "type": "Feature",
      "geometry": {
        "type": "Point",
        "coordinates": [
          -122.33927817612197,
          37.82038866511936
        ]
      },
      "properties": {
        "speed": 27.549576850831215
      }
    },
    {
      "type": "Feature",
      "geometry": {
        "type": "Point",
        "coordinates": [
          -122.30877808276263,
          37.82462114314928
        ]
      },
      "properties": {
        "speed": 24.08993006536691
      }
    },
    {
      "type": "Feature",
      "geometry": {
        "type": "Point",
        "coordinates": [
          -122.29644688720366,
          37.83805712569074
        ]
      },
      "properties": {
        "speed": 24.811465559968823
      }
    },
    {
      "type": "Feature",
      "geometry": {
        "type": "Point",
        "coordinates": [
          -122.3024874312,
          37.862920579986955
        ]
      },
      "properties": {
        "speed": 27.169112355245296
      }
    },
    {
      "type": "Feature",
      "geometry": {
        "type": "Point",
        "coordinates": [
          -122.29205580857916,
          37.86907083097978
        ]
      },
      "properties": {
        "speed": 9.678563152808092
      }
    },
    {
      "type": "Feature",
      "geometry": {
        "type": "Point",
        "coordinates": [
          -122.45067479692551,
          37.73152261704913
        ]
      },
      "properties": {
        "speed": 11.312383966717826
      }
    },
    {
      "type": "Feature",
      "geometry": {
        "type": "Point",
        "coordinates": [
          -122.43956577087461,
          37.731550884900514
        ]
      },
      "properties": {
        "speed": 8.417725997204048
      }
    },
    {
      "type": "Feature",
      "geometry": {
        "type": "Point",
        "coordinates": [
          -122.43184838578867,
          37.73208829211229
        ]
      },
      "properties": {
        "speed": 26.944437682449426
      }
    },
    {
      "type": "Feature",
      "geometry": {
        "type": "Point",
        "coordinates": [
          -122.40613132556574,
          37.743276713394636
        ]
      },
      "properties": {
        "speed": 28.091665311401677
      }
    },
    {
      "type": "Feature",
      "geometry": {
        "type": "Point",
        "coordinates": [
          -122.40488571775983,
          37.766298108270604
        ]
      },
      "properties": {
        "speed": 25.15630597943982
      }
    },
    {
      "type": "Feature",
      "geometry": {
        "type": "Point",
        "coordinates": [
          -122.3933607141253,
          37.784456794526804
        ]
      },
      "properties": {
        "speed": 25.364990433112368
      }
    },
    {
      "type": "Feature",
      "geometry": {
        "type": "Point",
        "coordinates": [
          -122.37228279287807,
          37.80341018066129
        ]
      },
      "properties": {
        "speed": 30.957147856244468
      }
    },
    {
      "type": "Feature",
      "geometry": {
        "type": "Point",
        "coordinates": [
          -122.34611024634985,
          37.819393982842726
        ]
      },
      "properties": {
        "speed": 27.928125824815123
      }
    },
    {
      "type": "Feature",
      "geometry": {
        "type": "Point",
        "coordinates": [
          -122.31486747751246,
          37.8236938326245
        ]
      },
      "properties": {
        "speed": 27.363915127184256
      }
    },
    {
      "type": "Feature",
      "geometry": {
        "type": "Point",
        "coordinates": [
          -122.29393317002851,
          37.83330690537607
        ]
      },
      "properties": {
        "speed": 27.5850292640805
      }
    },
    {
      "type": "Feature",
      "geometry": {
        "type": "Point",
        "coordinates": [
          -122.30104507902315,
          37.857908310521864
        ]
      },
      "properties": {
        "speed": 26.74708804624588
      }
    },
    {
      "type": "Feature",
      "geometry": {
        "type": "Point",
        "coordinates": [
          -122.2948951385928,
          37.868514489168604
        ]
      },
      "properties": {
        "speed": 15.9992084
      }
    },
    {
      "type": "Feature",
      "geometry": {
        "type": "Point",
        "coordinates": [
          -122.2819967665839,
          37.870318741026985
        ]
      },
      "properties": {
        "speed": 3.393139133898188
      }
    }
  ]
}