{
  "type": "FeatureCollection",
  "features": [
    {
      "type": "Feature",
      "geometry": {
        "type": "Point",
        "coordinates": [
          -122.47924379366165,
          37.825289918789395
        ]
      },
      "properties": {
        "speed": 6.168952233467964
      }
    },
    {
      "type": "Feature",
      "geometry": {
        "type": "Point",
        "coordinates": [
          -122.47813348817164,
          37.81576098973201
        ]
      },
      "properties": {
        "speed": 13.60072401786205
      }
    },
    {
      "type": "Feature",
      "geometry": {
        "type": "Point",
        "coordinates": [
          -122.47215094009776,
          37.787974932147684
        ]
      },
      "properties": {
        "speed": 10.366388954214598
      }
    },
    {
      "type": "Feature",
      "geometry": {
        "type": "Point",
        "coordinates": [
          -122.47943290188738,
          37.771798161912606
        ]
      },
      "properties": {
        "speed": 6.631645636975058
      }
    },
    {
      "type": "Feature",
      "geometry": {
        "type": "Point",
        "coordinates": [
          -122.47842422909764,
          37.76870806412027
        ]
      },
      "properties": {
        "speed": 3.9238143672748995
      }
    },
    {
      "type": "Feature",
      "geometry": {
        "type": "Point",
        "coordinates": [
          -122.47609696949569,
          37.74852630906155
        ]
      },
      "properties": {
        "speed": 8.959530823163544
      }
    },
    {
      "type": "Feature",
      "geometry": {
        "type": "Point",
        "coordinates": [
          -122.47574587518825,
          37.743539494356746
        ]
      },
      "properties": {
        "speed": 0
      }
    },
    {
      "type": "Feature",
      "geometry": {
        "type": "Point",
        "coordinates": [
          -122.47548963850402,
          37.739499018087564
        ]
      },
      "properties": {
        "speed": 0
      }
    },
    {
      "type": "Feature",
      "geometry": {
        "type": "Point",
        "coordinates": [
          -122.47531541202116,
          37.73649708301799
        ]
      },
      "properties": {
        "speed": 2.9077199265598024
      }
    },
    {
      "type": "Feature",
      "geometry": {
        "type": "Point",
        "coordinates": [
          -122.47527868208779,
          37.73589238970063
        ]
      },
      "properties": {
        "speed": 0
      }
    },
    {
      "type": "Feature",
      "geometry": {
        "type": "Point",
        "coordinates": [
          -121.79619218868493,
          38.49572462439285
        ]
      },
      "properties": {
        "speed": 14.56288647637314
      }
    },
    {
      "type": "Feature",
      "geometry": {
        "type": "Point",
        "coordinates": [
          -121.81580223897893,
          38.47939946111036
        ]
      },
      "properties": {
        "speed": 30.204323047494636
      }
    },
    {
      "type": "Feature",
      "geometry": {
        "type": "Point",
        "coordinates": [
          -121.83673358451775,
          38.46305757037959
        ]
      },
      "properties": {
        "speed": 20.859541387657405
      }
    },
    {
      "type": "Feature",
      "geometry": {
        "type": "Point",
        "coordinates": [
          -121.8489796265148,
          38.45354249948207
        ]
      },
      "properties": {
        "speed": 16.365319671417073
      }
    },
    {
      "type": "Feature",
      "geometry": {
        "type": "Point",
        "coordinates": [
          -121.86803515469421,
          38.43870838947099
        ]
      },
      "properties": {
        "speed": 30.29403284145331
      }
    },
    {
      "type": "Feature",
      "geometry": {
        "type": "Point",
        "coordinates": [
          -121.89276272845635,
          38.41989960875763
        ]
      },
      "properties": {
        "speed": 25.384295397156183
      }
    },
    {
      "type": "Feature",
      "geometry": {
        "type": "Point",
        "coordinates": [
          -121.90877217959437,
          38.40771292542724
        ]
      },
      "properties": {
        "speed": 26.43304960898845
      }
    },
    {
      "type": "Feature",
      "geometry": {
        "type": "Point",
        "coordinates": [
          -121.9326996992298,
          38.38918108789734
        ]
      },
      "properties": {
        "speed": 33.692838960251706
      }
    },
    {
      "type": "Feature",
      "geometry": {
        "type": "Point",
        "coordinates": [
          -121.95573666425604,
          38.37142857805503
        ]
      },
      "properties": {
        "speed": 21.86439985851897
      }
    },
    {
      "type": "Feature",
      "geometry": {
        "type": "Point",
        "coordinates": [
          -121.96719973591824,
          38.36290188222759
        ]
      },
      "properties": {
        "speed": 10.644618683096285
      }
    },
    {
      "type": "Feature",
      "geometry": {
        "type": "Point",
        "coordinates": [
          -121.98382517409074,
          38.3516614020484
        ]
      },
      "properties": {
        "speed": 18.895228753083824
      }
    },
    {
      "type": "Feature",
      "geometry": {
        "type": "Point",
        "coordinates": [
          -122.00326954639335,
          38.344095840054436
        ]
      },
      "properties": {
        "speed": 22.662845036068873
      }
    },
    {
      "type": "Feature",
      "geometry": {
        "type": "Point",
        "coordinates": [
          -122.02245998872836,
          38.32778777490912
        ]
      },
      "properties": {
        "speed": 25.176230555319325
      }
    },
    {
      "type": "Feature",
      "geometry": {
        "type": "Point",
        "coordinates": [
          -122.03359653759085,
          38.30918434377741
        ]
      },
      "properties": {
        "speed": 29.52058622722759
      }
    },
    {
      "type": "Feature",
      "geometry": {
        "type": "Point",
        "coordinates": [
          -122.0410329405857,
          38.283770835355384
        ]
      },
      "properties": {
        "speed": 29.84518824250951
      }
    },
    {
      "type": "Feature",
      "geometry": {
        "type": "Point",
        "coordinates": [
          -122.06007554407927,
          38.261294584609686
        ]
      },
      "properties": {
        "speed": 28.553701877814017
      }
    },
    {
      "type": "Feature",
      "geometry": {
        "type": "Point",
        "coordinates": [
          -122.28706158358258,
          38.11793767470624
        ]
      },
      "properties": {
        "speed": 3.351549381421582
      }
    },
    {
      "type": "Feature",
      "geometry": {
        "type": "Point",
        "coordinates": [
          -122.29000648443798,
          38.117489087605954
        ]
      },
      "properties": {
        "speed": 2.8797630412525552
      }
    },
    {
      "type": "Feature",
      "geometry": {
        "type": "Point",
        "coordinates": [
          -122.29215385830203,
          38.11745891348609
        ]
      },
      "properties": {
        "speed": 1.73721081920301
      }
    },
    {
      "type": "Feature",
      "geometry": {
        "type": "Point",
        "coordinates": [
          -122.32879298233092,
          38.12868889546763
        ]
      },
      "properties": {
        "speed": 22.6672290082734
      }
    },
    {
      "type": "Feature",
      "geometry": {
        "type": "Point",
        "coordinates": [
          -122.35290025210533,
          38.13787629982314
        ]
      },
      "properties": {
        "speed": 21.62247174113372
      }
    },
    {
      "type": "Feature",
      "geometry": {
        "type": "Point",
        "coordinates": [
          -122.37743572176875,
          38.147086659301195
        ]
      },
      "properties": {
        "speed": 14.187807546790301
      }
    },
    {
      "type": "Feature",
      "geometry": {
        "type": "Point",
        "coordinates": [
          -122.38770787515685,
          38.15173294746422
        ]
      },
      "properties": {
        "speed": 12.126969317223244
      }
    },
    {
      "type": "Feature",
      "geometry": {
        "type": "Point",
        "coordinates": [
          -122.41108481037166,
          38.15586295478527
        ]
      },
      "properties": {
        "speed": 21.00132486083128
      }
    },
    {
      "type": "Feature",
      "geometry": {
        "type": "Point",
        "coordinates": [
          -122.43595045765805,
          38.153535408515175
        ]
      },
      "properties": {
        "speed": 22.733853082419888
      }
    },
    {
      "type": "Feature",
      "geometry": {
        "type": "Point",
        "coordinates": [
          -122.4597555130428,
          38.144150668601014
        ]
      },
      "properties": {
        "speed": 26.760242626534964
      }
    },
    {
      "type": "Feature",
      "geometry": {
        "type": "Point",
        "coordinates": [
          -122.47575781452332,
          38.13452742849395
        ]
      },
      "properties": {
        "speed": 7.792224081665335
      }
    },
    {
      "type": "Feature",
      "geometry": {
        "type": "Point",
        "coordinates": [
          -122.49969127149055,
          38.12006439210631
        ]
      },
      "properties": {
        "speed": 31.064730218698383
      }
    },
    {
      "type": "Feature",
      "geometry": {
        "type": "Point",
        "coordinates": [
          -122.51868025103101,
          38.09984089066755
        ]
      },
      "properties": {
        "speed": 28.413706644987727
      }
    },
    {
      "type": "Feature",
      "geometry": {
        "type": "Point",
        "coordinates": [
          -122.54327001707392,
          38.08195099867671
        ]
      },
      "properties": {
        "speed": 27.840489927330623
      }
    },
    {
      "type": "Feature",
      "geometry": {
        "type": "Point",
        "coordinates": [
          -122.53349117613331,
          38.06167396294819
        ]
      },
      "properties": {
        "speed": 31.878184868902476
      }
    },
    {
      "type": "Feature",
      "geometry": {
        "type": "Point",
        "coordinates": [
          -122.53716028825197,
          38.03398224235046
        ]
      },
      "properties": {
        "speed": 34.509601389462226
      }
    },
    {
      "type": "Feature",
      "geometry": {
        "type": "Point",
        "coordinates": [
          -122.54003867846903,
          38.00475120380207
        ]
      },
      "properties": {
        "speed": 34.428065508696264
      }
    },
    {
      "type": "Feature",
      "geometry": {
        "type": "Point",
        "coordinates": [
          -122.5210377261518,
          37.97958376949702
        ]
      },
      "properties": {
        "speed": 33.01621619041723
      }
    },
    {
      "type": "Feature",
      "geometry": {
        "type": "Point",
        "coordinates": [
          -122.50901787704554,
          37.95716266220079
        ]
      },
      "properties": {
        "speed": 28.633849411835016
      }
    },
    {
      "type": "Feature",
      "geometry": {
        "type": "Point",
        "coordinates": [
          -122.51603488639617,
          37.93139306184928
        ]
      },
      "properties": {
        "speed": 29.639999389648438
      }
    },
    {
      "type": "Feature",
      "geometry": {
        "type": "Point",
        "coordinates": [
          -122.51559232075336,
          37.904692291809276
        ]
      },
      "properties": {
        "speed": 35.63135625223314
      }
    },
    {
      "type": "Feature",
      "geometry": {
        "type": "Point",
        "coordinates": [
          -122.51365766291089,
          37.877818964962636
        ]
      },
      "properties": {
        "speed": 30.765960277210482
      }
    },
    {
      "type": "Feature",
      "geometry": {
        "type": "Point",
        "coordinates": [
          -122.49804823137471,
          37.85711144088659
        ]
      },
      "properties": {
        "speed": 27.388178100308156
      }
    },
    {
      "type": "Feature",
      "geometry": {
        "type": "Point",
        "coordinates": [
          -122.42778739729081,
          37.755049254571894
        ]
      },
      "properties": {
        "speed": 3.1818045508592463
      }
    },
    {
      "type": "Feature",
      "geometry": {
        "type": "Point",
        "coordinates": [
          -122.42736402028657,
          37.74993133845927
        ]
      },
      "properties": {
        "speed": 8.957436127894416
      }
    },
    {
      "type": "Feature",
      "geometry": {
        "type": "Point",
        "coordinates": [
          -122.43577927302414,
          37.74881493220087
        ]
      },
      "properties": {
        "speed": 4.845627626526916
      }
    },
    {
      "type": "Feature",
      "geometry": {
        "type": "Point",
        "coordinates": [
          -122.44471924487092,
          37.74682216907047
        ]
      },
      "properties": {
        "speed": 2.6866517125481164
      }
    },
    {
      "type": "Feature",
      "geometry": {
        "type": "Point",
        "coordinates": [
          -122.45110264536112,
          37.74586728849186
        ]
      },
      "properties": {
        "speed": 4.978281003463059
      }
    },
    {
      "type": "Feature",
      "geometry": {
        "type": "Point",
        "coordinates": [
          -122.45656663357475,
          37.741565075571955
        ]
      },
      "properties": {
        "speed": 15.30425353930287
      }
    }
  ]
}