{
  "type": "FeatureCollection",
  "features": [
    {
      "type": "Feature",
      "geometry": {
        "type": "Point",
        "coordinates": [
          -122.48452112738406,
          37.83522895723053
        ]
      },
      "properties": {
        "speed": 6.780662185635584
      }
    },
    {
      "type": "Feature",
      "geometry": {
        "type": "Point",
        "coordinates": [
          -122.48099211146777,
          37.83240610231211
        ]
      },
      "properties": {
        "speed": 2.298508925121805
      }
    },
    {
      "type": "Feature",
      "geometry": {
        "type": "Point",
        "coordinates": [
          -122.47240442848687,
          37.78742845068691
        ]
      },
      "properties": {
        "speed": 1.8728592356242775
      }
    },
    {
      "type": "Feature",
      "geometry": {
        "type": "Point",
        "coordinates": [
          -122.47267725805139,
          37.78466107318035
        ]
      },
      "properties": {
        "speed": 0
      }
    },
    {
      "type": "Feature",
      "geometry": {
        "type": "Point",
        "coordinates": [
          -122.47240194941165,
          37.781020829916834
        ]
      },
      "properties": {
        "speed": 0.17940610548232755
      }
    },
    {
      "type": "Feature",
      "geometry": {
        "type": "Point",
        "coordinates": [
          -122.4724067372444,
          37.772352705014235
        ]
      },
      "properties": {
        "speed": 15.420113260874455
      }
    },
    {
      "type": "Feature",
      "geometry": {
        "type": "Point",
        "coordinates": [
          -122.4776606262871,
          37.76669814720542
        ]
      },
      "properties": {
        "speed": 0.004881935069908444
      }
    },
    {
      "type": "Feature",
      "geometry": {
        "type": "Point",
        "coordinates": [
          -122.47693140875342,
          37.76030418704237
        ]
      },
      "properties": {
        "speed": 4.269751730400303
      }
    },
    {
      "type": "Feature",
      "geometry": {
        "type": "Point",
        "coordinates": [
          -122.47635949308231,
          37.75228466714562
        ]
      },
      "properties": {
        "speed": 14.365082300384517
      }
    },
    {
      "type": "Feature",
      "geometry": {
        "type": "Point",
        "coordinates": [
          -122.47591823979981,
          37.74585184224783
        ]
      },
      "properties": {
        "speed": 16.51110896179352
      }
    },
    {
      "type": "Feature",
      "geometry": {
        "type": "Point",
        "coordinates": [
          -122.47660576669234,
          37.74078252152229
        ]
      },
      "properties": {
        "speed": 10.397915914538924
      }
    },
    {
      "type": "Feature",
      "geometry": {
        "type": "Point",
        "coordinates": [
          -122.47548209489432,
          37.73932725337375
        ]
      },
      "properties": {
        "speed": 7.39337917440518
      }
    }
  ]
}