{
  "type": "FeatureCollection",
  "features": [
    {
      "type": "Feature",
      "geometry": {
        "type": "Point",
        "coordinates": [
          -122.47695518333333,
          37.76124193333333
        ]
      },
      "properties": {
        "speed": 0
      }
    },
    {
      "type": "Feature",
      "geometry": {
        "type": "Point",
        "coordinates": [
          -122.47725548084348,
          37.765292380683206
        ]
      },
      "properties": {
        "speed": 1.7806387430537591
      }
    },
    {
      "type": "Feature",
      "geometry": {
        "type": "Point",
        "coordinates": [
          -122.4716956422692,
          37.77282842993053
        ]
      },
      "properties": {
        "speed": 6.014587535213826
      }
    },
    {
      "type": "Feature",
      "geometry": {
        "type": "Point",
        "coordinates": [
          -122.47223358333333,
          37.78046333333333
        ]
      },
      "properties": {
        "speed": 0
      }
    },
    {
      "type": "Feature",
      "geometry": {
        "type": "Point",
        "coordinates": [
          -122.47148502198534,
          37.78873858502706
        ]
      },
      "properties": {
        "speed": 19.59647527087178
      }
    },
    {
      "type": "Feature",
      "geometry": {
        "type": "Point",
        "coordinates": [
          -122.47264340466845,
          37.80495524296708
        ]
      },
      "properties": {
        "speed": 18.532344025914327
      }
    },
    {
      "type": "Feature",
      "geometry": {
        "type": "Point",
        "coordinates": [
          -122.47860002159557,
          37.82090547262092
        ]
      },
      "properties": {
        "speed": 19.62508744984252
      }
    },
    {
      "type": "Feature",
      "geometry": {
        "type": "Point",
        "coordinates": [
          -122.48677338870377,
          37.83956433487664
        ]
      },
      "properties": {
        "speed": 26.205188562987768
      }
    },
    {
      "type": "Feature",
      "geometry": {
        "type": "Point",
        "coordinates": [
          -122.50002283074765,
          37.858659746291465
        ]
      },
      "properties": {
        "speed": 29.148551809415586
      }
    },
    {
      "type": "Feature",
      "geometry": {
        "type": "Point",
        "coordinates": [
          -122.51659159308498,
          37.88282378943127
        ]
      },
      "properties": {
        "speed": 32.91941722615168
      }
    },
    {
      "type": "Feature",
      "geometry": {
        "type": "Point",
        "coordinates": [
          -122.51297926091789,
          37.91116542461994
        ]
      },
      "properties": {
        "speed": 30.13597997381029
      }
    },
    {
      "type": "Feature",
      "geometry": {
        "type": "Point",
        "coordinates": [
          -122.5163990302239,
          37.938839766485636
        ]
      },
      "properties": {
        "speed": 31.794310423108662
      }
    },
    {
      "type": "Feature",
      "geometry": {
        "type": "Point",
        "coordinates": [
          -122.51210604694685,
          37.963707576017086
        ]
      },
      "properties": {
        "speed": 24.826989650915547
      }
    },
    {
      "type": "Feature",
      "geometry": {
        "type": "Point",
        "coordinates": [
          -122.52370701083166,
          37.98487198109124
        ]
      },
      "properties": {
        "speed": 32.11315878665969
      }
    },
    {
      "type": "Feature",
      "geometry": {
        "type": "Point",
        "coordinates": [
          -122.54187244963711,
          38.00836286356008
        ]
      },
      "properties": {
        "speed": 32.06064471998689
      }
    },
    {
      "type": "Feature",
      "geometry": {
        "type": "Point",
        "coordinates": [
          -122.53651946737523,
          38.03600842688635
        ]
      },
      "properties": {
        "speed": 28.911752800000002
      }
    },
    {
      "type": "Feature",
      "geometry": {
        "type": "Point",
        "coordinates": [
          -122.53321627167227,
          38.06175971870485
        ]
      },
      "properties": {
        "speed": 31.667117123012076
      }
    },
    {
      "type": "Feature",
      "geometry": {
        "type": "Point",
        "coordinates": [
          -122.53907066669312,
          38.08410499443001
        ]
      },
      "properties": {
        "speed": 28.28263065322259
      }
    },
    {
      "type": "Feature",
      "geometry": {
        "type": "Point",
        "coordinates": [
          -122.51313947489149,
          38.104079500285906
        ]
      },
      "properties": {
        "speed": 35.26051327497054
      }
    },
    {
      "type": "Feature",
      "geometry": {
        "type": "Point",
        "coordinates": [
          -122.48875228264934,
          38.12651714242785
        ]
      },
      "properties": {
        "speed": 31.717410284532946
      }
    },
    {
      "type": "Feature",
      "geometry": {
        "type": "Point",
        "coordinates": [
          -122.4729141062418,
          38.13603404857924
        ]
      },
      "properties": {
        "speed": 23.630469798683976
      }
    },
    {
      "type": "Feature",
      "geometry": {
        "type": "Point",
        "coordinates": [
          -122.45058033700958,
          38.15029430496132
        ]
      },
      "properties": {
        "speed": 22.871970535138605
      }
    },
    {
      "type": "Feature",
      "geometry": {
        "type": "Point",
        "coordinates": [
          -122.42671206324069,
          38.15438328533191
        ]
      },
      "properties": {
        "speed": 23.80597776031019
      }
    },
    {
      "type": "Feature",
      "geometry": {
        "type": "Point",
        "coordinates": [
          -122.39777978922427,
          38.15388216164301
        ]
      },
      "properties": {
        "speed": 26.722594035979885
      }
    },
    {
      "type": "Feature",
      "geometry": {
        "type": "Point",
        "coordinates": [
          -122.37188953333191,
          38.14478328683013
        ]
      },
      "properties": {
        "speed": 25.104867199999997
      }
    },
    {
      "type": "Feature",
      "geometry": {
        "type": "Point",
        "coordinates": [
          -122.34645994779456,
          38.13528863641211
        ]
      },
      "properties": {
        "speed": 24.837231802279124
      }
    },
    {
      "type": "Feature",
      "geometry": {
        "type": "Point",
        "coordinates": [
          -122.32155989909754,
          38.12567314494162
        ]
      },
      "properties": {
        "speed": 23.391381441106564
      }
    },
    {
      "type": "Feature",
      "geometry": {
        "type": "Point",
        "coordinates": [
          -122.29623282404305,
          38.11739259717188
        ]
      },
      "properties": {
        "speed": 24.46422764152089
      }
    },
    {
      "type": "Feature",
      "geometry": {
        "type": "Point",
        "coordinates": [
          -122.26498462776108,
          38.129637852896906
        ]
      },
      "properties": {
        "speed": 34.5191924
      }
    },
    {
      "type": "Feature",
      "geometry": {
        "type": "Point",
        "coordinates": [
          -122.2357805658402,
          38.14126250012904
        ]
      },
      "properties": {
        "speed": 30.250668709920348
      }
    },
    {
      "type": "Feature",
      "geometry": {
        "type": "Point",
        "coordinates": [
          -122.21461664271722,
          38.15505927433827
        ]
      },
      "properties": {
        "speed": 33.62256039645772
      }
    },
    {
      "type": "Feature",
      "geometry": {
        "type": "Point",
        "coordinates": [
          -122.18940909317469,
          38.17842682142658
        ]
      },
      "properties": {
        "speed": 34.38690894081056
      }
    },
    {
      "type": "Feature",
      "geometry": {
        "type": "Point",
        "coordinates": [
          -122.16309851570891,
          38.196751683109454
        ]
      },
      "properties": {
        "speed": 30.289649298022937
      }
    },
    {
      "type": "Feature",
      "geometry": {
        "type": "Point",
        "coordinates": [
          -122.13718625999478,
          38.21716116456242
        ]
      },
      "properties": {
        "speed": 34.04317311732629
      }
    },
    {
      "type": "Feature",
      "geometry": {
        "type": "Point",
        "coordinates": [
          -122.10712437299262,
          38.233418960221314
        ]
      },
      "properties": {
        "speed": 33.309836866403096
      }
    },
    {
      "type": "Feature",
      "geometry": {
        "type": "Point",
        "coordinates": [
          -122.07335219658295,
          38.24758272563249
        ]
      },
      "properties": {
        "speed": 33.89110840007798
      }
    },
    {
      "type": "Feature",
      "geometry": {
        "type": "Point",
        "coordinates": [
          -122.05262504425042,
          38.269784406704716
        ]
      },
      "properties": {
        "speed": 32.05994778307418
      }
    },
    {
      "type": "Feature",
      "geometry": {
        "type": "Point",
        "coordinates": [
          -122.03399306061058,
          38.2931172301583
        ]
      },
      "properties": {
        "speed": 29.36860407444619
      }
    },
    {
      "type": "Feature",
      "geometry": {
        "type": "Point",
        "coordinates": [
          -122.02789176957087,
          38.32000181261899
        ]
      },
      "properties": {
        "speed": 30.8151956
      }
    },
    {
      "type": "Feature",
      "geometry": {
        "type": "Point",
        "coordinates": [
          -122.00829690407905,
          38.342351104041256
        ]
      },
      "properties": {
        "speed": 29.32853179106908
      }
    },
    {
      "type": "Feature",
      "geometry": {
        "type": "Point",
        "coordinates": [
          -121.9783910939352,
          38.354361466354156
        ]
      },
      "properties": {
        "speed": 30.332866099470667
      }
    },
    {
      "type": "Feature",
      "geometry": {
        "type": "Point",
        "coordinates": [
          -121.95381218479726,
          38.372751537035995
        ]
      },
      "properties": {
        "speed": 28.777737942473497
      }
    },
    {
      "type": "Feature",
      "geometry": {
        "type": "Point",
        "coordinates": [
          -121.92992319776747,
          38.391082318705074
        ]
      },
      "properties": {
        "speed": 29.382199098040793
      }
    },
    {
      "type": "Feature",
      "geometry": {
        "type": "Point",
        "coordinates": [
          -121.90680622137937,
          38.40897202766086
        ]
      },
      "properties": {
        "speed": 27.871538041338262
      }
    },
    {
      "type": "Feature",
      "geometry": {
        "type": "Point",
        "coordinates": [
          -121.88309105939709,
          38.42705441254836
        ]
      },
      "properties": {
        "speed": 28.799394380543617
      }
    },
    {
      "type": "Feature",
      "geometry": {
        "type": "Point",
        "coordinates": [
          -121.85954748448903,
          38.44510638633862
        ]
      },
      "properties": {
        "speed": 28.560709376857123
      }
    },
    {
      "type": "Feature",
      "geometry": {
        "type": "Point",
        "coordinates": [
          -121.83540267386994,
          38.46390347588519
        ]
      },
      "properties": {
        "speed": 31.688996869450598
      }
    },
    {
      "type": "Feature",
      "geometry": {
        "type": "Point",
        "coordinates": [
          -121.8095250354496,
          38.48419988630848
        ]
      },
      "properties": {
        "speed": 28.169560612998325
      }
    },
    {
      "type": "Feature",
      "geometry": {
        "type": "Point",
        "coordinates": [
          -121.78273436173106,
          38.5078601333161
        ]
      },
      "properties": {
        "speed": 33.14448622411617
      }
    },
    {
      "type": "Feature",
      "geometry": {
        "type": "Point",
        "coordinates": [
          -121.76843878555489,
          38.53298674189159
        ]
      },
      "properties": {
        "speed": 35.66419079509298
      }
    },
    {
      "type": "Feature",
      "geometry": {
        "type": "Point",
        "coordinates": [
          -121.76726091291897,
          38.55999475666833
        ]
      },
      "properties": {
        "speed": 14.628982817223282
      }
    },
    {
      "type": "Feature",
      "geometry": {
        "type": "Point",
        "coordinates": [
          -122.45846874729368,
          37.73255986969671
        ]
      },
      "properties": {
        "speed": 6.687427825844806
      }
    },
    {
      "type": "Feature",
      "geometry": {
        "type": "Point",
        "coordinates": [
          -122.44914560942824,
          37.73151667567005
        ]
      },
      "properties": {
        "speed": 6.69569918642416
      }
    },
    {
      "type": "Feature",
      "geometry": {
        "type": "Point",
        "coordinates": [
          -122.4390696018706,
          37.73160868432644
        ]
      },
      "properties": {
        "speed": 11.87499801358244
      }
    },
    {
      "type": "Feature",
      "geometry": {
        "type": "Point",
        "coordinates": [
          -122.43198272375547,
          37.73201541373026
        ]
      },
      "properties": {
        "speed": 24.85616420879527
      }
    },
    {
      "type": "Feature",
      "geometry": {
        "type": "Point",
        "coordinates": [
          -122.40216358466573,
          37.73755283420353
        ]
      },
      "properties": {
        "speed": 23.87084452371325
      }
    },
    {
      "type": "Feature",
      "geometry": {
        "type": "Point",
        "coordinates": [
          -122.39214393248885,
          37.756061944554745
        ]
      },
      "properties": {
        "speed": 24.420629678083092
      }
    },
    {
      "type": "Feature",
      "geometry": {
        "type": "Point",
        "coordinates": [
          -122.39784281937999,
          37.772676288988244
        ]
      },
      "properties": {
        "speed": 21.766171964203924
      }
    },
    {
      "type": "Feature",
      "geometry": {
        "type": "Point",
        "coordinates": [
          -122.39491110234748,
          37.775488178421035
        ]
      },
      "properties": {
        "speed": 2.3615766356014425
      }
    },
    {
      "type": "Feature",
      "geometry": {
        "type": "Point",
        "coordinates": [
          -122.39275232566327,
          37.77721812889229
        ]
      },
      "properties": {
        "speed": 9.708526593133843
      }
    },
    {
      "type": "Feature",
      "geometry": {
        "type": "Point",
        "coordinates": [
          -122.39250122353694,
          37.77866300156872
        ]
      },
      "properties": {
        "speed": 0.03133766499691881
      }
    },
    {
      "type": "Feature",
      "geometry": {
        "type": "Point",
        "coordinates": [
          -122.39570070557693,
          37.781270302517065
        ]
      },
      "properties": {
        "speed": 7.020678247367063
      }
    },
    {
      "type": "Feature",
      "geometry": {
        "type": "Point",
        "coordinates": [
          -122.39098847206745,
          37.78592386961918
        ]
      },
      "properties": {
        "speed": 4.5847582315816995
      }
    },
    {
      "type": "Feature",
      "geometry": {
        "type": "Point",
        "coordinates": [
          -122.37924505175883,
          37.79679075122091
        ]
      },
      "properties": {
        "speed": 19.20619131659741
      }
    },
    {
      "type": "Feature",
      "geometry": {
        "type": "Point",
        "coordinates": [
          -122.36332511421595,
          37.81167468800915
        ]
      },
      "properties": {
        "speed": 22.861871007825144
      }
    },
    {
      "type": "Feature",
      "geometry": {
        "type": "Point",
        "coordinates": [
          -122.33827378045677,
          37.820477659914246
        ]
      },
      "properties": {
        "speed": 26.622926332940516
      }
    },
    {
      "type": "Feature",
      "geometry": {
        "type": "Point",
        "coordinates": [
          -122.30930208477788,
          37.824529245314444
        ]
      },
      "properties": {
        "speed": 26.98838839347607
      }
    },
    {
      "type": "Feature",
      "geometry": {
        "type": "Point",
        "coordinates": [
          -122.29539060147107,
          37.83579350445097
        ]
      },
      "properties": {
        "speed": 24.541752299594595
      }
    },
    {
      "type": "Feature",
      "geometry": {
        "type": "Point",
        "coordinates": [
          -122.29875797904309,
          37.84896053654838
        ]
      },
      "properties": {
        "speed": 10.853898895658778
      }
    },
    {
      "type": "Feature",
      "geometry": {
        "type": "Point",
        "coordinates": [
          -122.30235710880358,
          37.86233071892189
        ]
      },
      "properties": {
        "speed": 12.66945723819586
      }
    },
    {
      "type": "Feature",
      "geometry": {
        "type": "Point",
        "coordinates": [
          -122.30718299817676,
          37.87823419786482
        ]
      },
      "properties": {
        "speed": 22.358951981289735
      }
    },
    {
      "type": "Feature",
      "geometry": {
        "type": "Point",
        "coordinates": [
          -122.31029775896539,
          37.90040645635414
        ]
      },
      "properties": {
        "speed": 22.04182045305826
      }
    },
    {
      "type": "Feature",
      "geometry": {
        "type": "Point",
        "coordinates": [
          -122.31795505920674,
          37.92134941163773
        ]
      },
      "properties": {
        "speed": 27.22615308316475
      }
    },
    {
      "type": "Feature",
      "geometry": {
        "type": "Point",
        "coordinates": [
          -122.32391478445832,
          37.941447977649645
        ]
      },
      "properties": {
        "speed": 24.908953077154287
      }
    },
    {
      "type": "Feature",
      "geometry": {
        "type": "Point",
        "coordinates": [
          -122.3277073087945,
          37.96322527211852
        ]
      },
      "properties": {
        "speed": 26.96650398420314
      }
    },
    {
      "type": "Feature",
      "geometry": {
        "type": "Point",
        "coordinates": [
          -122.31538496621172,
          37.98483227812204
        ]
      },
      "properties": {
        "speed": 30.701282825389093
      }
    },
    {
      "type": "Feature",
      "geometry": {
        "type": "Point",
        "coordinates": [
          -122.28841766886823,
          37.995631323696756
        ]
      },
      "properties": {
        "speed": 28.660522255975735
      }
    },
    {
      "type": "Feature",
      "geometry": {
        "type": "Point",
        "coordinates": [
          -122.2686369312571,
          38.01571029209014
        ]
      },
      "properties": {
        "speed": 28.108431138765702
      }
    },
    {
      "type": "Feature",
      "geometry": {
        "type": "Point",
        "coordinates": [
          -122.24967374468895,
          38.03607350890224
        ]
      },
      "properties": {
        "speed": 25.40508981807525
      }
    },
    {
      "type": "Feature",
      "geometry": {
        "type": "Point",
        "coordinates": [
          -122.227686006655,
          38.05237233941326
        ]
      },
      "properties": {
        "speed": 22.77649545658211
      }
    },
    {
      "type": "Feature",
      "geometry": {
        "type": "Point",
        "coordinates": [
          -122.22660955126725,
          38.06899170564473
        ]
      },
      "properties": {
        "speed": 0.6966915031484601
      }
    },
    {
      "type": "Feature",
      "geometry": {
        "type": "Point",
        "coordinates": [
          -122.23265354383183,
          38.085790673893825
        ]
      },
      "properties": {
        "speed": 27.07340414398731
      }
    },
    {
      "type": "Feature",
      "geometry": {
        "type": "Point",
        "coordinates": [
          -122.22953896735247,
          38.10900537949086
        ]
      },
      "properties": {
        "speed": 27.151395130846005
      }
    },
    {
      "type": "Feature",
      "geometry": {
        "type": "Point",
        "coordinates": [
          -122.2234114885256,
          38.13359325710911
        ]
      },
      "properties": {
        "speed": 30.323997639272985
      }
    },
    {
      "type": "Feature",
      "geometry": {
        "type": "Point",
        "coordinates": [
          -122.2128616958564,
          38.157542817471644
        ]
      },
      "properties": {
        "speed": 29.126621544817525
      }
    },
    {
      "type": "Feature",
      "geometry": {
        "type": "Point",
        "coordinates": [
          -122.19093585741149,
          38.17681629510669
        ]
      },
      "properties": {
        "speed": 28.221861695368347
      }
    },
    {
      "type": "Feature",
      "geometry": {
        "type": "Point",
        "coordinates": [
          -122.16634889367626,
          38.193300789279114
        ]
      },
      "properties": {
        "speed": 28.979673883868976
      }
    },
    {
      "type": "Feature",
      "geometry": {
        "type": "Point",
        "coordinates": [
          -122.14418081705671,
          38.212180177565564
        ]
      },
      "properties": {
        "speed": 28.584028134391737
      }
    },
    {
      "type": "Feature",
      "geometry": {
        "type": "Point",
        "coordinates": [
          -122.11615272696712,
          38.22953686561905
        ]
      },
      "properties": {
        "speed": 33.52782618944462
      }
    },
    {
      "type": "Feature",
      "geometry": {
        "type": "Point",
        "coordinates": [
          -122.08409029326842,
          38.24345624869797
        ]
      },
      "properties": {
        "speed": 29.010057852642724
      }
    },
    {
      "type": "Feature",
      "geometry": {
        "type": "Point",
        "coordinates": [
          -122.05878592777405,
          38.26249796916095
        ]
      },
      "properties": {
        "speed": 31.766630760423826
      }
    },
    {
      "type": "Feature",
      "geometry": {
        "type": "Point",
        "coordinates": [
          -122.03866727648854,
          38.286197245781246
        ]
      },
      "properties": {
        "speed": 31.01208052601822
      }
    },
    {
      "type": "Feature",
      "geometry": {
        "type": "Point",
        "coordinates": [
          -122.03251473818906,
          38.31355718456979
        ]
      },
      "properties": {
        "speed": 32.89597303513893
      }
    },
    {
      "type": "Feature",
      "geometry": {
        "type": "Point",
        "coordinates": [
          -122.01453581151996,
          38.33902233548858
        ]
      },
      "properties": {
        "speed": 33.6845900019011
      }
    },
    {
      "type": "Feature",
      "geometry": {
        "type": "Point",
        "coordinates": [
          -121.98116915600086,
          38.352522083727045
        ]
      },
      "properties": {
        "speed": 33.38504071304103
      }
    },
    {
      "type": "Feature",
      "geometry": {
        "type": "Point",
        "coordinates": [
          -121.95418617219276,
          38.37242044307586
        ]
      },
      "properties": {
        "speed": 31.097553672039744
      }
    },
    {
      "type": "Feature",
      "geometry": {
        "type": "Point",
        "coordinates": [
          -121.92827038703786,
          38.3923775674222
        ]
      },
      "properties": {
        "speed": 31.79899848739013
      }
    },
    {
      "type": "Feature",
      "geometry": {
        "type": "Point",
        "coordinates": [
          -121.90214239781527,
          38.41249070039901
        ]
      },
      "properties": {
        "speed": 33.85994504175731
      }
    },
    {
      "type": "Feature",
      "geometry": {
        "type": "Point",
        "coordinates": [
          -121.87568030042591,
          38.43266195281947
        ]
      },
      "properties": {
        "speed": 32.10418738489197
      }
    },
    {
      "type": "Feature",
      "geometry": {
        "type": "Point",
        "coordinates": [
          -121.84973044712227,
          38.45270312820313
        ]
      },
      "properties": {
        "speed": 31.723467238218714
      }
    },
    {
      "type": "Feature",
      "geometry": {
        "type": "Point",
        "coordinates": [
          -121.82396208362496,
          38.47277227132393
        ]
      },
      "properties": {
        "speed": 31.08228836383293
      }
    },
    {
      "type": "Feature",
      "geometry": {
        "type": "Point",
        "coordinates": [
          -121.79859401379403,
          38.49318465759405
        ]
      },
      "properties": {
        "speed": 32.0212014107351
      }
    },
    {
      "type": "Feature",
      "geometry": {
        "type": "Point",
        "coordinates": [
          -121.77375873644593,
          38.51601222711538
        ]
      },
      "properties": {
        "speed": 32.24596168345194
      }
    },
    {
      "type": "Feature",
      "geometry": {
        "type": "Point",
        "coordinates": [
          -121.76801288566352,
          38.54457476538482
        ]
      },
      "properties": {
        "speed": 33.19739470537622
      }
    }
  ]
}