{
  "type": "FeatureCollection",
  "features": [
    {
      "type": "Feature",
      "geometry": {
        "type": "Point",
        "coordinates": [
          -122.47248730331756,
          37.77232935486834
        ]
      },
      "properties": {
        "speed": 13.151862626858138
      }
    },
    {
      "type": "Feature",
      "geometry": {
        "type": "Point",
        "coordinates": [
          -122.47231497121183,
          37.78129471226478
        ]
      },
      "properties": {
        "speed": 14.962229279520614
      }
    },
    {
      "type": "Feature",
      "geometry": {
        "type": "Point",
        "coordinates": [
          -122.45912538242908,
          37.74045248237234
        ]
      },
      "properties": {
        "speed": 0
      }
    },
    {
      "type": "Feature",
      "geometry": {
        "type": "Point",
        "coordinates": [
          -122.44536181601038,
          37.746948402857434
        ]
      },
      "properties": {
        "speed": 0.22783253471754858
      }
    },
    {
      "type": "Feature",
      "geometry": {
        "type": "Point",
        "coordinates": [
          -122.4414712502711,
          37.755245348353355
        ]
      },
      "properties": {
        "speed": 15.367879116051547
      }
    },
    {
      "type": "Feature",
      "geometry": {
        "type": "Point",
        "coordinates": [
          -122.44636734331382,
          37.76107591854626
        ]
      },
      "properties": {
        "speed": 8.092848135192435
      }
    },
    {
      "type": "Feature",
      "geometry": {
        "type": "Point",
        "coordinates": [
          -122.4466838880542,
          37.768669384531535
        ]
      },
      "properties": {
        "speed": 9.213092629553728
      }
    },
    {
      "type": "Feature",
      "geometry": {
        "type": "Point",
        "coordinates": [
          -122.44568317818731,
          37.77229348843473
        ]
      },
      "properties": {
        "speed": 4.726902635392239
      }
    },
    {
      "type": "Feature",
      "geometry": {
        "type": "Point",
        "coordinates": [
          -122.44672254064517,
          37.77723709884577
        ]
      },
      "properties": {
        "speed": 5.612759301719439
      }
    },
    {
      "type": "Feature",
      "geometry": {
        "type": "Point",
        "coordinates": [
          -122.44742053644977,
          37.782044151501296
        ]
      },
      "properties": {
        "speed": 0.4398677638658881
      }
    },
    {
      "type": "Feature",
      "geometry": {
        "type": "Point",
        "coordinates": [
          -122.44671887009818,
          37.78530429489568
        ]
      },
      "properties": {
        "speed": 0
      }
    },
    {
      "type": "Feature",
      "geometry": {
        "type": "Point",
        "coordinates": [
          -122.44205522361517,
          37.785009182906286
        ]
      },
      "properties": {
        "speed": 4.379470067284254
      }
    },
    {
      "type": "Feature",
      "geometry": {
        "type": "Point",
        "coordinates": [
          -122.44188291102707,
          37.786726570057766
        ]
      },
      "properties": {
        "speed": 1.5436408139847033
      }
    },
    {
      "type": "Feature",
      "geometry": {
        "type": "Point",
        "coordinates": [
          -122.44342440280215,
          37.78635037724623
        ]
      },
      "properties": {
        "speed": 3.181546767857647
      }
    },
    {
      "type": "Feature",
      "geometry": {
        "type": "Point",
        "coordinates": [
          -122.47135065205532,
          37.73953028657498
        ]
      },
      "properties": {
        "speed": 10.052707230948362
      }
    },
    {
      "type": "Feature",
      "geometry": {
        "type": "Point",
        "coordinates": [
          -122.47552074856209,
          37.7429586816142
        ]
      },
      "properties": {
        "speed": 10.015473943907644
      }
    },
    {
      "type": "Feature",
      "geometry": {
        "type": "Point",
        "coordinates": [
          -122.4760195457133,
          37.749646612157335
        ]
      },
      "properties": {
        "speed": 11.531446606803183
      }
    },
    {
      "type": "Feature",
      "geometry": {
        "type": "Point",
        "coordinates": [
          -122.47669401675316,
          37.75955101824556
        ]
      },
      "properties": {
        "speed": 4.2933143976629635
      }
    },
    {
      "type": "Feature",
      "geometry": {
        "type": "Point",
        "coordinates": [
          -122.47716889032675,
          37.76502254782726
        ]
      },
      "properties": {
        "speed": 6.6017831223440355
      }
    },
    {
      "type": "Feature",
      "geometry": {
        "type": "Point",
        "coordinates": [
          -122.47201388955861,
          37.77246271140383
        ]
      },
      "properties": {
        "speed": 13.080311371876451
      }
    },
    {
      "type": "Feature",
      "geometry": {
        "type": "Point",
        "coordinates": [
          -122.46533606027316,
          37.77337257654152
        ]
      },
      "properties": {
        "speed": 14.088110249525108
      }
    },
    {
      "type": "Feature",
      "geometry": {
        "type": "Point",
        "coordinates": [
          -122.45980325625138,
          37.778348722344056
        ]
      },
      "properties": {
        "speed": 11.482649144089837
      }
    },
    {
      "type": "Feature",
      "geometry": {
        "type": "Point",
        "coordinates": [
          -122.46116739314081,
          37.783028325028
        ]
      },
      "properties": {
        "speed": 1.6407839565659987
      }
    }
  ]
}