{
  "type": "FeatureCollection",
  "features": [
    {
      "type": "Feature",
      "geometry": {
        "type": "Point",
        "coordinates": [
          -122.40623055896292,
          37.76583928052676
        ]
      },
      "properties": {
        "speed": 1.2126831368822242
      }
    },
    {
      "type": "Feature",
      "geometry": {
        "type": "Point",
        "coordinates": [
          -122.40732496590027,
          37.765826018199455
        ]
      },
      "properties": {
        "speed": 0
      }
    },
    {
      "type": "Feature",
      "geometry": {
        "type": "Point",
        "coordinates": [
          -122.40799991790162,
          37.765630009401285
        ]
      },
      "properties": {
        "speed": 0.8417727571810523
      }
    },
    {
      "type": "Feature",
      "geometry": {
        "type": "Point",
        "coordinates": [
          -122.39685576836148,
          37.7638318134942
        ]
      },
      "properties": {
        "speed": 1.0927347001895844
      }
    },
    {
      "type": "Feature",
      "geometry": {
        "type": "Point",
        "coordinates": [
          -122.39226777976074,
          37.755054265301936
        ]
      },
      "properties": {
        "speed": 31.4453065788043
      }
    },
    {
      "type": "Feature",
      "geometry": {
        "type": "Point",
        "coordinates": [
          -122.40387705577649,
          37.730679685673465
        ]
      },
      "properties": {
        "speed": 28.6657469827278
      }
    },
    {
      "type": "Feature",
      "geometry": {
        "type": "Point",
        "coordinates": [
          -122.39395707138661,
          37.70353430781099
        ]
      },
      "properties": {
        "speed": 31.36983275063983
      }
    },
    {
      "type": "Feature",
      "geometry": {
        "type": "Point",
        "coordinates": [
          -122.39037148081373,
          37.67304841743175
        ]
      },
      "properties": {
        "speed": 34.79103091402151
      }
    },
    {
      "type": "Feature",
      "geometry": {
        "type": "Point",
        "coordinates": [
          -122.40679580350726,
          37.64871357562198
        ]
      },
      "properties": {
        "speed": 28.40058021845015
      }
    },
    {
      "type": "Feature",
      "geometry": {
        "type": "Point",
        "coordinates": [
          -122.4009888564901,
          37.62247437218515
        ]
      },
      "properties": {
        "speed": 30.53009221832344
      }
    },
    {
      "type": "Feature",
      "geometry": {
        "type": "Point",
        "coordinates": [
          -122.39141795666481,
          37.61471427192642
        ]
      },
      "properties": {
        "speed": 10.177122845583474
      }
    },
    {
      "type": "Feature",
      "geometry": {
        "type": "Point",
        "coordinates": [
          -122.3922365317997,
          37.615305943220555
        ]
      },
      "properties": {
        "speed": 11.75915200828429
      }
    },
    {
      "type": "Feature",
      "geometry": {
        "type": "Point",
        "coordinates": [
          -122.402080248866,
          37.630996207982456
        ]
      },
      "properties": {
        "speed": 27.734949636979835
      }
    },
    {
      "type": "Feature",
      "geometry": {
        "type": "Point",
        "coordinates": [
          -122.4061095203877,
          37.65700962066105
        ]
      },
      "properties": {
        "speed": 31.787404841064852
      }
    },
    {
      "type": "Feature",
      "geometry": {
        "type": "Point",
        "coordinates": [
          -122.38852201245355,
          37.680121542411136
        ]
      },
      "properties": {
        "speed": 31.291379172048913
      }
    },
    {
      "type": "Feature",
      "geometry": {
        "type": "Point",
        "coordinates": [
          -122.39486835559548,
          37.70809437984873
        ]
      },
      "properties": {
        "speed": 31.30820478925081
      }
    },
    {
      "type": "Feature",
      "geometry": {
        "type": "Point",
        "coordinates": [
          -122.40492070924806,
          37.73243007964182
        ]
      },
      "properties": {
        "speed": 31.91501423910668
      }
    },
    {
      "type": "Feature",
      "geometry": {
        "type": "Point",
        "coordinates": [
          -122.4056372812083,
          37.73864488266988
        ]
      },
      "properties": {
        "speed": 8.288849022538047
      }
    },
    {
      "type": "Feature",
      "geometry": {
        "type": "Point",
        "coordinates": [
          -121.75866129658944,
          38.55283134826804
        ]
      },
      "properties": {
        "speed": 14.015380293609464
      }
    },
    {
      "type": "Feature",
      "geometry": {
        "type": "Point",
        "coordinates": [
          -121.69406233163224,
          38.560746580146976
        ]
      },
      "properties": {
        "speed": 22.078089130670072
      }
    },
    {
      "type": "Feature",
      "geometry": {
        "type": "Point",
        "coordinates": [
          -121.71264497885521,
          38.56395774974651
        ]
      },
      "properties": {
        "speed": 19.467192100663215
      }
    },
    {
      "type": "Feature",
      "geometry": {
        "type": "Point",
        "coordinates": [
          -121.72780307867669,
          38.562596567417565
        ]
      },
      "properties": {
        "speed": 16.065353604395586
      }
    },
    {
      "type": "Feature",
      "geometry": {
        "type": "Point",
        "coordinates": [
          -121.73952837251541,
          38.56067242809497
        ]
      },
      "properties": {
        "speed": 15.825070442433216
      }
    },
    {
      "type": "Feature",
      "geometry": {
        "type": "Point",
        "coordinates": [
          -121.75183749935769,
          38.56086993026151
        ]
      },
      "properties": {
        "speed": 4.509181635495893
      }
    },
    {
      "type": "Feature",
      "geometry": {
        "type": "Point",
        "coordinates": [
          -122.49152130676613,
          37.68966703465996
        ]
      },
      "properties": {
        "speed": 5.679735034302612
      }
    },
    {
      "type": "Feature",
      "geometry": {
        "type": "Point",
        "coordinates": [
          -122.48927342358867,
          37.68604874295083
        ]
      },
      "properties": {
        "speed": 22.799427998809495
      }
    },
    {
      "type": "Feature",
      "geometry": {
        "type": "Point",
        "coordinates": [
          -122.49031041545301,
          37.678298169270526
        ]
      },
      "properties": {
        "speed": 22.94380685049787
      }
    },
    {
      "type": "Feature",
      "geometry": {
        "type": "Point",
        "coordinates": [
          -122.47750636722184,
          37.67075113681977
        ]
      },
      "properties": {
        "speed": 32.206677539871286
      }
    },
    {
      "type": "Feature",
      "geometry": {
        "type": "Point",
        "coordinates": [
          -122.46582764250427,
          37.664171916287415
        ]
      },
      "properties": {
        "speed": 25.535600520182864
      }
    },
    {
      "type": "Feature",
      "geometry": {
        "type": "Point",
        "coordinates": [
          -122.44946106228491,
          37.64507414063166
        ]
      },
      "properties": {
        "speed": 31.44051105774662
      }
    },
    {
      "type": "Feature",
      "geometry": {
        "type": "Point",
        "coordinates": [
          -122.42679027596476,
          37.6218284142647
        ]
      },
      "properties": {
        "speed": 35.47712098225435
      }
    },
    {
      "type": "Feature",
      "geometry": {
        "type": "Point",
        "coordinates": [
          -122.41893126312081,
          37.595676567773864
        ]
      },
      "properties": {
        "speed": 33.128471336780116
      }
    },
    {
      "type": "Feature",
      "geometry": {
        "type": "Point",
        "coordinates": [
          -122.39718952888276,
          37.57098180170244
        ]
      },
      "properties": {
        "speed": 33.122022008440645
      }
    },
    {
      "type": "Feature",
      "geometry": {
        "type": "Point",
        "coordinates": [
          -122.37367650537692,
          37.54849801314921
        ]
      },
      "properties": {
        "speed": 35.17786354092671
      }
    },
    {
      "type": "Feature",
      "geometry": {
        "type": "Point",
        "coordinates": [
          -122.35547027461955,
          37.521899576727584
        ]
      },
      "properties": {
        "speed": 33.009529409233444
      }
    },
    {
      "type": "Feature",
      "geometry": {
        "type": "Point",
        "coordinates": [
          -122.32828993466465,
          37.50088528431822
        ]
      },
      "properties": {
        "speed": 34.92191843212601
      }
    },
    {
      "type": "Feature",
      "geometry": {
        "type": "Point",
        "coordinates": [
          -122.29859837952375,
          37.485435327624906
        ]
      },
      "properties": {
        "speed": 33.46142038289611
      }
    },
    {
      "type": "Feature",
      "geometry": {
        "type": "Point",
        "coordinates": [
          -122.28823919197728,
          37.45666417031441
        ]
      },
      "properties": {
        "speed": 34.38099752941058
      }
    },
    {
      "type": "Feature",
      "geometry": {
        "type": "Point",
        "coordinates": [
          -122.25498333351351,
          37.44361652978655
        ]
      },
      "properties": {
        "speed": 34.69920097713815
      }
    },
    {
      "type": "Feature",
      "geometry": {
        "type": "Point",
        "coordinates": [
          -122.22650576251408,
          37.42262354292198
        ]
      },
      "properties": {
        "speed": 34.06733216690738
      }
    },
    {
      "type": "Feature",
      "geometry": {
        "type": "Point",
        "coordinates": [
          -122.19267450684407,
          37.40833702259764
        ]
      },
      "properties": {
        "speed": 33.99584988259874
      }
    },
    {
      "type": "Feature",
      "geometry": {
        "type": "Point",
        "coordinates": [
          -122.16592073641247,
          37.39076498393579
        ]
      },
      "properties": {
        "speed": 22.552061099263295
      }
    },
    {
      "type": "Feature",
      "geometry": {
        "type": "Point",
        "coordinates": [
          -122.15770732947665,
          37.397259621966796
        ]
      },
      "properties": {
        "speed": 10.168672710309544
      }
    },
    {
      "type": "Feature",
      "geometry": {
        "type": "Point",
        "coordinates": [
          -122.14236336453371,
          37.394983047253476
        ]
      },
      "properties": {
        "speed": 15.323411518235336
      }
    },
    {
      "type": "Feature",
      "geometry": {
        "type": "Point",
        "coordinates": [
          -121.7611633492562,
          38.56210388272733
        ]
      },
      "properties": {
        "speed": 0
      }
    },
    {
      "type": "Feature",
      "geometry": {
        "type": "Point",
        "coordinates": [
          -121.76326061204301,
          38.561934327196866
        ]
      },
      "properties": {
        "speed": 9.384540774117367
      }
    },
    {
      "type": "Feature",
      "geometry": {
        "type": "Point",
        "coordinates": [
          -121.76810085818137,
          38.5553837761264
        ]
      },
      "properties": {
        "speed": 25.215989148773094
      }
    },
    {
      "type": "Feature",
      "geometry": {
        "type": "Point",
        "coordinates": [
          -121.7688117812847,
          38.5299049149711
        ]
      },
      "properties": {
        "speed": 24.950295134241614
      }
    },
    {
      "type": "Feature",
      "geometry": {
        "type": "Point",
        "coordinates": [
          -121.78134303467846,
          38.50972826439626
        ]
      },
      "properties": {
        "speed": 14.717239626659694
      }
    },
    {
      "type": "Feature",
      "geometry": {
        "type": "Point",
        "coordinates": [
          -121.78829739301553,
          38.50322409955955
        ]
      },
      "properties": {
        "speed": 6.817503434262149
      }
    },
    {
      "type": "Feature",
      "geometry": {
        "type": "Point",
        "coordinates": [
          -121.79250429130619,
          38.499326880281046
        ]
      },
      "properties": {
        "speed": 5.782665127435619
      }
    },
    {
      "type": "Feature",
      "geometry": {
        "type": "Point",
        "coordinates": [
          -121.80153646061491,
          38.4907883834548
        ]
      },
      "properties": {
        "speed": 14.960438946060101
      }
    },
    {
      "type": "Feature",
      "geometry": {
        "type": "Point",
        "coordinates": [
          -121.81688561718279,
          38.47862667877866
        ]
      },
      "properties": {
        "speed": 18.650451191907912
      }
    },
    {
      "type": "Feature",
      "geometry": {
        "type": "Point",
        "coordinates": [
          -121.8341905261277,
          38.46512644404913
        ]
      },
      "properties": {
        "speed": 26.201047823478344
      }
    },
    {
      "type": "Feature",
      "geometry": {
        "type": "Point",
        "coordinates": [
          -121.84946749261061,
          38.453188289083414
        ]
      },
      "properties": {
        "speed": 15.204051888869063
      }
    },
    {
      "type": "Feature",
      "geometry": {
        "type": "Point",
        "coordinates": [
          -121.85954104403282,
          38.445357721465086
        ]
      },
      "properties": {
        "speed": 5.962360980480431
      }
    },
    {
      "type": "Feature",
      "geometry": {
        "type": "Point",
        "coordinates": [
          -121.87250594593168,
          38.43534602207018
        ]
      },
      "properties": {
        "speed": 19.235027902507493
      }
    },
    {
      "type": "Feature",
      "geometry": {
        "type": "Point",
        "coordinates": [
          -121.8830253856269,
          38.42734365661184
        ]
      },
      "properties": {
        "speed": 7.2024609854343025
      }
    },
    {
      "type": "Feature",
      "geometry": {
        "type": "Point",
        "coordinates": [
          -121.8997509346932,
          38.414635807081936
        ]
      },
      "properties": {
        "speed": 28.80946204179914
      }
    },
    {
      "type": "Feature",
      "geometry": {
        "type": "Point",
        "coordinates": [
          -121.92561226913634,
          38.39474396282827
        ]
      },
      "properties": {
        "speed": 33.37295932930069
      }
    },
    {
      "type": "Feature",
      "geometry": {
        "type": "Point",
        "coordinates": [
          -121.95273705067719,
          38.374087949365986
        ]
      },
      "properties": {
        "speed": 33.299888541567384
      }
    },
    {
      "type": "Feature",
      "geometry": {
        "type": "Point",
        "coordinates": [
          -121.9779675916748,
          38.35509116081123
        ]
      },
      "properties": {
        "speed": 27.953640479922246
      }
    },
    {
      "type": "Feature",
      "geometry": {
        "type": "Point",
        "coordinates": [
          -121.99790779640912,
          38.34619735261716
        ]
      },
      "properties": {
        "speed": 15.970478398665295
      }
    },
    {
      "type": "Feature",
      "geometry": {
        "type": "Point",
        "coordinates": [
          -122.01991222308392,
          38.33182205636401
        ]
      },
      "properties": {
        "speed": 30.677897851942635
      }
    },
    {
      "type": "Feature",
      "geometry": {
        "type": "Point",
        "coordinates": [
          -122.03396437899039,
          38.30618870049902
        ]
      },
      "properties": {
        "speed": 29.77635038748371
      }
    },
    {
      "type": "Feature",
      "geometry": {
        "type": "Point",
        "coordinates": [
          -122.04411993588045,
          38.28019485940582
        ]
      },
      "properties": {
        "speed": 31.822838319654323
      }
    },
    {
      "type": "Feature",
      "geometry": {
        "type": "Point",
        "coordinates": [
          -122.06350348842757,
          38.25732109588705
        ]
      },
      "properties": {
        "speed": 28.13434709933103
      }
    },
    {
      "type": "Feature",
      "geometry": {
        "type": "Point",
        "coordinates": [
          -122.0880670101304,
          38.241924570802865
        ]
      },
      "properties": {
        "speed": 31.86115671381304
      }
    },
    {
      "type": "Feature",
      "geometry": {
        "type": "Point",
        "coordinates": [
          -122.11815989481684,
          38.22881972883634
        ]
      },
      "properties": {
        "speed": 30.669735102695316
      }
    },
    {
      "type": "Feature",
      "geometry": {
        "type": "Point",
        "coordinates": [
          -122.1451039019631,
          38.21209007974094
        ]
      },
      "properties": {
        "speed": 28.67898705374106
      }
    },
    {
      "type": "Feature",
      "geometry": {
        "type": "Point",
        "coordinates": [
          -122.16783246668722,
          38.19215389774225
        ]
      },
      "properties": {
        "speed": 29.79946771795087
      }
    },
    {
      "type": "Feature",
      "geometry": {
        "type": "Point",
        "coordinates": [
          -122.19380824074071,
          38.174147625163435
        ]
      },
      "properties": {
        "speed": 30.05774810745981
      }
    },
    {
      "type": "Feature",
      "geometry": {
        "type": "Point",
        "coordinates": [
          -122.21648862648748,
          38.15223305390096
        ]
      },
      "properties": {
        "speed": 33.88111481899238
      }
    },
    {
      "type": "Feature",
      "geometry": {
        "type": "Point",
        "coordinates": [
          -122.2283928449872,
          38.126278916841834
        ]
      },
      "properties": {
        "speed": 26.21068872769271
      }
    },
    {
      "type": "Feature",
      "geometry": {
        "type": "Point",
        "coordinates": [
          -122.22987892152622,
          38.099993392081004
        ]
      },
      "properties": {
        "speed": 30.02044453316009
      }
    },
    {
      "type": "Feature",
      "geometry": {
        "type": "Point",
        "coordinates": [
          -122.23156352764249,
          38.075562004453914
        ]
      },
      "properties": {
        "speed": 26.807082098054973
      }
    },
    {
      "type": "Feature",
      "geometry": {
        "type": "Point",
        "coordinates": [
          -122.22886845227701,
          38.052100086444966
        ]
      },
      "properties": {
        "speed": 27.921691621114007
      }
    },
    {
      "type": "Feature",
      "geometry": {
        "type": "Point",
        "coordinates": [
          -122.2527098452542,
          38.033171302423625
        ]
      },
      "properties": {
        "speed": 31.324252561129402
      }
    },
    {
      "type": "Feature",
      "geometry": {
        "type": "Point",
        "coordinates": [
          -122.27387813223899,
          38.010389663770795
        ]
      },
      "properties": {
        "speed": 31.582081074758698
      }
    },
    {
      "type": "Feature",
      "geometry": {
        "type": "Point",
        "coordinates": [
          -122.29616429773414,
          37.994282649434595
        ]
      },
      "properties": {
        "speed": 27.26534615274526
      }
    },
    {
      "type": "Feature",
      "geometry": {
        "type": "Point",
        "coordinates": [
          -122.31810111643385,
          37.97749610852484
        ]
      },
      "properties": {
        "speed": 31.07163137006584
      }
    },
    {
      "type": "Feature",
      "geometry": {
        "type": "Point",
        "coordinates": [
          -122.32857096594262,
          37.953519076395665
        ]
      },
      "properties": {
        "speed": 31.600201137636027
      }
    },
    {
      "type": "Feature",
      "geometry": {
        "type": "Point",
        "coordinates": [
          -122.32271132970185,
          37.92773250511312
        ]
      },
      "properties": {
        "speed": 30.758628071852858
      }
    },
    {
      "type": "Feature",
      "geometry": {
        "type": "Point",
        "coordinates": [
          -122.31264318407032,
          37.90343369902525
        ]
      },
      "properties": {
        "speed": 28.794114537893357
      }
    },
    {
      "type": "Feature",
      "geometry": {
        "type": "Point",
        "coordinates": [
          -122.30869105438073,
          37.883694753402786
        ]
      },
      "properties": {
        "speed": 13.977349339810605
      }
    },
    {
      "type": "Feature",
      "geometry": {
        "type": "Point",
        "coordinates": [
          -122.30718282029541,
          37.87724747961292
        ]
      },
      "properties": {
        "speed": 6.250766421372256
      }
    },
    {
      "type": "Feature",
      "geometry": {
        "type": "Point",
        "coordinates": [
          -122.30414865637468,
          37.86749751547539
        ]
      },
      "properties": {
        "speed": 18.209323582215678
      }
    },
    {
      "type": "Feature",
      "geometry": {
        "type": "Point",
        "coordinates": [
          -122.30091678737548,
          37.85599635594879
        ]
      },
      "properties": {
        "speed": 10.874603285294736
      }
    },
    {
      "type": "Feature",
      "geometry": {
        "type": "Point",
        "coordinates": [
          -122.29788126002852,
          37.843580772787476
        ]
      },
      "properties": {
        "speed": 10.874091906381604
      }
    },
    {
      "type": "Feature",
      "geometry": {
        "type": "Point",
        "coordinates": [
          -122.29561705731835,
          37.83499815692771
        ]
      },
      "properties": {
        "speed": 16.40127916571121
      }
    },
    {
      "type": "Feature",
      "geometry": {
        "type": "Point",
        "coordinates": [
          -122.31246067676635,
          37.82478583963748
        ]
      },
      "properties": {
        "speed": 20.119267782425478
      }
    },
    {
      "type": "Feature",
      "geometry": {
        "type": "Point",
        "coordinates": [
          -122.33106709729839,
          37.82187402219758
        ]
      },
      "properties": {
        "speed": 23.624082649590274
      }
    },
    {
      "type": "Feature",
      "geometry": {
        "type": "Point",
        "coordinates": [
          -122.35510760439693,
          37.81739786683839
        ]
      },
      "properties": {
        "speed": 15.178032421086145
      }
    },
    {
      "type": "Feature",
      "geometry": {
        "type": "Point",
        "coordinates": [
          -122.36828816150049,
          37.80708041036142
        ]
      },
      "properties": {
        "speed": 12.854254128354867
      }
    },
    {
      "type": "Feature",
      "geometry": {
        "type": "Point",
        "coordinates": [
          -122.3763085535699,
          37.79960956284317
        ]
      },
      "properties": {
        "speed": 10.849103468502888
      }
    },
    {
      "type": "Feature",
      "geometry": {
        "type": "Point",
        "coordinates": [
          -122.38524492961405,
          37.79124670299737
        ]
      },
      "properties": {
        "speed": 5.351623273736214
      }
    },
    {
      "type": "Feature",
      "geometry": {
        "type": "Point",
        "coordinates": [
          -122.39353871182003,
          37.78453051774804
        ]
      },
      "properties": {
        "speed": 10.58009754352082
      }
    },
    {
      "type": "Feature",
      "geometry": {
        "type": "Point",
        "coordinates": [
          -122.4014599770606,
          37.77845908342785
        ]
      },
      "properties": {
        "speed": 12.548086538573935
      }
    },
    {
      "type": "Feature",
      "geometry": {
        "type": "Point",
        "coordinates": [
          -122.40516549849418,
          37.76400973718485
        ]
      },
      "properties": {
        "speed": 16.920000076293945
      }
    },
    {
      "type": "Feature",
      "geometry": {
        "type": "Point",
        "coordinates": [
          -122.40544570791239,
          37.744606934877964
        ]
      },
      "properties": {
        "speed": 22.347699613524146
      }
    },
    {
      "type": "Feature",
      "geometry": {
        "type": "Point",
        "coordinates": [
          -122.4230246092128,
          37.73171906561933
        ]
      },
      "properties": {
        "speed": 26.320212968846974
      }
    },
    {
      "type": "Feature",
      "geometry": {
        "type": "Point",
        "coordinates": [
          -122.43266372935821,
          37.732283381126855
        ]
      },
      "properties": {
        "speed": 4.009005695681842
      }
    },
    {
      "type": "Feature",
      "geometry": {
        "type": "Point",
        "coordinates": [
          -122.43538990628072,
          37.731673672231565
        ]
      },
      "properties": {
        "speed": 0
      }
    },
    {
      "type": "Feature",
      "geometry": {
        "type": "Point",
        "coordinates": [
          -122.43630602915904,
          37.731622733016856
        ]
      },
      "properties": {
        "speed": 0.14609333550743867
      }
    },
    {
      "type": "Feature",
      "geometry": {
        "type": "Point",
        "coordinates": [
          -122.44537837224449,
          37.731608063862765
        ]
      },
      "properties": {
        "speed": 15.176780704716073
      }
    },
    {
      "type": "Feature",
      "geometry": {
        "type": "Point",
        "coordinates": [
          -122.45351461143846,
          37.7316199055645
        ]
      },
      "properties": {
        "speed": 7.077554802972553
      }
    },
    {
      "type": "Feature",
      "geometry": {
        "type": "Point",
        "coordinates": [
          -122.46027262630726,
          37.73499382799096
        ]
      },
      "properties": {
        "speed": 13.157009990008296
      }
    },
    {
      "type": "Feature",
      "geometry": {
        "type": "Point",
        "coordinates": [
          -122.44926429030707,
          37.78215765460777
        ]
      },
      "properties": {
        "speed": 11.109954943291898
      }
    },
    {
      "type": "Feature",
      "geometry": {
        "type": "Point",
        "coordinates": [
          -122.44271808285733,
          37.78268968144527
        ]
      },
      "properties": {
        "speed": 0
      }
    }
  ]
}