{
  "type": "FeatureCollection",
  "features": [
    {
      "type": "Feature",
      "geometry": {
        "type": "Point",
        "coordinates": [
          -121.90304206785967,
          38.412070199984385
        ]
      },
      "properties": {
        "speed": 16.81621679974935
      }
    },
    {
      "type": "Feature",
      "geometry": {
        "type": "Point",
        "coordinates": [
          -121.92457306530113,
          38.395553494335786
        ]
      },
      "properties": {
        "speed": 32.398996522267744
      }
    },
    {
      "type": "Feature",
      "geometry": {
        "type": "Point",
        "coordinates": [
          -121.94929635143674,
          38.37678835459555
        ]
      },
      "properties": {
        "speed": 29.34696971714579
      }
    },
    {
      "type": "Feature",
      "geometry": {
        "type": "Point",
        "coordinates": [
          -121.97329336965609,
          38.35922265311178
        ]
      },
      "properties": {
        "speed": 25.89887680490152
      }
    },
    {
      "type": "Feature",
      "geometry": {
        "type": "Point",
        "coordinates": [
          -121.99430460821851,
          38.34758066899393
        ]
      },
      "properties": {
        "speed": 16.848724603973913
      }
    },
    {
      "type": "Feature",
      "geometry": {
        "type": "Point",
        "coordinates": [
          -122.01537211057622,
          38.33850710441697
        ]
      },
      "properties": {
        "speed": 2.0041138340197917
      }
    },
    {
      "type": "Feature",
      "geometry": {
        "type": "Point",
        "coordinates": [
          -122.02332203562513,
          38.32640883134625
        ]
      },
      "properties": {
        "speed": 15.50127019205697
      }
    },
    {
      "type": "Feature",
      "geometry": {
        "type": "Point",
        "coordinates": [
          -122.03367860197325,
          38.3089167924407
        ]
      },
      "properties": {
        "speed": 29.713281955124252
      }
    },
    {
      "type": "Feature",
      "geometry": {
        "type": "Point",
        "coordinates": [
          -122.13128058831389,
          38.22129888418824
        ]
      },
      "properties": {
        "speed": 31.27662125513958
      }
    },
    {
      "type": "Feature",
      "geometry": {
        "type": "Point",
        "coordinates": [
          -122.15748516694808,
          38.201823458524125
        ]
      },
      "properties": {
        "speed": 32.46657227838334
      }
    },
    {
      "type": "Feature",
      "geometry": {
        "type": "Point",
        "coordinates": [
          -122.22599297588013,
          38.129988737316076
        ]
      },
      "properties": {
        "speed": 23.802468667401257
      }
    },
    {
      "type": "Feature",
      "geometry": {
        "type": "Point",
        "coordinates": [
          -122.23040836631051,
          38.119069758747536
        ]
      },
      "properties": {
        "speed": 12.21280448571555
      }
    },
    {
      "type": "Feature",
      "geometry": {
        "type": "Point",
        "coordinates": [
          -121.7437744007751,
          38.55784075276663
        ]
      },
      "properties": {
        "speed": 13.726734161376953
      }
    },
    {
      "type": "Feature",
      "geometry": {
        "type": "Point",
        "coordinates": [
          -122.12767997163566,
          37.41547887193093
        ]
      },
      "properties": {
        "speed": 9.411596576691354
      }
    },
    {
      "type": "Feature",
      "geometry": {
        "type": "Point",
        "coordinates": [
          -122.13742647228874,
          37.420690135309805
        ]
      },
      "properties": {
        "speed": 19.36557066986718
      }
    },
    {
      "type": "Feature",
      "geometry": {
        "type": "Point",
        "coordinates": [
          -122.14180826,
          37.422998892318795
        ]
      },
      "properties": {
        "speed": 0
      }
    },
    {
      "type": "Feature",
      "geometry": {
        "type": "Point",
        "coordinates": [
          -122.14725344868855,
          37.42609723936446
        ]
      },
      "properties": {
        "speed": 16.81498972995259
      }
    },
    {
      "type": "Feature",
      "geometry": {
        "type": "Point",
        "coordinates": [
          -122.15687872559718,
          37.434600095311055
        ]
      },
      "properties": {
        "speed": 20.266682401740173
      }
    },
    {
      "type": "Feature",
      "geometry": {
        "type": "Point",
        "coordinates": [
          -122.1621716720864,
          37.43921541702511
        ]
      },
      "properties": {
        "speed": 15.828537502793726
      }
    }
  ]
}