{
  "type": "FeatureCollection",
  "features": [
    {
      "type": "Feature",
      "geometry": {
        "type": "Point",
        "coordinates": [
          -122.47053751146287,
          37.6922088164085
        ]
      },
      "properties": {
        "speed": 34.68717718023441
      }
    },
    {
      "type": "Feature",
      "geometry": {
        "type": "Point",
        "coordinates": [
          -122.4657154305367,
          37.662494407253185
        ]
      },
      "properties": {
        "speed": 34.33777246231087
      }
    },
    {
      "type": "Feature",
      "geometry": {
        "type": "Point",
        "coordinates": [
          -122.44134378900065,
          37.638648460521566
        ]
      },
      "properties": {
        "speed": 34.665551979759734
      }
    },
    {
      "type": "Feature",
      "geometry": {
        "type": "Point",
        "coordinates": [
          -122.41442572968407,
          37.634180547173564
        ]
      },
      "properties": {
        "speed": 32.41419920836197
      }
    },
    {
      "type": "Feature",
      "geometry": {
        "type": "Point",
        "coordinates": [
          -122.39969578166769,
          37.619704463959756
        ]
      },
      "properties": {
        "speed": 32.323952255803434
      }
    },
    {
      "type": "Feature",
      "geometry": {
        "type": "Point",
        "coordinates": [
          -122.37356726594274,
          37.597942609465676
        ]
      },
      "properties": {
        "speed": 34.55422335248127
      }
    },
    {
      "type": "Feature",
      "geometry": {
        "type": "Point",
        "coordinates": [
          -122.33879432204094,
          37.58680680823611
        ]
      },
      "properties": {
        "speed": 35.05596332463501
      }
    },
    {
      "type": "Feature",
      "geometry": {
        "type": "Point",
        "coordinates": [
          -122.31168791163763,
          37.56849369459333
        ]
      },
      "properties": {
        "speed": 29.758280001718436
      }
    },
    {
      "type": "Feature",
      "geometry": {
        "type": "Point",
        "coordinates": [
          -122.28891236451477,
          37.54539234208293
        ]
      },
      "properties": {
        "speed": 33.74594541343899
      }
    },
    {
      "type": "Feature",
      "geometry": {
        "type": "Point",
        "coordinates": [
          -122.26510588767889,
          37.52168914318944
        ]
      },
      "properties": {
        "speed": 33.880629658841585
      }
    },
    {
      "type": "Feature",
      "geometry": {
        "type": "Point",
        "coordinates": [
          -122.23961492506112,
          37.499186750458776
        ]
      },
      "properties": {
        "speed": 33.988245804887505
      }
    },
    {
      "type": "Feature",
      "geometry": {
        "type": "Point",
        "coordinates": [
          -122.20506876014997,
          37.48733129686182
        ]
      },
      "properties": {
        "speed": 32.80250647743523
      }
    },
    {
      "type": "Feature",
      "geometry": {
        "type": "Point",
        "coordinates": [
          -122.17042328182332,
          37.47758925551777
        ]
      },
      "properties": {
        "speed": 33.65801048733371
      }
    },
    {
      "type": "Feature",
      "geometry": {
        "type": "Point",
        "coordinates": [
          -122.13969245804458,
          37.45960457194274
        ]
      },
      "properties": {
        "speed": 33.92349770775033
      }
    },
    {
      "type": "Feature",
      "geometry": {
        "type": "Point",
        "coordinates": [
          -122.11345005973676,
          37.439467781590565
        ]
      },
      "properties": {
        "speed": 30.673812242853987
      }
    },
    {
      "type": "Feature",
      "geometry": {
        "type": "Point",
        "coordinates": [
          -122.10326162615881,
          37.42193847505916
        ]
      },
      "properties": {
        "speed": 17.613526735403877
      }
    }
  ]
}