{
  "type": "FeatureCollection",
  "features": [
    {
      "type": "Feature",
      "geometry": {
        "type": "Point",
        "coordinates": [
          -122.46773983340502,
          37.737859879870456
        ]
      },
      "properties": {
        "speed": 15.072386284751925
      }
    },
    {
      "type": "Feature",
      "geometry": {
        "type": "Point",
        "coordinates": [
          -122.4711565710382,
          37.73520782533018
        ]
      },
      "properties": {
        "speed": 6.323837191471698
      }
    },
    {
      "type": "Feature",
      "geometry": {
        "type": "Point",
        "coordinates": [
          -122.47190487755232,
          37.73008818062452
        ]
      },
      "properties": {
        "speed": 17.865053140259313
      }
    },
    {
      "type": "Feature",
      "geometry": {
        "type": "Point",
        "coordinates": [
          -122.47246036919972,
          37.719613708272476
        ]
      },
      "properties": {
        "speed": 12.623380760267713
      }
    },
    {
      "type": "Feature",
      "geometry": {
        "type": "Point",
        "coordinates": [
          -122.47263203461361,
          37.71745546376394
        ]
      },
      "properties": {
        "speed": 9.75519683673155
      }
    },
    {
      "type": "Feature",
      "geometry": {
        "type": "Point",
        "coordinates": [
          -122.4709047810041,
          37.69599923773336
        ]
      },
      "properties": {
        "speed": 29.71684521416646
      }
    },
    {
      "type": "Feature",
      "geometry": {
        "type": "Point",
        "coordinates": [
          -122.46727706779185,
          37.67191879395219
        ]
      },
      "properties": {
        "speed": 24.794714234527635
      }
    },
    {
      "type": "Feature",
      "geometry": {
        "type": "Point",
        "coordinates": [
          -122.45202066734709,
          37.64906669867168
        ]
      },
      "properties": {
        "speed": 34.00596006876436
      }
    },
    {
      "type": "Feature",
      "geometry": {
        "type": "Point",
        "coordinates": [
          -122.43118998360383,
          37.627398530484555
        ]
      },
      "properties": {
        "speed": 33.012312276648224
      }
    },
    {
      "type": "Feature",
      "geometry": {
        "type": "Point",
        "coordinates": [
          -122.42586732725684,
          37.60138196585525
        ]
      },
      "properties": {
        "speed": 27.30876122646321
      }
    },
    {
      "type": "Feature",
      "geometry": {
        "type": "Point",
        "coordinates": [
          -122.41402317566005,
          37.591432217110295
        ]
      },
      "properties": {
        "speed": 10.877485593570228
      }
    },
    {
      "type": "Feature",
      "geometry": {
        "type": "Point",
        "coordinates": [
          -122.40642649212379,
          37.59292041704497
        ]
      },
      "properties": {
        "speed": 9.643570748137865
      }
    },
    {
      "type": "Feature",
      "geometry": {
        "type": "Point",
        "coordinates": [
          -122.49312197167787,
          37.761248905627504
        ]
      },
      "properties": {
        "speed": 9.147433958705394
      }
    },
    {
      "type": "Feature",
      "geometry": {
        "type": "Point",
        "coordinates": [
          -122.48485543796193,
          37.76125583959511
        ]
      },
      "properties": {
        "speed": 11.449288326214397
      }
    },
    {
      "type": "Feature",
      "geometry": {
        "type": "Point",
        "coordinates": [
          -122.47752688026557,
          37.76156523408682
        ]
      },
      "properties": {
        "speed": 5.384425136526694
      }
    },
    {
      "type": "Feature",
      "geometry": {
        "type": "Point",
        "coordinates": [
          -122.47230033393042,
          37.76181452818979
        ]
      },
      "properties": {
        "speed": 11.080956069964506
      }
    },
    {
      "type": "Feature",
      "geometry": {
        "type": "Point",
        "coordinates": [
          -122.46631470448001,
          37.76207625108144
        ]
      },
      "properties": {
        "speed": 0
      }
    },
    {
      "type": "Feature",
      "geometry": {
        "type": "Point",
        "coordinates": [
          -122.4652849803801,
          37.764001506564384
        ]
      },
      "properties": {
        "speed": 0.12472570559258812
      }
    },
    {
      "type": "Feature",
      "geometry": {
        "type": "Point",
        "coordinates": [
          -122.46646911993024,
          37.765631942611336
        ]
      },
      "properties": {
        "speed": 0.8369662677373743
      }
    }
  ]
}